29
13
27
86
23
33
67
86
32
36
61
30
71
14
49
25
91
57
57
120
84
95
23
35
29
90
52
117
40
22
5
58
122
104
11
211
50
160
22
27
48
38
30
84
26
52
59
49
95
81
51
56
44
54
22
20
27
126
9
5
63
27
49
40
19
269
69
83
24
72
43
106
65
54
21
122
24
92
51
58
19
109
11
26
76
137
106
66
30
27
140
27
62
44
28
26
10
8
31
48
96
46
85
35
64
149
8
15
19
11
48
42
121
65
198
138
15
65
64
26
34
94
96
65
19
61
37
63
272
117
61
25
9
21
21
9
71
7
20
91
28
27
78
26
53
46
80
5
77
33
161
35
100
62
70
21
87
326
82
100
59
48
32
47
33
47
40
54
259
25
72
104
73
12
112
40
199
83
31
15
68
25
24
23
69
106
48
20
34
59
30
69
30
12
71
46
86
30
25
156
