LEye coords (178.0, 144.0), REye coords (173.0, 121.0), timeStamp: 2017-03-05 12:35:30.236
LEye coords (181.0, 144.0), REye coords (171.0, 119.0), timeStamp: 2017-03-05 12:35:30.271
LEye coords (181.0, 146.0), REye coords (172.0, 121.0), timeStamp: 2017-03-05 12:35:30.306
LEye coords (183.0, 151.0), REye coords (174.0, 120.0), timeStamp: 2017-03-05 12:35:30.339
LEye coords (182.0, 151.0), REye coords (174.0, 119.0), timeStamp: 2017-03-05 12:35:30.382
LEye coords (181.0, 150.0), REye coords (176.0, 127.0), timeStamp: 2017-03-05 12:35:30.416
LEye coords (182.0, 153.0), REye coords (175.0, 125.0), timeStamp: 2017-03-05 12:35:30.450
LEye coords (184.0, 155.0), REye coords (176.0, 130.0), timeStamp: 2017-03-05 12:35:30.493
LEye coords (184.0, 156.0), REye coords (176.0, 129.0), timeStamp: 2017-03-05 12:35:30.527
LEye coords (184.0, 157.0), REye coords (177.0, 133.0), timeStamp: 2017-03-05 12:35:30.560
LEye coords (184.0, 158.0), REye coords (177.0, 135.0), timeStamp: 2017-03-05 12:35:30.604
LEye coords (185.0, 159.0), REye coords (178.0, 138.0), timeStamp: 2017-03-05 12:35:30.639
LEye coords (186.0, 160.0), REye coords (178.0, 136.0), timeStamp: 2017-03-05 12:35:30.672
LEye coords (186.0, 161.0), REye coords (178.0, 136.0), timeStamp: 2017-03-05 12:35:30.714
LEye coords (186.0, 161.0), REye coords (178.0, 135.0), timeStamp: 2017-03-05 12:35:30.748
LEye coords (184.0, 164.0), REye coords (150.0, 191.0), timeStamp: 2017-03-05 12:35:30.792
LEye coords (158.0, 207.0), REye coords (150.0, 207.0), timeStamp: 2017-03-05 12:35:30.827
LEye coords (160.0, 205.0), REye coords (151.0, 204.0), timeStamp: 2017-03-05 12:35:30.861
LEye coords (160.0, 206.0), REye coords (151.0, 205.0), timeStamp: 2017-03-05 12:35:30.894
LEye coords (161.0, 207.0), REye coords (149.0, 204.0), timeStamp: 2017-03-05 12:35:30.938
LEye coords (161.0, 209.0), REye coords (148.0, 207.0), timeStamp: 2017-03-05 12:35:30.971
LEye coords (161.0, 210.0), REye coords (150.0, 210.0), timeStamp: 2017-03-05 12:35:31.004
LEye coords (161.0, 210.0), REye coords (150.0, 210.0), timeStamp: 2017-03-05 12:35:31.048
LEye coords (164.0, 207.0), REye coords (156.0, 204.0), timeStamp: 2017-03-05 12:35:31.082
LEye coords (167.0, 205.0), REye coords (159.0, 202.0), timeStamp: 2017-03-05 12:35:31.115
LEye coords (168.0, 204.0), REye coords (162.0, 200.0), timeStamp: 2017-03-05 12:35:31.159
LEye coords (170.0, 202.0), REye coords (162.0, 199.0), timeStamp: 2017-03-05 12:35:31.194
LEye coords (171.0, 202.0), REye coords (163.0, 198.0), timeStamp: 2017-03-05 12:35:31.227
LEye coords (172.0, 201.0), REye coords (164.0, 197.0), timeStamp: 2017-03-05 12:35:31.272
LEye coords (172.0, 200.0), REye coords (162.0, 197.0), timeStamp: 2017-03-05 12:35:31.306
LEye coords (172.0, 199.0), REye coords (162.0, 197.0), timeStamp: 2017-03-05 12:35:31.340
LEye coords (172.0, 199.0), REye coords (161.0, 197.0), timeStamp: 2017-03-05 12:35:31.384
LEye coords (172.0, 198.0), REye coords (160.0, 197.0), timeStamp: 2017-03-05 12:35:31.418
LEye coords (320.0, 289.0), REye coords (313.0, 281.0), timeStamp: 2017-03-05 12:36:22.638
LEye coords (271.0, 231.0), REye coords (258.0, 228.0), timeStamp: 2017-03-05 12:36:22.672
LEye coords (252.0, 215.0), REye coords (239.0, 213.0), timeStamp: 2017-03-05 12:36:22.717
LEye coords (253.0, 216.0), REye coords (243.0, 206.0), timeStamp: 2017-03-05 12:36:22.750
LEye coords (254.0, 216.0), REye coords (243.0, 204.0), timeStamp: 2017-03-05 12:36:22.784
LEye coords (254.0, 217.0), REye coords (243.0, 207.0), timeStamp: 2017-03-05 12:36:22.828
LEye coords (250.0, 217.0), REye coords (240.0, 211.0), timeStamp: 2017-03-05 12:36:22.862
LEye coords (254.0, 222.0), REye coords (245.0, 203.0), timeStamp: 2017-03-05 12:36:22.896
LEye coords (339.0, 285.0), REye coords (346.0, 293.0), timeStamp: 2017-03-05 12:37:18.528
LEye coords (338.0, 285.0), REye coords (345.0, 293.0), timeStamp: 2017-03-05 12:37:18.493
LEye coords (339.0, 285.0), REye coords (347.0, 293.0), timeStamp: 2017-03-05 12:37:18.562
LEye coords (274.0, 230.0), REye coords (294.0, 238.0), timeStamp: 2017-03-05 12:37:18.596
LEye coords (245.0, 219.0), REye coords (266.0, 213.0), timeStamp: 2017-03-05 12:37:18.639
LEye coords (247.0, 214.0), REye coords (270.0, 185.0), timeStamp: 2017-03-05 12:37:18.675
LEye coords (248.0, 213.0), REye coords (272.0, 176.0), timeStamp: 2017-03-05 12:37:18.708
LEye coords (247.0, 213.0), REye coords (272.0, 172.0), timeStamp: 2017-03-05 12:37:18.742
LEye coords (224.0, 121.0), REye coords (244.0, 83.0), timeStamp: 2017-03-05 12:37:18.787
LEye coords (225.0, 122.0), REye coords (245.0, 100.0), timeStamp: 2017-03-05 12:37:18.820
LEye coords (337.0, 287.0), REye coords (347.0, 291.0), timeStamp: 2017-03-05 12:38:12.601
LEye coords (337.0, 287.0), REye coords (346.0, 291.0), timeStamp: 2017-03-05 12:38:12.636
LEye coords (337.0, 286.0), REye coords (346.0, 291.0), timeStamp: 2017-03-05 12:38:12.670
LEye coords (337.0, 286.0), REye coords (346.0, 292.0), timeStamp: 2017-03-05 12:38:12.704
LEye coords (336.0, 286.0), REye coords (346.0, 292.0), timeStamp: 2017-03-05 12:38:12.748
LEye coords (335.0, 285.0), REye coords (346.0, 292.0), timeStamp: 2017-03-05 12:38:12.782
LEye coords (234.0, 193.0), REye coords (259.0, 133.0), timeStamp: 2017-03-05 12:38:12.816
LEye coords (234.0, 192.0), REye coords (267.0, 130.0), timeStamp: 2017-03-05 12:38:12.861
LEye coords (233.0, 186.0), REye coords (262.0, 127.0), timeStamp: 2017-03-05 12:38:12.894
LEye coords (314.0, 280.0), REye coords (338.0, 297.0), timeStamp: 2017-03-05 12:39:09.228
LEye coords (315.0, 280.0), REye coords (338.0, 297.0), timeStamp: 2017-03-05 12:39:09.262
LEye coords (315.0, 280.0), REye coords (338.0, 297.0), timeStamp: 2017-03-05 12:39:09.296
LEye coords (315.0, 280.0), REye coords (339.0, 297.0), timeStamp: 2017-03-05 12:39:09.340
LEye coords (254.0, 181.0), REye coords (280.0, 163.0), timeStamp: 2017-03-05 12:39:09.373
LEye coords (248.0, 178.0), REye coords (275.0, 151.0), timeStamp: 2017-03-05 12:39:09.407
LEye coords (148.0, 157.0), REye coords (128.0, 118.0), timeStamp: 2017-03-05 12:39:58.077
LEye coords (151.0, 161.0), REye coords (128.0, 121.0), timeStamp: 2017-03-05 12:39:58.110
LEye coords (151.0, 162.0), REye coords (127.0, 122.0), timeStamp: 2017-03-05 12:39:58.155
LEye coords (151.0, 162.0), REye coords (126.0, 122.0), timeStamp: 2017-03-05 12:39:58.190
LEye coords (151.0, 162.0), REye coords (126.0, 124.0), timeStamp: 2017-03-05 12:39:58.224
LEye coords (151.0, 162.0), REye coords (125.0, 123.0), timeStamp: 2017-03-05 12:39:58.259
LEye coords (152.0, 162.0), REye coords (126.0, 123.0), timeStamp: 2017-03-05 12:39:58.305
LEye coords (152.0, 162.0), REye coords (127.0, 122.0), timeStamp: 2017-03-05 12:39:58.338
LEye coords (152.0, 162.0), REye coords (127.0, 122.0), timeStamp: 2017-03-05 12:39:58.372
LEye coords (328.0, 281.0), REye coords (343.0, 279.0), timeStamp: 2017-03-05 12:40:43.933
LEye coords (328.0, 280.0), REye coords (343.0, 279.0), timeStamp: 2017-03-05 12:40:43.967
LEye coords (328.0, 280.0), REye coords (343.0, 279.0), timeStamp: 2017-03-05 12:40:44.011
LEye coords (328.0, 279.0), REye coords (343.0, 279.0), timeStamp: 2017-03-05 12:40:44.046
LEye coords (327.0, 278.0), REye coords (342.0, 278.0), timeStamp: 2017-03-05 12:40:44.080
LEye coords (244.0, 186.0), REye coords (264.0, 137.0), timeStamp: 2017-03-05 12:40:44.114
LEye coords (158.0, 169.0), REye coords (175.0, 135.0), timeStamp: 2017-03-05 12:41:36.269
LEye coords (0.0, 0.0), REye coords (174.0, 134.0), timeStamp: 2017-03-05 12:41:36.303
LEye coords (0.0, 0.0), REye coords (174.0, 135.0), timeStamp: 2017-03-05 12:41:36.336
LEye coords (0.0, 0.0), REye coords (174.0, 134.0), timeStamp: 2017-03-05 12:41:36.380
LEye coords (0.0, 0.0), REye coords (174.0, 137.0), timeStamp: 2017-03-05 12:41:36.414
LEye coords (0.0, 0.0), REye coords (175.0, 138.0), timeStamp: 2017-03-05 12:41:36.447
LEye coords (0.0, 0.0), REye coords (176.0, 141.0), timeStamp: 2017-03-05 12:41:36.491
LEye coords (0.0, 0.0), REye coords (176.0, 142.0), timeStamp: 2017-03-05 12:41:36.525
LEye coords (156.0, 166.0), REye coords (176.0, 141.0), timeStamp: 2017-03-05 12:41:36.559
LEye coords (333.0, 288.0), REye coords (341.0, 286.0), timeStamp: 2017-03-05 12:42:22.679
LEye coords (333.0, 288.0), REye coords (341.0, 286.0), timeStamp: 2017-03-05 12:42:22.712
LEye coords (333.0, 288.0), REye coords (342.0, 286.0), timeStamp: 2017-03-05 12:42:22.757
LEye coords (333.0, 288.0), REye coords (341.0, 286.0), timeStamp: 2017-03-05 12:42:22.791
LEye coords (229.0, 232.0), REye coords (245.0, 232.0), timeStamp: 2017-03-05 12:42:22.826
LEye coords (205.0, 228.0), REye coords (221.0, 220.0), timeStamp: 2017-03-05 12:42:22.860
LEye coords (207.0, 230.0), REye coords (219.0, 223.0), timeStamp: 2017-03-05 12:42:22.905
LEye coords (207.0, 228.0), REye coords (219.0, 223.0), timeStamp: 2017-03-05 12:42:22.938
LEye coords (208.0, 229.0), REye coords (218.0, 222.0), timeStamp: 2017-03-05 12:42:22.972
LEye coords (210.0, 228.0), REye coords (214.0, 219.0), timeStamp: 2017-03-05 12:42:23.016
LEye coords (142.0, 163.0), REye coords (148.0, 134.0), timeStamp: 2017-03-05 12:43:27.192
LEye coords (142.0, 161.0), REye coords (149.0, 132.0), timeStamp: 2017-03-05 12:43:27.226
LEye coords (142.0, 163.0), REye coords (149.0, 131.0), timeStamp: 2017-03-05 12:43:27.260
LEye coords (142.0, 163.0), REye coords (147.0, 132.0), timeStamp: 2017-03-05 12:43:27.293
LEye coords (142.0, 163.0), REye coords (146.0, 132.0), timeStamp: 2017-03-05 12:43:27.337
LEye coords (142.0, 163.0), REye coords (147.0, 134.0), timeStamp: 2017-03-05 12:43:27.371
LEye coords (142.0, 163.0), REye coords (148.0, 134.0), timeStamp: 2017-03-05 12:43:27.405
LEye coords (142.0, 163.0), REye coords (148.0, 134.0), timeStamp: 2017-03-05 12:43:27.449
LEye coords (142.0, 163.0), REye coords (148.0, 134.0), timeStamp: 2017-03-05 12:43:27.483
LEye coords (143.0, 164.0), REye coords (150.0, 134.0), timeStamp: 2017-03-05 12:43:27.518
LEye coords (146.0, 161.0), REye coords (163.0, 144.0), timeStamp: 2017-03-05 12:44:25.378
LEye coords (146.0, 162.0), REye coords (162.0, 144.0), timeStamp: 2017-03-05 12:44:25.413
LEye coords (0.0, 0.0), REye coords (162.0, 143.0), timeStamp: 2017-03-05 12:44:25.447
LEye coords (146.0, 161.0), REye coords (163.0, 145.0), timeStamp: 2017-03-05 12:44:25.482
LEye coords (146.0, 162.0), REye coords (163.0, 147.0), timeStamp: 2017-03-05 12:44:25.515
LEye coords (147.0, 162.0), REye coords (163.0, 148.0), timeStamp: 2017-03-05 12:44:25.549
LEye coords (147.0, 163.0), REye coords (164.0, 149.0), timeStamp: 2017-03-05 12:44:25.593
LEye coords (147.0, 163.0), REye coords (164.0, 150.0), timeStamp: 2017-03-05 12:44:25.626
LEye coords (147.0, 163.0), REye coords (165.0, 150.0), timeStamp: 2017-03-05 12:44:25.659
LEye coords (147.0, 164.0), REye coords (165.0, 150.0), timeStamp: 2017-03-05 12:44:25.705
LEye coords (147.0, 164.0), REye coords (165.0, 151.0), timeStamp: 2017-03-05 12:44:25.739
LEye coords (193.0, 182.0), REye coords (169.0, 150.0), timeStamp: 2017-03-05 12:44:25.773
LEye coords (333.0, 274.0), REye coords (341.0, 274.0), timeStamp: 2017-03-05 12:45:15.736
LEye coords (333.0, 275.0), REye coords (341.0, 274.0), timeStamp: 2017-03-05 12:45:15.782
LEye coords (333.0, 275.0), REye coords (341.0, 274.0), timeStamp: 2017-03-05 12:45:15.816
LEye coords (333.0, 275.0), REye coords (341.0, 275.0), timeStamp: 2017-03-05 12:45:15.850
LEye coords (333.0, 275.0), REye coords (341.0, 275.0), timeStamp: 2017-03-05 12:45:15.885
LEye coords (215.0, 213.0), REye coords (231.0, 208.0), timeStamp: 2017-03-05 12:45:15.928
LEye coords (191.0, 206.0), REye coords (207.0, 157.0), timeStamp: 2017-03-05 12:45:15.962
LEye coords (192.0, 206.0), REye coords (208.0, 180.0), timeStamp: 2017-03-05 12:45:15.997
LEye coords (192.0, 205.0), REye coords (209.0, 191.0), timeStamp: 2017-03-05 12:45:16.040
LEye coords (334.0, 276.0), REye coords (341.0, 286.0), timeStamp: 2017-03-05 12:46:05.781
LEye coords (335.0, 276.0), REye coords (341.0, 286.0), timeStamp: 2017-03-05 12:46:05.816
LEye coords (335.0, 276.0), REye coords (341.0, 287.0), timeStamp: 2017-03-05 12:46:05.851
LEye coords (335.0, 277.0), REye coords (341.0, 287.0), timeStamp: 2017-03-05 12:46:05.894
LEye coords (335.0, 277.0), REye coords (341.0, 288.0), timeStamp: 2017-03-05 12:46:05.928
LEye coords (252.0, 211.0), REye coords (267.0, 219.0), timeStamp: 2017-03-05 12:46:05.962
LEye coords (224.0, 186.0), REye coords (247.0, 192.0), timeStamp: 2017-03-05 12:46:06.006
LEye coords (226.0, 185.0), REye coords (247.0, 178.0), timeStamp: 2017-03-05 12:46:06.039
LEye coords (227.0, 185.0), REye coords (245.0, 183.0), timeStamp: 2017-03-05 12:46:06.073
