LEye coords (86.0, 168.0), REye coords (71.0, 166.0), timeStamp: 2017-03-05 12:35:34.232
LEye coords (86.0, 168.0), REye coords (71.0, 167.0), timeStamp: 2017-03-05 12:35:34.266
LEye coords (86.0, 168.0), REye coords (72.0, 167.0), timeStamp: 2017-03-05 12:35:34.299
LEye coords (87.0, 168.0), REye coords (72.0, 168.0), timeStamp: 2017-03-05 12:35:34.344
LEye coords (87.0, 169.0), REye coords (73.0, 168.0), timeStamp: 2017-03-05 12:35:34.377
LEye coords (87.0, 169.0), REye coords (73.0, 168.0), timeStamp: 2017-03-05 12:35:34.412
LEye coords (88.0, 169.0), REye coords (73.0, 169.0), timeStamp: 2017-03-05 12:35:34.456
LEye coords (186.0, 173.0), REye coords (165.0, 175.0), timeStamp: 2017-03-05 12:35:34.489
LEye coords (193.0, 174.0), REye coords (182.0, 181.0), timeStamp: 2017-03-05 12:35:34.522
LEye coords (194.0, 175.0), REye coords (181.0, 179.0), timeStamp: 2017-03-05 12:35:34.557
LEye coords (194.0, 176.0), REye coords (181.0, 178.0), timeStamp: 2017-03-05 12:35:34.601
LEye coords (195.0, 176.0), REye coords (182.0, 176.0), timeStamp: 2017-03-05 12:35:34.634
LEye coords (283.0, 144.0), REye coords (283.0, 148.0), timeStamp: 2017-03-05 12:35:34.668
LEye coords (280.0, 149.0), REye coords (282.0, 146.0), timeStamp: 2017-03-05 12:35:34.713
LEye coords (280.0, 147.0), REye coords (282.0, 144.0), timeStamp: 2017-03-05 12:35:34.746
LEye coords (281.0, 145.0), REye coords (282.0, 143.0), timeStamp: 2017-03-05 12:35:34.779
LEye coords (281.0, 146.0), REye coords (282.0, 143.0), timeStamp: 2017-03-05 12:35:34.823
LEye coords (282.0, 143.0), REye coords (282.0, 137.0), timeStamp: 2017-03-05 12:35:34.856
LEye coords (287.0, 139.0), REye coords (285.0, 136.0), timeStamp: 2017-03-05 12:35:34.899
LEye coords (286.0, 139.0), REye coords (283.0, 140.0), timeStamp: 2017-03-05 12:35:34.934
LEye coords (288.0, 141.0), REye coords (284.0, 140.0), timeStamp: 2017-03-05 12:35:34.968
LEye coords (297.0, 142.0), REye coords (296.0, 136.0), timeStamp: 2017-03-05 12:35:35.011
LEye coords (303.0, 141.0), REye coords (301.0, 137.0), timeStamp: 2017-03-05 12:35:35.045
LEye coords (307.0, 140.0), REye coords (304.0, 137.0), timeStamp: 2017-03-05 12:35:35.078
LEye coords (310.0, 140.0), REye coords (308.0, 137.0), timeStamp: 2017-03-05 12:35:35.112
LEye coords (312.0, 140.0), REye coords (311.0, 134.0), timeStamp: 2017-03-05 12:35:35.156
LEye coords (313.0, 140.0), REye coords (313.0, 135.0), timeStamp: 2017-03-05 12:35:35.190
LEye coords (314.0, 140.0), REye coords (315.0, 135.0), timeStamp: 2017-03-05 12:35:35.223
LEye coords (316.0, 139.0), REye coords (316.0, 135.0), timeStamp: 2017-03-05 12:35:35.267
LEye coords (317.0, 139.0), REye coords (317.0, 136.0), timeStamp: 2017-03-05 12:35:35.300
LEye coords (318.0, 139.0), REye coords (318.0, 136.0), timeStamp: 2017-03-05 12:35:35.334
LEye coords (319.0, 140.0), REye coords (319.0, 136.0), timeStamp: 2017-03-05 12:35:35.378
LEye coords (320.0, 140.0), REye coords (320.0, 137.0), timeStamp: 2017-03-05 12:35:35.411
LEye coords (322.0, 141.0), REye coords (322.0, 137.0), timeStamp: 2017-03-05 12:35:35.455
