LEye coords (16.0, 122.0), REye coords (-1.0, 108.0), timeStamp: 2017-03-05 12:35:37.962
LEye coords (15.0, 122.0), REye coords (-2.0, 109.0), timeStamp: 2017-03-05 12:35:38.007
LEye coords (15.0, 122.0), REye coords (-3.0, 109.0), timeStamp: 2017-03-05 12:35:38.041
LEye coords (14.0, 122.0), REye coords (-3.0, 109.0), timeStamp: 2017-03-05 12:35:38.073
LEye coords (14.0, 122.0), REye coords (-3.0, 110.0), timeStamp: 2017-03-05 12:35:38.117
LEye coords (15.0, 123.0), REye coords (-1.0, 111.0), timeStamp: 2017-03-05 12:35:38.151
LEye coords (244.0, 146.0), REye coords (236.0, 146.0), timeStamp: 2017-03-05 12:35:38.184
LEye coords (239.0, 147.0), REye coords (232.0, 151.0), timeStamp: 2017-03-05 12:35:38.229
LEye coords (239.0, 147.0), REye coords (231.0, 152.0), timeStamp: 2017-03-05 12:35:38.263
LEye coords (238.0, 148.0), REye coords (230.0, 153.0), timeStamp: 2017-03-05 12:35:38.297
LEye coords (237.0, 148.0), REye coords (230.0, 153.0), timeStamp: 2017-03-05 12:35:38.341
LEye coords (236.0, 148.0), REye coords (231.0, 148.0), timeStamp: 2017-03-05 12:35:38.375
LEye coords (238.0, 149.0), REye coords (230.0, 148.0), timeStamp: 2017-03-05 12:35:38.408
LEye coords (239.0, 149.0), REye coords (231.0, 151.0), timeStamp: 2017-03-05 12:35:38.452
LEye coords (237.0, 152.0), REye coords (229.0, 154.0), timeStamp: 2017-03-05 12:35:38.485
LEye coords (235.0, 159.0), REye coords (229.0, 160.0), timeStamp: 2017-03-05 12:35:38.518
LEye coords (233.0, 164.0), REye coords (229.0, 163.0), timeStamp: 2017-03-05 12:35:38.563
LEye coords (232.0, 168.0), REye coords (229.0, 165.0), timeStamp: 2017-03-05 12:35:38.597
LEye coords (231.0, 168.0), REye coords (229.0, 167.0), timeStamp: 2017-03-05 12:35:38.630
LEye coords (230.0, 170.0), REye coords (228.0, 167.0), timeStamp: 2017-03-05 12:35:38.674
LEye coords (228.0, 169.0), REye coords (0.0, 0.0), timeStamp: 2017-03-05 12:35:38.707
LEye coords (227.0, 168.0), REye coords (0.0, 0.0), timeStamp: 2017-03-05 12:35:38.741
LEye coords (226.0, 168.0), REye coords (0.0, 0.0), timeStamp: 2017-03-05 12:35:38.785
LEye coords (225.0, 167.0), REye coords (0.0, 0.0), timeStamp: 2017-03-05 12:35:38.818
LEye coords (224.0, 166.0), REye coords (0.0, 0.0), timeStamp: 2017-03-05 12:35:38.851
LEye coords (224.0, 166.0), REye coords (0.0, 0.0), timeStamp: 2017-03-05 12:35:38.895
LEye coords (223.0, 165.0), REye coords (0.0, 0.0), timeStamp: 2017-03-05 12:35:38.930
LEye coords (223.0, 165.0), REye coords (0.0, 0.0), timeStamp: 2017-03-05 12:35:38.964
LEye coords (223.0, 164.0), REye coords (0.0, 0.0), timeStamp: 2017-03-05 12:35:38.998
