LEye coords (254.0, 171.0), REye coords (243.0, 159.0), timeStamp: 2017-03-05 12:36:22.941
LEye coords (254.0, 171.0), REye coords (241.0, 161.0), timeStamp: 2017-03-05 12:36:22.975
LEye coords (254.0, 171.0), REye coords (241.0, 161.0), timeStamp: 2017-03-05 12:36:23.009
LEye coords (255.0, 170.0), REye coords (240.0, 161.0), timeStamp: 2017-03-05 12:36:23.043
LEye coords (255.0, 170.0), REye coords (240.0, 162.0), timeStamp: 2017-03-05 12:36:23.088
LEye coords (255.0, 170.0), REye coords (240.0, 161.0), timeStamp: 2017-03-05 12:36:23.121
LEye coords (255.0, 170.0), REye coords (240.0, 162.0), timeStamp: 2017-03-05 12:36:23.154
LEye coords (255.0, 170.0), REye coords (240.0, 161.0), timeStamp: 2017-03-05 12:36:23.199
LEye coords (255.0, 170.0), REye coords (240.0, 162.0), timeStamp: 2017-03-05 12:36:23.232
LEye coords (255.0, 170.0), REye coords (240.0, 162.0), timeStamp: 2017-03-05 12:36:23.265
LEye coords (255.0, 170.0), REye coords (240.0, 162.0), timeStamp: 2017-03-05 12:36:23.300
LEye coords (172.0, 119.0), REye coords (162.0, 94.0), timeStamp: 2017-03-05 12:36:23.345
LEye coords (173.0, 132.0), REye coords (158.0, 99.0), timeStamp: 2017-03-05 12:36:23.378
LEye coords (175.0, 134.0), REye coords (159.0, 109.0), timeStamp: 2017-03-05 12:36:23.413
LEye coords (176.0, 135.0), REye coords (161.0, 113.0), timeStamp: 2017-03-05 12:36:23.457
LEye coords (176.0, 135.0), REye coords (161.0, 115.0), timeStamp: 2017-03-05 12:36:23.490
LEye coords (179.0, 140.0), REye coords (163.0, 123.0), timeStamp: 2017-03-05 12:36:23.524
LEye coords (176.0, 136.0), REye coords (166.0, 124.0), timeStamp: 2017-03-05 12:36:23.568
LEye coords (177.0, 138.0), REye coords (164.0, 111.0), timeStamp: 2017-03-05 12:36:23.601
LEye coords (177.0, 137.0), REye coords (163.0, 117.0), timeStamp: 2017-03-05 12:36:23.635
LEye coords (178.0, 138.0), REye coords (162.0, 120.0), timeStamp: 2017-03-05 12:36:23.679
LEye coords (178.0, 138.0), REye coords (162.0, 121.0), timeStamp: 2017-03-05 12:36:23.712
LEye coords (178.0, 139.0), REye coords (161.0, 123.0), timeStamp: 2017-03-05 12:36:23.747
LEye coords (178.0, 141.0), REye coords (160.0, 125.0), timeStamp: 2017-03-05 12:36:23.791
LEye coords (176.0, 142.0), REye coords (159.0, 128.0), timeStamp: 2017-03-05 12:36:23.825
LEye coords (174.0, 143.0), REye coords (158.0, 130.0), timeStamp: 2017-03-05 12:36:23.858
LEye coords (173.0, 144.0), REye coords (156.0, 132.0), timeStamp: 2017-03-05 12:36:23.892
