LEye coords (268.0, 162.0), REye coords (245.0, 148.0), timeStamp: 2017-03-05 12:36:28.851
LEye coords (268.0, 163.0), REye coords (245.0, 149.0), timeStamp: 2017-03-05 12:36:28.894
LEye coords (267.0, 163.0), REye coords (244.0, 149.0), timeStamp: 2017-03-05 12:36:28.928
LEye coords (267.0, 163.0), REye coords (244.0, 149.0), timeStamp: 2017-03-05 12:36:28.973
LEye coords (267.0, 163.0), REye coords (244.0, 149.0), timeStamp: 2017-03-05 12:36:29.006
LEye coords (267.0, 164.0), REye coords (245.0, 150.0), timeStamp: 2017-03-05 12:36:29.038
LEye coords (266.0, 164.0), REye coords (244.0, 150.0), timeStamp: 2017-03-05 12:36:29.083
LEye coords (266.0, 164.0), REye coords (244.0, 151.0), timeStamp: 2017-03-05 12:36:29.117
LEye coords (266.0, 164.0), REye coords (244.0, 151.0), timeStamp: 2017-03-05 12:36:29.150
LEye coords (265.0, 166.0), REye coords (244.0, 153.0), timeStamp: 2017-03-05 12:36:29.194
LEye coords (224.0, 256.0), REye coords (216.0, 242.0), timeStamp: 2017-03-05 12:36:29.227
LEye coords (220.0, 259.0), REye coords (216.0, 246.0), timeStamp: 2017-03-05 12:36:29.261
LEye coords (221.0, 256.0), REye coords (216.0, 244.0), timeStamp: 2017-03-05 12:36:29.305
LEye coords (220.0, 254.0), REye coords (217.0, 243.0), timeStamp: 2017-03-05 12:36:29.338
LEye coords (219.0, 253.0), REye coords (218.0, 243.0), timeStamp: 2017-03-05 12:36:29.371
LEye coords (220.0, 247.0), REye coords (218.0, 241.0), timeStamp: 2017-03-05 12:36:29.415
LEye coords (153.0, 251.0), REye coords (148.0, 248.0), timeStamp: 2017-03-05 12:36:29.449
LEye coords (150.0, 250.0), REye coords (148.0, 248.0), timeStamp: 2017-03-05 12:36:29.483
LEye coords (150.0, 249.0), REye coords (150.0, 249.0), timeStamp: 2017-03-05 12:36:29.527
LEye coords (151.0, 249.0), REye coords (151.0, 248.0), timeStamp: 2017-03-05 12:36:29.561
LEye coords (151.0, 250.0), REye coords (152.0, 243.0), timeStamp: 2017-03-05 12:36:29.594
LEye coords (152.0, 251.0), REye coords (148.0, 245.0), timeStamp: 2017-03-05 12:36:29.638
LEye coords (152.0, 248.0), REye coords (152.0, 245.0), timeStamp: 2017-03-05 12:36:29.672
LEye coords (153.0, 248.0), REye coords (152.0, 245.0), timeStamp: 2017-03-05 12:36:29.706
LEye coords (146.0, 247.0), REye coords (144.0, 243.0), timeStamp: 2017-03-05 12:36:29.750
LEye coords (142.0, 247.0), REye coords (139.0, 243.0), timeStamp: 2017-03-05 12:36:29.783
LEye coords (140.0, 247.0), REye coords (135.0, 243.0), timeStamp: 2017-03-05 12:36:29.816
LEye coords (138.0, 247.0), REye coords (134.0, 244.0), timeStamp: 2017-03-05 12:36:29.860
LEye coords (136.0, 247.0), REye coords (131.0, 244.0), timeStamp: 2017-03-05 12:36:29.894
LEye coords (135.0, 247.0), REye coords (130.0, 245.0), timeStamp: 2017-03-05 12:36:29.928
LEye coords (134.0, 246.0), REye coords (129.0, 245.0), timeStamp: 2017-03-05 12:36:29.962
LEye coords (134.0, 246.0), REye coords (128.0, 245.0), timeStamp: 2017-03-05 12:36:30.006
LEye coords (133.0, 246.0), REye coords (128.0, 246.0), timeStamp: 2017-03-05 12:36:30.039
LEye coords (133.0, 246.0), REye coords (127.0, 246.0), timeStamp: 2017-03-05 12:36:30.073
LEye coords (133.0, 247.0), REye coords (126.0, 247.0), timeStamp: 2017-03-05 12:36:30.117
LEye coords (132.0, 247.0), REye coords (125.0, 248.0), timeStamp: 2017-03-05 12:36:30.150
LEye coords (131.0, 247.0), REye coords (124.0, 248.0), timeStamp: 2017-03-05 12:36:30.193
LEye coords (130.0, 247.0), REye coords (123.0, 249.0), timeStamp: 2017-03-05 12:36:30.227
LEye coords (129.0, 248.0), REye coords (123.0, 249.0), timeStamp: 2017-03-05 12:36:30.262
