LEye coords (162.0, 174.0), REye coords (138.0, 139.0), timeStamp: 2017-03-05 12:36:36.115
LEye coords (162.0, 174.0), REye coords (137.0, 136.0), timeStamp: 2017-03-05 12:36:36.149
LEye coords (161.0, 173.0), REye coords (137.0, 136.0), timeStamp: 2017-03-05 12:36:36.183
LEye coords (160.0, 172.0), REye coords (136.0, 134.0), timeStamp: 2017-03-05 12:36:36.217
LEye coords (159.0, 172.0), REye coords (136.0, 133.0), timeStamp: 2017-03-05 12:36:36.261
LEye coords (159.0, 172.0), REye coords (136.0, 134.0), timeStamp: 2017-03-05 12:36:36.296
LEye coords (158.0, 171.0), REye coords (136.0, 135.0), timeStamp: 2017-03-05 12:36:36.330
LEye coords (158.0, 171.0), REye coords (136.0, 136.0), timeStamp: 2017-03-05 12:36:36.373
LEye coords (275.0, 220.0), REye coords (254.0, 211.0), timeStamp: 2017-03-05 12:36:36.408
LEye coords (322.0, 234.0), REye coords (0.0, 0.0), timeStamp: 2017-03-05 12:36:36.443
LEye coords (320.0, 235.0), REye coords (299.0, 234.0), timeStamp: 2017-03-05 12:36:36.477
LEye coords (320.0, 234.0), REye coords (301.0, 234.0), timeStamp: 2017-03-05 12:36:36.521
LEye coords (320.0, 235.0), REye coords (301.0, 234.0), timeStamp: 2017-03-05 12:36:36.554
LEye coords (315.0, 235.0), REye coords (301.0, 234.0), timeStamp: 2017-03-05 12:36:36.587
LEye coords (316.0, 232.0), REye coords (302.0, 232.0), timeStamp: 2017-03-05 12:36:36.631
LEye coords (315.0, 232.0), REye coords (300.0, 230.0), timeStamp: 2017-03-05 12:36:36.665
LEye coords (314.0, 232.0), REye coords (300.0, 230.0), timeStamp: 2017-03-05 12:36:36.698
LEye coords (314.0, 232.0), REye coords (299.0, 229.0), timeStamp: 2017-03-05 12:36:36.742
LEye coords (310.0, 230.0), REye coords (293.0, 226.0), timeStamp: 2017-03-05 12:36:36.775
LEye coords (306.0, 228.0), REye coords (290.0, 224.0), timeStamp: 2017-03-05 12:36:36.809
LEye coords (303.0, 227.0), REye coords (287.0, 223.0), timeStamp: 2017-03-05 12:36:36.854
LEye coords (302.0, 226.0), REye coords (285.0, 222.0), timeStamp: 2017-03-05 12:36:36.887
LEye coords (300.0, 225.0), REye coords (284.0, 221.0), timeStamp: 2017-03-05 12:36:36.921
LEye coords (298.0, 224.0), REye coords (284.0, 220.0), timeStamp: 2017-03-05 12:36:36.966
LEye coords (297.0, 224.0), REye coords (282.0, 220.0), timeStamp: 2017-03-05 12:36:36.999
LEye coords (297.0, 223.0), REye coords (281.0, 220.0), timeStamp: 2017-03-05 12:36:37.032
LEye coords (296.0, 223.0), REye coords (281.0, 220.0), timeStamp: 2017-03-05 12:36:37.076
LEye coords (295.0, 223.0), REye coords (281.0, 219.0), timeStamp: 2017-03-05 12:36:37.110
