LEye coords (392.0, 199.0), REye coords (379.0, 198.0), timeStamp: 2017-03-05 12:36:39.918
LEye coords (392.0, 199.0), REye coords (379.0, 199.0), timeStamp: 2017-03-05 12:36:39.963
LEye coords (392.0, 200.0), REye coords (378.0, 199.0), timeStamp: 2017-03-05 12:36:39.997
LEye coords (392.0, 200.0), REye coords (378.0, 200.0), timeStamp: 2017-03-05 12:36:40.031
LEye coords (391.0, 200.0), REye coords (378.0, 200.0), timeStamp: 2017-03-05 12:36:40.075
LEye coords (391.0, 200.0), REye coords (377.0, 200.0), timeStamp: 2017-03-05 12:36:40.108
LEye coords (391.0, 201.0), REye coords (377.0, 201.0), timeStamp: 2017-03-05 12:36:40.144
LEye coords (391.0, 201.0), REye coords (376.0, 201.0), timeStamp: 2017-03-05 12:36:40.177
LEye coords (391.0, 202.0), REye coords (376.0, 201.0), timeStamp: 2017-03-05 12:36:40.221
LEye coords (320.0, 240.0), REye coords (310.0, 234.0), timeStamp: 2017-03-05 12:36:40.255
LEye coords (203.0, 278.0), REye coords (182.0, 266.0), timeStamp: 2017-03-05 12:36:40.289
LEye coords (202.0, 278.0), REye coords (182.0, 265.0), timeStamp: 2017-03-05 12:36:40.334
LEye coords (201.0, 279.0), REye coords (183.0, 267.0), timeStamp: 2017-03-05 12:36:40.367
LEye coords (201.0, 278.0), REye coords (183.0, 266.0), timeStamp: 2017-03-05 12:36:40.401
LEye coords (203.0, 278.0), REye coords (184.0, 265.0), timeStamp: 2017-03-05 12:36:40.445
LEye coords (200.0, 279.0), REye coords (186.0, 268.0), timeStamp: 2017-03-05 12:36:40.480
LEye coords (243.0, 284.0), REye coords (229.0, 276.0), timeStamp: 2017-03-05 12:36:40.515
LEye coords (256.0, 286.0), REye coords (243.0, 280.0), timeStamp: 2017-03-05 12:36:40.549
LEye coords (263.0, 287.0), REye coords (251.0, 281.0), timeStamp: 2017-03-05 12:36:40.584
LEye coords (281.0, 288.0), REye coords (274.0, 276.0), timeStamp: 2017-03-05 12:36:40.627
LEye coords (282.0, 288.0), REye coords (279.0, 276.0), timeStamp: 2017-03-05 12:36:40.660
LEye coords (282.0, 290.0), REye coords (276.0, 275.0), timeStamp: 2017-03-05 12:36:40.703
LEye coords (282.0, 291.0), REye coords (276.0, 274.0), timeStamp: 2017-03-05 12:36:40.736
LEye coords (283.0, 290.0), REye coords (276.0, 274.0), timeStamp: 2017-03-05 12:36:40.769
LEye coords (289.0, 289.0), REye coords (281.0, 274.0), timeStamp: 2017-03-05 12:36:40.814
LEye coords (293.0, 288.0), REye coords (284.0, 274.0), timeStamp: 2017-03-05 12:36:40.848
LEye coords (296.0, 288.0), REye coords (286.0, 273.0), timeStamp: 2017-03-05 12:36:40.882
LEye coords (298.0, 288.0), REye coords (288.0, 273.0), timeStamp: 2017-03-05 12:36:40.927
LEye coords (300.0, 288.0), REye coords (289.0, 273.0), timeStamp: 2017-03-05 12:36:40.960
LEye coords (302.0, 289.0), REye coords (290.0, 273.0), timeStamp: 2017-03-05 12:36:40.994
LEye coords (303.0, 289.0), REye coords (291.0, 273.0), timeStamp: 2017-03-05 12:36:41.038
LEye coords (304.0, 289.0), REye coords (292.0, 274.0), timeStamp: 2017-03-05 12:36:41.072
LEye coords (304.0, 289.0), REye coords (293.0, 275.0), timeStamp: 2017-03-05 12:36:41.106
LEye coords (305.0, 288.0), REye coords (293.0, 275.0), timeStamp: 2017-03-05 12:36:41.140
LEye coords (306.0, 288.0), REye coords (293.0, 275.0), timeStamp: 2017-03-05 12:36:41.186
LEye coords (306.0, 288.0), REye coords (294.0, 276.0), timeStamp: 2017-03-05 12:36:41.218
LEye coords (307.0, 287.0), REye coords (294.0, 276.0), timeStamp: 2017-03-05 12:36:41.251
LEye coords (308.0, 287.0), REye coords (294.0, 276.0), timeStamp: 2017-03-05 12:36:41.295
LEye coords (308.0, 287.0), REye coords (295.0, 277.0), timeStamp: 2017-03-05 12:36:41.330
LEye coords (308.0, 287.0), REye coords (295.0, 277.0), timeStamp: 2017-03-05 12:36:41.363
