LEye coords (252.0, 171.0), REye coords (255.0, 158.0), timeStamp: 2017-03-05 12:38:15.301
LEye coords (252.0, 171.0), REye coords (255.0, 159.0), timeStamp: 2017-03-05 12:38:15.335
LEye coords (252.0, 171.0), REye coords (255.0, 159.0), timeStamp: 2017-03-05 12:38:15.369
LEye coords (253.0, 171.0), REye coords (255.0, 159.0), timeStamp: 2017-03-05 12:38:15.412
LEye coords (253.0, 171.0), REye coords (255.0, 159.0), timeStamp: 2017-03-05 12:38:15.448
LEye coords (254.0, 171.0), REye coords (255.0, 160.0), timeStamp: 2017-03-05 12:38:15.481
LEye coords (254.0, 172.0), REye coords (255.0, 160.0), timeStamp: 2017-03-05 12:38:15.527
LEye coords (254.0, 172.0), REye coords (255.0, 160.0), timeStamp: 2017-03-05 12:38:15.562
LEye coords (254.0, 173.0), REye coords (255.0, 161.0), timeStamp: 2017-03-05 12:38:15.595
LEye coords (254.0, 174.0), REye coords (255.0, 161.0), timeStamp: 2017-03-05 12:38:15.629
LEye coords (254.0, 174.0), REye coords (256.0, 161.0), timeStamp: 2017-03-05 12:38:15.674
LEye coords (167.0, 174.0), REye coords (177.0, 152.0), timeStamp: 2017-03-05 12:38:15.708
LEye coords (167.0, 172.0), REye coords (177.0, 146.0), timeStamp: 2017-03-05 12:38:15.742
LEye coords (168.0, 172.0), REye coords (175.0, 132.0), timeStamp: 2017-03-05 12:38:15.776
LEye coords (168.0, 172.0), REye coords (175.0, 127.0), timeStamp: 2017-03-05 12:38:15.820
LEye coords (168.0, 172.0), REye coords (175.0, 123.0), timeStamp: 2017-03-05 12:38:15.854
LEye coords (166.0, 164.0), REye coords (176.0, 115.0), timeStamp: 2017-03-05 12:38:15.888
LEye coords (166.0, 161.0), REye coords (174.0, 114.0), timeStamp: 2017-03-05 12:38:15.933
LEye coords (169.0, 149.0), REye coords (181.0, 106.0), timeStamp: 2017-03-05 12:38:15.967
LEye coords (170.0, 145.0), REye coords (183.0, 105.0), timeStamp: 2017-03-05 12:38:16.000
LEye coords (170.0, 143.0), REye coords (183.0, 105.0), timeStamp: 2017-03-05 12:38:16.034
LEye coords (170.0, 141.0), REye coords (184.0, 104.0), timeStamp: 2017-03-05 12:38:16.079
LEye coords (170.0, 140.0), REye coords (183.0, 102.0), timeStamp: 2017-03-05 12:38:16.113
LEye coords (170.0, 138.0), REye coords (183.0, 103.0), timeStamp: 2017-03-05 12:38:16.147
