LEye coords (228.0, 91.0), REye coords (241.0, 65.0), timeStamp: 2017-03-05 12:38:23.223
LEye coords (229.0, 104.0), REye coords (242.0, 73.0), timeStamp: 2017-03-05 12:38:23.257
LEye coords (229.0, 105.0), REye coords (242.0, 74.0), timeStamp: 2017-03-05 12:38:23.291
LEye coords (229.0, 107.0), REye coords (243.0, 74.0), timeStamp: 2017-03-05 12:38:23.325
LEye coords (230.0, 109.0), REye coords (243.0, 73.0), timeStamp: 2017-03-05 12:38:23.371
LEye coords (230.0, 111.0), REye coords (244.0, 74.0), timeStamp: 2017-03-05 12:38:23.405
LEye coords (230.0, 110.0), REye coords (244.0, 74.0), timeStamp: 2017-03-05 12:38:23.440
LEye coords (231.0, 113.0), REye coords (245.0, 75.0), timeStamp: 2017-03-05 12:38:23.484
LEye coords (235.0, 171.0), REye coords (245.0, 78.0), timeStamp: 2017-03-05 12:38:23.517
LEye coords (235.0, 169.0), REye coords (245.0, 80.0), timeStamp: 2017-03-05 12:38:23.551
LEye coords (236.0, 171.0), REye coords (246.0, 82.0), timeStamp: 2017-03-05 12:38:23.585
LEye coords (236.0, 171.0), REye coords (244.0, 149.0), timeStamp: 2017-03-05 12:38:23.628
LEye coords (235.0, 171.0), REye coords (248.0, 140.0), timeStamp: 2017-03-05 12:38:23.662
LEye coords (235.0, 171.0), REye coords (249.0, 126.0), timeStamp: 2017-03-05 12:38:23.695
LEye coords (237.0, 174.0), REye coords (252.0, 137.0), timeStamp: 2017-03-05 12:38:23.739
LEye coords (238.0, 177.0), REye coords (255.0, 143.0), timeStamp: 2017-03-05 12:38:23.773
LEye coords (239.0, 180.0), REye coords (255.0, 153.0), timeStamp: 2017-03-05 12:38:23.806
LEye coords (240.0, 182.0), REye coords (255.0, 160.0), timeStamp: 2017-03-05 12:38:23.850
LEye coords (241.0, 183.0), REye coords (261.0, 190.0), timeStamp: 2017-03-05 12:38:23.883
LEye coords (241.0, 185.0), REye coords (260.0, 172.0), timeStamp: 2017-03-05 12:38:23.918
LEye coords (240.0, 185.0), REye coords (250.0, 171.0), timeStamp: 2017-03-05 12:38:23.962
LEye coords (240.0, 186.0), REye coords (246.0, 178.0), timeStamp: 2017-03-05 12:38:23.995
LEye coords (239.0, 187.0), REye coords (244.0, 180.0), timeStamp: 2017-03-05 12:38:24.029
LEye coords (239.0, 188.0), REye coords (243.0, 182.0), timeStamp: 2017-03-05 12:38:24.074
LEye coords (238.0, 188.0), REye coords (242.0, 183.0), timeStamp: 2017-03-05 12:38:24.107
