LEye coords (190.0, 220.0), REye coords (204.0, 238.0), timeStamp: 2017-03-05 12:39:11.671
LEye coords (189.0, 219.0), REye coords (203.0, 237.0), timeStamp: 2017-03-05 12:39:11.704
LEye coords (188.0, 217.0), REye coords (202.0, 236.0), timeStamp: 2017-03-05 12:39:11.738
LEye coords (187.0, 216.0), REye coords (201.0, 235.0), timeStamp: 2017-03-05 12:39:11.783
LEye coords (186.0, 215.0), REye coords (200.0, 235.0), timeStamp: 2017-03-05 12:39:11.817
LEye coords (185.0, 215.0), REye coords (200.0, 235.0), timeStamp: 2017-03-05 12:39:11.851
LEye coords (182.0, 218.0), REye coords (199.0, 234.0), timeStamp: 2017-03-05 12:39:11.885
LEye coords (182.0, 220.0), REye coords (199.0, 235.0), timeStamp: 2017-03-05 12:39:11.930
LEye coords (183.0, 219.0), REye coords (200.0, 233.0), timeStamp: 2017-03-05 12:39:11.965
LEye coords (192.0, 215.0), REye coords (237.0, 223.0), timeStamp: 2017-03-05 12:39:11.999
LEye coords (211.0, 212.0), REye coords (263.0, 216.0), timeStamp: 2017-03-05 12:39:12.032
LEye coords (264.0, 199.0), REye coords (271.0, 215.0), timeStamp: 2017-03-05 12:39:12.075
LEye coords (267.0, 201.0), REye coords (276.0, 214.0), timeStamp: 2017-03-05 12:39:12.108
LEye coords (266.0, 199.0), REye coords (286.0, 218.0), timeStamp: 2017-03-05 12:39:12.152
LEye coords (265.0, 200.0), REye coords (292.0, 210.0), timeStamp: 2017-03-05 12:39:12.186
LEye coords (278.0, 204.0), REye coords (313.0, 221.0), timeStamp: 2017-03-05 12:39:12.219
LEye coords (287.0, 207.0), REye coords (321.0, 225.0), timeStamp: 2017-03-05 12:39:12.253
LEye coords (292.0, 208.0), REye coords (325.0, 227.0), timeStamp: 2017-03-05 12:39:12.298
LEye coords (296.0, 210.0), REye coords (325.0, 230.0), timeStamp: 2017-03-05 12:39:12.332
LEye coords (299.0, 211.0), REye coords (327.0, 230.0), timeStamp: 2017-03-05 12:39:12.366
LEye coords (347.0, 225.0), REye coords (332.0, 231.0), timeStamp: 2017-03-05 12:39:12.410
LEye coords (347.0, 221.0), REye coords (363.0, 234.0), timeStamp: 2017-03-05 12:39:12.444
LEye coords (344.0, 222.0), REye coords (359.0, 234.0), timeStamp: 2017-03-05 12:39:12.477
LEye coords (344.0, 221.0), REye coords (360.0, 236.0), timeStamp: 2017-03-05 12:39:12.522
LEye coords (344.0, 222.0), REye coords (360.0, 234.0), timeStamp: 2017-03-05 12:39:12.556
LEye coords (344.0, 222.0), REye coords (360.0, 234.0), timeStamp: 2017-03-05 12:39:12.590
