LEye coords (213.0, 273.0), REye coords (230.0, 291.0), timeStamp: 2017-03-05 12:39:13.852
LEye coords (213.0, 273.0), REye coords (230.0, 291.0), timeStamp: 2017-03-05 12:39:13.886
LEye coords (214.0, 273.0), REye coords (230.0, 291.0), timeStamp: 2017-03-05 12:39:13.920
LEye coords (214.0, 272.0), REye coords (231.0, 290.0), timeStamp: 2017-03-05 12:39:13.965
LEye coords (210.0, 204.0), REye coords (234.0, 227.0), timeStamp: 2017-03-05 12:39:13.998
LEye coords (213.0, 207.0), REye coords (232.0, 226.0), timeStamp: 2017-03-05 12:39:14.033
LEye coords (212.0, 207.0), REye coords (232.0, 228.0), timeStamp: 2017-03-05 12:39:14.066
LEye coords (211.0, 208.0), REye coords (233.0, 229.0), timeStamp: 2017-03-05 12:39:14.110
LEye coords (211.0, 207.0), REye coords (233.0, 229.0), timeStamp: 2017-03-05 12:39:14.144
LEye coords (209.0, 207.0), REye coords (232.0, 230.0), timeStamp: 2017-03-05 12:39:14.188
LEye coords (125.0, 239.0), REye coords (136.0, 269.0), timeStamp: 2017-03-05 12:39:14.221
LEye coords (123.0, 242.0), REye coords (138.0, 268.0), timeStamp: 2017-03-05 12:39:14.255
LEye coords (122.0, 241.0), REye coords (140.0, 269.0), timeStamp: 2017-03-05 12:39:14.298
LEye coords (123.0, 242.0), REye coords (140.0, 269.0), timeStamp: 2017-03-05 12:39:14.331
LEye coords (124.0, 242.0), REye coords (140.0, 268.0), timeStamp: 2017-03-05 12:39:14.365
LEye coords (105.0, 248.0), REye coords (115.0, 277.0), timeStamp: 2017-03-05 12:39:14.408
LEye coords (101.0, 245.0), REye coords (112.0, 274.0), timeStamp: 2017-03-05 12:39:14.442
LEye coords (99.0, 245.0), REye coords (112.0, 274.0), timeStamp: 2017-03-05 12:39:14.477
LEye coords (100.0, 245.0), REye coords (112.0, 273.0), timeStamp: 2017-03-05 12:39:14.520
LEye coords (101.0, 246.0), REye coords (111.0, 273.0), timeStamp: 2017-03-05 12:39:14.554
LEye coords (97.0, 245.0), REye coords (108.0, 272.0), timeStamp: 2017-03-05 12:39:14.587
LEye coords (92.0, 243.0), REye coords (102.0, 270.0), timeStamp: 2017-03-05 12:39:14.631
LEye coords (88.0, 242.0), REye coords (98.0, 270.0), timeStamp: 2017-03-05 12:39:14.666
LEye coords (84.0, 241.0), REye coords (94.0, 269.0), timeStamp: 2017-03-05 12:39:14.699
LEye coords (82.0, 240.0), REye coords (75.0, 261.0), timeStamp: 2017-03-05 12:39:14.733
LEye coords (31.0, 234.0), REye coords (44.0, 267.0), timeStamp: 2017-03-05 12:39:14.776
LEye coords (4.0, 239.0), REye coords (29.0, 267.0), timeStamp: 2017-03-05 12:39:14.810
LEye coords (4.0, 239.0), REye coords (23.0, 268.0), timeStamp: 2017-03-05 12:39:14.844
LEye coords (5.0, 240.0), REye coords (21.0, 269.0), timeStamp: 2017-03-05 12:39:14.890
LEye coords (5.0, 239.0), REye coords (10.0, 271.0), timeStamp: 2017-03-05 12:39:14.923
LEye coords (8.0, 242.0), REye coords (13.0, 271.0), timeStamp: 2017-03-05 12:39:14.957
LEye coords (7.0, 243.0), REye coords (13.0, 270.0), timeStamp: 2017-03-05 12:39:15.002
LEye coords (5.0, 242.0), REye coords (12.0, 272.0), timeStamp: 2017-03-05 12:39:15.036
LEye coords (4.0, 242.0), REye coords (12.0, 272.0), timeStamp: 2017-03-05 12:39:15.069
LEye coords (5.0, 242.0), REye coords (12.0, 272.0), timeStamp: 2017-03-05 12:39:15.112
LEye coords (4.0, 242.0), REye coords (11.0, 272.0), timeStamp: 2017-03-05 12:39:15.146
LEye coords (5.0, 242.0), REye coords (11.0, 272.0), timeStamp: 2017-03-05 12:39:15.180
LEye coords (5.0, 242.0), REye coords (11.0, 272.0), timeStamp: 2017-03-05 12:39:15.215
LEye coords (5.0, 242.0), REye coords (11.0, 272.0), timeStamp: 2017-03-05 12:39:15.259
LEye coords (5.0, 243.0), REye coords (10.0, 272.0), timeStamp: 2017-03-05 12:39:15.293
LEye coords (5.0, 243.0), REye coords (11.0, 273.0), timeStamp: 2017-03-05 12:39:15.326
LEye coords (5.0, 243.0), REye coords (11.0, 273.0), timeStamp: 2017-03-05 12:39:15.369
