LEye coords (39.0, 233.0), REye coords (49.0, 265.0), timeStamp: 2017-03-05 12:39:18.034
LEye coords (39.0, 233.0), REye coords (49.0, 265.0), timeStamp: 2017-03-05 12:39:18.068
LEye coords (39.0, 233.0), REye coords (50.0, 265.0), timeStamp: 2017-03-05 12:39:18.101
LEye coords (39.0, 233.0), REye coords (50.0, 265.0), timeStamp: 2017-03-05 12:39:18.146
LEye coords (40.0, 234.0), REye coords (50.0, 265.0), timeStamp: 2017-03-05 12:39:18.178
LEye coords (40.0, 234.0), REye coords (50.0, 264.0), timeStamp: 2017-03-05 12:39:18.212
LEye coords (147.0, 172.0), REye coords (161.0, 201.0), timeStamp: 2017-03-05 12:39:18.258
LEye coords (169.0, 170.0), REye coords (184.0, 192.0), timeStamp: 2017-03-05 12:39:18.290
LEye coords (169.0, 168.0), REye coords (0.0, 0.0), timeStamp: 2017-03-05 12:39:18.324
LEye coords (168.0, 169.0), REye coords (186.0, 195.0), timeStamp: 2017-03-05 12:39:18.368
LEye coords (168.0, 169.0), REye coords (184.0, 195.0), timeStamp: 2017-03-05 12:39:18.401
LEye coords (133.0, 180.0), REye coords (175.0, 196.0), timeStamp: 2017-03-05 12:39:18.435
LEye coords (98.0, 190.0), REye coords (107.0, 214.0), timeStamp: 2017-03-05 12:39:18.479
LEye coords (97.0, 190.0), REye coords (107.0, 214.0), timeStamp: 2017-03-05 12:39:18.513
LEye coords (96.0, 191.0), REye coords (108.0, 211.0), timeStamp: 2017-03-05 12:39:18.547
LEye coords (95.0, 190.0), REye coords (106.0, 211.0), timeStamp: 2017-03-05 12:39:18.592
LEye coords (94.0, 187.0), REye coords (105.0, 211.0), timeStamp: 2017-03-05 12:39:18.625
LEye coords (81.0, 186.0), REye coords (104.0, 212.0), timeStamp: 2017-03-05 12:39:18.658
LEye coords (75.0, 184.0), REye coords (82.0, 213.0), timeStamp: 2017-03-05 12:39:18.703
LEye coords (72.0, 183.0), REye coords (81.0, 209.0), timeStamp: 2017-03-05 12:39:18.737
LEye coords (71.0, 182.0), REye coords (81.0, 209.0), timeStamp: 2017-03-05 12:39:18.771
LEye coords (69.0, 182.0), REye coords (80.0, 208.0), timeStamp: 2017-03-05 12:39:18.805
LEye coords (69.0, 181.0), REye coords (80.0, 207.0), timeStamp: 2017-03-05 12:39:18.849
LEye coords (69.0, 181.0), REye coords (80.0, 206.0), timeStamp: 2017-03-05 12:39:18.883
LEye coords (69.0, 181.0), REye coords (79.0, 206.0), timeStamp: 2017-03-05 12:39:18.916
LEye coords (69.0, 181.0), REye coords (79.0, 207.0), timeStamp: 2017-03-05 12:39:18.960
LEye coords (69.0, 181.0), REye coords (79.0, 207.0), timeStamp: 2017-03-05 12:39:18.994
LEye coords (69.0, 181.0), REye coords (80.0, 207.0), timeStamp: 2017-03-05 12:39:19.028
LEye coords (69.0, 181.0), REye coords (80.0, 208.0), timeStamp: 2017-03-05 12:39:19.072
