LEye coords (69.0, 161.0), REye coords (80.0, 185.0), timeStamp: 2017-03-05 12:39:19.186
LEye coords (69.0, 161.0), REye coords (81.0, 185.0), timeStamp: 2017-03-05 12:39:19.220
LEye coords (69.0, 161.0), REye coords (81.0, 185.0), timeStamp: 2017-03-05 12:39:19.254
LEye coords (70.0, 160.0), REye coords (82.0, 185.0), timeStamp: 2017-03-05 12:39:19.287
LEye coords (70.0, 160.0), REye coords (83.0, 185.0), timeStamp: 2017-03-05 12:39:19.332
LEye coords (70.0, 160.0), REye coords (83.0, 185.0), timeStamp: 2017-03-05 12:39:19.366
LEye coords (71.0, 160.0), REye coords (83.0, 186.0), timeStamp: 2017-03-05 12:39:19.400
LEye coords (72.0, 160.0), REye coords (85.0, 185.0), timeStamp: 2017-03-05 12:39:19.433
LEye coords (211.0, 192.0), REye coords (236.0, 209.0), timeStamp: 2017-03-05 12:39:19.478
LEye coords (209.0, 190.0), REye coords (229.0, 206.0), timeStamp: 2017-03-05 12:39:19.513
LEye coords (210.0, 190.0), REye coords (229.0, 210.0), timeStamp: 2017-03-05 12:39:19.546
LEye coords (209.0, 189.0), REye coords (229.0, 210.0), timeStamp: 2017-03-05 12:39:19.591
LEye coords (210.0, 185.0), REye coords (230.0, 206.0), timeStamp: 2017-03-05 12:39:19.624
LEye coords (214.0, 151.0), REye coords (231.0, 166.0), timeStamp: 2017-03-05 12:39:19.659
LEye coords (205.0, 156.0), REye coords (228.0, 168.0), timeStamp: 2017-03-05 12:39:19.702
LEye coords (208.0, 154.0), REye coords (229.0, 168.0), timeStamp: 2017-03-05 12:39:19.735
LEye coords (208.0, 152.0), REye coords (230.0, 169.0), timeStamp: 2017-03-05 12:39:19.768
LEye coords (209.0, 153.0), REye coords (231.0, 169.0), timeStamp: 2017-03-05 12:39:19.813
LEye coords (208.0, 151.0), REye coords (232.0, 168.0), timeStamp: 2017-03-05 12:39:19.846
LEye coords (208.0, 150.0), REye coords (232.0, 167.0), timeStamp: 2017-03-05 12:39:19.880
LEye coords (208.0, 150.0), REye coords (231.0, 167.0), timeStamp: 2017-03-05 12:39:19.924
LEye coords (206.0, 147.0), REye coords (231.0, 167.0), timeStamp: 2017-03-05 12:39:19.958
LEye coords (204.0, 147.0), REye coords (229.0, 167.0), timeStamp: 2017-03-05 12:39:19.993
LEye coords (203.0, 147.0), REye coords (227.0, 166.0), timeStamp: 2017-03-05 12:39:20.027
LEye coords (202.0, 148.0), REye coords (225.0, 166.0), timeStamp: 2017-03-05 12:39:20.071
LEye coords (200.0, 148.0), REye coords (224.0, 166.0), timeStamp: 2017-03-05 12:39:20.105
LEye coords (199.0, 149.0), REye coords (223.0, 166.0), timeStamp: 2017-03-05 12:39:20.139
