LEye coords (45.0, 232.0), REye coords (56.0, 258.0), timeStamp: 2017-03-05 12:39:23.327
LEye coords (46.0, 231.0), REye coords (55.0, 258.0), timeStamp: 2017-03-05 12:39:23.361
LEye coords (46.0, 232.0), REye coords (55.0, 258.0), timeStamp: 2017-03-05 12:39:23.394
LEye coords (46.0, 232.0), REye coords (55.0, 258.0), timeStamp: 2017-03-05 12:39:23.439
LEye coords (47.0, 232.0), REye coords (55.0, 259.0), timeStamp: 2017-03-05 12:39:23.473
LEye coords (128.0, 177.0), REye coords (153.0, 209.0), timeStamp: 2017-03-05 12:39:23.506
LEye coords (134.0, 184.0), REye coords (145.0, 204.0), timeStamp: 2017-03-05 12:39:23.551
LEye coords (133.0, 183.0), REye coords (146.0, 201.0), timeStamp: 2017-03-05 12:39:23.584
LEye coords (133.0, 181.0), REye coords (146.0, 201.0), timeStamp: 2017-03-05 12:39:23.618
LEye coords (137.0, 156.0), REye coords (151.0, 169.0), timeStamp: 2017-03-05 12:39:23.662
LEye coords (149.0, 88.0), REye coords (160.0, 82.0), timeStamp: 2017-03-05 12:39:23.696
LEye coords (146.0, 88.0), REye coords (164.0, 85.0), timeStamp: 2017-03-05 12:39:23.730
LEye coords (145.0, 90.0), REye coords (164.0, 88.0), timeStamp: 2017-03-05 12:39:23.774
LEye coords (131.0, 102.0), REye coords (145.0, 101.0), timeStamp: 2017-03-05 12:39:23.808
LEye coords (123.0, 108.0), REye coords (137.0, 109.0), timeStamp: 2017-03-05 12:39:23.841
LEye coords (119.0, 111.0), REye coords (105.0, 128.0), timeStamp: 2017-03-05 12:39:23.875
LEye coords (115.0, 114.0), REye coords (109.0, 137.0), timeStamp: 2017-03-05 12:39:23.919
LEye coords (113.0, 117.0), REye coords (108.0, 133.0), timeStamp: 2017-03-05 12:39:23.952
LEye coords (75.0, 131.0), REye coords (99.0, 134.0), timeStamp: 2017-03-05 12:39:23.995
LEye coords (78.0, 131.0), REye coords (93.0, 136.0), timeStamp: 2017-03-05 12:39:24.029
LEye coords (78.0, 131.0), REye coords (90.0, 136.0), timeStamp: 2017-03-05 12:39:24.062
LEye coords (78.0, 132.0), REye coords (88.0, 137.0), timeStamp: 2017-03-05 12:39:24.106
LEye coords (78.0, 133.0), REye coords (87.0, 137.0), timeStamp: 2017-03-05 12:39:24.138
LEye coords (83.0, 137.0), REye coords (91.0, 142.0), timeStamp: 2017-03-05 12:39:24.173
LEye coords (152.0, 205.0), REye coords (0.0, 0.0), timeStamp: 2017-03-05 12:39:24.217
LEye coords (153.0, 210.0), REye coords (0.0, 0.0), timeStamp: 2017-03-05 12:39:24.251
LEye coords (155.0, 211.0), REye coords (0.0, 0.0), timeStamp: 2017-03-05 12:39:24.285
LEye coords (155.0, 209.0), REye coords (0.0, 0.0), timeStamp: 2017-03-05 12:39:24.318
LEye coords (156.0, 209.0), REye coords (0.0, 0.0), timeStamp: 2017-03-05 12:39:24.362
LEye coords (157.0, 212.0), REye coords (0.0, 0.0), timeStamp: 2017-03-05 12:39:24.397
LEye coords (195.0, 217.0), REye coords (209.0, 238.0), timeStamp: 2017-03-05 12:39:24.431
LEye coords (206.0, 221.0), REye coords (234.0, 240.0), timeStamp: 2017-03-05 12:39:24.475
LEye coords (210.0, 221.0), REye coords (232.0, 242.0), timeStamp: 2017-03-05 12:39:24.508
LEye coords (212.0, 222.0), REye coords (232.0, 242.0), timeStamp: 2017-03-05 12:39:24.542
LEye coords (221.0, 226.0), REye coords (233.0, 241.0), timeStamp: 2017-03-05 12:39:24.585
LEye coords (221.0, 228.0), REye coords (235.0, 242.0), timeStamp: 2017-03-05 12:39:24.619
LEye coords (222.0, 226.0), REye coords (235.0, 242.0), timeStamp: 2017-03-05 12:39:24.652
LEye coords (222.0, 225.0), REye coords (237.0, 244.0), timeStamp: 2017-03-05 12:39:24.695
