LEye coords (211.0, 31.0), REye coords (212.0, 16.0), timeStamp: 2017-03-05 12:39:21.994
LEye coords (212.0, 39.0), REye coords (213.0, 20.0), timeStamp: 2017-03-05 12:39:22.027
LEye coords (212.0, 40.0), REye coords (214.0, 21.0), timeStamp: 2017-03-05 12:39:22.071
LEye coords (213.0, 41.0), REye coords (215.0, 21.0), timeStamp: 2017-03-05 12:39:22.103
LEye coords (213.0, 42.0), REye coords (216.0, 22.0), timeStamp: 2017-03-05 12:39:22.139
LEye coords (213.0, 43.0), REye coords (217.0, 23.0), timeStamp: 2017-03-05 12:39:22.172
LEye coords (213.0, 43.0), REye coords (217.0, 23.0), timeStamp: 2017-03-05 12:39:22.215
LEye coords (194.0, 143.0), REye coords (204.0, 147.0), timeStamp: 2017-03-05 12:39:22.249
LEye coords (186.0, 199.0), REye coords (202.0, 210.0), timeStamp: 2017-03-05 12:39:22.292
LEye coords (187.0, 200.0), REye coords (203.0, 215.0), timeStamp: 2017-03-05 12:39:22.326
LEye coords (187.0, 199.0), REye coords (203.0, 214.0), timeStamp: 2017-03-05 12:39:22.360
LEye coords (188.0, 199.0), REye coords (202.0, 214.0), timeStamp: 2017-03-05 12:39:22.404
LEye coords (72.0, 286.0), REye coords (76.0, 320.0), timeStamp: 2017-03-05 12:39:22.438
LEye coords (61.0, 300.0), REye coords (68.0, 319.0), timeStamp: 2017-03-05 12:39:22.471
LEye coords (62.0, 297.0), REye coords (67.0, 319.0), timeStamp: 2017-03-05 12:39:22.515
LEye coords (62.0, 295.0), REye coords (67.0, 319.0), timeStamp: 2017-03-05 12:39:22.548
LEye coords (61.0, 295.0), REye coords (67.0, 319.0), timeStamp: 2017-03-05 12:39:22.581
LEye coords (57.0, 297.0), REye coords (64.0, 318.0), timeStamp: 2017-03-05 12:39:22.626
LEye coords (54.0, 286.0), REye coords (66.0, 319.0), timeStamp: 2017-03-05 12:39:22.659
LEye coords (55.0, 286.0), REye coords (64.0, 319.0), timeStamp: 2017-03-05 12:39:22.693
LEye coords (52.0, 287.0), REye coords (63.0, 317.0), timeStamp: 2017-03-05 12:39:22.728
LEye coords (50.0, 287.0), REye coords (61.0, 317.0), timeStamp: 2017-03-05 12:39:22.770
LEye coords (48.0, 287.0), REye coords (61.0, 315.0), timeStamp: 2017-03-05 12:39:22.804
LEye coords (46.0, 285.0), REye coords (60.0, 314.0), timeStamp: 2017-03-05 12:39:22.848
LEye coords (45.0, 285.0), REye coords (59.0, 313.0), timeStamp: 2017-03-05 12:39:22.882
LEye coords (45.0, 284.0), REye coords (59.0, 313.0), timeStamp: 2017-03-05 12:39:22.915
LEye coords (44.0, 283.0), REye coords (59.0, 312.0), timeStamp: 2017-03-05 12:39:22.959
LEye coords (43.0, 283.0), REye coords (58.0, 311.0), timeStamp: 2017-03-05 12:39:22.994
LEye coords (43.0, 282.0), REye coords (58.0, 311.0), timeStamp: 2017-03-05 12:39:23.027
LEye coords (43.0, 282.0), REye coords (58.0, 311.0), timeStamp: 2017-03-05 12:39:23.060
LEye coords (43.0, 281.0), REye coords (57.0, 311.0), timeStamp: 2017-03-05 12:39:23.104
LEye coords (43.0, 281.0), REye coords (57.0, 311.0), timeStamp: 2017-03-05 12:39:23.137
LEye coords (43.0, 280.0), REye coords (57.0, 312.0), timeStamp: 2017-03-05 12:39:23.181
LEye coords (44.0, 280.0), REye coords (56.0, 312.0), timeStamp: 2017-03-05 12:39:23.214
