LEye coords (223.0, 172.0), REye coords (195.0, 164.0), timeStamp: 2017-03-05 12:40:03.998
LEye coords (225.0, 173.0), REye coords (197.0, 166.0), timeStamp: 2017-03-05 12:40:04.032
LEye coords (227.0, 173.0), REye coords (198.0, 167.0), timeStamp: 2017-03-05 12:40:04.077
LEye coords (228.0, 174.0), REye coords (200.0, 168.0), timeStamp: 2017-03-05 12:40:04.110
LEye coords (230.0, 175.0), REye coords (202.0, 168.0), timeStamp: 2017-03-05 12:40:04.143
LEye coords (232.0, 175.0), REye coords (204.0, 169.0), timeStamp: 2017-03-05 12:40:04.187
LEye coords (233.0, 176.0), REye coords (206.0, 170.0), timeStamp: 2017-03-05 12:40:04.222
LEye coords (272.0, 179.0), REye coords (253.0, 172.0), timeStamp: 2017-03-05 12:40:04.256
LEye coords (296.0, 170.0), REye coords (270.0, 162.0), timeStamp: 2017-03-05 12:40:04.300
LEye coords (295.0, 170.0), REye coords (278.0, 153.0), timeStamp: 2017-03-05 12:40:04.333
LEye coords (295.0, 170.0), REye coords (278.0, 155.0), timeStamp: 2017-03-05 12:40:04.366
LEye coords (295.0, 170.0), REye coords (277.0, 158.0), timeStamp: 2017-03-05 12:40:04.410
LEye coords (243.0, 164.0), REye coords (221.0, 152.0), timeStamp: 2017-03-05 12:40:04.443
LEye coords (58.0, 145.0), REye coords (14.0, 130.0), timeStamp: 2017-03-05 12:40:04.478
LEye coords (54.0, 145.0), REye coords (15.0, 128.0), timeStamp: 2017-03-05 12:40:04.522
LEye coords (54.0, 147.0), REye coords (17.0, 128.0), timeStamp: 2017-03-05 12:40:04.555
LEye coords (53.0, 148.0), REye coords (17.0, 129.0), timeStamp: 2017-03-05 12:40:04.589
LEye coords (76.0, 147.0), REye coords (20.0, 129.0), timeStamp: 2017-03-05 12:40:04.632
LEye coords (55.0, 151.0), REye coords (23.0, 140.0), timeStamp: 2017-03-05 12:40:04.666
LEye coords (54.0, 153.0), REye coords (22.0, 140.0), timeStamp: 2017-03-05 12:40:04.699
LEye coords (54.0, 153.0), REye coords (22.0, 141.0), timeStamp: 2017-03-05 12:40:04.743
LEye coords (54.0, 153.0), REye coords (21.0, 141.0), timeStamp: 2017-03-05 12:40:04.776
LEye coords (55.0, 153.0), REye coords (21.0, 143.0), timeStamp: 2017-03-05 12:40:04.811
LEye coords (55.0, 153.0), REye coords (21.0, 144.0), timeStamp: 2017-03-05 12:40:04.854
LEye coords (55.0, 154.0), REye coords (21.0, 144.0), timeStamp: 2017-03-05 12:40:04.889
LEye coords (57.0, 154.0), REye coords (23.0, 144.0), timeStamp: 2017-03-05 12:40:04.923
LEye coords (59.0, 155.0), REye coords (24.0, 145.0), timeStamp: 2017-03-05 12:40:04.957
