LEye coords (205.0, 171.0), REye coords (217.0, 163.0), timeStamp: 2017-03-05 12:40:48.674
LEye coords (205.0, 171.0), REye coords (217.0, 163.0), timeStamp: 2017-03-05 12:40:48.708
LEye coords (206.0, 170.0), REye coords (218.0, 163.0), timeStamp: 2017-03-05 12:40:48.741
LEye coords (206.0, 169.0), REye coords (218.0, 163.0), timeStamp: 2017-03-05 12:40:48.786
LEye coords (206.0, 169.0), REye coords (218.0, 163.0), timeStamp: 2017-03-05 12:40:48.820
LEye coords (207.0, 169.0), REye coords (219.0, 163.0), timeStamp: 2017-03-05 12:40:48.854
LEye coords (207.0, 168.0), REye coords (219.0, 163.0), timeStamp: 2017-03-05 12:40:48.888
LEye coords (208.0, 168.0), REye coords (220.0, 163.0), timeStamp: 2017-03-05 12:40:48.932
LEye coords (288.0, 159.0), REye coords (311.0, 162.0), timeStamp: 2017-03-05 12:40:48.966
LEye coords (293.0, 166.0), REye coords (306.0, 168.0), timeStamp: 2017-03-05 12:40:49.000
LEye coords (292.0, 164.0), REye coords (307.0, 170.0), timeStamp: 2017-03-05 12:40:49.044
LEye coords (291.0, 164.0), REye coords (309.0, 170.0), timeStamp: 2017-03-05 12:40:49.078
LEye coords (291.0, 164.0), REye coords (309.0, 169.0), timeStamp: 2017-03-05 12:40:49.112
LEye coords (290.0, 161.0), REye coords (311.0, 169.0), timeStamp: 2017-03-05 12:40:49.156
LEye coords (294.0, 165.0), REye coords (308.0, 170.0), timeStamp: 2017-03-05 12:40:49.189
LEye coords (294.0, 165.0), REye coords (308.0, 171.0), timeStamp: 2017-03-05 12:40:49.223
LEye coords (293.0, 165.0), REye coords (309.0, 170.0), timeStamp: 2017-03-05 12:40:49.267
LEye coords (293.0, 165.0), REye coords (309.0, 169.0), timeStamp: 2017-03-05 12:40:49.299
LEye coords (293.0, 166.0), REye coords (309.0, 169.0), timeStamp: 2017-03-05 12:40:49.334
LEye coords (293.0, 166.0), REye coords (308.0, 170.0), timeStamp: 2017-03-05 12:40:49.378
LEye coords (293.0, 166.0), REye coords (308.0, 170.0), timeStamp: 2017-03-05 12:40:49.412
LEye coords (459.0, 160.0), REye coords (462.0, 157.0), timeStamp: 2017-03-05 12:40:49.445
LEye coords (442.0, 161.0), REye coords (461.0, 165.0), timeStamp: 2017-03-05 12:40:49.489
LEye coords (446.0, 161.0), REye coords (461.0, 164.0), timeStamp: 2017-03-05 12:40:49.522
LEye coords (447.0, 162.0), REye coords (460.0, 164.0), timeStamp: 2017-03-05 12:40:49.555
LEye coords (447.0, 163.0), REye coords (458.0, 165.0), timeStamp: 2017-03-05 12:40:49.601
LEye coords (447.0, 166.0), REye coords (466.0, 156.0), timeStamp: 2017-03-05 12:40:49.635
LEye coords (447.0, 165.0), REye coords (460.0, 162.0), timeStamp: 2017-03-05 12:40:49.668
LEye coords (447.0, 165.0), REye coords (460.0, 162.0), timeStamp: 2017-03-05 12:40:49.712
LEye coords (446.0, 165.0), REye coords (461.0, 161.0), timeStamp: 2017-03-05 12:40:49.746
LEye coords (446.0, 165.0), REye coords (461.0, 161.0), timeStamp: 2017-03-05 12:40:49.780
LEye coords (446.0, 166.0), REye coords (461.0, 161.0), timeStamp: 2017-03-05 12:40:49.813
LEye coords (446.0, 166.0), REye coords (461.0, 161.0), timeStamp: 2017-03-05 12:40:49.857
LEye coords (446.0, 166.0), REye coords (462.0, 161.0), timeStamp: 2017-03-05 12:40:49.890
LEye coords (446.0, 166.0), REye coords (462.0, 161.0), timeStamp: 2017-03-05 12:40:49.935
LEye coords (446.0, 167.0), REye coords (462.0, 161.0), timeStamp: 2017-03-05 12:40:49.968
LEye coords (445.0, 166.0), REye coords (462.0, 161.0), timeStamp: 2017-03-05 12:40:50.002
LEye coords (445.0, 166.0), REye coords (462.0, 161.0), timeStamp: 2017-03-05 12:40:50.046
LEye coords (445.0, 166.0), REye coords (462.0, 162.0), timeStamp: 2017-03-05 12:40:50.079
LEye coords (444.0, 166.0), REye coords (461.0, 163.0), timeStamp: 2017-03-05 12:40:50.113
