LEye coords (134.0, 221.0), REye coords (154.0, 208.0), timeStamp: 2017-03-05 12:40:53.259
LEye coords (135.0, 221.0), REye coords (154.0, 209.0), timeStamp: 2017-03-05 12:40:53.292
LEye coords (136.0, 222.0), REye coords (154.0, 210.0), timeStamp: 2017-03-05 12:40:53.336
LEye coords (136.0, 222.0), REye coords (154.0, 210.0), timeStamp: 2017-03-05 12:40:53.370
LEye coords (137.0, 222.0), REye coords (155.0, 211.0), timeStamp: 2017-03-05 12:40:53.404
LEye coords (137.0, 223.0), REye coords (155.0, 212.0), timeStamp: 2017-03-05 12:40:53.448
LEye coords (138.0, 223.0), REye coords (155.0, 212.0), timeStamp: 2017-03-05 12:40:53.482
LEye coords (138.0, 224.0), REye coords (156.0, 213.0), timeStamp: 2017-03-05 12:40:53.515
LEye coords (138.0, 225.0), REye coords (156.0, 214.0), timeStamp: 2017-03-05 12:40:53.559
LEye coords (138.0, 226.0), REye coords (155.0, 214.0), timeStamp: 2017-03-05 12:40:53.593
LEye coords (188.0, 433.0), REye coords (191.0, 430.0), timeStamp: 2017-03-05 12:40:53.626
LEye coords (184.0, 433.0), REye coords (193.0, 428.0), timeStamp: 2017-03-05 12:40:53.671
LEye coords (184.0, 437.0), REye coords (194.0, 426.0), timeStamp: 2017-03-05 12:40:53.704
LEye coords (178.0, 424.0), REye coords (188.0, 417.0), timeStamp: 2017-03-05 12:40:53.738
LEye coords (176.0, 418.0), REye coords (185.0, 413.0), timeStamp: 2017-03-05 12:40:53.782
LEye coords (171.0, 404.0), REye coords (176.0, 389.0), timeStamp: 2017-03-05 12:40:53.815
LEye coords (173.0, 407.0), REye coords (173.0, 403.0), timeStamp: 2017-03-05 12:40:53.849
LEye coords (171.0, 406.0), REye coords (173.0, 402.0), timeStamp: 2017-03-05 12:40:53.893
LEye coords (169.0, 405.0), REye coords (171.0, 406.0), timeStamp: 2017-03-05 12:40:53.926
LEye coords (168.0, 405.0), REye coords (173.0, 403.0), timeStamp: 2017-03-05 12:40:53.959
LEye coords (166.0, 406.0), REye coords (172.0, 404.0), timeStamp: 2017-03-05 12:40:54.004
LEye coords (166.0, 407.0), REye coords (171.0, 406.0), timeStamp: 2017-03-05 12:40:54.038
LEye coords (165.0, 407.0), REye coords (171.0, 407.0), timeStamp: 2017-03-05 12:40:54.072
LEye coords (164.0, 407.0), REye coords (170.0, 407.0), timeStamp: 2017-03-05 12:40:54.116
LEye coords (164.0, 408.0), REye coords (170.0, 409.0), timeStamp: 2017-03-05 12:40:54.149
LEye coords (163.0, 408.0), REye coords (170.0, 409.0), timeStamp: 2017-03-05 12:40:54.183
LEye coords (165.0, 410.0), REye coords (172.0, 411.0), timeStamp: 2017-03-05 12:40:54.227
LEye coords (167.0, 412.0), REye coords (173.0, 412.0), timeStamp: 2017-03-05 12:40:54.260
LEye coords (168.0, 413.0), REye coords (175.0, 414.0), timeStamp: 2017-03-05 12:40:54.293
LEye coords (169.0, 414.0), REye coords (176.0, 415.0), timeStamp: 2017-03-05 12:40:54.337
LEye coords (170.0, 415.0), REye coords (177.0, 417.0), timeStamp: 2017-03-05 12:40:54.371
LEye coords (172.0, 416.0), REye coords (178.0, 418.0), timeStamp: 2017-03-05 12:40:54.404
LEye coords (173.0, 417.0), REye coords (179.0, 420.0), timeStamp: 2017-03-05 12:40:54.449
LEye coords (174.0, 418.0), REye coords (180.0, 420.0), timeStamp: 2017-03-05 12:40:54.482
LEye coords (175.0, 419.0), REye coords (181.0, 421.0), timeStamp: 2017-03-05 12:40:54.516
