LEye coords (288.0, 263.0), REye coords (292.0, 265.0), timeStamp: 2017-03-05 12:40:55.740
LEye coords (287.0, 263.0), REye coords (292.0, 265.0), timeStamp: 2017-03-05 12:40:55.773
LEye coords (288.0, 263.0), REye coords (293.0, 264.0), timeStamp: 2017-03-05 12:40:55.818
LEye coords (0.0, 0.0), REye coords (293.0, 264.0), timeStamp: 2017-03-05 12:40:55.852
LEye coords (290.0, 263.0), REye coords (294.0, 263.0), timeStamp: 2017-03-05 12:40:55.886
LEye coords (290.0, 263.0), REye coords (294.0, 262.0), timeStamp: 2017-03-05 12:40:55.920
LEye coords (290.0, 263.0), REye coords (295.0, 262.0), timeStamp: 2017-03-05 12:40:55.964
LEye coords (0.0, 0.0), REye coords (295.0, 262.0), timeStamp: 2017-03-05 12:40:55.997
LEye coords (290.0, 263.0), REye coords (295.0, 261.0), timeStamp: 2017-03-05 12:40:56.031
LEye coords (289.0, 263.0), REye coords (295.0, 260.0), timeStamp: 2017-03-05 12:40:56.076
LEye coords (289.0, 264.0), REye coords (296.0, 261.0), timeStamp: 2017-03-05 12:40:56.110
LEye coords (287.0, 210.0), REye coords (306.0, 201.0), timeStamp: 2017-03-05 12:40:56.144
LEye coords (290.0, 191.0), REye coords (305.0, 188.0), timeStamp: 2017-03-05 12:40:56.187
LEye coords (290.0, 192.0), REye coords (304.0, 188.0), timeStamp: 2017-03-05 12:40:56.220
LEye coords (288.0, 193.0), REye coords (303.0, 188.0), timeStamp: 2017-03-05 12:40:56.254
LEye coords (288.0, 192.0), REye coords (303.0, 186.0), timeStamp: 2017-03-05 12:40:56.297
LEye coords (286.0, 186.0), REye coords (305.0, 181.0), timeStamp: 2017-03-05 12:40:56.331
LEye coords (289.0, 191.0), REye coords (306.0, 177.0), timeStamp: 2017-03-05 12:40:56.364
LEye coords (290.0, 190.0), REye coords (307.0, 175.0), timeStamp: 2017-03-05 12:40:56.408
LEye coords (290.0, 190.0), REye coords (308.0, 177.0), timeStamp: 2017-03-05 12:40:56.441
LEye coords (291.0, 190.0), REye coords (309.0, 178.0), timeStamp: 2017-03-05 12:40:56.475
LEye coords (293.0, 190.0), REye coords (311.0, 176.0), timeStamp: 2017-03-05 12:40:56.520
LEye coords (295.0, 189.0), REye coords (313.0, 175.0), timeStamp: 2017-03-05 12:40:56.554
LEye coords (296.0, 188.0), REye coords (313.0, 175.0), timeStamp: 2017-03-05 12:40:56.588
LEye coords (297.0, 187.0), REye coords (314.0, 173.0), timeStamp: 2017-03-05 12:40:56.633
LEye coords (297.0, 187.0), REye coords (315.0, 172.0), timeStamp: 2017-03-05 12:40:56.667
LEye coords (298.0, 186.0), REye coords (316.0, 171.0), timeStamp: 2017-03-05 12:40:56.700
LEye coords (299.0, 187.0), REye coords (316.0, 171.0), timeStamp: 2017-03-05 12:40:56.735
LEye coords (299.0, 187.0), REye coords (316.0, 172.0), timeStamp: 2017-03-05 12:40:56.779
LEye coords (299.0, 187.0), REye coords (316.0, 172.0), timeStamp: 2017-03-05 12:40:56.812
LEye coords (300.0, 187.0), REye coords (316.0, 172.0), timeStamp: 2017-03-05 12:40:56.846
LEye coords (300.0, 187.0), REye coords (316.0, 172.0), timeStamp: 2017-03-05 12:40:56.890
LEye coords (301.0, 187.0), REye coords (317.0, 172.0), timeStamp: 2017-03-05 12:40:56.923
LEye coords (301.0, 186.0), REye coords (317.0, 173.0), timeStamp: 2017-03-05 12:40:56.958
LEye coords (301.0, 186.0), REye coords (316.0, 173.0), timeStamp: 2017-03-05 12:40:57.003
