LEye coords (262.0, 142.0), REye coords (284.0, 97.0), timeStamp: 2017-03-05 12:41:03.738
LEye coords (167.0, 162.0), REye coords (227.0, 175.0), timeStamp: 2017-03-05 12:41:36.603
LEye coords (172.0, 126.0), REye coords (225.0, 136.0), timeStamp: 2017-03-05 12:41:36.637
LEye coords (177.0, 124.0), REye coords (227.0, 137.0), timeStamp: 2017-03-05 12:41:36.672
LEye coords (180.0, 124.0), REye coords (227.0, 134.0), timeStamp: 2017-03-05 12:41:36.715
LEye coords (183.0, 125.0), REye coords (228.0, 136.0), timeStamp: 2017-03-05 12:41:36.749
LEye coords (187.0, 126.0), REye coords (230.0, 140.0), timeStamp: 2017-03-05 12:41:36.782
LEye coords (189.0, 128.0), REye coords (234.0, 138.0), timeStamp: 2017-03-05 12:41:36.825
LEye coords (191.0, 129.0), REye coords (0.0, 0.0), timeStamp: 2017-03-05 12:41:36.859
LEye coords (193.0, 130.0), REye coords (233.0, 137.0), timeStamp: 2017-03-05 12:41:36.892
LEye coords (194.0, 131.0), REye coords (0.0, 0.0), timeStamp: 2017-03-05 12:41:36.937
LEye coords (196.0, 132.0), REye coords (0.0, 0.0), timeStamp: 2017-03-05 12:41:36.971
LEye coords (209.0, 143.0), REye coords (229.0, 137.0), timeStamp: 2017-03-05 12:41:37.005
LEye coords (209.0, 142.0), REye coords (230.0, 137.0), timeStamp: 2017-03-05 12:41:37.048
LEye coords (208.0, 144.0), REye coords (0.0, 0.0), timeStamp: 2017-03-05 12:41:37.083
LEye coords (209.0, 145.0), REye coords (229.0, 138.0), timeStamp: 2017-03-05 12:41:37.118
LEye coords (206.0, 148.0), REye coords (226.0, 140.0), timeStamp: 2017-03-05 12:41:37.151
LEye coords (202.0, 151.0), REye coords (223.0, 142.0), timeStamp: 2017-03-05 12:41:37.196
LEye coords (199.0, 152.0), REye coords (220.0, 144.0), timeStamp: 2017-03-05 12:41:37.229
LEye coords (197.0, 153.0), REye coords (217.0, 145.0), timeStamp: 2017-03-05 12:41:37.263
LEye coords (195.0, 154.0), REye coords (215.0, 146.0), timeStamp: 2017-03-05 12:41:37.308
LEye coords (194.0, 155.0), REye coords (214.0, 148.0), timeStamp: 2017-03-05 12:41:37.342
LEye coords (193.0, 155.0), REye coords (212.0, 149.0), timeStamp: 2017-03-05 12:41:37.376
LEye coords (192.0, 157.0), REye coords (211.0, 150.0), timeStamp: 2017-03-05 12:41:37.409
LEye coords (191.0, 157.0), REye coords (210.0, 150.0), timeStamp: 2017-03-05 12:41:37.453
LEye coords (190.0, 157.0), REye coords (209.0, 151.0), timeStamp: 2017-03-05 12:41:37.486
LEye coords (189.0, 157.0), REye coords (208.0, 152.0), timeStamp: 2017-03-05 12:41:37.520
LEye coords (189.0, 157.0), REye coords (207.0, 153.0), timeStamp: 2017-03-05 12:41:37.565
LEye coords (188.0, 157.0), REye coords (206.0, 153.0), timeStamp: 2017-03-05 12:41:37.599
LEye coords (188.0, 158.0), REye coords (205.0, 154.0), timeStamp: 2017-03-05 12:41:37.632
LEye coords (187.0, 158.0), REye coords (205.0, 154.0), timeStamp: 2017-03-05 12:41:37.676
