LEye coords (367.0, 132.0), REye coords (373.0, 134.0), timeStamp: 2017-03-05 12:41:38.819
LEye coords (367.0, 132.0), REye coords (373.0, 134.0), timeStamp: 2017-03-05 12:41:38.853
LEye coords (368.0, 132.0), REye coords (372.0, 134.0), timeStamp: 2017-03-05 12:41:38.897
LEye coords (368.0, 133.0), REye coords (372.0, 134.0), timeStamp: 2017-03-05 12:41:38.932
LEye coords (368.0, 133.0), REye coords (373.0, 134.0), timeStamp: 2017-03-05 12:41:38.966
LEye coords (368.0, 133.0), REye coords (373.0, 134.0), timeStamp: 2017-03-05 12:41:39.010
LEye coords (368.0, 133.0), REye coords (373.0, 134.0), timeStamp: 2017-03-05 12:41:39.045
LEye coords (308.0, 134.0), REye coords (315.0, 133.0), timeStamp: 2017-03-05 12:41:39.078
LEye coords (292.0, 136.0), REye coords (300.0, 130.0), timeStamp: 2017-03-05 12:41:39.112
LEye coords (293.0, 135.0), REye coords (299.0, 131.0), timeStamp: 2017-03-05 12:41:39.156
LEye coords (293.0, 137.0), REye coords (298.0, 132.0), timeStamp: 2017-03-05 12:41:39.190
LEye coords (292.0, 136.0), REye coords (297.0, 132.0), timeStamp: 2017-03-05 12:41:39.223
LEye coords (0.0, 0.0), REye coords (227.0, 118.0), timeStamp: 2017-03-05 12:41:39.267
LEye coords (213.0, 121.0), REye coords (231.0, 117.0), timeStamp: 2017-03-05 12:41:39.301
LEye coords (217.0, 123.0), REye coords (232.0, 117.0), timeStamp: 2017-03-05 12:41:39.335
LEye coords (216.0, 122.0), REye coords (232.0, 117.0), timeStamp: 2017-03-05 12:41:39.379
LEye coords (0.0, 0.0), REye coords (231.0, 117.0), timeStamp: 2017-03-05 12:41:39.412
LEye coords (0.0, 0.0), REye coords (229.0, 112.0), timeStamp: 2017-03-05 12:41:39.446
LEye coords (216.0, 121.0), REye coords (229.0, 114.0), timeStamp: 2017-03-05 12:41:39.491
LEye coords (184.0, 122.0), REye coords (162.0, 111.0), timeStamp: 2017-03-05 12:41:39.524
LEye coords (69.0, 129.0), REye coords (0.0, 0.0), timeStamp: 2017-03-05 12:41:39.557
LEye coords (72.0, 122.0), REye coords (140.0, 114.0), timeStamp: 2017-03-05 12:41:39.600
LEye coords (71.0, 123.0), REye coords (131.0, 116.0), timeStamp: 2017-03-05 12:41:39.635
LEye coords (72.0, 123.0), REye coords (104.0, 121.0), timeStamp: 2017-03-05 12:41:39.668
LEye coords (73.0, 124.0), REye coords (96.0, 118.0), timeStamp: 2017-03-05 12:41:39.712
LEye coords (72.0, 125.0), REye coords (98.0, 119.0), timeStamp: 2017-03-05 12:41:39.745
LEye coords (72.0, 125.0), REye coords (99.0, 119.0), timeStamp: 2017-03-05 12:41:39.778
LEye coords (72.0, 126.0), REye coords (99.0, 120.0), timeStamp: 2017-03-05 12:41:39.822
LEye coords (72.0, 126.0), REye coords (99.0, 121.0), timeStamp: 2017-03-05 12:41:39.855
LEye coords (73.0, 126.0), REye coords (100.0, 122.0), timeStamp: 2017-03-05 12:41:39.889
LEye coords (72.0, 125.0), REye coords (98.0, 122.0), timeStamp: 2017-03-05 12:41:39.934
LEye coords (71.0, 125.0), REye coords (96.0, 122.0), timeStamp: 2017-03-05 12:41:39.968
LEye coords (71.0, 125.0), REye coords (95.0, 122.0), timeStamp: 2017-03-05 12:41:40.002
LEye coords (71.0, 125.0), REye coords (94.0, 122.0), timeStamp: 2017-03-05 12:41:40.047
LEye coords (70.0, 125.0), REye coords (93.0, 122.0), timeStamp: 2017-03-05 12:41:40.081
LEye coords (70.0, 124.0), REye coords (92.0, 122.0), timeStamp: 2017-03-05 12:41:40.115
LEye coords (69.0, 124.0), REye coords (92.0, 122.0), timeStamp: 2017-03-05 12:41:40.148
LEye coords (69.0, 124.0), REye coords (92.0, 122.0), timeStamp: 2017-03-05 12:41:40.192
LEye coords (69.0, 124.0), REye coords (91.0, 123.0), timeStamp: 2017-03-05 12:41:40.226
LEye coords (68.0, 124.0), REye coords (91.0, 123.0), timeStamp: 2017-03-05 12:41:40.261
LEye coords (68.0, 124.0), REye coords (90.0, 123.0), timeStamp: 2017-03-05 12:41:40.305
LEye coords (67.0, 124.0), REye coords (90.0, 123.0), timeStamp: 2017-03-05 12:41:40.339
LEye coords (67.0, 124.0), REye coords (90.0, 123.0), timeStamp: 2017-03-05 12:41:40.373
LEye coords (66.0, 124.0), REye coords (89.0, 123.0), timeStamp: 2017-03-05 12:41:40.417
LEye coords (65.0, 124.0), REye coords (88.0, 124.0), timeStamp: 2017-03-05 12:41:40.451
LEye coords (64.0, 124.0), REye coords (87.0, 124.0), timeStamp: 2017-03-05 12:41:40.485
