LEye coords (188.0, 159.0), REye coords (205.0, 156.0), timeStamp: 2017-03-05 12:41:37.788
LEye coords (189.0, 101.0), REye coords (205.0, 100.0), timeStamp: 2017-03-05 12:41:37.822
LEye coords (189.0, 101.0), REye coords (205.0, 100.0), timeStamp: 2017-03-05 12:41:37.856
LEye coords (189.0, 101.0), REye coords (205.0, 101.0), timeStamp: 2017-03-05 12:41:37.900
LEye coords (189.0, 101.0), REye coords (205.0, 101.0), timeStamp: 2017-03-05 12:41:37.934
LEye coords (190.0, 101.0), REye coords (206.0, 101.0), timeStamp: 2017-03-05 12:41:37.968
LEye coords (191.0, 101.0), REye coords (207.0, 101.0), timeStamp: 2017-03-05 12:41:38.001
LEye coords (191.0, 101.0), REye coords (207.0, 101.0), timeStamp: 2017-03-05 12:41:38.045
LEye coords (192.0, 102.0), REye coords (208.0, 102.0), timeStamp: 2017-03-05 12:41:38.079
LEye coords (193.0, 101.0), REye coords (209.0, 102.0), timeStamp: 2017-03-05 12:41:38.113
LEye coords (193.0, 101.0), REye coords (210.0, 102.0), timeStamp: 2017-03-05 12:41:38.158
LEye coords (194.0, 102.0), REye coords (210.0, 102.0), timeStamp: 2017-03-05 12:41:38.192
LEye coords (195.0, 102.0), REye coords (211.0, 102.0), timeStamp: 2017-03-05 12:41:38.225
LEye coords (343.0, 115.0), REye coords (347.0, 112.0), timeStamp: 2017-03-05 12:41:38.269
LEye coords (340.0, 117.0), REye coords (351.0, 117.0), timeStamp: 2017-03-05 12:41:38.303
LEye coords (341.0, 117.0), REye coords (351.0, 117.0), timeStamp: 2017-03-05 12:41:38.338
LEye coords (342.0, 117.0), REye coords (352.0, 117.0), timeStamp: 2017-03-05 12:41:38.371
LEye coords (343.0, 118.0), REye coords (353.0, 117.0), timeStamp: 2017-03-05 12:41:38.416
LEye coords (347.0, 118.0), REye coords (359.0, 116.0), timeStamp: 2017-03-05 12:41:38.450
LEye coords (347.0, 118.0), REye coords (357.0, 118.0), timeStamp: 2017-03-05 12:41:38.483
LEye coords (347.0, 118.0), REye coords (355.0, 120.0), timeStamp: 2017-03-05 12:41:38.528
LEye coords (354.0, 120.0), REye coords (362.0, 121.0), timeStamp: 2017-03-05 12:41:38.561
LEye coords (358.0, 121.0), REye coords (365.0, 121.0), timeStamp: 2017-03-05 12:41:38.595
LEye coords (361.0, 121.0), REye coords (368.0, 121.0), timeStamp: 2017-03-05 12:41:38.639
LEye coords (363.0, 121.0), REye coords (369.0, 122.0), timeStamp: 2017-03-05 12:41:38.673
LEye coords (364.0, 121.0), REye coords (370.0, 122.0), timeStamp: 2017-03-05 12:41:38.707
