LEye coords (105.0, 252.0), REye coords (114.0, 252.0), timeStamp: 2017-03-05 12:41:41.563
LEye coords (106.0, 252.0), REye coords (115.0, 252.0), timeStamp: 2017-03-05 12:41:41.596
LEye coords (107.0, 253.0), REye coords (116.0, 252.0), timeStamp: 2017-03-05 12:41:41.630
LEye coords (107.0, 253.0), REye coords (116.0, 253.0), timeStamp: 2017-03-05 12:41:41.674
LEye coords (107.0, 254.0), REye coords (117.0, 253.0), timeStamp: 2017-03-05 12:41:41.707
LEye coords (108.0, 254.0), REye coords (118.0, 253.0), timeStamp: 2017-03-05 12:41:41.741
LEye coords (108.0, 255.0), REye coords (118.0, 254.0), timeStamp: 2017-03-05 12:41:41.785
LEye coords (108.0, 255.0), REye coords (119.0, 254.0), timeStamp: 2017-03-05 12:41:41.818
LEye coords (109.0, 255.0), REye coords (120.0, 254.0), timeStamp: 2017-03-05 12:41:41.852
LEye coords (109.0, 255.0), REye coords (120.0, 255.0), timeStamp: 2017-03-05 12:41:41.895
LEye coords (109.0, 256.0), REye coords (120.0, 255.0), timeStamp: 2017-03-05 12:41:41.928
LEye coords (111.0, 257.0), REye coords (122.0, 255.0), timeStamp: 2017-03-05 12:41:41.962
LEye coords (180.0, 284.0), REye coords (184.0, 280.0), timeStamp: 2017-03-05 12:41:42.006
LEye coords (179.0, 285.0), REye coords (178.0, 286.0), timeStamp: 2017-03-05 12:41:42.041
LEye coords (178.0, 285.0), REye coords (181.0, 286.0), timeStamp: 2017-03-05 12:41:42.074
LEye coords (178.0, 286.0), REye coords (182.0, 284.0), timeStamp: 2017-03-05 12:41:42.119
LEye coords (179.0, 288.0), REye coords (184.0, 285.0), timeStamp: 2017-03-05 12:41:42.153
LEye coords (228.0, 330.0), REye coords (227.0, 325.0), timeStamp: 2017-03-05 12:41:42.186
LEye coords (224.0, 331.0), REye coords (216.0, 332.0), timeStamp: 2017-03-05 12:41:42.230
LEye coords (226.0, 332.0), REye coords (221.0, 327.0), timeStamp: 2017-03-05 12:41:42.263
LEye coords (226.0, 332.0), REye coords (222.0, 327.0), timeStamp: 2017-03-05 12:41:42.297
LEye coords (226.0, 332.0), REye coords (223.0, 327.0), timeStamp: 2017-03-05 12:41:42.341
LEye coords (232.0, 332.0), REye coords (224.0, 326.0), timeStamp: 2017-03-05 12:41:42.375
LEye coords (260.0, 333.0), REye coords (248.0, 325.0), timeStamp: 2017-03-05 12:41:42.408
LEye coords (260.0, 334.0), REye coords (251.0, 327.0), timeStamp: 2017-03-05 12:41:42.442
LEye coords (261.0, 335.0), REye coords (252.0, 329.0), timeStamp: 2017-03-05 12:41:42.486
LEye coords (262.0, 335.0), REye coords (252.0, 328.0), timeStamp: 2017-03-05 12:41:42.520
