LEye coords (216.0, 185.0), REye coords (231.0, 179.0), timeStamp: 2017-03-05 12:41:43.635
LEye coords (216.0, 166.0), REye coords (231.0, 159.0), timeStamp: 2017-03-05 12:41:43.668
LEye coords (216.0, 165.0), REye coords (231.0, 159.0), timeStamp: 2017-03-05 12:41:43.703
LEye coords (217.0, 165.0), REye coords (231.0, 159.0), timeStamp: 2017-03-05 12:41:43.747
LEye coords (217.0, 164.0), REye coords (231.0, 159.0), timeStamp: 2017-03-05 12:41:43.780
LEye coords (218.0, 164.0), REye coords (231.0, 159.0), timeStamp: 2017-03-05 12:41:43.814
LEye coords (218.0, 164.0), REye coords (232.0, 159.0), timeStamp: 2017-03-05 12:41:43.858
LEye coords (218.0, 164.0), REye coords (232.0, 159.0), timeStamp: 2017-03-05 12:41:43.891
LEye coords (218.0, 165.0), REye coords (232.0, 159.0), timeStamp: 2017-03-05 12:41:43.924
LEye coords (218.0, 165.0), REye coords (233.0, 160.0), timeStamp: 2017-03-05 12:41:43.970
LEye coords (367.0, 245.0), REye coords (364.0, 243.0), timeStamp: 2017-03-05 12:41:44.004
LEye coords (364.0, 241.0), REye coords (356.0, 246.0), timeStamp: 2017-03-05 12:41:44.038
LEye coords (362.0, 242.0), REye coords (356.0, 246.0), timeStamp: 2017-03-05 12:41:44.071
LEye coords (363.0, 242.0), REye coords (358.0, 245.0), timeStamp: 2017-03-05 12:41:44.116
LEye coords (362.0, 241.0), REye coords (359.0, 245.0), timeStamp: 2017-03-05 12:41:44.149
LEye coords (362.0, 244.0), REye coords (361.0, 250.0), timeStamp: 2017-03-05 12:41:44.183
LEye coords (360.0, 244.0), REye coords (359.0, 245.0), timeStamp: 2017-03-05 12:41:44.226
LEye coords (392.0, 242.0), REye coords (391.0, 243.0), timeStamp: 2017-03-05 12:41:44.260
LEye coords (404.0, 241.0), REye coords (404.0, 242.0), timeStamp: 2017-03-05 12:41:44.293
LEye coords (409.0, 242.0), REye coords (412.0, 240.0), timeStamp: 2017-03-05 12:41:44.337
LEye coords (426.0, 244.0), REye coords (432.0, 237.0), timeStamp: 2017-03-05 12:41:44.371
LEye coords (423.0, 243.0), REye coords (432.0, 237.0), timeStamp: 2017-03-05 12:41:44.405
LEye coords (424.0, 245.0), REye coords (434.0, 236.0), timeStamp: 2017-03-05 12:41:44.450
LEye coords (423.0, 245.0), REye coords (432.0, 237.0), timeStamp: 2017-03-05 12:41:44.484
LEye coords (421.0, 246.0), REye coords (430.0, 238.0), timeStamp: 2017-03-05 12:41:44.517
LEye coords (420.0, 246.0), REye coords (429.0, 240.0), timeStamp: 2017-03-05 12:41:44.562
LEye coords (420.0, 246.0), REye coords (428.0, 241.0), timeStamp: 2017-03-05 12:41:44.595
LEye coords (420.0, 247.0), REye coords (427.0, 242.0), timeStamp: 2017-03-05 12:41:44.629
