LEye coords (308.0, 193.0), REye coords (315.0, 197.0), timeStamp: 2017-03-05 12:41:47.484
LEye coords (308.0, 193.0), REye coords (315.0, 197.0), timeStamp: 2017-03-05 12:41:47.517
LEye coords (308.0, 194.0), REye coords (315.0, 197.0), timeStamp: 2017-03-05 12:41:47.550
LEye coords (309.0, 194.0), REye coords (315.0, 197.0), timeStamp: 2017-03-05 12:41:47.596
LEye coords (309.0, 194.0), REye coords (315.0, 198.0), timeStamp: 2017-03-05 12:41:47.630
LEye coords (309.0, 194.0), REye coords (314.0, 198.0), timeStamp: 2017-03-05 12:41:47.664
LEye coords (309.0, 193.0), REye coords (314.0, 198.0), timeStamp: 2017-03-05 12:41:47.698
LEye coords (308.0, 193.0), REye coords (314.0, 198.0), timeStamp: 2017-03-05 12:41:47.742
LEye coords (247.0, 163.0), REye coords (261.0, 164.0), timeStamp: 2017-03-05 12:41:47.775
LEye coords (247.0, 165.0), REye coords (263.0, 165.0), timeStamp: 2017-03-05 12:41:47.809
LEye coords (248.0, 167.0), REye coords (263.0, 166.0), timeStamp: 2017-03-05 12:41:47.853
LEye coords (249.0, 167.0), REye coords (262.0, 167.0), timeStamp: 2017-03-05 12:41:47.888
LEye coords (247.0, 162.0), REye coords (261.0, 164.0), timeStamp: 2017-03-05 12:41:47.921
LEye coords (243.0, 149.0), REye coords (261.0, 149.0), timeStamp: 2017-03-05 12:41:47.966
LEye coords (244.0, 154.0), REye coords (260.0, 148.0), timeStamp: 2017-03-05 12:41:48.000
LEye coords (242.0, 150.0), REye coords (261.0, 146.0), timeStamp: 2017-03-05 12:41:48.034
LEye coords (241.0, 149.0), REye coords (260.0, 146.0), timeStamp: 2017-03-05 12:41:48.078
LEye coords (240.0, 148.0), REye coords (260.0, 138.0), timeStamp: 2017-03-05 12:41:48.112
