LEye coords (126.0, 108.0), REye coords (131.0, 93.0), timeStamp: 2017-03-05 12:42:24.902
LEye coords (127.0, 107.0), REye coords (130.0, 93.0), timeStamp: 2017-03-05 12:42:24.937
LEye coords (128.0, 108.0), REye coords (124.0, 103.0), timeStamp: 2017-03-05 12:42:24.970
LEye coords (128.0, 108.0), REye coords (131.0, 107.0), timeStamp: 2017-03-05 12:42:25.013
LEye coords (128.0, 108.0), REye coords (131.0, 110.0), timeStamp: 2017-03-05 12:42:25.046
LEye coords (129.0, 108.0), REye coords (132.0, 110.0), timeStamp: 2017-03-05 12:42:25.080
LEye coords (129.0, 109.0), REye coords (131.0, 111.0), timeStamp: 2017-03-05 12:42:25.124
LEye coords (130.0, 110.0), REye coords (135.0, 115.0), timeStamp: 2017-03-05 12:42:25.158
LEye coords (217.0, 190.0), REye coords (222.0, 189.0), timeStamp: 2017-03-05 12:42:25.191
LEye coords (222.0, 193.0), REye coords (219.0, 187.0), timeStamp: 2017-03-05 12:42:25.235
LEye coords (221.0, 191.0), REye coords (221.0, 184.0), timeStamp: 2017-03-05 12:42:25.269
LEye coords (220.0, 190.0), REye coords (221.0, 186.0), timeStamp: 2017-03-05 12:42:25.303
LEye coords (220.0, 189.0), REye coords (220.0, 188.0), timeStamp: 2017-03-05 12:42:25.347
LEye coords (219.0, 189.0), REye coords (220.0, 189.0), timeStamp: 2017-03-05 12:42:25.381
LEye coords (245.0, 188.0), REye coords (241.0, 194.0), timeStamp: 2017-03-05 12:42:25.414
LEye coords (260.0, 189.0), REye coords (262.0, 189.0), timeStamp: 2017-03-05 12:42:25.458
LEye coords (265.0, 189.0), REye coords (269.0, 186.0), timeStamp: 2017-03-05 12:42:25.491
LEye coords (266.0, 191.0), REye coords (269.0, 187.0), timeStamp: 2017-03-05 12:42:25.525
LEye coords (272.0, 192.0), REye coords (285.0, 184.0), timeStamp: 2017-03-05 12:42:25.570
LEye coords (304.0, 204.0), REye coords (312.0, 193.0), timeStamp: 2017-03-05 12:42:25.604
LEye coords (304.0, 203.0), REye coords (310.0, 193.0), timeStamp: 2017-03-05 12:42:25.638
LEye coords (305.0, 202.0), REye coords (310.0, 192.0), timeStamp: 2017-03-05 12:42:25.672
LEye coords (305.0, 202.0), REye coords (310.0, 192.0), timeStamp: 2017-03-05 12:42:25.715
LEye coords (302.0, 201.0), REye coords (306.0, 191.0), timeStamp: 2017-03-05 12:42:25.749
LEye coords (300.0, 200.0), REye coords (304.0, 190.0), timeStamp: 2017-03-05 12:42:25.782
LEye coords (299.0, 200.0), REye coords (301.0, 189.0), timeStamp: 2017-03-05 12:42:25.826
