LEye coords (221.0, 132.0), REye coords (216.0, 121.0), timeStamp: 2017-03-05 12:42:26.746
LEye coords (221.0, 132.0), REye coords (217.0, 120.0), timeStamp: 2017-03-05 12:42:26.790
LEye coords (221.0, 132.0), REye coords (217.0, 119.0), timeStamp: 2017-03-05 12:42:26.825
LEye coords (221.0, 132.0), REye coords (217.0, 118.0), timeStamp: 2017-03-05 12:42:26.860
LEye coords (221.0, 132.0), REye coords (217.0, 118.0), timeStamp: 2017-03-05 12:42:26.894
LEye coords (221.0, 132.0), REye coords (217.0, 119.0), timeStamp: 2017-03-05 12:42:26.939
LEye coords (220.0, 132.0), REye coords (217.0, 119.0), timeStamp: 2017-03-05 12:42:26.972
LEye coords (228.0, 208.0), REye coords (243.0, 188.0), timeStamp: 2017-03-05 12:42:27.006
LEye coords (230.0, 205.0), REye coords (239.0, 194.0), timeStamp: 2017-03-05 12:42:27.040
LEye coords (229.0, 205.0), REye coords (238.0, 193.0), timeStamp: 2017-03-05 12:42:27.085
LEye coords (230.0, 205.0), REye coords (239.0, 194.0), timeStamp: 2017-03-05 12:42:27.119
LEye coords (221.0, 202.0), REye coords (228.0, 193.0), timeStamp: 2017-03-05 12:42:27.152
LEye coords (187.0, 192.0), REye coords (181.0, 198.0), timeStamp: 2017-03-05 12:42:27.197
LEye coords (185.0, 192.0), REye coords (185.0, 196.0), timeStamp: 2017-03-05 12:42:27.230
LEye coords (176.0, 190.0), REye coords (176.0, 189.0), timeStamp: 2017-03-05 12:42:27.264
LEye coords (169.0, 188.0), REye coords (170.0, 186.0), timeStamp: 2017-03-05 12:42:27.309
LEye coords (166.0, 188.0), REye coords (167.0, 183.0), timeStamp: 2017-03-05 12:42:27.343
LEye coords (164.0, 188.0), REye coords (166.0, 183.0), timeStamp: 2017-03-05 12:42:27.377
LEye coords (162.0, 188.0), REye coords (165.0, 183.0), timeStamp: 2017-03-05 12:42:27.411
LEye coords (161.0, 188.0), REye coords (164.0, 183.0), timeStamp: 2017-03-05 12:42:27.455
LEye coords (159.0, 187.0), REye coords (162.0, 182.0), timeStamp: 2017-03-05 12:42:27.489
LEye coords (158.0, 186.0), REye coords (160.0, 181.0), timeStamp: 2017-03-05 12:42:27.522
LEye coords (157.0, 185.0), REye coords (159.0, 181.0), timeStamp: 2017-03-05 12:42:27.566
LEye coords (156.0, 185.0), REye coords (158.0, 180.0), timeStamp: 2017-03-05 12:42:27.600
LEye coords (156.0, 184.0), REye coords (157.0, 179.0), timeStamp: 2017-03-05 12:42:27.633
LEye coords (155.0, 183.0), REye coords (156.0, 179.0), timeStamp: 2017-03-05 12:42:27.677
LEye coords (154.0, 183.0), REye coords (155.0, 179.0), timeStamp: 2017-03-05 12:42:27.710
