LEye coords (307.0, 338.0), REye coords (300.0, 336.0), timeStamp: 2017-03-05 12:43:29.109
LEye coords (232.0, 307.0), REye coords (240.0, 311.0), timeStamp: 2017-03-05 12:43:29.153
LEye coords (198.0, 309.0), REye coords (205.0, 293.0), timeStamp: 2017-03-05 12:43:29.187
LEye coords (198.0, 309.0), REye coords (205.0, 297.0), timeStamp: 2017-03-05 12:43:29.221
LEye coords (199.0, 311.0), REye coords (205.0, 299.0), timeStamp: 2017-03-05 12:43:29.265
LEye coords (199.0, 310.0), REye coords (204.0, 300.0), timeStamp: 2017-03-05 12:43:29.300
LEye coords (199.0, 319.0), REye coords (199.0, 306.0), timeStamp: 2017-03-05 12:43:29.334
LEye coords (201.0, 319.0), REye coords (200.0, 305.0), timeStamp: 2017-03-05 12:43:29.368
LEye coords (207.0, 276.0), REye coords (211.0, 267.0), timeStamp: 2017-03-05 12:43:29.413
LEye coords (210.0, 263.0), REye coords (214.0, 255.0), timeStamp: 2017-03-05 12:43:29.446
LEye coords (212.0, 256.0), REye coords (217.0, 249.0), timeStamp: 2017-03-05 12:43:29.480
LEye coords (212.0, 252.0), REye coords (218.0, 247.0), timeStamp: 2017-03-05 12:43:29.525
LEye coords (212.0, 250.0), REye coords (218.0, 245.0), timeStamp: 2017-03-05 12:43:29.559
LEye coords (214.0, 236.0), REye coords (219.0, 243.0), timeStamp: 2017-03-05 12:43:29.592
LEye coords (0.0, 0.0), REye coords (262.0, 228.0), timeStamp: 2017-03-05 12:43:29.625
LEye coords (255.0, 236.0), REye coords (269.0, 219.0), timeStamp: 2017-03-05 12:43:29.669
LEye coords (0.0, 0.0), REye coords (268.0, 216.0), timeStamp: 2017-03-05 12:43:29.703
LEye coords (0.0, 0.0), REye coords (268.0, 214.0), timeStamp: 2017-03-05 12:43:29.737
LEye coords (0.0, 0.0), REye coords (267.0, 215.0), timeStamp: 2017-03-05 12:43:29.782
LEye coords (0.0, 0.0), REye coords (266.0, 209.0), timeStamp: 2017-03-05 12:43:29.815
LEye coords (253.0, 226.0), REye coords (256.0, 188.0), timeStamp: 2017-03-05 12:43:29.849
LEye coords (251.0, 225.0), REye coords (256.0, 187.0), timeStamp: 2017-03-05 12:43:29.892
LEye coords (251.0, 222.0), REye coords (255.0, 188.0), timeStamp: 2017-03-05 12:43:29.926
LEye coords (248.0, 213.0), REye coords (256.0, 190.0), timeStamp: 2017-03-05 12:43:29.959
