LEye coords (348.0, 97.0), REye coords (344.0, 99.0), timeStamp: 2017-03-05 12:43:38.916
LEye coords (348.0, 98.0), REye coords (344.0, 99.0), timeStamp: 2017-03-05 12:43:38.960
LEye coords (348.0, 98.0), REye coords (344.0, 99.0), timeStamp: 2017-03-05 12:43:38.993
LEye coords (348.0, 98.0), REye coords (344.0, 99.0), timeStamp: 2017-03-05 12:43:39.036
LEye coords (348.0, 98.0), REye coords (345.0, 99.0), timeStamp: 2017-03-05 12:43:39.071
LEye coords (348.0, 98.0), REye coords (345.0, 99.0), timeStamp: 2017-03-05 12:43:39.106
LEye coords (348.0, 98.0), REye coords (345.0, 99.0), timeStamp: 2017-03-05 12:43:39.139
LEye coords (347.0, 98.0), REye coords (345.0, 99.0), timeStamp: 2017-03-05 12:43:39.183
LEye coords (347.0, 98.0), REye coords (345.0, 99.0), timeStamp: 2017-03-05 12:43:39.216
LEye coords (347.0, 97.0), REye coords (346.0, 99.0), timeStamp: 2017-03-05 12:43:39.251
LEye coords (228.0, 83.0), REye coords (240.0, 80.0), timeStamp: 2017-03-05 12:43:39.295
LEye coords (190.0, 78.0), REye coords (199.0, 75.0), timeStamp: 2017-03-05 12:43:39.329
LEye coords (191.0, 79.0), REye coords (202.0, 73.0), timeStamp: 2017-03-05 12:43:39.363
LEye coords (192.0, 80.0), REye coords (202.0, 73.0), timeStamp: 2017-03-05 12:43:39.396
LEye coords (192.0, 80.0), REye coords (202.0, 73.0), timeStamp: 2017-03-05 12:43:39.440
LEye coords (192.0, 80.0), REye coords (204.0, 72.0), timeStamp: 2017-03-05 12:43:39.475
LEye coords (192.0, 79.0), REye coords (205.0, 72.0), timeStamp: 2017-03-05 12:43:39.508
LEye coords (192.0, 79.0), REye coords (205.0, 73.0), timeStamp: 2017-03-05 12:43:39.552
LEye coords (197.0, 79.0), REye coords (206.0, 73.0), timeStamp: 2017-03-05 12:43:39.585
LEye coords (204.0, 79.0), REye coords (212.0, 73.0), timeStamp: 2017-03-05 12:43:39.618
LEye coords (207.0, 80.0), REye coords (216.0, 74.0), timeStamp: 2017-03-05 12:43:39.662
LEye coords (210.0, 79.0), REye coords (219.0, 73.0), timeStamp: 2017-03-05 12:43:39.696
LEye coords (212.0, 79.0), REye coords (221.0, 73.0), timeStamp: 2017-03-05 12:43:39.730
LEye coords (213.0, 79.0), REye coords (222.0, 73.0), timeStamp: 2017-03-05 12:43:39.774
LEye coords (214.0, 79.0), REye coords (223.0, 73.0), timeStamp: 2017-03-05 12:43:39.807
