LEye coords (389.0, 193.0), REye coords (407.0, 192.0), timeStamp: 2017-03-05 12:44:39.955
LEye coords (390.0, 193.0), REye coords (407.0, 193.0), timeStamp: 2017-03-05 12:44:39.988
LEye coords (390.0, 194.0), REye coords (407.0, 193.0), timeStamp: 2017-03-05 12:44:40.022
LEye coords (391.0, 194.0), REye coords (407.0, 193.0), timeStamp: 2017-03-05 12:44:40.067
LEye coords (391.0, 194.0), REye coords (408.0, 193.0), timeStamp: 2017-03-05 12:44:40.101
LEye coords (391.0, 195.0), REye coords (407.0, 194.0), timeStamp: 2017-03-05 12:44:40.134
LEye coords (349.0, 174.0), REye coords (405.0, 192.0), timeStamp: 2017-03-05 12:44:40.178
LEye coords (0.0, 0.0), REye coords (0.0, 0.0), timeStamp: 2017-03-05 12:44:40.212
LEye coords (0.0, 0.0), REye coords (269.0, 113.0), timeStamp: 2017-03-05 12:44:40.246
LEye coords (253.0, 139.0), REye coords (271.0, 116.0), timeStamp: 2017-03-05 12:44:40.280
LEye coords (0.0, 0.0), REye coords (270.0, 118.0), timeStamp: 2017-03-05 12:44:40.324
LEye coords (235.0, 119.0), REye coords (262.0, 105.0), timeStamp: 2017-03-05 12:44:40.359
LEye coords (230.0, 114.0), REye coords (257.0, 98.0), timeStamp: 2017-03-05 12:44:40.393
LEye coords (229.0, 111.0), REye coords (240.0, 76.0), timeStamp: 2017-03-05 12:44:40.427
LEye coords (222.0, 96.0), REye coords (242.0, 80.0), timeStamp: 2017-03-05 12:44:40.470
LEye coords (219.0, 101.0), REye coords (239.0, 81.0), timeStamp: 2017-03-05 12:44:40.504
LEye coords (218.0, 101.0), REye coords (238.0, 82.0), timeStamp: 2017-03-05 12:44:40.538
LEye coords (217.0, 100.0), REye coords (237.0, 82.0), timeStamp: 2017-03-05 12:44:40.583
LEye coords (216.0, 103.0), REye coords (234.0, 82.0), timeStamp: 2017-03-05 12:44:40.618
LEye coords (214.0, 104.0), REye coords (232.0, 84.0), timeStamp: 2017-03-05 12:44:40.651
LEye coords (213.0, 105.0), REye coords (230.0, 84.0), timeStamp: 2017-03-05 12:44:40.695
LEye coords (214.0, 108.0), REye coords (229.0, 84.0), timeStamp: 2017-03-05 12:44:40.728
LEye coords (214.0, 111.0), REye coords (229.0, 85.0), timeStamp: 2017-03-05 12:44:40.763
LEye coords (215.0, 114.0), REye coords (228.0, 85.0), timeStamp: 2017-03-05 12:44:40.807
