LEye coords (316.0, 180.0), REye coords (329.0, 153.0), timeStamp: 2017-03-05 12:45:18.369
LEye coords (318.0, 180.0), REye coords (348.0, 150.0), timeStamp: 2017-03-05 12:45:18.402
LEye coords (321.0, 179.0), REye coords (356.0, 149.0), timeStamp: 2017-03-05 12:45:18.446
LEye coords (323.0, 179.0), REye coords (356.0, 149.0), timeStamp: 2017-03-05 12:45:18.481
LEye coords (325.0, 178.0), REye coords (352.0, 153.0), timeStamp: 2017-03-05 12:45:18.515
LEye coords (326.0, 178.0), REye coords (351.0, 151.0), timeStamp: 2017-03-05 12:45:18.548
LEye coords (328.0, 177.0), REye coords (351.0, 153.0), timeStamp: 2017-03-05 12:45:18.593
LEye coords (329.0, 178.0), REye coords (352.0, 153.0), timeStamp: 2017-03-05 12:45:18.627
LEye coords (330.0, 177.0), REye coords (352.0, 153.0), timeStamp: 2017-03-05 12:45:18.660
LEye coords (180.0, 142.0), REye coords (189.0, 107.0), timeStamp: 2017-03-05 12:45:18.705
LEye coords (160.0, 144.0), REye coords (172.0, 113.0), timeStamp: 2017-03-05 12:45:18.738
LEye coords (165.0, 150.0), REye coords (170.0, 114.0), timeStamp: 2017-03-05 12:45:18.771
LEye coords (163.0, 148.0), REye coords (170.0, 115.0), timeStamp: 2017-03-05 12:45:18.816
LEye coords (164.0, 149.0), REye coords (169.0, 115.0), timeStamp: 2017-03-05 12:45:18.851
LEye coords (162.0, 131.0), REye coords (168.0, 101.0), timeStamp: 2017-03-05 12:45:18.883
LEye coords (163.0, 132.0), REye coords (169.0, 99.0), timeStamp: 2017-03-05 12:45:18.927
LEye coords (163.0, 132.0), REye coords (168.0, 102.0), timeStamp: 2017-03-05 12:45:18.961
LEye coords (162.0, 134.0), REye coords (168.0, 102.0), timeStamp: 2017-03-05 12:45:18.995
LEye coords (163.0, 134.0), REye coords (169.0, 101.0), timeStamp: 2017-03-05 12:45:19.030
