LEye coords (42.0, 177.0), REye coords (46.0, 170.0), timeStamp: 2017-03-05 12:45:17.447
LEye coords (42.0, 177.0), REye coords (46.0, 170.0), timeStamp: 2017-03-05 12:45:17.480
LEye coords (42.0, 178.0), REye coords (46.0, 171.0), timeStamp: 2017-03-05 12:45:17.514
LEye coords (42.0, 178.0), REye coords (46.0, 171.0), timeStamp: 2017-03-05 12:45:17.558
LEye coords (42.0, 178.0), REye coords (46.0, 172.0), timeStamp: 2017-03-05 12:45:17.591
LEye coords (42.0, 179.0), REye coords (46.0, 172.0), timeStamp: 2017-03-05 12:45:17.625
LEye coords (43.0, 179.0), REye coords (46.0, 173.0), timeStamp: 2017-03-05 12:45:17.659
LEye coords (170.0, 190.0), REye coords (169.0, 183.0), timeStamp: 2017-03-05 12:45:17.702
LEye coords (169.0, 195.0), REye coords (172.0, 177.0), timeStamp: 2017-03-05 12:45:17.736
LEye coords (170.0, 194.0), REye coords (171.0, 179.0), timeStamp: 2017-03-05 12:45:17.779
LEye coords (171.0, 195.0), REye coords (172.0, 179.0), timeStamp: 2017-03-05 12:45:17.813
LEye coords (170.0, 196.0), REye coords (173.0, 180.0), timeStamp: 2017-03-05 12:45:17.848
LEye coords (171.0, 196.0), REye coords (168.0, 181.0), timeStamp: 2017-03-05 12:45:17.891
LEye coords (282.0, 195.0), REye coords (287.0, 182.0), timeStamp: 2017-03-05 12:45:17.925
LEye coords (285.0, 190.0), REye coords (290.0, 178.0), timeStamp: 2017-03-05 12:45:17.959
LEye coords (287.0, 187.0), REye coords (291.0, 177.0), timeStamp: 2017-03-05 12:45:18.002
LEye coords (287.0, 187.0), REye coords (290.0, 177.0), timeStamp: 2017-03-05 12:45:18.036
LEye coords (291.0, 179.0), REye coords (301.0, 169.0), timeStamp: 2017-03-05 12:45:18.069
LEye coords (287.0, 175.0), REye coords (296.0, 168.0), timeStamp: 2017-03-05 12:45:18.112
LEye coords (291.0, 182.0), REye coords (300.0, 156.0), timeStamp: 2017-03-05 12:45:18.146
LEye coords (294.0, 182.0), REye coords (305.0, 154.0), timeStamp: 2017-03-05 12:45:18.179
LEye coords (302.0, 182.0), REye coords (316.0, 154.0), timeStamp: 2017-03-05 12:45:18.223
LEye coords (307.0, 181.0), REye coords (321.0, 153.0), timeStamp: 2017-03-05 12:45:18.256
