LEye coords (175.0, 397.0), REye coords (178.0, 403.0), timeStamp: 2017-03-02 10:31:23.637
LEye coords (234.0, 257.0), REye coords (238.0, 262.0), timeStamp: 2017-03-02 10:31:23.681
LEye coords (234.0, 257.0), REye coords (238.0, 262.0), timeStamp: 2017-03-02 10:31:23.714
LEye coords (229.0, 197.0), REye coords (237.0, 203.0), timeStamp: 2017-03-02 10:31:23.748
LEye coords (230.0, 179.0), REye coords (234.0, 172.0), timeStamp: 2017-03-02 10:31:23.793
LEye coords (233.0, 180.0), REye coords (234.0, 172.0), timeStamp: 2017-03-02 10:31:23.828
LEye coords (231.0, 180.0), REye coords (232.0, 174.0), timeStamp: 2017-03-02 10:31:23.861
LEye coords (231.0, 181.0), REye coords (232.0, 174.0), timeStamp: 2017-03-02 10:31:23.894
LEye coords (226.0, 180.0), REye coords (231.0, 174.0), timeStamp: 2017-03-02 10:31:23.939
LEye coords (230.0, 181.0), REye coords (233.0, 169.0), timeStamp: 2017-03-02 10:31:23.972
LEye coords (229.0, 182.0), REye coords (232.0, 170.0), timeStamp: 2017-03-02 10:31:24.016
LEye coords (231.0, 182.0), REye coords (233.0, 170.0), timeStamp: 2017-03-02 10:31:24.050
LEye coords (239.0, 176.0), REye coords (241.0, 166.0), timeStamp: 2017-03-02 10:31:24.084
LEye coords (246.0, 171.0), REye coords (248.0, 163.0), timeStamp: 2017-03-02 10:31:24.119
LEye coords (252.0, 168.0), REye coords (251.0, 161.0), timeStamp: 2017-03-02 10:31:24.163
LEye coords (255.0, 166.0), REye coords (254.0, 159.0), timeStamp: 2017-03-02 10:31:24.196
LEye coords (258.0, 164.0), REye coords (257.0, 158.0), timeStamp: 2017-03-02 10:31:24.230
LEye coords (261.0, 163.0), REye coords (259.0, 157.0), timeStamp: 2017-03-02 10:31:24.274
LEye coords (263.0, 162.0), REye coords (260.0, 156.0), timeStamp: 2017-03-02 10:31:24.308
LEye coords (264.0, 160.0), REye coords (262.0, 153.0), timeStamp: 2017-03-02 10:31:24.342
LEye coords (266.0, 159.0), REye coords (264.0, 151.0), timeStamp: 2017-03-02 10:31:24.386
LEye coords (268.0, 159.0), REye coords (266.0, 147.0), timeStamp: 2017-03-02 10:31:24.421
LEye coords (280.0, 154.0), REye coords (279.0, 116.0), timeStamp: 2017-03-02 10:31:24.455
LEye coords (279.0, 163.0), REye coords (275.0, 145.0), timeStamp: 2017-03-02 10:31:24.489
LEye coords (279.0, 161.0), REye coords (278.0, 136.0), timeStamp: 2017-03-02 10:31:24.533
LEye coords (278.0, 160.0), REye coords (275.0, 141.0), timeStamp: 2017-03-02 10:31:24.567
LEye coords (279.0, 161.0), REye coords (276.0, 136.0), timeStamp: 2017-03-02 10:31:24.599
