LEye coords (205.0, 174.0), REye coords (197.0, 154.0), timeStamp: 2017-03-02 10:31:26.828
LEye coords (204.0, 175.0), REye coords (198.0, 155.0), timeStamp: 2017-03-02 10:31:26.862
LEye coords (204.0, 175.0), REye coords (198.0, 156.0), timeStamp: 2017-03-02 10:31:26.896
LEye coords (204.0, 175.0), REye coords (199.0, 156.0), timeStamp: 2017-03-02 10:31:26.939
LEye coords (204.0, 176.0), REye coords (199.0, 156.0), timeStamp: 2017-03-02 10:31:26.972
LEye coords (204.0, 176.0), REye coords (199.0, 157.0), timeStamp: 2017-03-02 10:31:27.006
LEye coords (203.0, 176.0), REye coords (200.0, 156.0), timeStamp: 2017-03-02 10:31:27.051
LEye coords (203.0, 176.0), REye coords (200.0, 156.0), timeStamp: 2017-03-02 10:31:27.084
LEye coords (203.0, 176.0), REye coords (200.0, 156.0), timeStamp: 2017-03-02 10:31:27.118
LEye coords (203.0, 177.0), REye coords (199.0, 157.0), timeStamp: 2017-03-02 10:31:27.153
LEye coords (203.0, 177.0), REye coords (199.0, 157.0), timeStamp: 2017-03-02 10:31:27.198
LEye coords (203.0, 178.0), REye coords (199.0, 158.0), timeStamp: 2017-03-02 10:31:27.231
LEye coords (202.0, 178.0), REye coords (199.0, 157.0), timeStamp: 2017-03-02 10:31:27.265
LEye coords (202.0, 178.0), REye coords (200.0, 155.0), timeStamp: 2017-03-02 10:31:27.308
LEye coords (203.0, 178.0), REye coords (201.0, 153.0), timeStamp: 2017-03-02 10:31:27.343
LEye coords (220.0, 134.0), REye coords (234.0, 127.0), timeStamp: 2017-03-02 10:31:27.377
LEye coords (216.0, 133.0), REye coords (235.0, 138.0), timeStamp: 2017-03-02 10:31:27.421
LEye coords (217.0, 135.0), REye coords (234.0, 140.0), timeStamp: 2017-03-02 10:31:27.454
LEye coords (219.0, 136.0), REye coords (233.0, 141.0), timeStamp: 2017-03-02 10:31:27.488
LEye coords (219.0, 136.0), REye coords (232.0, 136.0), timeStamp: 2017-03-02 10:31:27.531
LEye coords (245.0, 116.0), REye coords (249.0, 115.0), timeStamp: 2017-03-02 10:31:27.565
LEye coords (242.0, 114.0), REye coords (246.0, 115.0), timeStamp: 2017-03-02 10:31:27.599
