LEye coords (271.0, 115.0), REye coords (275.0, 118.0), timeStamp: 2017-03-02 10:31:27.710
LEye coords (272.0, 116.0), REye coords (275.0, 119.0), timeStamp: 2017-03-02 10:31:27.754
LEye coords (272.0, 117.0), REye coords (275.0, 120.0), timeStamp: 2017-03-02 10:31:27.787
LEye coords (272.0, 117.0), REye coords (276.0, 120.0), timeStamp: 2017-03-02 10:31:27.821
LEye coords (272.0, 117.0), REye coords (277.0, 120.0), timeStamp: 2017-03-02 10:31:27.865
LEye coords (272.0, 118.0), REye coords (277.0, 119.0), timeStamp: 2017-03-02 10:31:27.899
LEye coords (272.0, 121.0), REye coords (277.0, 119.0), timeStamp: 2017-03-02 10:31:27.933
LEye coords (273.0, 124.0), REye coords (277.0, 119.0), timeStamp: 2017-03-02 10:31:27.977
LEye coords (274.0, 127.0), REye coords (277.0, 119.0), timeStamp: 2017-03-02 10:31:28.010
LEye coords (275.0, 129.0), REye coords (278.0, 119.0), timeStamp: 2017-03-02 10:31:28.043
LEye coords (275.0, 131.0), REye coords (278.0, 119.0), timeStamp: 2017-03-02 10:31:28.087
LEye coords (276.0, 133.0), REye coords (277.0, 120.0), timeStamp: 2017-03-02 10:31:28.120
LEye coords (276.0, 135.0), REye coords (277.0, 120.0), timeStamp: 2017-03-02 10:31:28.155
LEye coords (277.0, 136.0), REye coords (278.0, 120.0), timeStamp: 2017-03-02 10:31:28.189
LEye coords (278.0, 137.0), REye coords (279.0, 121.0), timeStamp: 2017-03-02 10:31:28.233
LEye coords (279.0, 138.0), REye coords (280.0, 120.0), timeStamp: 2017-03-02 10:31:28.266
LEye coords (280.0, 139.0), REye coords (280.0, 120.0), timeStamp: 2017-03-02 10:31:28.301
LEye coords (281.0, 139.0), REye coords (281.0, 119.0), timeStamp: 2017-03-02 10:31:28.345
LEye coords (281.0, 140.0), REye coords (282.0, 119.0), timeStamp: 2017-03-02 10:31:28.378
LEye coords (282.0, 141.0), REye coords (283.0, 119.0), timeStamp: 2017-03-02 10:31:28.412
LEye coords (283.0, 142.0), REye coords (284.0, 119.0), timeStamp: 2017-03-02 10:31:28.456
LEye coords (284.0, 143.0), REye coords (285.0, 119.0), timeStamp: 2017-03-02 10:31:28.489
LEye coords (285.0, 144.0), REye coords (285.0, 118.0), timeStamp: 2017-03-02 10:31:28.524
LEye coords (285.0, 145.0), REye coords (286.0, 118.0), timeStamp: 2017-03-02 10:31:28.558
LEye coords (286.0, 145.0), REye coords (287.0, 118.0), timeStamp: 2017-03-02 10:31:28.602
LEye coords (287.0, 146.0), REye coords (287.0, 118.0), timeStamp: 2017-03-02 10:31:28.635
