LEye coords (264.0, 126.0), REye coords (283.0, 140.0), timeStamp: 2017-03-02 10:31:31.188
LEye coords (263.0, 127.0), REye coords (279.0, 142.0), timeStamp: 2017-03-02 10:31:31.231
LEye coords (262.0, 127.0), REye coords (277.0, 144.0), timeStamp: 2017-03-02 10:31:31.265
LEye coords (262.0, 127.0), REye coords (276.0, 145.0), timeStamp: 2017-03-02 10:31:31.299
LEye coords (261.0, 127.0), REye coords (274.0, 146.0), timeStamp: 2017-03-02 10:31:31.343
LEye coords (259.0, 128.0), REye coords (274.0, 146.0), timeStamp: 2017-03-02 10:31:31.377
LEye coords (258.0, 128.0), REye coords (273.0, 147.0), timeStamp: 2017-03-02 10:31:31.410
LEye coords (258.0, 129.0), REye coords (272.0, 147.0), timeStamp: 2017-03-02 10:31:31.453
LEye coords (257.0, 129.0), REye coords (271.0, 148.0), timeStamp: 2017-03-02 10:31:31.485
LEye coords (258.0, 132.0), REye coords (271.0, 148.0), timeStamp: 2017-03-02 10:31:31.520
LEye coords (310.0, 212.0), REye coords (327.0, 165.0), timeStamp: 2017-03-02 10:31:31.563
LEye coords (309.0, 212.0), REye coords (326.0, 172.0), timeStamp: 2017-03-02 10:31:31.596
LEye coords (310.0, 212.0), REye coords (324.0, 173.0), timeStamp: 2017-03-02 10:31:31.640
LEye coords (311.0, 211.0), REye coords (324.0, 175.0), timeStamp: 2017-03-02 10:31:31.674
LEye coords (313.0, 210.0), REye coords (325.0, 173.0), timeStamp: 2017-03-02 10:31:31.708
LEye coords (345.0, 222.0), REye coords (359.0, 191.0), timeStamp: 2017-03-02 10:31:31.742
LEye coords (345.0, 221.0), REye coords (352.0, 199.0), timeStamp: 2017-03-02 10:31:31.785
LEye coords (346.0, 220.0), REye coords (355.0, 195.0), timeStamp: 2017-03-02 10:31:31.819
LEye coords (348.0, 220.0), REye coords (355.0, 195.0), timeStamp: 2017-03-02 10:31:31.852
LEye coords (348.0, 220.0), REye coords (355.0, 197.0), timeStamp: 2017-03-02 10:31:31.897
LEye coords (349.0, 220.0), REye coords (356.0, 195.0), timeStamp: 2017-03-02 10:31:31.931
LEye coords (349.0, 219.0), REye coords (356.0, 195.0), timeStamp: 2017-03-02 10:31:31.965
LEye coords (349.0, 220.0), REye coords (358.0, 194.0), timeStamp: 2017-03-02 10:31:32.008
LEye coords (350.0, 220.0), REye coords (358.0, 194.0), timeStamp: 2017-03-02 10:31:32.041
LEye coords (351.0, 220.0), REye coords (359.0, 193.0), timeStamp: 2017-03-02 10:31:32.075
LEye coords (352.0, 221.0), REye coords (360.0, 193.0), timeStamp: 2017-03-02 10:31:32.120
LEye coords (353.0, 221.0), REye coords (362.0, 193.0), timeStamp: 2017-03-02 10:31:32.153
LEye coords (355.0, 221.0), REye coords (363.0, 193.0), timeStamp: 2017-03-02 10:31:32.186
