LEye coords (403.0, 51.0), REye coords (450.0, 48.0), timeStamp: 2017-03-02 10:31:33.783
LEye coords (403.0, 51.0), REye coords (450.0, 49.0), timeStamp: 2017-03-02 10:31:33.817
LEye coords (403.0, 50.0), REye coords (451.0, 49.0), timeStamp: 2017-03-02 10:31:33.860
LEye coords (404.0, 50.0), REye coords (451.0, 49.0), timeStamp: 2017-03-02 10:31:33.894
LEye coords (404.0, 50.0), REye coords (451.0, 49.0), timeStamp: 2017-03-02 10:31:33.928
LEye coords (405.0, 50.0), REye coords (451.0, 49.0), timeStamp: 2017-03-02 10:31:33.962
LEye coords (269.0, 213.0), REye coords (281.0, 147.0), timeStamp: 2017-03-02 10:31:34.008
LEye coords (248.0, 239.0), REye coords (242.0, 208.0), timeStamp: 2017-03-02 10:31:34.041
LEye coords (248.0, 237.0), REye coords (244.0, 207.0), timeStamp: 2017-03-02 10:31:34.074
LEye coords (248.0, 237.0), REye coords (245.0, 208.0), timeStamp: 2017-03-02 10:31:34.119
LEye coords (249.0, 237.0), REye coords (246.0, 208.0), timeStamp: 2017-03-02 10:31:34.152
LEye coords (192.0, 145.0), REye coords (202.0, 138.0), timeStamp: 2017-03-02 10:31:34.186
LEye coords (196.0, 148.0), REye coords (194.0, 131.0), timeStamp: 2017-03-02 10:31:34.230
LEye coords (195.0, 147.0), REye coords (193.0, 128.0), timeStamp: 2017-03-02 10:31:34.264
LEye coords (195.0, 148.0), REye coords (193.0, 127.0), timeStamp: 2017-03-02 10:31:34.298
LEye coords (193.0, 149.0), REye coords (194.0, 131.0), timeStamp: 2017-03-02 10:31:34.342
LEye coords (0.0, 0.0), REye coords (206.0, 126.0), timeStamp: 2017-03-02 10:31:34.376
LEye coords (257.0, 134.0), REye coords (0.0, 0.0), timeStamp: 2017-03-02 10:31:34.410
LEye coords (261.0, 134.0), REye coords (0.0, 0.0), timeStamp: 2017-03-02 10:31:34.452
LEye coords (259.0, 135.0), REye coords (0.0, 0.0), timeStamp: 2017-03-02 10:31:34.486
LEye coords (260.0, 134.0), REye coords (0.0, 0.0), timeStamp: 2017-03-02 10:31:34.520
LEye coords (257.0, 134.0), REye coords (255.0, 157.0), timeStamp: 2017-03-02 10:31:34.564
LEye coords (248.0, 134.0), REye coords (255.0, 157.0), timeStamp: 2017-03-02 10:31:34.598
LEye coords (250.0, 135.0), REye coords (254.0, 156.0), timeStamp: 2017-03-02 10:31:34.631
LEye coords (250.0, 136.0), REye coords (255.0, 156.0), timeStamp: 2017-03-02 10:31:34.665
LEye coords (250.0, 139.0), REye coords (256.0, 155.0), timeStamp: 2017-03-02 10:31:34.709
LEye coords (249.0, 140.0), REye coords (258.0, 150.0), timeStamp: 2017-03-02 10:31:34.743
LEye coords (249.0, 140.0), REye coords (257.0, 149.0), timeStamp: 2017-03-02 10:31:34.777
LEye coords (248.0, 141.0), REye coords (258.0, 149.0), timeStamp: 2017-03-02 10:31:34.821
LEye coords (248.0, 140.0), REye coords (258.0, 150.0), timeStamp: 2017-03-02 10:31:34.854
LEye coords (248.0, 141.0), REye coords (257.0, 150.0), timeStamp: 2017-03-02 10:31:34.897
LEye coords (248.0, 140.0), REye coords (257.0, 148.0), timeStamp: 2017-03-02 10:31:34.930
