LEye coords (316.0, 204.0), REye coords (327.0, 161.0), timeStamp: 2017-03-02 10:31:36.596
LEye coords (317.0, 205.0), REye coords (327.0, 163.0), timeStamp: 2017-03-02 10:31:36.630
LEye coords (317.0, 206.0), REye coords (327.0, 165.0), timeStamp: 2017-03-02 10:31:36.664
LEye coords (263.0, 185.0), REye coords (262.0, 156.0), timeStamp: 2017-03-02 10:31:36.709
LEye coords (237.0, 177.0), REye coords (244.0, 129.0), timeStamp: 2017-03-02 10:31:36.742
LEye coords (240.0, 177.0), REye coords (242.0, 148.0), timeStamp: 2017-03-02 10:31:36.776
LEye coords (238.0, 177.0), REye coords (242.0, 155.0), timeStamp: 2017-03-02 10:31:36.820
LEye coords (238.0, 177.0), REye coords (240.0, 158.0), timeStamp: 2017-03-02 10:31:36.854
LEye coords (238.0, 175.0), REye coords (242.0, 165.0), timeStamp: 2017-03-02 10:31:36.887
LEye coords (237.0, 176.0), REye coords (237.0, 171.0), timeStamp: 2017-03-02 10:31:36.931
LEye coords (237.0, 177.0), REye coords (237.0, 171.0), timeStamp: 2017-03-02 10:31:36.965
LEye coords (238.0, 178.0), REye coords (237.0, 172.0), timeStamp: 2017-03-02 10:31:36.999
LEye coords (238.0, 179.0), REye coords (238.0, 170.0), timeStamp: 2017-03-02 10:31:37.044
LEye coords (425.0, 224.0), REye coords (436.0, 208.0), timeStamp: 2017-03-02 10:31:37.078
LEye coords (462.0, 242.0), REye coords (469.0, 228.0), timeStamp: 2017-03-02 10:31:37.112
LEye coords (461.0, 241.0), REye coords (468.0, 229.0), timeStamp: 2017-03-02 10:31:37.145
LEye coords (461.0, 241.0), REye coords (468.0, 230.0), timeStamp: 2017-03-02 10:31:37.189
LEye coords (460.0, 242.0), REye coords (469.0, 230.0), timeStamp: 2017-03-02 10:31:37.222
LEye coords (460.0, 244.0), REye coords (463.0, 231.0), timeStamp: 2017-03-02 10:31:37.266
LEye coords (462.0, 247.0), REye coords (465.0, 229.0), timeStamp: 2017-03-02 10:31:37.299
LEye coords (463.0, 246.0), REye coords (467.0, 228.0), timeStamp: 2017-03-02 10:31:37.332
LEye coords (463.0, 245.0), REye coords (0.0, 0.0), timeStamp: 2017-03-02 10:31:37.377
LEye coords (462.0, 242.0), REye coords (466.0, 224.0), timeStamp: 2017-03-02 10:31:37.410
LEye coords (462.0, 240.0), REye coords (466.0, 221.0), timeStamp: 2017-03-02 10:31:37.444
LEye coords (462.0, 238.0), REye coords (465.0, 220.0), timeStamp: 2017-03-02 10:31:37.488
LEye coords (462.0, 237.0), REye coords (465.0, 219.0), timeStamp: 2017-03-02 10:31:37.522
LEye coords (461.0, 236.0), REye coords (465.0, 218.0), timeStamp: 2017-03-02 10:31:37.555
LEye coords (462.0, 234.0), REye coords (466.0, 217.0), timeStamp: 2017-03-02 10:31:37.589
LEye coords (462.0, 232.0), REye coords (467.0, 215.0), timeStamp: 2017-03-02 10:31:37.633
