LEye coords (191.0, 234.0), REye coords (0.0, 0.0), timeStamp: 2017-03-02 10:32:53.655
LEye coords (191.0, 214.0), REye coords (198.0, 216.0), timeStamp: 2017-03-02 10:32:53.689
LEye coords (192.0, 213.0), REye coords (202.0, 220.0), timeStamp: 2017-03-02 10:32:53.722
LEye coords (193.0, 212.0), REye coords (201.0, 217.0), timeStamp: 2017-03-02 10:32:53.767
LEye coords (193.0, 212.0), REye coords (202.0, 216.0), timeStamp: 2017-03-02 10:32:53.800
LEye coords (194.0, 213.0), REye coords (201.0, 216.0), timeStamp: 2017-03-02 10:32:53.834
LEye coords (215.0, 128.0), REye coords (237.0, 151.0), timeStamp: 2017-03-02 10:32:53.878
LEye coords (231.0, 109.0), REye coords (246.0, 127.0), timeStamp: 2017-03-02 10:32:53.912
LEye coords (232.0, 110.0), REye coords (246.0, 123.0), timeStamp: 2017-03-02 10:32:53.946
LEye coords (233.0, 111.0), REye coords (247.0, 122.0), timeStamp: 2017-03-02 10:32:53.980
LEye coords (232.0, 111.0), REye coords (247.0, 122.0), timeStamp: 2017-03-02 10:32:54.024
LEye coords (229.0, 117.0), REye coords (249.0, 122.0), timeStamp: 2017-03-02 10:32:54.057
LEye coords (234.0, 166.0), REye coords (233.0, 158.0), timeStamp: 2017-03-02 10:32:54.091
LEye coords (227.0, 198.0), REye coords (234.0, 171.0), timeStamp: 2017-03-02 10:32:54.135
LEye coords (226.0, 209.0), REye coords (233.0, 190.0), timeStamp: 2017-03-02 10:32:54.169
LEye coords (225.0, 214.0), REye coords (232.0, 201.0), timeStamp: 2017-03-02 10:32:54.203
LEye coords (223.0, 230.0), REye coords (228.0, 229.0), timeStamp: 2017-03-02 10:32:54.247
LEye coords (224.0, 232.0), REye coords (230.0, 228.0), timeStamp: 2017-03-02 10:32:54.280
LEye coords (222.0, 231.0), REye coords (228.0, 232.0), timeStamp: 2017-03-02 10:32:54.315
LEye coords (220.0, 230.0), REye coords (229.0, 231.0), timeStamp: 2017-03-02 10:32:54.358
LEye coords (220.0, 229.0), REye coords (229.0, 230.0), timeStamp: 2017-03-02 10:32:54.392
LEye coords (218.0, 228.0), REye coords (227.0, 227.0), timeStamp: 2017-03-02 10:32:54.425
LEye coords (216.0, 227.0), REye coords (224.0, 226.0), timeStamp: 2017-03-02 10:32:54.469
LEye coords (214.0, 226.0), REye coords (223.0, 225.0), timeStamp: 2017-03-02 10:32:54.503
LEye coords (213.0, 225.0), REye coords (222.0, 225.0), timeStamp: 2017-03-02 10:32:54.535
LEye coords (212.0, 225.0), REye coords (221.0, 224.0), timeStamp: 2017-03-02 10:32:54.579
LEye coords (212.0, 225.0), REye coords (220.0, 223.0), timeStamp: 2017-03-02 10:32:54.612
LEye coords (209.0, 224.0), REye coords (217.0, 222.0), timeStamp: 2017-03-02 10:32:54.646
LEye coords (206.0, 224.0), REye coords (214.0, 222.0), timeStamp: 2017-03-02 10:32:54.689
LEye coords (204.0, 224.0), REye coords (212.0, 221.0), timeStamp: 2017-03-02 10:32:54.722
LEye coords (203.0, 223.0), REye coords (210.0, 220.0), timeStamp: 2017-03-02 10:32:54.766
LEye coords (201.0, 223.0), REye coords (208.0, 220.0), timeStamp: 2017-03-02 10:32:54.800
LEye coords (199.0, 223.0), REye coords (206.0, 221.0), timeStamp: 2017-03-02 10:32:54.833
LEye coords (197.0, 224.0), REye coords (204.0, 221.0), timeStamp: 2017-03-02 10:32:54.877
LEye coords (195.0, 225.0), REye coords (202.0, 221.0), timeStamp: 2017-03-02 10:32:54.911
LEye coords (194.0, 225.0), REye coords (200.0, 221.0), timeStamp: 2017-03-02 10:32:54.944
LEye coords (192.0, 226.0), REye coords (199.0, 222.0), timeStamp: 2017-03-02 10:32:54.988
