LEye coords (85.0, 173.0), REye coords (0.0, 0.0), timeStamp: 2017-03-02 10:32:56.912
LEye coords (85.0, 174.0), REye coords (0.0, 0.0), timeStamp: 2017-03-02 10:32:56.945
LEye coords (86.0, 174.0), REye coords (86.0, 170.0), timeStamp: 2017-03-02 10:32:56.979
LEye coords (183.0, 168.0), REye coords (195.0, 177.0), timeStamp: 2017-03-02 10:32:57.023
LEye coords (190.0, 166.0), REye coords (190.0, 180.0), timeStamp: 2017-03-02 10:32:57.057
LEye coords (189.0, 166.0), REye coords (192.0, 174.0), timeStamp: 2017-03-02 10:32:57.091
LEye coords (189.0, 167.0), REye coords (192.0, 177.0), timeStamp: 2017-03-02 10:32:57.134
LEye coords (189.0, 168.0), REye coords (192.0, 175.0), timeStamp: 2017-03-02 10:32:57.167
LEye coords (188.0, 172.0), REye coords (190.0, 180.0), timeStamp: 2017-03-02 10:32:57.199
LEye coords (239.0, 203.0), REye coords (243.0, 205.0), timeStamp: 2017-03-02 10:32:57.244
LEye coords (300.0, 260.0), REye coords (306.0, 259.0), timeStamp: 2017-03-02 10:32:57.277
LEye coords (0.0, 0.0), REye coords (0.0, 0.0), timeStamp: 2017-03-02 10:32:57.310
LEye coords (322.0, 280.0), REye coords (326.0, 278.0), timeStamp: 2017-03-02 10:32:57.355
LEye coords (333.0, 290.0), REye coords (337.0, 287.0), timeStamp: 2017-03-02 10:32:57.388
LEye coords (367.0, 317.0), REye coords (365.0, 316.0), timeStamp: 2017-03-02 10:32:57.422
LEye coords (370.0, 319.0), REye coords (364.0, 316.0), timeStamp: 2017-03-02 10:32:57.468
LEye coords (371.0, 318.0), REye coords (367.0, 313.0), timeStamp: 2017-03-02 10:32:57.502
LEye coords (373.0, 316.0), REye coords (372.0, 311.0), timeStamp: 2017-03-02 10:32:57.535
LEye coords (381.0, 313.0), REye coords (379.0, 309.0), timeStamp: 2017-03-02 10:32:57.579
LEye coords (386.0, 311.0), REye coords (384.0, 306.0), timeStamp: 2017-03-02 10:32:57.612
LEye coords (390.0, 310.0), REye coords (386.0, 305.0), timeStamp: 2017-03-02 10:32:57.645
LEye coords (393.0, 308.0), REye coords (388.0, 304.0), timeStamp: 2017-03-02 10:32:57.690
LEye coords (397.0, 308.0), REye coords (392.0, 303.0), timeStamp: 2017-03-02 10:32:57.724
LEye coords (401.0, 307.0), REye coords (395.0, 301.0), timeStamp: 2017-03-02 10:32:57.758
LEye coords (403.0, 307.0), REye coords (398.0, 301.0), timeStamp: 2017-03-02 10:32:57.792
LEye coords (406.0, 307.0), REye coords (400.0, 300.0), timeStamp: 2017-03-02 10:32:57.837
LEye coords (408.0, 307.0), REye coords (401.0, 300.0), timeStamp: 2017-03-02 10:32:57.870
LEye coords (409.0, 306.0), REye coords (403.0, 299.0), timeStamp: 2017-03-02 10:32:57.904
LEye coords (428.0, 300.0), REye coords (405.0, 299.0), timeStamp: 2017-03-02 10:32:57.947
