LEye coords (360.0, 36.0), REye coords (360.0, 28.0), timeStamp: 2017-03-02 10:33:06.010
LEye coords (360.0, 32.0), REye coords (361.0, 25.0), timeStamp: 2017-03-02 10:33:06.054
LEye coords (360.0, 32.0), REye coords (361.0, 25.0), timeStamp: 2017-03-02 10:33:06.088
LEye coords (360.0, 32.0), REye coords (361.0, 25.0), timeStamp: 2017-03-02 10:33:06.122
LEye coords (360.0, 32.0), REye coords (362.0, 25.0), timeStamp: 2017-03-02 10:33:06.167
LEye coords (360.0, 32.0), REye coords (362.0, 25.0), timeStamp: 2017-03-02 10:33:06.201
LEye coords (236.0, 174.0), REye coords (244.0, 117.0), timeStamp: 2017-03-02 10:33:06.235
LEye coords (207.0, 218.0), REye coords (214.0, 207.0), timeStamp: 2017-03-02 10:33:06.269
LEye coords (208.0, 218.0), REye coords (215.0, 205.0), timeStamp: 2017-03-02 10:33:06.313
LEye coords (207.0, 218.0), REye coords (213.0, 206.0), timeStamp: 2017-03-02 10:33:06.347
LEye coords (207.0, 218.0), REye coords (214.0, 205.0), timeStamp: 2017-03-02 10:33:06.380
LEye coords (209.0, 220.0), REye coords (219.0, 204.0), timeStamp: 2017-03-02 10:33:06.423
LEye coords (208.0, 219.0), REye coords (217.0, 205.0), timeStamp: 2017-03-02 10:33:06.457
LEye coords (241.0, 215.0), REye coords (251.0, 203.0), timeStamp: 2017-03-02 10:33:06.490
LEye coords (275.0, 215.0), REye coords (285.0, 203.0), timeStamp: 2017-03-02 10:33:06.534
LEye coords (293.0, 214.0), REye coords (302.0, 202.0), timeStamp: 2017-03-02 10:33:06.567
LEye coords (340.0, 211.0), REye coords (350.0, 203.0), timeStamp: 2017-03-02 10:33:06.600
LEye coords (349.0, 212.0), REye coords (380.0, 177.0), timeStamp: 2017-03-02 10:33:06.644
LEye coords (411.0, 193.0), REye coords (426.0, 175.0), timeStamp: 2017-03-02 10:33:06.678
LEye coords (432.0, 186.0), REye coords (439.0, 177.0), timeStamp: 2017-03-02 10:33:06.712
LEye coords (441.0, 185.0), REye coords (446.0, 177.0), timeStamp: 2017-03-02 10:33:06.756
LEye coords (475.0, 174.0), REye coords (464.0, 183.0), timeStamp: 2017-03-02 10:33:06.790
LEye coords (472.0, 177.0), REye coords (464.0, 182.0), timeStamp: 2017-03-02 10:33:06.824
LEye coords (473.0, 177.0), REye coords (463.0, 182.0), timeStamp: 2017-03-02 10:33:06.868
LEye coords (475.0, 176.0), REye coords (464.0, 182.0), timeStamp: 2017-03-02 10:33:06.902
LEye coords (473.0, 178.0), REye coords (463.0, 182.0), timeStamp: 2017-03-02 10:33:06.936
LEye coords (475.0, 179.0), REye coords (461.0, 184.0), timeStamp: 2017-03-02 10:33:06.979
LEye coords (474.0, 181.0), REye coords (461.0, 183.0), timeStamp: 2017-03-02 10:33:07.014
LEye coords (472.0, 183.0), REye coords (461.0, 183.0), timeStamp: 2017-03-02 10:33:07.048
LEye coords (471.0, 184.0), REye coords (462.0, 182.0), timeStamp: 2017-03-02 10:33:07.082
LEye coords (471.0, 184.0), REye coords (462.0, 182.0), timeStamp: 2017-03-02 10:33:07.126
LEye coords (471.0, 185.0), REye coords (463.0, 181.0), timeStamp: 2017-03-02 10:33:07.160
LEye coords (471.0, 185.0), REye coords (463.0, 181.0), timeStamp: 2017-03-02 10:33:07.194
LEye coords (473.0, 185.0), REye coords (464.0, 181.0), timeStamp: 2017-03-02 10:33:07.238
