LEye coords (218.0, 280.0), REye coords (234.0, 223.0), timeStamp: 2017-03-02 10:33:11.531
LEye coords (219.0, 280.0), REye coords (235.0, 224.0), timeStamp: 2017-03-02 10:33:11.565
LEye coords (219.0, 280.0), REye coords (235.0, 223.0), timeStamp: 2017-03-02 10:33:11.598
LEye coords (220.0, 280.0), REye coords (235.0, 224.0), timeStamp: 2017-03-02 10:33:11.643
LEye coords (220.0, 279.0), REye coords (235.0, 226.0), timeStamp: 2017-03-02 10:33:11.791
LEye coords (220.0, 279.0), REye coords (235.0, 226.0), timeStamp: 2017-03-02 10:33:11.745
LEye coords (220.0, 279.0), REye coords (235.0, 225.0), timeStamp: 2017-03-02 10:33:11.711
LEye coords (113.0, 198.0), REye coords (115.0, 178.0), timeStamp: 2017-03-02 10:33:44.062
LEye coords (113.0, 200.0), REye coords (115.0, 182.0), timeStamp: 2017-03-02 10:33:44.096
LEye coords (113.0, 202.0), REye coords (115.0, 187.0), timeStamp: 2017-03-02 10:33:44.129
LEye coords (113.0, 207.0), REye coords (114.0, 174.0), timeStamp: 2017-03-02 10:33:44.173
LEye coords (119.0, 229.0), REye coords (115.0, 180.0), timeStamp: 2017-03-02 10:33:44.207
LEye coords (119.0, 232.0), REye coords (114.0, 181.0), timeStamp: 2017-03-02 10:33:44.241
LEye coords (119.0, 232.0), REye coords (0.0, 0.0), timeStamp: 2017-03-02 10:33:44.286
LEye coords (119.0, 233.0), REye coords (115.0, 193.0), timeStamp: 2017-03-02 10:33:44.320
LEye coords (119.0, 234.0), REye coords (115.0, 200.0), timeStamp: 2017-03-02 10:33:44.353
LEye coords (120.0, 235.0), REye coords (116.0, 205.0), timeStamp: 2017-03-02 10:33:44.388
LEye coords (240.0, 206.0), REye coords (239.0, 193.0), timeStamp: 2017-03-02 10:33:44.431
LEye coords (243.0, 214.0), REye coords (251.0, 204.0), timeStamp: 2017-03-02 10:33:44.465
LEye coords (244.0, 211.0), REye coords (252.0, 197.0), timeStamp: 2017-03-02 10:33:44.509
LEye coords (245.0, 211.0), REye coords (252.0, 202.0), timeStamp: 2017-03-02 10:33:44.543
LEye coords (245.0, 213.0), REye coords (252.0, 203.0), timeStamp: 2017-03-02 10:33:44.576
LEye coords (248.0, 203.0), REye coords (0.0, 0.0), timeStamp: 2017-03-02 10:33:44.620
LEye coords (249.0, 216.0), REye coords (252.0, 206.0), timeStamp: 2017-03-02 10:33:44.654
LEye coords (276.0, 190.0), REye coords (299.0, 175.0), timeStamp: 2017-03-02 10:33:44.688
LEye coords (284.0, 181.0), REye coords (299.0, 174.0), timeStamp: 2017-03-02 10:33:44.721
LEye coords (287.0, 178.0), REye coords (298.0, 175.0), timeStamp: 2017-03-02 10:33:44.765
LEye coords (298.0, 162.0), REye coords (298.0, 176.0), timeStamp: 2017-03-02 10:33:44.799
LEye coords (296.0, 163.0), REye coords (297.0, 175.0), timeStamp: 2017-03-02 10:33:44.832
LEye coords (295.0, 163.0), REye coords (296.0, 172.0), timeStamp: 2017-03-02 10:33:44.876
LEye coords (295.0, 164.0), REye coords (297.0, 174.0), timeStamp: 2017-03-02 10:33:44.910
LEye coords (295.0, 164.0), REye coords (296.0, 174.0), timeStamp: 2017-03-02 10:33:44.953
LEye coords (296.0, 165.0), REye coords (296.0, 173.0), timeStamp: 2017-03-02 10:33:44.986
LEye coords (295.0, 164.0), REye coords (296.0, 173.0), timeStamp: 2017-03-02 10:33:45.019
LEye coords (295.0, 165.0), REye coords (295.0, 175.0), timeStamp: 2017-03-02 10:33:45.064
LEye coords (294.0, 165.0), REye coords (295.0, 176.0), timeStamp: 2017-03-02 10:33:45.097
LEye coords (294.0, 166.0), REye coords (294.0, 177.0), timeStamp: 2017-03-02 10:33:45.131
