LEye coords (292.0, 231.0), REye coords (316.0, 212.0), timeStamp: 2017-03-02 10:33:08.532
LEye coords (292.0, 232.0), REye coords (311.0, 216.0), timeStamp: 2017-03-02 10:33:08.565
LEye coords (282.0, 204.0), REye coords (303.0, 185.0), timeStamp: 2017-03-02 10:33:08.599
LEye coords (274.0, 199.0), REye coords (0.0, 0.0), timeStamp: 2017-03-02 10:33:08.643
LEye coords (266.0, 157.0), REye coords (298.0, 171.0), timeStamp: 2017-03-02 10:33:08.677
LEye coords (266.0, 156.0), REye coords (286.0, 136.0), timeStamp: 2017-03-02 10:33:08.710
LEye coords (265.0, 158.0), REye coords (280.0, 136.0), timeStamp: 2017-03-02 10:33:08.754
LEye coords (264.0, 159.0), REye coords (280.0, 137.0), timeStamp: 2017-03-02 10:33:08.788
LEye coords (264.0, 159.0), REye coords (280.0, 136.0), timeStamp: 2017-03-02 10:33:08.822
LEye coords (264.0, 160.0), REye coords (279.0, 137.0), timeStamp: 2017-03-02 10:33:08.865
LEye coords (264.0, 161.0), REye coords (279.0, 138.0), timeStamp: 2017-03-02 10:33:08.899
LEye coords (186.0, 175.0), REye coords (195.0, 139.0), timeStamp: 2017-03-02 10:33:08.932
LEye coords (188.0, 174.0), REye coords (188.0, 135.0), timeStamp: 2017-03-02 10:33:08.976
LEye coords (187.0, 173.0), REye coords (189.0, 134.0), timeStamp: 2017-03-02 10:33:09.010
LEye coords (187.0, 173.0), REye coords (191.0, 134.0), timeStamp: 2017-03-02 10:33:09.043
LEye coords (187.0, 174.0), REye coords (191.0, 137.0), timeStamp: 2017-03-02 10:33:09.087
LEye coords (160.0, 182.0), REye coords (170.0, 143.0), timeStamp: 2017-03-02 10:33:09.121
LEye coords (120.0, 189.0), REye coords (134.0, 191.0), timeStamp: 2017-03-02 10:33:09.155
LEye coords (122.0, 190.0), REye coords (134.0, 193.0), timeStamp: 2017-03-02 10:33:09.199
LEye coords (124.0, 191.0), REye coords (132.0, 191.0), timeStamp: 2017-03-02 10:33:09.233
LEye coords (125.0, 191.0), REye coords (133.0, 188.0), timeStamp: 2017-03-02 10:33:09.267
LEye coords (126.0, 189.0), REye coords (134.0, 180.0), timeStamp: 2017-03-02 10:33:09.311
LEye coords (124.0, 189.0), REye coords (137.0, 174.0), timeStamp: 2017-03-02 10:33:09.345
LEye coords (124.0, 191.0), REye coords (139.0, 174.0), timeStamp: 2017-03-02 10:33:09.379
LEye coords (124.0, 191.0), REye coords (139.0, 176.0), timeStamp: 2017-03-02 10:33:09.413
LEye coords (125.0, 191.0), REye coords (0.0, 0.0), timeStamp: 2017-03-02 10:33:09.457
LEye coords (126.0, 191.0), REye coords (0.0, 0.0), timeStamp: 2017-03-02 10:33:09.490
LEye coords (126.0, 191.0), REye coords (0.0, 0.0), timeStamp: 2017-03-02 10:33:09.524
