LEye coords (211.0, 136.0), REye coords (213.0, 118.0), timeStamp: 2017-03-02 10:33:58.345
LEye coords (211.0, 136.0), REye coords (214.0, 117.0), timeStamp: 2017-03-02 10:33:58.379
LEye coords (211.0, 136.0), REye coords (215.0, 118.0), timeStamp: 2017-03-02 10:33:58.423
LEye coords (211.0, 136.0), REye coords (215.0, 116.0), timeStamp: 2017-03-02 10:33:58.458
LEye coords (212.0, 136.0), REye coords (215.0, 115.0), timeStamp: 2017-03-02 10:33:58.491
LEye coords (212.0, 136.0), REye coords (216.0, 116.0), timeStamp: 2017-03-02 10:33:58.536
LEye coords (212.0, 136.0), REye coords (216.0, 115.0), timeStamp: 2017-03-02 10:33:58.570
LEye coords (213.0, 136.0), REye coords (217.0, 114.0), timeStamp: 2017-03-02 10:33:58.604
LEye coords (213.0, 135.0), REye coords (218.0, 113.0), timeStamp: 2017-03-02 10:33:58.638
LEye coords (214.0, 136.0), REye coords (219.0, 112.0), timeStamp: 2017-03-02 10:33:58.683
LEye coords (360.0, 108.0), REye coords (371.0, 116.0), timeStamp: 2017-03-02 10:33:58.718
LEye coords (358.0, 125.0), REye coords (369.0, 116.0), timeStamp: 2017-03-02 10:33:58.752
LEye coords (359.0, 124.0), REye coords (374.0, 113.0), timeStamp: 2017-03-02 10:33:58.786
LEye coords (359.0, 125.0), REye coords (375.0, 114.0), timeStamp: 2017-03-02 10:33:58.830
LEye coords (361.0, 124.0), REye coords (375.0, 113.0), timeStamp: 2017-03-02 10:33:58.865
LEye coords (365.0, 126.0), REye coords (373.0, 119.0), timeStamp: 2017-03-02 10:33:58.898
LEye coords (366.0, 126.0), REye coords (357.0, 125.0), timeStamp: 2017-03-02 10:33:58.942
LEye coords (265.0, 126.0), REye coords (272.0, 107.0), timeStamp: 2017-03-02 10:33:58.975
LEye coords (186.0, 127.0), REye coords (192.0, 109.0), timeStamp: 2017-03-02 10:33:59.007
LEye coords (146.0, 130.0), REye coords (148.0, 112.0), timeStamp: 2017-03-02 10:33:59.051
LEye coords (30.0, 134.0), REye coords (21.0, 118.0), timeStamp: 2017-03-02 10:33:59.084
LEye coords (27.0, 136.0), REye coords (22.0, 122.0), timeStamp: 2017-03-02 10:33:59.128
LEye coords (29.0, 135.0), REye coords (21.0, 123.0), timeStamp: 2017-03-02 10:33:59.161
LEye coords (28.0, 135.0), REye coords (21.0, 123.0), timeStamp: 2017-03-02 10:33:59.195
LEye coords (28.0, 136.0), REye coords (21.0, 122.0), timeStamp: 2017-03-02 10:33:59.229
LEye coords (35.0, 136.0), REye coords (21.0, 121.0), timeStamp: 2017-03-02 10:33:59.273
LEye coords (34.0, 136.0), REye coords (22.0, 122.0), timeStamp: 2017-03-02 10:33:59.306
LEye coords (33.0, 136.0), REye coords (23.0, 121.0), timeStamp: 2017-03-02 10:33:59.350
LEye coords (33.0, 136.0), REye coords (24.0, 120.0), timeStamp: 2017-03-02 10:33:59.384
LEye coords (33.0, 137.0), REye coords (25.0, 119.0), timeStamp: 2017-03-02 10:33:59.417
LEye coords (33.0, 137.0), REye coords (26.0, 119.0), timeStamp: 2017-03-02 10:33:59.460
LEye coords (33.0, 137.0), REye coords (26.0, 119.0), timeStamp: 2017-03-02 10:33:59.494
LEye coords (33.0, 137.0), REye coords (27.0, 119.0), timeStamp: 2017-03-02 10:33:59.528
LEye coords (33.0, 138.0), REye coords (28.0, 118.0), timeStamp: 2017-03-02 10:33:59.572
LEye coords (36.0, 137.0), REye coords (71.0, 128.0), timeStamp: 2017-03-02 10:33:59.605
LEye coords (40.0, 137.0), REye coords (66.0, 116.0), timeStamp: 2017-03-02 10:33:59.639
LEye coords (42.0, 137.0), REye coords (65.0, 116.0), timeStamp: 2017-03-02 10:33:59.683
LEye coords (45.0, 137.0), REye coords (64.0, 116.0), timeStamp: 2017-03-02 10:33:59.717
LEye coords (48.0, 137.0), REye coords (64.0, 117.0), timeStamp: 2017-03-02 10:33:59.750
LEye coords (50.0, 136.0), REye coords (64.0, 117.0), timeStamp: 2017-03-02 10:33:59.795
LEye coords (52.0, 136.0), REye coords (65.0, 117.0), timeStamp: 2017-03-02 10:33:59.828
LEye coords (54.0, 136.0), REye coords (65.0, 119.0), timeStamp: 2017-03-02 10:33:59.862
LEye coords (56.0, 135.0), REye coords (65.0, 118.0), timeStamp: 2017-03-02 10:33:59.896
LEye coords (58.0, 135.0), REye coords (65.0, 118.0), timeStamp: 2017-03-02 10:33:59.940
LEye coords (61.0, 135.0), REye coords (65.0, 120.0), timeStamp: 2017-03-02 10:33:59.973
