LEye coords (70.0, 251.0), REye coords (62.0, 222.0), timeStamp: 2017-03-02 10:34:48.461
LEye coords (185.0, 208.0), REye coords (198.0, 179.0), timeStamp: 2017-03-02 10:34:48.494
LEye coords (185.0, 211.0), REye coords (197.0, 189.0), timeStamp: 2017-03-02 10:34:48.528
LEye coords (186.0, 209.0), REye coords (0.0, 0.0), timeStamp: 2017-03-02 10:34:48.572
LEye coords (185.0, 209.0), REye coords (0.0, 0.0), timeStamp: 2017-03-02 10:34:48.606
LEye coords (185.0, 208.0), REye coords (0.0, 0.0), timeStamp: 2017-03-02 10:34:48.640
LEye coords (185.0, 209.0), REye coords (0.0, 0.0), timeStamp: 2017-03-02 10:34:48.684
LEye coords (185.0, 208.0), REye coords (0.0, 0.0), timeStamp: 2017-03-02 10:34:48.717
LEye coords (183.0, 205.0), REye coords (0.0, 0.0), timeStamp: 2017-03-02 10:34:48.751
LEye coords (177.0, 167.0), REye coords (178.0, 134.0), timeStamp: 2017-03-02 10:34:48.796
LEye coords (174.0, 148.0), REye coords (172.0, 118.0), timeStamp: 2017-03-02 10:34:48.830
LEye coords (164.0, 93.0), REye coords (170.0, 108.0), timeStamp: 2017-03-02 10:34:48.863
LEye coords (164.0, 97.0), REye coords (166.0, 88.0), timeStamp: 2017-03-02 10:34:48.907
LEye coords (164.0, 97.0), REye coords (161.0, 83.0), timeStamp: 2017-03-02 10:34:48.940
LEye coords (148.0, 101.0), REye coords (0.0, 0.0), timeStamp: 2017-03-02 10:34:48.973
LEye coords (141.0, 103.0), REye coords (0.0, 0.0), timeStamp: 2017-03-02 10:34:49.017
LEye coords (137.0, 105.0), REye coords (143.0, 91.0), timeStamp: 2017-03-02 10:34:49.051
LEye coords (134.0, 106.0), REye coords (137.0, 93.0), timeStamp: 2017-03-02 10:34:49.084
LEye coords (132.0, 106.0), REye coords (133.0, 94.0), timeStamp: 2017-03-02 10:34:49.128
LEye coords (130.0, 107.0), REye coords (131.0, 95.0), timeStamp: 2017-03-02 10:34:49.162
LEye coords (129.0, 107.0), REye coords (129.0, 96.0), timeStamp: 2017-03-02 10:34:49.196
