LEye coords (263.0, 155.0), REye coords (269.0, 133.0), timeStamp: 2017-03-02 10:35:50.080
LEye coords (263.0, 157.0), REye coords (269.0, 133.0), timeStamp: 2017-03-02 10:35:50.124
LEye coords (263.0, 158.0), REye coords (268.0, 132.0), timeStamp: 2017-03-02 10:35:50.157
LEye coords (263.0, 159.0), REye coords (268.0, 132.0), timeStamp: 2017-03-02 10:35:50.192
LEye coords (263.0, 161.0), REye coords (267.0, 132.0), timeStamp: 2017-03-02 10:35:50.225
LEye coords (263.0, 162.0), REye coords (267.0, 132.0), timeStamp: 2017-03-02 10:35:50.268
LEye coords (262.0, 162.0), REye coords (266.0, 133.0), timeStamp: 2017-03-02 10:35:50.302
LEye coords (262.0, 163.0), REye coords (266.0, 133.0), timeStamp: 2017-03-02 10:35:50.335
LEye coords (262.0, 164.0), REye coords (265.0, 133.0), timeStamp: 2017-03-02 10:35:50.381
LEye coords (262.0, 165.0), REye coords (265.0, 133.0), timeStamp: 2017-03-02 10:35:50.413
LEye coords (262.0, 166.0), REye coords (264.0, 132.0), timeStamp: 2017-03-02 10:35:50.447
LEye coords (263.0, 168.0), REye coords (265.0, 133.0), timeStamp: 2017-03-02 10:35:50.491
LEye coords (264.0, 171.0), REye coords (266.0, 133.0), timeStamp: 2017-03-02 10:35:50.524
LEye coords (265.0, 174.0), REye coords (268.0, 134.0), timeStamp: 2017-03-02 10:35:50.558
LEye coords (267.0, 176.0), REye coords (270.0, 135.0), timeStamp: 2017-03-02 10:35:50.603
LEye coords (268.0, 178.0), REye coords (272.0, 136.0), timeStamp: 2017-03-02 10:35:50.636
LEye coords (269.0, 180.0), REye coords (273.0, 137.0), timeStamp: 2017-03-02 10:35:50.670
LEye coords (271.0, 182.0), REye coords (275.0, 138.0), timeStamp: 2017-03-02 10:35:50.714
LEye coords (272.0, 183.0), REye coords (277.0, 139.0), timeStamp: 2017-03-02 10:35:50.748
LEye coords (273.0, 184.0), REye coords (278.0, 140.0), timeStamp: 2017-03-02 10:35:50.783
LEye coords (274.0, 185.0), REye coords (280.0, 140.0), timeStamp: 2017-03-02 10:35:50.826
LEye coords (274.0, 187.0), REye coords (281.0, 141.0), timeStamp: 2017-03-02 10:35:50.860
LEye coords (276.0, 188.0), REye coords (284.0, 143.0), timeStamp: 2017-03-02 10:35:50.893
LEye coords (278.0, 190.0), REye coords (285.0, 145.0), timeStamp: 2017-03-02 10:35:50.936
LEye coords (280.0, 191.0), REye coords (288.0, 147.0), timeStamp: 2017-03-02 10:35:50.971
