LEye coords (231.0, 207.0), REye coords (234.0, 175.0), timeStamp: 2017-03-02 10:35:54.194
LEye coords (232.0, 207.0), REye coords (235.0, 177.0), timeStamp: 2017-03-02 10:35:54.228
LEye coords (216.0, 136.0), REye coords (228.0, 127.0), timeStamp: 2017-03-02 10:35:54.262
LEye coords (219.0, 139.0), REye coords (231.0, 127.0), timeStamp: 2017-03-02 10:35:54.297
LEye coords (220.0, 138.0), REye coords (230.0, 131.0), timeStamp: 2017-03-02 10:35:54.341
LEye coords (220.0, 139.0), REye coords (229.0, 132.0), timeStamp: 2017-03-02 10:35:54.374
LEye coords (220.0, 139.0), REye coords (230.0, 131.0), timeStamp: 2017-03-02 10:35:54.408
LEye coords (221.0, 141.0), REye coords (230.0, 129.0), timeStamp: 2017-03-02 10:35:54.453
LEye coords (216.0, 139.0), REye coords (227.0, 134.0), timeStamp: 2017-03-02 10:35:54.487
LEye coords (217.0, 139.0), REye coords (227.0, 132.0), timeStamp: 2017-03-02 10:35:54.521
LEye coords (219.0, 141.0), REye coords (228.0, 130.0), timeStamp: 2017-03-02 10:35:54.556
LEye coords (240.0, 136.0), REye coords (252.0, 130.0), timeStamp: 2017-03-02 10:35:54.599
LEye coords (359.0, 137.0), REye coords (355.0, 160.0), timeStamp: 2017-03-02 10:35:54.633
LEye coords (359.0, 134.0), REye coords (363.0, 148.0), timeStamp: 2017-03-02 10:35:54.667
LEye coords (360.0, 136.0), REye coords (360.0, 150.0), timeStamp: 2017-03-02 10:35:54.713
LEye coords (361.0, 136.0), REye coords (360.0, 149.0), timeStamp: 2017-03-02 10:35:54.747
LEye coords (361.0, 138.0), REye coords (361.0, 148.0), timeStamp: 2017-03-02 10:35:54.781
LEye coords (363.0, 141.0), REye coords (362.0, 148.0), timeStamp: 2017-03-02 10:35:54.814
LEye coords (360.0, 142.0), REye coords (360.0, 148.0), timeStamp: 2017-03-02 10:35:54.858
LEye coords (361.0, 143.0), REye coords (360.0, 148.0), timeStamp: 2017-03-02 10:35:54.892
LEye coords (361.0, 143.0), REye coords (361.0, 146.0), timeStamp: 2017-03-02 10:35:54.926
LEye coords (360.0, 145.0), REye coords (362.0, 145.0), timeStamp: 2017-03-02 10:35:54.970
LEye coords (360.0, 146.0), REye coords (362.0, 144.0), timeStamp: 2017-03-02 10:35:55.003
LEye coords (360.0, 146.0), REye coords (363.0, 144.0), timeStamp: 2017-03-02 10:35:55.036
LEye coords (361.0, 144.0), REye coords (363.0, 144.0), timeStamp: 2017-03-02 10:35:55.080
LEye coords (320.0, 175.0), REye coords (360.0, 144.0), timeStamp: 2017-03-02 10:35:55.113
LEye coords (322.0, 168.0), REye coords (357.0, 144.0), timeStamp: 2017-03-02 10:35:55.157
LEye coords (319.0, 171.0), REye coords (355.0, 144.0), timeStamp: 2017-03-02 10:35:55.190
LEye coords (318.0, 172.0), REye coords (352.0, 145.0), timeStamp: 2017-03-02 10:35:55.225
LEye coords (318.0, 172.0), REye coords (350.0, 145.0), timeStamp: 2017-03-02 10:35:55.268
LEye coords (321.0, 174.0), REye coords (348.0, 146.0), timeStamp: 2017-03-02 10:35:55.302
LEye coords (317.0, 170.0), REye coords (346.0, 147.0), timeStamp: 2017-03-02 10:35:55.337
LEye coords (317.0, 169.0), REye coords (344.0, 148.0), timeStamp: 2017-03-02 10:35:55.371
