LEye coords (135.0, 309.0), REye coords (130.0, 313.0), timeStamp: 2017-03-02 10:35:58.043
LEye coords (194.0, 174.0), REye coords (228.0, 152.0), timeStamp: 2017-03-02 10:35:58.077
LEye coords (200.0, 175.0), REye coords (215.0, 160.0), timeStamp: 2017-03-02 10:35:58.110
LEye coords (205.0, 189.0), REye coords (216.0, 162.0), timeStamp: 2017-03-02 10:35:58.155
LEye coords (208.0, 195.0), REye coords (214.0, 172.0), timeStamp: 2017-03-02 10:35:58.188
LEye coords (209.0, 196.0), REye coords (214.0, 171.0), timeStamp: 2017-03-02 10:35:58.222
LEye coords (212.0, 205.0), REye coords (216.0, 157.0), timeStamp: 2017-03-02 10:35:58.266
LEye coords (213.0, 203.0), REye coords (215.0, 184.0), timeStamp: 2017-03-02 10:35:58.300
LEye coords (214.0, 200.0), REye coords (216.0, 175.0), timeStamp: 2017-03-02 10:35:58.335
LEye coords (214.0, 201.0), REye coords (217.0, 168.0), timeStamp: 2017-03-02 10:35:58.368
LEye coords (214.0, 201.0), REye coords (216.0, 165.0), timeStamp: 2017-03-02 10:35:58.412
LEye coords (283.0, 183.0), REye coords (287.0, 176.0), timeStamp: 2017-03-02 10:35:58.447
LEye coords (273.0, 179.0), REye coords (0.0, 0.0), timeStamp: 2017-03-02 10:35:58.480
LEye coords (272.0, 165.0), REye coords (0.0, 0.0), timeStamp: 2017-03-02 10:35:58.524
LEye coords (273.0, 171.0), REye coords (0.0, 0.0), timeStamp: 2017-03-02 10:35:58.558
LEye coords (274.0, 175.0), REye coords (289.0, 155.0), timeStamp: 2017-03-02 10:35:58.592
LEye coords (280.0, 183.0), REye coords (290.0, 152.0), timeStamp: 2017-03-02 10:35:58.635
LEye coords (280.0, 187.0), REye coords (288.0, 156.0), timeStamp: 2017-03-02 10:35:58.669
LEye coords (280.0, 187.0), REye coords (288.0, 154.0), timeStamp: 2017-03-02 10:35:58.702
LEye coords (279.0, 186.0), REye coords (284.0, 169.0), timeStamp: 2017-03-02 10:35:58.747
LEye coords (279.0, 185.0), REye coords (280.0, 167.0), timeStamp: 2017-03-02 10:35:58.779
LEye coords (278.0, 184.0), REye coords (281.0, 165.0), timeStamp: 2017-03-02 10:35:58.813
LEye coords (278.0, 183.0), REye coords (280.0, 167.0), timeStamp: 2017-03-02 10:35:58.857
LEye coords (276.0, 179.0), REye coords (280.0, 165.0), timeStamp: 2017-03-02 10:35:58.891
LEye coords (276.0, 179.0), REye coords (282.0, 163.0), timeStamp: 2017-03-02 10:35:58.923
