LEye coords (326.0, 136.0), REye coords (333.0, 155.0), timeStamp: 2017-03-02 10:36:40.264
LEye coords (326.0, 136.0), REye coords (333.0, 155.0), timeStamp: 2017-03-02 10:36:40.307
LEye coords (252.0, 162.0), REye coords (269.0, 144.0), timeStamp: 2017-03-02 10:36:40.340
LEye coords (257.0, 163.0), REye coords (268.0, 152.0), timeStamp: 2017-03-02 10:36:40.384
LEye coords (258.0, 166.0), REye coords (269.0, 148.0), timeStamp: 2017-03-02 10:36:40.417
LEye coords (260.0, 168.0), REye coords (269.0, 148.0), timeStamp: 2017-03-02 10:36:40.452
LEye coords (258.0, 167.0), REye coords (270.0, 147.0), timeStamp: 2017-03-02 10:36:40.486
LEye coords (253.0, 158.0), REye coords (272.0, 142.0), timeStamp: 2017-03-02 10:36:40.530
LEye coords (255.0, 164.0), REye coords (273.0, 129.0), timeStamp: 2017-03-02 10:36:40.562
LEye coords (256.0, 164.0), REye coords (272.0, 134.0), timeStamp: 2017-03-02 10:36:40.606
LEye coords (256.0, 164.0), REye coords (272.0, 136.0), timeStamp: 2017-03-02 10:36:40.638
LEye coords (263.0, 156.0), REye coords (279.0, 141.0), timeStamp: 2017-03-02 10:36:40.671
LEye coords (267.0, 152.0), REye coords (283.0, 142.0), timeStamp: 2017-03-02 10:36:40.716
LEye coords (271.0, 153.0), REye coords (285.0, 143.0), timeStamp: 2017-03-02 10:36:40.749
LEye coords (273.0, 150.0), REye coords (287.0, 144.0), timeStamp: 2017-03-02 10:36:40.782
LEye coords (275.0, 151.0), REye coords (289.0, 144.0), timeStamp: 2017-03-02 10:36:40.827
LEye coords (276.0, 150.0), REye coords (290.0, 144.0), timeStamp: 2017-03-02 10:36:40.859
LEye coords (277.0, 148.0), REye coords (291.0, 144.0), timeStamp: 2017-03-02 10:36:40.893
LEye coords (277.0, 149.0), REye coords (292.0, 143.0), timeStamp: 2017-03-02 10:36:40.940
LEye coords (160.0, 118.0), REye coords (156.0, 96.0), timeStamp: 2017-03-02 10:36:40.974
LEye coords (159.0, 115.0), REye coords (157.0, 103.0), timeStamp: 2017-03-02 10:36:41.007
LEye coords (160.0, 114.0), REye coords (156.0, 101.0), timeStamp: 2017-03-02 10:36:41.042
LEye coords (159.0, 112.0), REye coords (155.0, 98.0), timeStamp: 2017-03-02 10:36:41.085
LEye coords (160.0, 113.0), REye coords (155.0, 99.0), timeStamp: 2017-03-02 10:36:41.120
LEye coords (164.0, 112.0), REye coords (160.0, 95.0), timeStamp: 2017-03-02 10:36:41.153
LEye coords (163.0, 116.0), REye coords (157.0, 97.0), timeStamp: 2017-03-02 10:36:41.197
LEye coords (172.0, 110.0), REye coords (177.0, 98.0), timeStamp: 2017-03-02 10:36:41.231
LEye coords (258.0, 123.0), REye coords (259.0, 120.0), timeStamp: 2017-03-02 10:36:41.264
LEye coords (297.0, 130.0), REye coords (297.0, 132.0), timeStamp: 2017-03-02 10:36:41.308
LEye coords (412.0, 146.0), REye coords (405.0, 173.0), timeStamp: 2017-03-02 10:36:41.341
LEye coords (406.0, 158.0), REye coords (408.0, 165.0), timeStamp: 2017-03-02 10:36:41.374
LEye coords (404.0, 159.0), REye coords (408.0, 166.0), timeStamp: 2017-03-02 10:36:41.418
LEye coords (0.0, 0.0), REye coords (406.0, 168.0), timeStamp: 2017-03-02 10:36:41.452
LEye coords (0.0, 0.0), REye coords (0.0, 0.0), timeStamp: 2017-03-02 10:36:41.485
LEye coords (403.0, 162.0), REye coords (407.0, 167.0), timeStamp: 2017-03-02 10:36:41.529
LEye coords (403.0, 163.0), REye coords (407.0, 167.0), timeStamp: 2017-03-02 10:36:41.563
LEye coords (403.0, 163.0), REye coords (407.0, 167.0), timeStamp: 2017-03-02 10:36:41.596
LEye coords (403.0, 162.0), REye coords (406.0, 167.0), timeStamp: 2017-03-02 10:36:41.640
LEye coords (0.0, 0.0), REye coords (412.0, 167.0), timeStamp: 2017-03-02 10:36:41.674
LEye coords (454.0, 164.0), REye coords (456.0, 169.0), timeStamp: 2017-03-02 10:36:41.708
LEye coords (457.0, 162.0), REye coords (454.0, 167.0), timeStamp: 2017-03-02 10:36:41.752
LEye coords (458.0, 159.0), REye coords (453.0, 167.0), timeStamp: 2017-03-02 10:36:41.785
LEye coords (458.0, 159.0), REye coords (454.0, 168.0), timeStamp: 2017-03-02 10:36:41.819
LEye coords (457.0, 159.0), REye coords (454.0, 167.0), timeStamp: 2017-03-02 10:36:41.863
LEye coords (459.0, 162.0), REye coords (454.0, 168.0), timeStamp: 2017-03-02 10:36:41.897
LEye coords (466.0, 160.0), REye coords (454.0, 168.0), timeStamp: 2017-03-02 10:36:41.931
LEye coords (465.0, 162.0), REye coords (454.0, 168.0), timeStamp: 2017-03-02 10:36:41.975
LEye coords (464.0, 161.0), REye coords (454.0, 168.0), timeStamp: 2017-03-02 10:36:42.010
LEye coords (464.0, 160.0), REye coords (455.0, 168.0), timeStamp: 2017-03-02 10:36:42.044
LEye coords (465.0, 160.0), REye coords (455.0, 168.0), timeStamp: 2017-03-02 10:36:42.078
LEye coords (465.0, 160.0), REye coords (455.0, 168.0), timeStamp: 2017-03-02 10:36:42.121
