LEye coords (175.0, 215.0), REye coords (192.0, 233.0), timeStamp: 2017-03-02 10:36:45.482
LEye coords (176.0, 215.0), REye coords (193.0, 238.0), timeStamp: 2017-03-02 10:36:45.526
LEye coords (176.0, 216.0), REye coords (193.0, 234.0), timeStamp: 2017-03-02 10:36:45.560
LEye coords (177.0, 216.0), REye coords (193.0, 238.0), timeStamp: 2017-03-02 10:36:45.594
LEye coords (177.0, 216.0), REye coords (193.0, 236.0), timeStamp: 2017-03-02 10:36:45.637
LEye coords (177.0, 216.0), REye coords (194.0, 235.0), timeStamp: 2017-03-02 10:36:45.672
LEye coords (177.0, 216.0), REye coords (194.0, 235.0), timeStamp: 2017-03-02 10:36:45.705
LEye coords (177.0, 216.0), REye coords (194.0, 235.0), timeStamp: 2017-03-02 10:36:45.748
LEye coords (178.0, 217.0), REye coords (195.0, 236.0), timeStamp: 2017-03-02 10:36:45.782
LEye coords (178.0, 217.0), REye coords (195.0, 234.0), timeStamp: 2017-03-02 10:36:45.816
LEye coords (0.0, 0.0), REye coords (176.0, 447.0), timeStamp: 2017-03-02 10:36:45.859
LEye coords (0.0, 0.0), REye coords (179.0, 445.0), timeStamp: 2017-03-02 10:36:45.893
LEye coords (0.0, 0.0), REye coords (178.0, 446.0), timeStamp: 2017-03-02 10:36:45.926
LEye coords (0.0, 0.0), REye coords (180.0, 446.0), timeStamp: 2017-03-02 10:36:45.971
LEye coords (0.0, 0.0), REye coords (180.0, 446.0), timeStamp: 2017-03-02 10:36:46.005
LEye coords (185.0, 433.0), REye coords (174.0, 444.0), timeStamp: 2017-03-02 10:36:46.038
LEye coords (183.0, 426.0), REye coords (174.0, 449.0), timeStamp: 2017-03-02 10:36:46.083
LEye coords (182.0, 429.0), REye coords (176.0, 449.0), timeStamp: 2017-03-02 10:36:46.116
LEye coords (183.0, 428.0), REye coords (178.0, 447.0), timeStamp: 2017-03-02 10:36:46.149
LEye coords (184.0, 424.0), REye coords (179.0, 447.0), timeStamp: 2017-03-02 10:36:46.194
LEye coords (185.0, 411.0), REye coords (180.0, 446.0), timeStamp: 2017-03-02 10:36:46.228
LEye coords (0.0, 0.0), REye coords (181.0, 446.0), timeStamp: 2017-03-02 10:36:46.262
LEye coords (182.0, 420.0), REye coords (181.0, 445.0), timeStamp: 2017-03-02 10:36:46.305
LEye coords (0.0, 0.0), REye coords (182.0, 445.0), timeStamp: 2017-03-02 10:36:46.339
LEye coords (0.0, 0.0), REye coords (182.0, 445.0), timeStamp: 2017-03-02 10:36:46.373
LEye coords (0.0, 0.0), REye coords (182.0, 445.0), timeStamp: 2017-03-02 10:36:46.416
LEye coords (0.0, 0.0), REye coords (180.0, 445.0), timeStamp: 2017-03-02 10:36:46.451
LEye coords (0.0, 0.0), REye coords (179.0, 445.0), timeStamp: 2017-03-02 10:36:46.484
LEye coords (175.0, 424.0), REye coords (178.0, 445.0), timeStamp: 2017-03-02 10:36:46.528
LEye coords (173.0, 423.0), REye coords (177.0, 444.0), timeStamp: 2017-03-02 10:36:46.561
LEye coords (172.0, 423.0), REye coords (176.0, 444.0), timeStamp: 2017-03-02 10:36:46.595
LEye coords (172.0, 423.0), REye coords (176.0, 444.0), timeStamp: 2017-03-02 10:36:46.639
LEye coords (171.0, 424.0), REye coords (175.0, 444.0), timeStamp: 2017-03-02 10:36:46.672
LEye coords (171.0, 423.0), REye coords (174.0, 444.0), timeStamp: 2017-03-02 10:36:46.706
LEye coords (170.0, 424.0), REye coords (174.0, 444.0), timeStamp: 2017-03-02 10:36:46.751
