LEye coords (309.0, 143.0), REye coords (320.0, 167.0), timeStamp: 2017-03-02 10:36:49.339
LEye coords (310.0, 143.0), REye coords (321.0, 167.0), timeStamp: 2017-03-02 10:36:49.373
LEye coords (310.0, 143.0), REye coords (322.0, 167.0), timeStamp: 2017-03-02 10:36:49.406
LEye coords (311.0, 144.0), REye coords (323.0, 167.0), timeStamp: 2017-03-02 10:36:49.451
LEye coords (312.0, 144.0), REye coords (324.0, 167.0), timeStamp: 2017-03-02 10:36:49.484
LEye coords (251.0, 204.0), REye coords (275.0, 180.0), timeStamp: 2017-03-02 10:36:49.518
LEye coords (217.0, 180.0), REye coords (244.0, 211.0), timeStamp: 2017-03-02 10:36:49.563
LEye coords (221.0, 175.0), REye coords (245.0, 203.0), timeStamp: 2017-03-02 10:36:49.597
LEye coords (230.0, 150.0), REye coords (248.0, 173.0), timeStamp: 2017-03-02 10:36:49.630
LEye coords (234.0, 137.0), REye coords (250.0, 158.0), timeStamp: 2017-03-02 10:36:49.664
LEye coords (247.0, 107.0), REye coords (254.0, 115.0), timeStamp: 2017-03-02 10:36:49.708
LEye coords (247.0, 103.0), REye coords (258.0, 110.0), timeStamp: 2017-03-02 10:36:49.742
LEye coords (246.0, 102.0), REye coords (256.0, 109.0), timeStamp: 2017-03-02 10:36:49.775
LEye coords (245.0, 102.0), REye coords (256.0, 111.0), timeStamp: 2017-03-02 10:36:49.820
LEye coords (254.0, 103.0), REye coords (266.0, 110.0), timeStamp: 2017-03-02 10:36:49.854
LEye coords (260.0, 103.0), REye coords (271.0, 109.0), timeStamp: 2017-03-02 10:36:49.888
LEye coords (263.0, 103.0), REye coords (275.0, 108.0), timeStamp: 2017-03-02 10:36:49.931
LEye coords (266.0, 102.0), REye coords (277.0, 108.0), timeStamp: 2017-03-02 10:36:49.965
LEye coords (268.0, 102.0), REye coords (277.0, 112.0), timeStamp: 2017-03-02 10:36:49.998
LEye coords (270.0, 102.0), REye coords (277.0, 116.0), timeStamp: 2017-03-02 10:36:50.041
LEye coords (271.0, 102.0), REye coords (279.0, 115.0), timeStamp: 2017-03-02 10:36:50.075
LEye coords (273.0, 102.0), REye coords (280.0, 115.0), timeStamp: 2017-03-02 10:36:50.109
LEye coords (274.0, 102.0), REye coords (281.0, 114.0), timeStamp: 2017-03-02 10:36:50.153
LEye coords (274.0, 102.0), REye coords (281.0, 114.0), timeStamp: 2017-03-02 10:36:50.186
LEye coords (275.0, 102.0), REye coords (282.0, 114.0), timeStamp: 2017-03-02 10:36:50.219
LEye coords (277.0, 102.0), REye coords (284.0, 113.0), timeStamp: 2017-03-02 10:36:50.263
LEye coords (279.0, 102.0), REye coords (286.0, 113.0), timeStamp: 2017-03-02 10:36:50.296
LEye coords (280.0, 101.0), REye coords (287.0, 113.0), timeStamp: 2017-03-02 10:36:50.339
LEye coords (282.0, 101.0), REye coords (289.0, 113.0), timeStamp: 2017-03-02 10:36:50.372
LEye coords (283.0, 101.0), REye coords (290.0, 112.0), timeStamp: 2017-03-02 10:36:50.406
LEye coords (284.0, 101.0), REye coords (292.0, 112.0), timeStamp: 2017-03-02 10:36:50.450
