LEye coords (118.0, 197.0), REye coords (143.0, 193.0), timeStamp: 2017-03-02 10:36:54.069
LEye coords (120.0, 198.0), REye coords (142.0, 192.0), timeStamp: 2017-03-02 10:36:54.112
LEye coords (119.0, 198.0), REye coords (141.0, 192.0), timeStamp: 2017-03-02 10:36:54.146
LEye coords (119.0, 198.0), REye coords (140.0, 191.0), timeStamp: 2017-03-02 10:36:54.179
LEye coords (119.0, 197.0), REye coords (139.0, 190.0), timeStamp: 2017-03-02 10:36:54.223
LEye coords (119.0, 198.0), REye coords (138.0, 189.0), timeStamp: 2017-03-02 10:36:54.258
LEye coords (120.0, 199.0), REye coords (138.0, 188.0), timeStamp: 2017-03-02 10:36:54.293
LEye coords (120.0, 199.0), REye coords (138.0, 187.0), timeStamp: 2017-03-02 10:36:54.337
LEye coords (174.0, 140.0), REye coords (198.0, 137.0), timeStamp: 2017-03-02 10:36:54.371
LEye coords (215.0, 99.0), REye coords (227.0, 91.0), timeStamp: 2017-03-02 10:36:54.405
LEye coords (215.0, 101.0), REye coords (225.0, 98.0), timeStamp: 2017-03-02 10:36:54.438
LEye coords (214.0, 101.0), REye coords (224.0, 100.0), timeStamp: 2017-03-02 10:36:54.482
LEye coords (216.0, 101.0), REye coords (225.0, 101.0), timeStamp: 2017-03-02 10:36:54.516
LEye coords (214.0, 104.0), REye coords (228.0, 97.0), timeStamp: 2017-03-02 10:36:54.559
LEye coords (252.0, 119.0), REye coords (262.0, 121.0), timeStamp: 2017-03-02 10:36:54.593
LEye coords (251.0, 118.0), REye coords (261.0, 117.0), timeStamp: 2017-03-02 10:36:54.627
LEye coords (251.0, 117.0), REye coords (262.0, 119.0), timeStamp: 2017-03-02 10:36:54.671
LEye coords (252.0, 117.0), REye coords (263.0, 117.0), timeStamp: 2017-03-02 10:36:54.704
LEye coords (253.0, 117.0), REye coords (264.0, 116.0), timeStamp: 2017-03-02 10:36:54.737
LEye coords (253.0, 116.0), REye coords (264.0, 115.0), timeStamp: 2017-03-02 10:36:54.781
LEye coords (257.0, 115.0), REye coords (267.0, 113.0), timeStamp: 2017-03-02 10:36:54.816
LEye coords (259.0, 117.0), REye coords (269.0, 112.0), timeStamp: 2017-03-02 10:36:54.849
LEye coords (262.0, 116.0), REye coords (271.0, 112.0), timeStamp: 2017-03-02 10:36:54.883
LEye coords (280.0, 123.0), REye coords (289.0, 110.0), timeStamp: 2017-03-02 10:36:54.928
LEye coords (278.0, 121.0), REye coords (285.0, 112.0), timeStamp: 2017-03-02 10:36:54.961
LEye coords (278.0, 123.0), REye coords (286.0, 113.0), timeStamp: 2017-03-02 10:36:54.994
LEye coords (277.0, 117.0), REye coords (286.0, 113.0), timeStamp: 2017-03-02 10:36:55.039
LEye coords (278.0, 115.0), REye coords (285.0, 114.0), timeStamp: 2017-03-02 10:36:55.073
LEye coords (278.0, 116.0), REye coords (285.0, 113.0), timeStamp: 2017-03-02 10:36:55.106
LEye coords (278.0, 116.0), REye coords (285.0, 113.0), timeStamp: 2017-03-02 10:36:55.151
