LEye coords (252.0, 269.0), REye coords (251.0, 257.0), timeStamp: 2017-03-02 10:38:20.341
LEye coords (253.0, 269.0), REye coords (252.0, 257.0), timeStamp: 2017-03-02 10:38:20.385
LEye coords (254.0, 269.0), REye coords (252.0, 257.0), timeStamp: 2017-03-02 10:38:20.418
LEye coords (253.0, 267.0), REye coords (253.0, 255.0), timeStamp: 2017-03-02 10:38:20.452
LEye coords (253.0, 265.0), REye coords (253.0, 254.0), timeStamp: 2017-03-02 10:38:20.495
LEye coords (253.0, 264.0), REye coords (253.0, 252.0), timeStamp: 2017-03-02 10:38:20.528
LEye coords (253.0, 262.0), REye coords (253.0, 251.0), timeStamp: 2017-03-02 10:38:20.573
LEye coords (253.0, 261.0), REye coords (253.0, 250.0), timeStamp: 2017-03-02 10:38:20.607
LEye coords (252.0, 260.0), REye coords (253.0, 249.0), timeStamp: 2017-03-02 10:38:20.641
LEye coords (249.0, 207.0), REye coords (260.0, 196.0), timeStamp: 2017-03-02 10:38:20.685
LEye coords (250.0, 206.0), REye coords (263.0, 195.0), timeStamp: 2017-03-02 10:38:20.718
LEye coords (253.0, 207.0), REye coords (0.0, 0.0), timeStamp: 2017-03-02 10:38:20.751
LEye coords (270.0, 205.0), REye coords (282.0, 195.0), timeStamp: 2017-03-02 10:38:20.786
LEye coords (279.0, 203.0), REye coords (290.0, 188.0), timeStamp: 2017-03-02 10:38:20.829
LEye coords (305.0, 202.0), REye coords (293.0, 189.0), timeStamp: 2017-03-02 10:38:20.863
LEye coords (305.0, 204.0), REye coords (312.0, 169.0), timeStamp: 2017-03-02 10:38:20.898
LEye coords (306.0, 201.0), REye coords (310.0, 163.0), timeStamp: 2017-03-02 10:38:20.942
LEye coords (305.0, 201.0), REye coords (314.0, 164.0), timeStamp: 2017-03-02 10:38:20.975
LEye coords (306.0, 200.0), REye coords (313.0, 165.0), timeStamp: 2017-03-02 10:38:21.010
LEye coords (305.0, 200.0), REye coords (314.0, 165.0), timeStamp: 2017-03-02 10:38:21.054
LEye coords (305.0, 199.0), REye coords (314.0, 166.0), timeStamp: 2017-03-02 10:38:21.087
LEye coords (306.0, 199.0), REye coords (314.0, 167.0), timeStamp: 2017-03-02 10:38:21.120
