LEye coords (335.0, 214.0), REye coords (340.0, 194.0), timeStamp: 2017-03-02 10:38:22.125
LEye coords (336.0, 213.0), REye coords (341.0, 192.0), timeStamp: 2017-03-02 10:38:22.158
LEye coords (336.0, 212.0), REye coords (342.0, 190.0), timeStamp: 2017-03-02 10:38:22.192
LEye coords (337.0, 211.0), REye coords (343.0, 189.0), timeStamp: 2017-03-02 10:38:22.237
LEye coords (337.0, 210.0), REye coords (344.0, 188.0), timeStamp: 2017-03-02 10:38:22.271
LEye coords (338.0, 210.0), REye coords (344.0, 187.0), timeStamp: 2017-03-02 10:38:22.305
LEye coords (338.0, 209.0), REye coords (345.0, 186.0), timeStamp: 2017-03-02 10:38:22.340
LEye coords (339.0, 208.0), REye coords (346.0, 184.0), timeStamp: 2017-03-02 10:38:22.385
LEye coords (282.0, 162.0), REye coords (292.0, 132.0), timeStamp: 2017-03-02 10:38:22.418
LEye coords (249.0, 156.0), REye coords (256.0, 152.0), timeStamp: 2017-03-02 10:38:22.451
LEye coords (248.0, 153.0), REye coords (258.0, 137.0), timeStamp: 2017-03-02 10:38:22.495
LEye coords (249.0, 152.0), REye coords (258.0, 133.0), timeStamp: 2017-03-02 10:38:22.530
LEye coords (247.0, 149.0), REye coords (258.0, 132.0), timeStamp: 2017-03-02 10:38:22.565
LEye coords (238.0, 132.0), REye coords (252.0, 126.0), timeStamp: 2017-03-02 10:38:22.598
LEye coords (244.0, 154.0), REye coords (254.0, 116.0), timeStamp: 2017-03-02 10:38:22.642
LEye coords (241.0, 143.0), REye coords (252.0, 120.0), timeStamp: 2017-03-02 10:38:22.676
LEye coords (241.0, 138.0), REye coords (254.0, 126.0), timeStamp: 2017-03-02 10:38:22.710
LEye coords (244.0, 137.0), REye coords (0.0, 0.0), timeStamp: 2017-03-02 10:38:22.754
LEye coords (247.0, 136.0), REye coords (0.0, 0.0), timeStamp: 2017-03-02 10:38:22.788
LEye coords (249.0, 135.0), REye coords (0.0, 0.0), timeStamp: 2017-03-02 10:38:22.821
LEye coords (250.0, 134.0), REye coords (0.0, 0.0), timeStamp: 2017-03-02 10:38:22.866
LEye coords (251.0, 133.0), REye coords (0.0, 0.0), timeStamp: 2017-03-02 10:38:22.899
LEye coords (252.0, 132.0), REye coords (0.0, 0.0), timeStamp: 2017-03-02 10:38:22.932
LEye coords (252.0, 131.0), REye coords (0.0, 0.0), timeStamp: 2017-03-02 10:38:22.977
LEye coords (253.0, 131.0), REye coords (0.0, 0.0), timeStamp: 2017-03-02 10:38:23.010
LEye coords (253.0, 130.0), REye coords (0.0, 0.0), timeStamp: 2017-03-02 10:38:23.043
