LEye coords (384.0, 252.0), REye coords (395.0, 227.0), timeStamp: 2017-03-02 10:38:26.937
LEye coords (383.0, 252.0), REye coords (395.0, 227.0), timeStamp: 2017-03-02 10:38:26.971
LEye coords (382.0, 253.0), REye coords (395.0, 227.0), timeStamp: 2017-03-02 10:38:27.004
LEye coords (378.0, 251.0), REye coords (392.0, 225.0), timeStamp: 2017-03-02 10:38:27.049
LEye coords (243.0, 152.0), REye coords (276.0, 169.0), timeStamp: 2017-03-02 10:38:27.083
LEye coords (254.0, 165.0), REye coords (278.0, 160.0), timeStamp: 2017-03-02 10:38:27.117
LEye coords (384.0, 252.0), REye coords (396.0, 226.0), timeStamp: 2017-03-02 10:38:26.892
LEye coords (385.0, 251.0), REye coords (397.0, 223.0), timeStamp: 2017-03-02 10:38:26.859
LEye coords (180.0, 135.0), REye coords (187.0, 141.0), timeStamp: 2017-03-02 10:39:25.822
LEye coords (181.0, 136.0), REye coords (187.0, 142.0), timeStamp: 2017-03-02 10:39:25.855
LEye coords (182.0, 136.0), REye coords (184.0, 145.0), timeStamp: 2017-03-02 10:39:25.889
LEye coords (185.0, 136.0), REye coords (188.0, 152.0), timeStamp: 2017-03-02 10:39:25.932
LEye coords (184.0, 139.0), REye coords (188.0, 153.0), timeStamp: 2017-03-02 10:39:25.966
LEye coords (182.0, 139.0), REye coords (188.0, 152.0), timeStamp: 2017-03-02 10:39:26.000
LEye coords (181.0, 139.0), REye coords (187.0, 152.0), timeStamp: 2017-03-02 10:39:26.044
LEye coords (282.0, 125.0), REye coords (286.0, 133.0), timeStamp: 2017-03-02 10:39:26.077
LEye coords (277.0, 123.0), REye coords (292.0, 130.0), timeStamp: 2017-03-02 10:39:26.111
LEye coords (279.0, 126.0), REye coords (291.0, 130.0), timeStamp: 2017-03-02 10:39:26.155
