LEye coords (162.0, 167.0), REye coords (167.0, 160.0), timeStamp: 2017-03-02 10:39:30.781
LEye coords (163.0, 167.0), REye coords (168.0, 161.0), timeStamp: 2017-03-02 10:39:30.814
LEye coords (163.0, 168.0), REye coords (168.0, 161.0), timeStamp: 2017-03-02 10:39:30.847
LEye coords (163.0, 168.0), REye coords (168.0, 162.0), timeStamp: 2017-03-02 10:39:30.892
LEye coords (163.0, 168.0), REye coords (168.0, 162.0), timeStamp: 2017-03-02 10:39:30.925
LEye coords (163.0, 168.0), REye coords (168.0, 162.0), timeStamp: 2017-03-02 10:39:30.959
LEye coords (163.0, 169.0), REye coords (168.0, 163.0), timeStamp: 2017-03-02 10:39:31.004
LEye coords (163.0, 169.0), REye coords (168.0, 163.0), timeStamp: 2017-03-02 10:39:31.037
LEye coords (164.0, 170.0), REye coords (168.0, 163.0), timeStamp: 2017-03-02 10:39:31.070
LEye coords (166.0, 169.0), REye coords (171.0, 163.0), timeStamp: 2017-03-02 10:39:31.115
LEye coords (276.0, 112.0), REye coords (285.0, 144.0), timeStamp: 2017-03-02 10:39:31.148
LEye coords (282.0, 137.0), REye coords (287.0, 140.0), timeStamp: 2017-03-02 10:39:31.181
LEye coords (320.0, 126.0), REye coords (326.0, 136.0), timeStamp: 2017-03-02 10:39:31.226
LEye coords (331.0, 121.0), REye coords (337.0, 135.0), timeStamp: 2017-03-02 10:39:31.260
LEye coords (335.0, 119.0), REye coords (343.0, 136.0), timeStamp: 2017-03-02 10:39:31.293
LEye coords (350.0, 115.0), REye coords (354.0, 136.0), timeStamp: 2017-03-02 10:39:31.336
LEye coords (350.0, 113.0), REye coords (342.0, 142.0), timeStamp: 2017-03-02 10:39:31.369
LEye coords (351.0, 111.0), REye coords (349.0, 137.0), timeStamp: 2017-03-02 10:39:31.402
LEye coords (351.0, 113.0), REye coords (352.0, 136.0), timeStamp: 2017-03-02 10:39:31.445
LEye coords (349.0, 125.0), REye coords (0.0, 0.0), timeStamp: 2017-03-02 10:39:31.479
LEye coords (347.0, 131.0), REye coords (0.0, 0.0), timeStamp: 2017-03-02 10:39:31.512
LEye coords (347.0, 135.0), REye coords (350.0, 142.0), timeStamp: 2017-03-02 10:39:31.556
LEye coords (346.0, 138.0), REye coords (0.0, 0.0), timeStamp: 2017-03-02 10:39:31.590
LEye coords (346.0, 140.0), REye coords (0.0, 0.0), timeStamp: 2017-03-02 10:39:31.625
LEye coords (346.0, 141.0), REye coords (0.0, 0.0), timeStamp: 2017-03-02 10:39:31.669
