LEye coords (201.0, 107.0), REye coords (204.0, 120.0), timeStamp: 2017-03-02 10:39:29.739
LEye coords (201.0, 107.0), REye coords (204.0, 121.0), timeStamp: 2017-03-02 10:39:29.773
LEye coords (202.0, 108.0), REye coords (205.0, 121.0), timeStamp: 2017-03-02 10:39:29.818
LEye coords (202.0, 109.0), REye coords (205.0, 122.0), timeStamp: 2017-03-02 10:39:29.852
LEye coords (202.0, 109.0), REye coords (205.0, 122.0), timeStamp: 2017-03-02 10:39:29.886
LEye coords (206.0, 166.0), REye coords (205.0, 125.0), timeStamp: 2017-03-02 10:39:29.930
LEye coords (211.0, 209.0), REye coords (210.0, 211.0), timeStamp: 2017-03-02 10:39:29.965
LEye coords (210.0, 208.0), REye coords (214.0, 211.0), timeStamp: 2017-03-02 10:39:29.998
LEye coords (210.0, 207.0), REye coords (213.0, 211.0), timeStamp: 2017-03-02 10:39:30.041
LEye coords (211.0, 208.0), REye coords (212.0, 210.0), timeStamp: 2017-03-02 10:39:30.076
LEye coords (190.0, 196.0), REye coords (207.0, 206.0), timeStamp: 2017-03-02 10:39:30.109
LEye coords (183.0, 190.0), REye coords (201.0, 202.0), timeStamp: 2017-03-02 10:39:30.153
LEye coords (183.0, 190.0), REye coords (197.0, 199.0), timeStamp: 2017-03-02 10:39:30.187
LEye coords (183.0, 190.0), REye coords (195.0, 196.0), timeStamp: 2017-03-02 10:39:30.222
LEye coords (182.0, 190.0), REye coords (194.0, 193.0), timeStamp: 2017-03-02 10:39:30.256
LEye coords (181.0, 190.0), REye coords (192.0, 191.0), timeStamp: 2017-03-02 10:39:30.301
LEye coords (181.0, 190.0), REye coords (191.0, 190.0), timeStamp: 2017-03-02 10:39:30.335
LEye coords (179.0, 189.0), REye coords (189.0, 188.0), timeStamp: 2017-03-02 10:39:30.369
LEye coords (176.0, 188.0), REye coords (187.0, 186.0), timeStamp: 2017-03-02 10:39:30.403
LEye coords (175.0, 188.0), REye coords (185.0, 185.0), timeStamp: 2017-03-02 10:39:30.447
LEye coords (163.0, 185.0), REye coords (183.0, 184.0), timeStamp: 2017-03-02 10:39:30.480
LEye coords (160.0, 181.0), REye coords (182.0, 183.0), timeStamp: 2017-03-02 10:39:30.513
LEye coords (162.0, 182.0), REye coords (180.0, 183.0), timeStamp: 2017-03-02 10:39:30.558
LEye coords (162.0, 182.0), REye coords (166.0, 180.0), timeStamp: 2017-03-02 10:39:30.591
LEye coords (162.0, 182.0), REye coords (165.0, 171.0), timeStamp: 2017-03-02 10:39:30.625
LEye coords (162.0, 182.0), REye coords (166.0, 173.0), timeStamp: 2017-03-02 10:39:30.669
