LEye coords (88.0, 260.0), REye coords (92.0, 245.0), timeStamp: 2017-03-02 10:39:36.145
LEye coords (88.0, 260.0), REye coords (92.0, 245.0), timeStamp: 2017-03-02 10:39:36.178
LEye coords (88.0, 260.0), REye coords (93.0, 246.0), timeStamp: 2017-03-02 10:39:36.223
LEye coords (88.0, 259.0), REye coords (93.0, 246.0), timeStamp: 2017-03-02 10:39:36.258
LEye coords (89.0, 259.0), REye coords (93.0, 247.0), timeStamp: 2017-03-02 10:39:36.291
LEye coords (89.0, 259.0), REye coords (94.0, 248.0), timeStamp: 2017-03-02 10:39:36.325
LEye coords (89.0, 259.0), REye coords (94.0, 249.0), timeStamp: 2017-03-02 10:39:36.369
LEye coords (89.0, 259.0), REye coords (95.0, 251.0), timeStamp: 2017-03-02 10:39:36.402
LEye coords (205.0, 183.0), REye coords (217.0, 221.0), timeStamp: 2017-03-02 10:39:36.436
LEye coords (202.0, 196.0), REye coords (213.0, 234.0), timeStamp: 2017-03-02 10:39:36.481
LEye coords (206.0, 214.0), REye coords (212.0, 239.0), timeStamp: 2017-03-02 10:39:36.514
LEye coords (205.0, 204.0), REye coords (213.0, 240.0), timeStamp: 2017-03-02 10:39:36.548
LEye coords (205.0, 204.0), REye coords (213.0, 241.0), timeStamp: 2017-03-02 10:39:36.591
LEye coords (205.0, 208.0), REye coords (216.0, 235.0), timeStamp: 2017-03-02 10:39:36.624
LEye coords (205.0, 208.0), REye coords (214.0, 237.0), timeStamp: 2017-03-02 10:39:36.659
LEye coords (217.0, 209.0), REye coords (220.0, 249.0), timeStamp: 2017-03-02 10:39:36.703
LEye coords (221.0, 223.0), REye coords (225.0, 246.0), timeStamp: 2017-03-02 10:39:36.736
LEye coords (223.0, 230.0), REye coords (228.0, 243.0), timeStamp: 2017-03-02 10:39:36.770
LEye coords (224.0, 227.0), REye coords (230.0, 239.0), timeStamp: 2017-03-02 10:39:36.813
LEye coords (224.0, 223.0), REye coords (232.0, 238.0), timeStamp: 2017-03-02 10:39:36.847
LEye coords (225.0, 227.0), REye coords (234.0, 237.0), timeStamp: 2017-03-02 10:39:36.881
LEye coords (226.0, 232.0), REye coords (235.0, 236.0), timeStamp: 2017-03-02 10:39:36.915
LEye coords (227.0, 235.0), REye coords (236.0, 235.0), timeStamp: 2017-03-02 10:39:36.959
LEye coords (227.0, 238.0), REye coords (237.0, 234.0), timeStamp: 2017-03-02 10:39:36.992
LEye coords (227.0, 241.0), REye coords (238.0, 233.0), timeStamp: 2017-03-02 10:39:37.036
LEye coords (228.0, 243.0), REye coords (239.0, 232.0), timeStamp: 2017-03-02 10:39:37.070
LEye coords (230.0, 246.0), REye coords (241.0, 233.0), timeStamp: 2017-03-02 10:39:37.105
LEye coords (232.0, 247.0), REye coords (242.0, 233.0), timeStamp: 2017-03-02 10:39:37.138
LEye coords (251.0, 257.0), REye coords (244.0, 234.0), timeStamp: 2017-03-02 10:39:37.183
