LEye coords (431.0, 185.0), REye coords (428.0, 192.0), timeStamp: 2017-03-02 10:40:26.479
LEye coords (274.0, 133.0), REye coords (296.0, 147.0), timeStamp: 2017-03-02 10:40:26.513
LEye coords (272.0, 136.0), REye coords (287.0, 134.0), timeStamp: 2017-03-02 10:40:26.556
LEye coords (272.0, 136.0), REye coords (287.0, 136.0), timeStamp: 2017-03-02 10:40:26.590
LEye coords (273.0, 136.0), REye coords (287.0, 137.0), timeStamp: 2017-03-02 10:40:26.624
LEye coords (273.0, 135.0), REye coords (286.0, 135.0), timeStamp: 2017-03-02 10:40:26.668
LEye coords (277.0, 134.0), REye coords (286.0, 147.0), timeStamp: 2017-03-02 10:40:26.701
LEye coords (273.0, 134.0), REye coords (286.0, 149.0), timeStamp: 2017-03-02 10:40:26.735
LEye coords (273.0, 137.0), REye coords (285.0, 153.0), timeStamp: 2017-03-02 10:40:26.770
LEye coords (241.0, 135.0), REye coords (254.0, 143.0), timeStamp: 2017-03-02 10:40:26.813
LEye coords (225.0, 134.0), REye coords (238.0, 139.0), timeStamp: 2017-03-02 10:40:26.846
LEye coords (182.0, 131.0), REye coords (190.0, 122.0), timeStamp: 2017-03-02 10:40:26.890
LEye coords (181.0, 130.0), REye coords (191.0, 124.0), timeStamp: 2017-03-02 10:40:26.924
LEye coords (181.0, 134.0), REye coords (188.0, 122.0), timeStamp: 2017-03-02 10:40:26.958
LEye coords (177.0, 139.0), REye coords (185.0, 119.0), timeStamp: 2017-03-02 10:40:26.992
LEye coords (161.0, 142.0), REye coords (169.0, 122.0), timeStamp: 2017-03-02 10:40:27.035
LEye coords (114.0, 151.0), REye coords (116.0, 137.0), timeStamp: 2017-03-02 10:40:27.068
LEye coords (115.0, 154.0), REye coords (120.0, 137.0), timeStamp: 2017-03-02 10:40:27.103
LEye coords (115.0, 152.0), REye coords (123.0, 136.0), timeStamp: 2017-03-02 10:40:27.147
LEye coords (121.0, 149.0), REye coords (126.0, 134.0), timeStamp: 2017-03-02 10:40:27.179
LEye coords (123.0, 147.0), REye coords (129.0, 132.0), timeStamp: 2017-03-02 10:40:27.224
LEye coords (125.0, 146.0), REye coords (130.0, 132.0), timeStamp: 2017-03-02 10:40:27.257
LEye coords (126.0, 145.0), REye coords (132.0, 131.0), timeStamp: 2017-03-02 10:40:27.291
LEye coords (127.0, 145.0), REye coords (133.0, 131.0), timeStamp: 2017-03-02 10:40:27.325
LEye coords (128.0, 144.0), REye coords (134.0, 130.0), timeStamp: 2017-03-02 10:40:27.370
LEye coords (129.0, 143.0), REye coords (135.0, 130.0), timeStamp: 2017-03-02 10:40:27.404
LEye coords (130.0, 143.0), REye coords (136.0, 129.0), timeStamp: 2017-03-02 10:40:27.437
LEye coords (130.0, 143.0), REye coords (137.0, 129.0), timeStamp: 2017-03-02 10:40:27.482
LEye coords (131.0, 143.0), REye coords (138.0, 129.0), timeStamp: 2017-03-02 10:40:27.517
LEye coords (131.0, 143.0), REye coords (138.0, 128.0), timeStamp: 2017-03-02 10:40:27.550
LEye coords (132.0, 143.0), REye coords (138.0, 128.0), timeStamp: 2017-03-02 10:40:27.585
