LEye coords (318.0, 104.0), REye coords (326.0, 115.0), timeStamp: 2017-03-02 10:40:24.996
LEye coords (318.0, 105.0), REye coords (326.0, 115.0), timeStamp: 2017-03-02 10:40:25.030
LEye coords (318.0, 105.0), REye coords (326.0, 115.0), timeStamp: 2017-03-02 10:40:25.073
LEye coords (318.0, 107.0), REye coords (326.0, 114.0), timeStamp: 2017-03-02 10:40:25.108
LEye coords (318.0, 108.0), REye coords (327.0, 114.0), timeStamp: 2017-03-02 10:40:25.142
LEye coords (268.0, 181.0), REye coords (280.0, 140.0), timeStamp: 2017-03-02 10:40:25.186
LEye coords (264.0, 180.0), REye coords (269.0, 164.0), timeStamp: 2017-03-02 10:40:25.219
LEye coords (265.0, 179.0), REye coords (266.0, 168.0), timeStamp: 2017-03-02 10:40:25.252
LEye coords (265.0, 180.0), REye coords (266.0, 169.0), timeStamp: 2017-03-02 10:40:25.297
LEye coords (265.0, 182.0), REye coords (267.0, 167.0), timeStamp: 2017-03-02 10:40:25.332
LEye coords (290.0, 223.0), REye coords (293.0, 205.0), timeStamp: 2017-03-02 10:40:25.366
LEye coords (293.0, 221.0), REye coords (298.0, 205.0), timeStamp: 2017-03-02 10:40:25.410
LEye coords (292.0, 221.0), REye coords (299.0, 202.0), timeStamp: 2017-03-02 10:40:25.442
LEye coords (291.0, 220.0), REye coords (306.0, 188.0), timeStamp: 2017-03-02 10:40:25.476
LEye coords (293.0, 219.0), REye coords (306.0, 191.0), timeStamp: 2017-03-02 10:40:25.519
LEye coords (349.0, 192.0), REye coords (357.0, 167.0), timeStamp: 2017-03-02 10:40:25.553
LEye coords (345.0, 184.0), REye coords (353.0, 172.0), timeStamp: 2017-03-02 10:40:25.587
LEye coords (349.0, 185.0), REye coords (356.0, 170.0), timeStamp: 2017-03-02 10:40:25.630
LEye coords (353.0, 176.0), REye coords (356.0, 169.0), timeStamp: 2017-03-02 10:40:25.664
LEye coords (351.0, 179.0), REye coords (356.0, 169.0), timeStamp: 2017-03-02 10:40:25.698
LEye coords (433.0, 166.0), REye coords (432.0, 164.0), timeStamp: 2017-03-02 10:40:25.742
LEye coords (432.0, 161.0), REye coords (429.0, 170.0), timeStamp: 2017-03-02 10:40:25.775
LEye coords (431.0, 162.0), REye coords (430.0, 171.0), timeStamp: 2017-03-02 10:40:25.809
LEye coords (431.0, 162.0), REye coords (429.0, 172.0), timeStamp: 2017-03-02 10:40:25.852
LEye coords (431.0, 163.0), REye coords (428.0, 172.0), timeStamp: 2017-03-02 10:40:25.886
LEye coords (427.0, 164.0), REye coords (425.0, 173.0), timeStamp: 2017-03-02 10:40:25.919
LEye coords (432.0, 158.0), REye coords (423.0, 173.0), timeStamp: 2017-03-02 10:40:25.964
LEye coords (429.0, 162.0), REye coords (424.0, 172.0), timeStamp: 2017-03-02 10:40:25.997
LEye coords (429.0, 163.0), REye coords (424.0, 172.0), timeStamp: 2017-03-02 10:40:26.030
LEye coords (428.0, 163.0), REye coords (425.0, 171.0), timeStamp: 2017-03-02 10:40:26.074
LEye coords (427.0, 163.0), REye coords (425.0, 172.0), timeStamp: 2017-03-02 10:40:26.108
LEye coords (428.0, 163.0), REye coords (426.0, 172.0), timeStamp: 2017-03-02 10:40:26.141
LEye coords (428.0, 164.0), REye coords (426.0, 173.0), timeStamp: 2017-03-02 10:40:26.186
LEye coords (429.0, 164.0), REye coords (426.0, 173.0), timeStamp: 2017-03-02 10:40:26.220
LEye coords (429.0, 164.0), REye coords (427.0, 173.0), timeStamp: 2017-03-02 10:40:26.254
LEye coords (430.0, 165.0), REye coords (427.0, 172.0), timeStamp: 2017-03-02 10:40:26.288
LEye coords (430.0, 165.0), REye coords (427.0, 173.0), timeStamp: 2017-03-02 10:40:26.333
LEye coords (431.0, 165.0), REye coords (428.0, 173.0), timeStamp: 2017-03-02 10:40:26.366
