LEye coords (89.0, 191.0), REye coords (93.0, 171.0), timeStamp: 2017-03-02 10:40:27.697
LEye coords (89.0, 191.0), REye coords (94.0, 171.0), timeStamp: 2017-03-02 10:40:27.740
LEye coords (89.0, 191.0), REye coords (94.0, 171.0), timeStamp: 2017-03-02 10:40:27.774
LEye coords (147.0, 255.0), REye coords (163.0, 215.0), timeStamp: 2017-03-02 10:40:27.809
LEye coords (145.0, 242.0), REye coords (164.0, 210.0), timeStamp: 2017-03-02 10:40:27.842
LEye coords (146.0, 239.0), REye coords (164.0, 216.0), timeStamp: 2017-03-02 10:40:27.887
LEye coords (147.0, 243.0), REye coords (163.0, 217.0), timeStamp: 2017-03-02 10:40:27.922
LEye coords (147.0, 247.0), REye coords (162.0, 219.0), timeStamp: 2017-03-02 10:40:27.955
LEye coords (149.0, 251.0), REye coords (160.0, 222.0), timeStamp: 2017-03-02 10:40:28.000
LEye coords (149.0, 253.0), REye coords (158.0, 230.0), timeStamp: 2017-03-02 10:40:28.033
LEye coords (148.0, 259.0), REye coords (160.0, 226.0), timeStamp: 2017-03-02 10:40:28.067
LEye coords (139.0, 238.0), REye coords (150.0, 211.0), timeStamp: 2017-03-02 10:40:28.111
LEye coords (135.0, 229.0), REye coords (145.0, 207.0), timeStamp: 2017-03-02 10:40:28.145
LEye coords (132.0, 222.0), REye coords (142.0, 203.0), timeStamp: 2017-03-02 10:40:28.180
LEye coords (131.0, 218.0), REye coords (140.0, 205.0), timeStamp: 2017-03-02 10:40:28.213
LEye coords (131.0, 213.0), REye coords (141.0, 201.0), timeStamp: 2017-03-02 10:40:28.256
LEye coords (162.0, 153.0), REye coords (172.0, 175.0), timeStamp: 2017-03-02 10:40:28.290
LEye coords (165.0, 169.0), REye coords (164.0, 201.0), timeStamp: 2017-03-02 10:40:28.324
LEye coords (165.0, 171.0), REye coords (168.0, 192.0), timeStamp: 2017-03-02 10:40:28.368
LEye coords (165.0, 170.0), REye coords (170.0, 191.0), timeStamp: 2017-03-02 10:40:28.402
LEye coords (165.0, 167.0), REye coords (171.0, 189.0), timeStamp: 2017-03-02 10:40:28.436
LEye coords (174.0, 146.0), REye coords (173.0, 187.0), timeStamp: 2017-03-02 10:40:28.480
LEye coords (180.0, 168.0), REye coords (175.0, 185.0), timeStamp: 2017-03-02 10:40:28.513
LEye coords (181.0, 164.0), REye coords (184.0, 187.0), timeStamp: 2017-03-02 10:40:28.547
LEye coords (181.0, 165.0), REye coords (186.0, 176.0), timeStamp: 2017-03-02 10:40:28.592
LEye coords (181.0, 163.0), REye coords (186.0, 179.0), timeStamp: 2017-03-02 10:40:28.625
LEye coords (182.0, 164.0), REye coords (187.0, 180.0), timeStamp: 2017-03-02 10:40:28.660
LEye coords (181.0, 166.0), REye coords (186.0, 182.0), timeStamp: 2017-03-02 10:40:28.694
