LEye coords (352.0, 100.0), REye coords (375.0, 87.0), timeStamp: 2017-03-02 10:40:32.442
LEye coords (352.0, 101.0), REye coords (375.0, 87.0), timeStamp: 2017-03-02 10:40:32.476
LEye coords (352.0, 101.0), REye coords (376.0, 87.0), timeStamp: 2017-03-02 10:40:32.509
LEye coords (353.0, 101.0), REye coords (375.0, 87.0), timeStamp: 2017-03-02 10:40:32.553
LEye coords (353.0, 101.0), REye coords (375.0, 87.0), timeStamp: 2017-03-02 10:40:32.587
LEye coords (353.0, 101.0), REye coords (375.0, 87.0), timeStamp: 2017-03-02 10:40:32.621
LEye coords (353.0, 101.0), REye coords (375.0, 87.0), timeStamp: 2017-03-02 10:40:32.656
LEye coords (292.0, 83.0), REye coords (305.0, 80.0), timeStamp: 2017-03-02 10:40:32.700
LEye coords (250.0, 75.0), REye coords (266.0, 68.0), timeStamp: 2017-03-02 10:40:32.733
LEye coords (250.0, 75.0), REye coords (269.0, 68.0), timeStamp: 2017-03-02 10:40:32.768
LEye coords (251.0, 75.0), REye coords (268.0, 68.0), timeStamp: 2017-03-02 10:40:32.811
LEye coords (251.0, 74.0), REye coords (268.0, 68.0), timeStamp: 2017-03-02 10:40:32.845
LEye coords (254.0, 74.0), REye coords (0.0, 0.0), timeStamp: 2017-03-02 10:40:32.878
LEye coords (252.0, 74.0), REye coords (266.0, 68.0), timeStamp: 2017-03-02 10:40:32.923
LEye coords (243.0, 73.0), REye coords (242.0, 57.0), timeStamp: 2017-03-02 10:40:32.956
LEye coords (232.0, 70.0), REye coords (231.0, 55.0), timeStamp: 2017-03-02 10:40:32.989
LEye coords (227.0, 69.0), REye coords (228.0, 54.0), timeStamp: 2017-03-02 10:40:33.033
LEye coords (224.0, 68.0), REye coords (225.0, 54.0), timeStamp: 2017-03-02 10:40:33.066
LEye coords (222.0, 67.0), REye coords (218.0, 54.0), timeStamp: 2017-03-02 10:40:33.101
LEye coords (220.0, 67.0), REye coords (216.0, 55.0), timeStamp: 2017-03-02 10:40:33.144
LEye coords (219.0, 66.0), REye coords (219.0, 55.0), timeStamp: 2017-03-02 10:40:33.178
LEye coords (217.0, 65.0), REye coords (220.0, 55.0), timeStamp: 2017-03-02 10:40:33.212
LEye coords (219.0, 65.0), REye coords (225.0, 55.0), timeStamp: 2017-03-02 10:40:33.255
LEye coords (221.0, 65.0), REye coords (230.0, 56.0), timeStamp: 2017-03-02 10:40:33.288
LEye coords (222.0, 65.0), REye coords (233.0, 56.0), timeStamp: 2017-03-02 10:40:33.321
LEye coords (223.0, 65.0), REye coords (235.0, 56.0), timeStamp: 2017-03-02 10:40:33.365
