LEye coords (193.0, 162.0), REye coords (216.0, 190.0), timeStamp: 2017-03-02 10:41:10.229
LEye coords (201.0, 151.0), REye coords (222.0, 176.0), timeStamp: 2017-03-02 10:41:10.265
LEye coords (0.0, 0.0), REye coords (0.0, 0.0), timeStamp: 2017-03-02 10:41:10.299
LEye coords (230.0, 123.0), REye coords (236.0, 145.0), timeStamp: 2017-03-02 10:41:10.332
LEye coords (229.0, 128.0), REye coords (238.0, 150.0), timeStamp: 2017-03-02 10:41:10.377
LEye coords (227.0, 132.0), REye coords (239.0, 146.0), timeStamp: 2017-03-02 10:41:10.410
LEye coords (227.0, 132.0), REye coords (237.0, 144.0), timeStamp: 2017-03-02 10:41:10.444
LEye coords (228.0, 133.0), REye coords (237.0, 144.0), timeStamp: 2017-03-02 10:41:10.489
LEye coords (227.0, 132.0), REye coords (236.0, 144.0), timeStamp: 2017-03-02 10:41:10.522
LEye coords (228.0, 132.0), REye coords (236.0, 144.0), timeStamp: 2017-03-02 10:41:10.557
LEye coords (225.0, 132.0), REye coords (233.0, 145.0), timeStamp: 2017-03-02 10:41:10.591
LEye coords (163.0, 147.0), REye coords (162.0, 150.0), timeStamp: 2017-03-02 10:41:10.635
LEye coords (160.0, 146.0), REye coords (164.0, 156.0), timeStamp: 2017-03-02 10:41:10.669
LEye coords (160.0, 144.0), REye coords (162.0, 163.0), timeStamp: 2017-03-02 10:41:10.701
LEye coords (160.0, 145.0), REye coords (162.0, 164.0), timeStamp: 2017-03-02 10:41:10.746
LEye coords (161.0, 147.0), REye coords (0.0, 0.0), timeStamp: 2017-03-02 10:41:10.780
LEye coords (162.0, 148.0), REye coords (0.0, 0.0), timeStamp: 2017-03-02 10:41:10.813
LEye coords (142.0, 164.0), REye coords (158.0, 165.0), timeStamp: 2017-03-02 10:41:10.858
LEye coords (136.0, 171.0), REye coords (147.0, 164.0), timeStamp: 2017-03-02 10:41:10.891
LEye coords (137.0, 169.0), REye coords (143.0, 158.0), timeStamp: 2017-03-02 10:41:10.925
LEye coords (137.0, 169.0), REye coords (144.0, 159.0), timeStamp: 2017-03-02 10:41:10.969
LEye coords (144.0, 170.0), REye coords (0.0, 0.0), timeStamp: 2017-03-02 10:41:11.003
LEye coords (147.0, 167.0), REye coords (0.0, 0.0), timeStamp: 2017-03-02 10:41:11.037
LEye coords (150.0, 165.0), REye coords (0.0, 0.0), timeStamp: 2017-03-02 10:41:11.081
LEye coords (151.0, 165.0), REye coords (0.0, 0.0), timeStamp: 2017-03-02 10:41:11.115
LEye coords (154.0, 166.0), REye coords (0.0, 0.0), timeStamp: 2017-03-02 10:41:11.149
LEye coords (155.0, 167.0), REye coords (0.0, 0.0), timeStamp: 2017-03-02 10:41:11.182
LEye coords (156.0, 168.0), REye coords (0.0, 0.0), timeStamp: 2017-03-02 10:41:11.227
LEye coords (157.0, 168.0), REye coords (0.0, 0.0), timeStamp: 2017-03-02 10:41:11.262
