LEye coords (199.0, 151.0), REye coords (211.0, 152.0), timeStamp: 2017-03-02 10:41:12.334
LEye coords (200.0, 152.0), REye coords (212.0, 152.0), timeStamp: 2017-03-02 10:41:12.367
LEye coords (200.0, 153.0), REye coords (212.0, 153.0), timeStamp: 2017-03-02 10:41:12.410
LEye coords (201.0, 153.0), REye coords (212.0, 153.0), timeStamp: 2017-03-02 10:41:12.444
LEye coords (201.0, 153.0), REye coords (212.0, 153.0), timeStamp: 2017-03-02 10:41:12.487
LEye coords (201.0, 153.0), REye coords (211.0, 154.0), timeStamp: 2017-03-02 10:41:12.521
LEye coords (200.0, 153.0), REye coords (211.0, 154.0), timeStamp: 2017-03-02 10:41:12.555
LEye coords (200.0, 153.0), REye coords (211.0, 155.0), timeStamp: 2017-03-02 10:41:12.588
LEye coords (201.0, 153.0), REye coords (212.0, 156.0), timeStamp: 2017-03-02 10:41:12.632
LEye coords (203.0, 155.0), REye coords (214.0, 157.0), timeStamp: 2017-03-02 10:41:12.667
LEye coords (204.0, 156.0), REye coords (215.0, 158.0), timeStamp: 2017-03-02 10:41:12.700
LEye coords (285.0, 138.0), REye coords (0.0, 0.0), timeStamp: 2017-03-02 10:41:12.745
LEye coords (279.0, 136.0), REye coords (0.0, 0.0), timeStamp: 2017-03-02 10:41:12.778
LEye coords (280.0, 137.0), REye coords (0.0, 0.0), timeStamp: 2017-03-02 10:41:12.812
LEye coords (277.0, 135.0), REye coords (285.0, 170.0), timeStamp: 2017-03-02 10:41:12.856
LEye coords (271.0, 133.0), REye coords (279.0, 162.0), timeStamp: 2017-03-02 10:41:12.891
LEye coords (255.0, 129.0), REye coords (279.0, 162.0), timeStamp: 2017-03-02 10:41:12.924
LEye coords (253.0, 131.0), REye coords (278.0, 160.0), timeStamp: 2017-03-02 10:41:12.969
LEye coords (253.0, 129.0), REye coords (277.0, 160.0), timeStamp: 2017-03-02 10:41:13.002
LEye coords (246.0, 136.0), REye coords (273.0, 160.0), timeStamp: 2017-03-02 10:41:13.036
LEye coords (243.0, 138.0), REye coords (270.0, 160.0), timeStamp: 2017-03-02 10:41:13.070
LEye coords (242.0, 143.0), REye coords (268.0, 160.0), timeStamp: 2017-03-02 10:41:13.115
LEye coords (241.0, 146.0), REye coords (266.0, 159.0), timeStamp: 2017-03-02 10:41:13.148
LEye coords (240.0, 150.0), REye coords (264.0, 160.0), timeStamp: 2017-03-02 10:41:13.183
LEye coords (239.0, 152.0), REye coords (263.0, 160.0), timeStamp: 2017-03-02 10:41:13.227
LEye coords (238.0, 152.0), REye coords (262.0, 160.0), timeStamp: 2017-03-02 10:41:13.261
