LEye coords (0.0, 0.0), REye coords (247.0, 148.0), timeStamp: 2017-03-02 10:41:16.699
LEye coords (0.0, 0.0), REye coords (247.0, 149.0), timeStamp: 2017-03-02 10:41:16.744
LEye coords (0.0, 0.0), REye coords (247.0, 149.0), timeStamp: 2017-03-02 10:41:16.777
LEye coords (0.0, 0.0), REye coords (247.0, 149.0), timeStamp: 2017-03-02 10:41:16.812
LEye coords (0.0, 0.0), REye coords (247.0, 150.0), timeStamp: 2017-03-02 10:41:16.846
LEye coords (0.0, 0.0), REye coords (248.0, 150.0), timeStamp: 2017-03-02 10:41:16.890
LEye coords (0.0, 0.0), REye coords (248.0, 150.0), timeStamp: 2017-03-02 10:41:16.925
LEye coords (0.0, 0.0), REye coords (248.0, 152.0), timeStamp: 2017-03-02 10:41:16.958
LEye coords (0.0, 0.0), REye coords (248.0, 152.0), timeStamp: 2017-03-02 10:41:17.001
LEye coords (237.0, 125.0), REye coords (245.0, 92.0), timeStamp: 2017-03-02 10:41:17.035
LEye coords (241.0, 72.0), REye coords (246.0, 86.0), timeStamp: 2017-03-02 10:41:17.069
LEye coords (242.0, 75.0), REye coords (245.0, 89.0), timeStamp: 2017-03-02 10:41:17.113
LEye coords (243.0, 75.0), REye coords (245.0, 90.0), timeStamp: 2017-03-02 10:41:17.146
LEye coords (242.0, 76.0), REye coords (246.0, 91.0), timeStamp: 2017-03-02 10:41:17.180
LEye coords (243.0, 76.0), REye coords (244.0, 87.0), timeStamp: 2017-03-02 10:41:17.225
LEye coords (250.0, 75.0), REye coords (279.0, 96.0), timeStamp: 2017-03-02 10:41:17.258
LEye coords (305.0, 76.0), REye coords (295.0, 99.0), timeStamp: 2017-03-02 10:41:17.291
LEye coords (305.0, 75.0), REye coords (299.0, 100.0), timeStamp: 2017-03-02 10:41:17.334
LEye coords (305.0, 75.0), REye coords (301.0, 101.0), timeStamp: 2017-03-02 10:41:17.367
LEye coords (306.0, 76.0), REye coords (310.0, 109.0), timeStamp: 2017-03-02 10:41:17.400
LEye coords (306.0, 76.0), REye coords (313.0, 99.0), timeStamp: 2017-03-02 10:41:17.444
LEye coords (307.0, 76.0), REye coords (310.0, 103.0), timeStamp: 2017-03-02 10:41:17.478
LEye coords (308.0, 75.0), REye coords (310.0, 103.0), timeStamp: 2017-03-02 10:41:17.512
LEye coords (308.0, 76.0), REye coords (310.0, 104.0), timeStamp: 2017-03-02 10:41:17.557
LEye coords (309.0, 76.0), REye coords (311.0, 104.0), timeStamp: 2017-03-02 10:41:17.590
