LEye coords (210.0, 117.0), REye coords (220.0, 129.0), timeStamp: 2017-03-02 10:41:22.700
LEye coords (209.0, 117.0), REye coords (220.0, 129.0), timeStamp: 2017-03-02 10:41:22.735
LEye coords (209.0, 118.0), REye coords (219.0, 129.0), timeStamp: 2017-03-02 10:41:22.768
LEye coords (209.0, 119.0), REye coords (219.0, 129.0), timeStamp: 2017-03-02 10:41:22.811
LEye coords (209.0, 120.0), REye coords (218.0, 130.0), timeStamp: 2017-03-02 10:41:22.845
LEye coords (209.0, 122.0), REye coords (218.0, 130.0), timeStamp: 2017-03-02 10:41:22.878
LEye coords (209.0, 123.0), REye coords (218.0, 130.0), timeStamp: 2017-03-02 10:41:22.923
LEye coords (210.0, 125.0), REye coords (224.0, 185.0), timeStamp: 2017-03-02 10:41:22.956
LEye coords (221.0, 169.0), REye coords (224.0, 192.0), timeStamp: 2017-03-02 10:41:22.991
LEye coords (296.0, 144.0), REye coords (0.0, 0.0), timeStamp: 2017-03-02 10:41:23.035
LEye coords (293.0, 145.0), REye coords (262.0, 178.0), timeStamp: 2017-03-02 10:41:23.068
LEye coords (293.0, 144.0), REye coords (275.0, 173.0), timeStamp: 2017-03-02 10:41:23.102
LEye coords (291.0, 139.0), REye coords (281.0, 170.0), timeStamp: 2017-03-02 10:41:23.145
LEye coords (286.0, 124.0), REye coords (297.0, 163.0), timeStamp: 2017-03-02 10:41:23.179
LEye coords (290.0, 151.0), REye coords (289.0, 173.0), timeStamp: 2017-03-02 10:41:23.214
LEye coords (287.0, 147.0), REye coords (0.0, 0.0), timeStamp: 2017-03-02 10:41:23.248
LEye coords (286.0, 144.0), REye coords (0.0, 0.0), timeStamp: 2017-03-02 10:41:23.293
LEye coords (290.0, 139.0), REye coords (302.0, 166.0), timeStamp: 2017-03-02 10:41:23.327
LEye coords (293.0, 136.0), REye coords (307.0, 161.0), timeStamp: 2017-03-02 10:41:23.360
LEye coords (294.0, 134.0), REye coords (310.0, 159.0), timeStamp: 2017-03-02 10:41:23.405
LEye coords (296.0, 132.0), REye coords (311.0, 158.0), timeStamp: 2017-03-02 10:41:23.439
LEye coords (297.0, 131.0), REye coords (312.0, 158.0), timeStamp: 2017-03-02 10:41:23.472
