LEye coords (213.0, 89.0), REye coords (218.0, 103.0), timeStamp: 2017-03-02 10:41:25.478
LEye coords (183.0, 159.0), REye coords (212.0, 141.0), timeStamp: 2017-03-02 10:41:57.709
LEye coords (184.0, 141.0), REye coords (0.0, 0.0), timeStamp: 2017-03-02 10:41:57.744
LEye coords (185.0, 140.0), REye coords (207.0, 134.0), timeStamp: 2017-03-02 10:41:57.788
LEye coords (185.0, 141.0), REye coords (206.0, 137.0), timeStamp: 2017-03-02 10:41:57.822
LEye coords (189.0, 151.0), REye coords (206.0, 137.0), timeStamp: 2017-03-02 10:41:57.856
LEye coords (191.0, 142.0), REye coords (205.0, 131.0), timeStamp: 2017-03-02 10:41:57.899
LEye coords (0.0, 0.0), REye coords (0.0, 0.0), timeStamp: 2017-03-02 10:41:57.933
LEye coords (191.0, 141.0), REye coords (205.0, 140.0), timeStamp: 2017-03-02 10:41:57.966
LEye coords (190.0, 143.0), REye coords (205.0, 142.0), timeStamp: 2017-03-02 10:41:58.011
LEye coords (189.0, 144.0), REye coords (203.0, 147.0), timeStamp: 2017-03-02 10:41:58.045
LEye coords (189.0, 146.0), REye coords (203.0, 148.0), timeStamp: 2017-03-02 10:41:58.079
LEye coords (184.0, 149.0), REye coords (196.0, 148.0), timeStamp: 2017-03-02 10:41:58.113
LEye coords (181.0, 151.0), REye coords (191.0, 150.0), timeStamp: 2017-03-02 10:41:58.157
LEye coords (178.0, 152.0), REye coords (187.0, 150.0), timeStamp: 2017-03-02 10:41:58.192
LEye coords (176.0, 153.0), REye coords (184.0, 151.0), timeStamp: 2017-03-02 10:41:58.226
LEye coords (174.0, 154.0), REye coords (181.0, 154.0), timeStamp: 2017-03-02 10:41:58.269
LEye coords (173.0, 155.0), REye coords (179.0, 154.0), timeStamp: 2017-03-02 10:41:58.303
LEye coords (171.0, 155.0), REye coords (177.0, 154.0), timeStamp: 2017-03-02 10:41:58.337
LEye coords (172.0, 156.0), REye coords (179.0, 154.0), timeStamp: 2017-03-02 10:41:58.371
LEye coords (174.0, 158.0), REye coords (180.0, 154.0), timeStamp: 2017-03-02 10:41:58.415
LEye coords (175.0, 160.0), REye coords (181.0, 154.0), timeStamp: 2017-03-02 10:41:58.448
LEye coords (176.0, 162.0), REye coords (183.0, 154.0), timeStamp: 2017-03-02 10:41:58.491
LEye coords (177.0, 163.0), REye coords (184.0, 154.0), timeStamp: 2017-03-02 10:41:58.525
LEye coords (178.0, 166.0), REye coords (184.0, 155.0), timeStamp: 2017-03-02 10:41:58.559
LEye coords (178.0, 168.0), REye coords (184.0, 157.0), timeStamp: 2017-03-02 10:41:58.593
LEye coords (178.0, 170.0), REye coords (185.0, 159.0), timeStamp: 2017-03-02 10:41:58.638
LEye coords (178.0, 171.0), REye coords (185.0, 161.0), timeStamp: 2017-03-02 10:41:58.672
LEye coords (0.0, 0.0), REye coords (185.0, 163.0), timeStamp: 2017-03-02 10:41:58.705
LEye coords (179.0, 173.0), REye coords (185.0, 164.0), timeStamp: 2017-03-02 10:41:58.751
LEye coords (178.0, 175.0), REye coords (184.0, 166.0), timeStamp: 2017-03-02 10:41:58.783
LEye coords (178.0, 177.0), REye coords (184.0, 166.0), timeStamp: 2017-03-02 10:41:58.816
LEye coords (178.0, 179.0), REye coords (184.0, 167.0), timeStamp: 2017-03-02 10:41:58.861
LEye coords (178.0, 181.0), REye coords (183.0, 167.0), timeStamp: 2017-03-02 10:41:58.894
LEye coords (178.0, 182.0), REye coords (184.0, 167.0), timeStamp: 2017-03-02 10:41:58.928
LEye coords (178.0, 184.0), REye coords (184.0, 167.0), timeStamp: 2017-03-02 10:41:58.972
