LEye coords (324.0, 281.0), REye coords (327.0, 208.0), timeStamp: 2017-03-02 10:42:07.707
LEye coords (257.0, 211.0), REye coords (273.0, 157.0), timeStamp: 2017-03-02 10:42:07.741
LEye coords (260.0, 208.0), REye coords (276.0, 154.0), timeStamp: 2017-03-02 10:42:07.774
LEye coords (257.0, 207.0), REye coords (276.0, 152.0), timeStamp: 2017-03-02 10:42:07.819
LEye coords (255.0, 205.0), REye coords (276.0, 151.0), timeStamp: 2017-03-02 10:42:07.853
LEye coords (254.0, 205.0), REye coords (273.0, 150.0), timeStamp: 2017-03-02 10:42:07.887
LEye coords (254.0, 203.0), REye coords (275.0, 164.0), timeStamp: 2017-03-02 10:42:07.920
LEye coords (241.0, 170.0), REye coords (273.0, 161.0), timeStamp: 2017-03-02 10:42:07.965
LEye coords (245.0, 185.0), REye coords (272.0, 162.0), timeStamp: 2017-03-02 10:42:07.998
LEye coords (233.0, 161.0), REye coords (258.0, 148.0), timeStamp: 2017-03-02 10:42:08.031
LEye coords (226.0, 150.0), REye coords (226.0, 109.0), timeStamp: 2017-03-02 10:42:08.076
LEye coords (207.0, 115.0), REye coords (223.0, 109.0), timeStamp: 2017-03-02 10:42:08.109
LEye coords (208.0, 116.0), REye coords (218.0, 113.0), timeStamp: 2017-03-02 10:42:08.143
LEye coords (209.0, 114.0), REye coords (221.0, 111.0), timeStamp: 2017-03-02 10:42:08.187
LEye coords (206.0, 113.0), REye coords (220.0, 114.0), timeStamp: 2017-03-02 10:42:08.221
LEye coords (205.0, 114.0), REye coords (219.0, 115.0), timeStamp: 2017-03-02 10:42:08.255
LEye coords (204.0, 114.0), REye coords (218.0, 116.0), timeStamp: 2017-03-02 10:42:08.299
LEye coords (203.0, 114.0), REye coords (217.0, 119.0), timeStamp: 2017-03-02 10:42:08.333
LEye coords (203.0, 114.0), REye coords (217.0, 119.0), timeStamp: 2017-03-02 10:42:08.366
LEye coords (202.0, 114.0), REye coords (216.0, 121.0), timeStamp: 2017-03-02 10:42:08.411
LEye coords (201.0, 114.0), REye coords (216.0, 121.0), timeStamp: 2017-03-02 10:42:08.444
