LEye coords (297.0, 267.0), REye coords (321.0, 224.0), timeStamp: 2017-03-02 10:42:04.961
LEye coords (273.0, 223.0), REye coords (318.0, 222.0), timeStamp: 2017-03-02 10:42:05.005
LEye coords (266.0, 198.0), REye coords (280.0, 158.0), timeStamp: 2017-03-02 10:42:05.039
LEye coords (264.0, 196.0), REye coords (281.0, 153.0), timeStamp: 2017-03-02 10:42:05.072
LEye coords (261.0, 185.0), REye coords (279.0, 160.0), timeStamp: 2017-03-02 10:42:05.116
LEye coords (258.0, 178.0), REye coords (278.0, 161.0), timeStamp: 2017-03-02 10:42:05.149
LEye coords (260.0, 189.0), REye coords (278.0, 163.0), timeStamp: 2017-03-02 10:42:05.183
LEye coords (251.0, 154.0), REye coords (279.0, 161.0), timeStamp: 2017-03-02 10:42:05.218
LEye coords (268.0, 155.0), REye coords (283.0, 157.0), timeStamp: 2017-03-02 10:42:05.263
LEye coords (276.0, 153.0), REye coords (286.0, 154.0), timeStamp: 2017-03-02 10:42:05.296
LEye coords (280.0, 153.0), REye coords (289.0, 151.0), timeStamp: 2017-03-02 10:42:05.330
LEye coords (283.0, 154.0), REye coords (291.0, 148.0), timeStamp: 2017-03-02 10:42:05.374
LEye coords (283.0, 156.0), REye coords (293.0, 146.0), timeStamp: 2017-03-02 10:42:05.407
LEye coords (0.0, 0.0), REye coords (305.0, 135.0), timeStamp: 2017-03-02 10:42:05.442
LEye coords (0.0, 0.0), REye coords (308.0, 130.0), timeStamp: 2017-03-02 10:42:05.485
LEye coords (0.0, 0.0), REye coords (307.0, 128.0), timeStamp: 2017-03-02 10:42:05.520
LEye coords (0.0, 0.0), REye coords (304.0, 129.0), timeStamp: 2017-03-02 10:42:05.554
LEye coords (0.0, 0.0), REye coords (304.0, 129.0), timeStamp: 2017-03-02 10:42:05.597
LEye coords (285.0, 155.0), REye coords (303.0, 130.0), timeStamp: 2017-03-02 10:42:05.630
LEye coords (0.0, 0.0), REye coords (303.0, 130.0), timeStamp: 2017-03-02 10:42:05.663
LEye coords (0.0, 0.0), REye coords (303.0, 130.0), timeStamp: 2017-03-02 10:42:05.708
LEye coords (0.0, 0.0), REye coords (303.0, 131.0), timeStamp: 2017-03-02 10:42:05.741
LEye coords (281.0, 151.0), REye coords (298.0, 130.0), timeStamp: 2017-03-02 10:42:05.775
LEye coords (213.0, 123.0), REye coords (223.0, 126.0), timeStamp: 2017-03-02 10:42:05.820
LEye coords (208.0, 119.0), REye coords (216.0, 125.0), timeStamp: 2017-03-02 10:42:05.853
LEye coords (210.0, 119.0), REye coords (217.0, 119.0), timeStamp: 2017-03-02 10:42:05.886
LEye coords (210.0, 120.0), REye coords (216.0, 123.0), timeStamp: 2017-03-02 10:42:05.930
LEye coords (211.0, 120.0), REye coords (217.0, 123.0), timeStamp: 2017-03-02 10:42:05.964
LEye coords (211.0, 120.0), REye coords (217.0, 124.0), timeStamp: 2017-03-02 10:42:05.997
LEye coords (0.0, 0.0), REye coords (183.0, 120.0), timeStamp: 2017-03-02 10:42:06.042
LEye coords (168.0, 153.0), REye coords (180.0, 125.0), timeStamp: 2017-03-02 10:42:06.076
LEye coords (0.0, 0.0), REye coords (180.0, 122.0), timeStamp: 2017-03-02 10:42:06.110
LEye coords (0.0, 0.0), REye coords (182.0, 121.0), timeStamp: 2017-03-02 10:42:06.143
LEye coords (0.0, 0.0), REye coords (181.0, 123.0), timeStamp: 2017-03-02 10:42:06.187
LEye coords (0.0, 0.0), REye coords (180.0, 124.0), timeStamp: 2017-03-02 10:42:06.221
LEye coords (161.0, 142.0), REye coords (177.0, 126.0), timeStamp: 2017-03-02 10:42:06.265
LEye coords (158.0, 139.0), REye coords (175.0, 126.0), timeStamp: 2017-03-02 10:42:06.301
LEye coords (158.0, 138.0), REye coords (173.0, 126.0), timeStamp: 2017-03-02 10:42:06.334
LEye coords (159.0, 139.0), REye coords (162.0, 129.0), timeStamp: 2017-03-02 10:42:06.368
LEye coords (156.0, 136.0), REye coords (156.0, 123.0), timeStamp: 2017-03-02 10:42:06.412
LEye coords (154.0, 138.0), REye coords (157.0, 125.0), timeStamp: 2017-03-02 10:42:06.446
LEye coords (154.0, 137.0), REye coords (156.0, 125.0), timeStamp: 2017-03-02 10:42:06.479
