LEye coords (154.0, 136.0), REye coords (157.0, 123.0), timeStamp: 2017-03-02 10:42:06.591
LEye coords (153.0, 136.0), REye coords (156.0, 123.0), timeStamp: 2017-03-02 10:42:06.624
LEye coords (153.0, 136.0), REye coords (157.0, 123.0), timeStamp: 2017-03-02 10:42:06.669
LEye coords (153.0, 136.0), REye coords (157.0, 123.0), timeStamp: 2017-03-02 10:42:06.703
LEye coords (153.0, 136.0), REye coords (157.0, 123.0), timeStamp: 2017-03-02 10:42:06.736
LEye coords (153.0, 136.0), REye coords (157.0, 124.0), timeStamp: 2017-03-02 10:42:06.779
LEye coords (180.0, 182.0), REye coords (195.0, 154.0), timeStamp: 2017-03-02 10:42:06.813
LEye coords (246.0, 277.0), REye coords (0.0, 0.0), timeStamp: 2017-03-02 10:42:06.847
LEye coords (245.0, 277.0), REye coords (0.0, 0.0), timeStamp: 2017-03-02 10:42:06.891
LEye coords (246.0, 278.0), REye coords (0.0, 0.0), timeStamp: 2017-03-02 10:42:06.924
LEye coords (246.0, 277.0), REye coords (0.0, 0.0), timeStamp: 2017-03-02 10:42:06.958
LEye coords (252.0, 282.0), REye coords (259.0, 274.0), timeStamp: 2017-03-02 10:42:07.001
LEye coords (308.0, 281.0), REye coords (285.0, 273.0), timeStamp: 2017-03-02 10:42:07.036
LEye coords (305.0, 283.0), REye coords (295.0, 274.0), timeStamp: 2017-03-02 10:42:07.069
LEye coords (306.0, 283.0), REye coords (300.0, 274.0), timeStamp: 2017-03-02 10:42:07.113
LEye coords (307.0, 283.0), REye coords (311.0, 271.0), timeStamp: 2017-03-02 10:42:07.146
LEye coords (305.0, 278.0), REye coords (312.0, 270.0), timeStamp: 2017-03-02 10:42:07.180
LEye coords (308.0, 278.0), REye coords (314.0, 270.0), timeStamp: 2017-03-02 10:42:07.223
LEye coords (307.0, 282.0), REye coords (314.0, 270.0), timeStamp: 2017-03-02 10:42:07.257
LEye coords (307.0, 283.0), REye coords (315.0, 268.0), timeStamp: 2017-03-02 10:42:07.291
LEye coords (314.0, 283.0), REye coords (323.0, 263.0), timeStamp: 2017-03-02 10:42:07.337
LEye coords (318.0, 283.0), REye coords (325.0, 263.0), timeStamp: 2017-03-02 10:42:07.371
LEye coords (320.0, 283.0), REye coords (325.0, 264.0), timeStamp: 2017-03-02 10:42:07.404
LEye coords (322.0, 283.0), REye coords (327.0, 263.0), timeStamp: 2017-03-02 10:42:07.447
LEye coords (323.0, 283.0), REye coords (330.0, 261.0), timeStamp: 2017-03-02 10:42:07.481
LEye coords (324.0, 282.0), REye coords (333.0, 259.0), timeStamp: 2017-03-02 10:42:07.514
LEye coords (324.0, 283.0), REye coords (335.0, 258.0), timeStamp: 2017-03-02 10:42:07.560
