LEye coords (400.0, 102.0), REye coords (402.0, 95.0), timeStamp: 2017-03-05 12:12:26.958
LEye coords (400.0, 102.0), REye coords (403.0, 95.0), timeStamp: 2017-03-05 12:12:26.992
LEye coords (400.0, 102.0), REye coords (403.0, 95.0), timeStamp: 2017-03-05 12:12:27.037
LEye coords (401.0, 103.0), REye coords (403.0, 96.0), timeStamp: 2017-03-05 12:12:27.071
LEye coords (401.0, 103.0), REye coords (404.0, 96.0), timeStamp: 2017-03-05 12:12:27.105
LEye coords (401.0, 104.0), REye coords (404.0, 96.0), timeStamp: 2017-03-05 12:12:27.148
LEye coords (345.0, 118.0), REye coords (361.0, 105.0), timeStamp: 2017-03-05 12:12:27.183
LEye coords (199.0, 144.0), REye coords (205.0, 141.0), timeStamp: 2017-03-05 12:12:27.216
LEye coords (200.0, 146.0), REye coords (205.0, 140.0), timeStamp: 2017-03-05 12:12:27.250
LEye coords (200.0, 146.0), REye coords (206.0, 139.0), timeStamp: 2017-03-05 12:12:27.294
LEye coords (200.0, 146.0), REye coords (207.0, 139.0), timeStamp: 2017-03-05 12:12:27.328
LEye coords (217.0, 145.0), REye coords (223.0, 144.0), timeStamp: 2017-03-05 12:12:27.360
LEye coords (459.0, 166.0), REye coords (458.0, 161.0), timeStamp: 2017-03-05 12:12:27.405
LEye coords (457.0, 164.0), REye coords (456.0, 165.0), timeStamp: 2017-03-05 12:12:27.438
LEye coords (457.0, 163.0), REye coords (456.0, 164.0), timeStamp: 2017-03-05 12:12:27.472
LEye coords (456.0, 162.0), REye coords (457.0, 164.0), timeStamp: 2017-03-05 12:12:27.517
LEye coords (459.0, 161.0), REye coords (460.0, 162.0), timeStamp: 2017-03-05 12:12:27.550
LEye coords (455.0, 159.0), REye coords (458.0, 160.0), timeStamp: 2017-03-05 12:12:27.584
LEye coords (456.0, 159.0), REye coords (458.0, 159.0), timeStamp: 2017-03-05 12:12:27.626
LEye coords (456.0, 158.0), REye coords (459.0, 160.0), timeStamp: 2017-03-05 12:12:27.659
LEye coords (456.0, 157.0), REye coords (0.0, 0.0), timeStamp: 2017-03-05 12:12:27.704
LEye coords (456.0, 156.0), REye coords (459.0, 158.0), timeStamp: 2017-03-05 12:12:27.737
LEye coords (453.0, 159.0), REye coords (453.0, 163.0), timeStamp: 2017-03-05 12:12:27.771
LEye coords (450.0, 162.0), REye coords (0.0, 0.0), timeStamp: 2017-03-05 12:12:27.804
LEye coords (449.0, 164.0), REye coords (0.0, 0.0), timeStamp: 2017-03-05 12:12:27.849
LEye coords (447.0, 165.0), REye coords (0.0, 0.0), timeStamp: 2017-03-05 12:12:27.882
LEye coords (446.0, 167.0), REye coords (0.0, 0.0), timeStamp: 2017-03-05 12:12:27.925
LEye coords (444.0, 169.0), REye coords (0.0, 0.0), timeStamp: 2017-03-05 12:12:27.959
LEye coords (443.0, 170.0), REye coords (0.0, 0.0), timeStamp: 2017-03-05 12:12:27.993
LEye coords (442.0, 171.0), REye coords (0.0, 0.0), timeStamp: 2017-03-05 12:12:28.026
LEye coords (441.0, 172.0), REye coords (0.0, 0.0), timeStamp: 2017-03-05 12:12:28.072
