LEye coords (204.0, 180.0), REye coords (205.0, 182.0), timeStamp: 2017-03-05 12:12:40.833
LEye coords (204.0, 180.0), REye coords (0.0, 0.0), timeStamp: 2017-03-05 12:12:40.877
LEye coords (203.0, 180.0), REye coords (0.0, 0.0), timeStamp: 2017-03-05 12:12:40.910
LEye coords (203.0, 180.0), REye coords (205.0, 182.0), timeStamp: 2017-03-05 12:12:40.944
LEye coords (204.0, 180.0), REye coords (0.0, 0.0), timeStamp: 2017-03-05 12:12:40.987
LEye coords (204.0, 180.0), REye coords (205.0, 183.0), timeStamp: 2017-03-05 12:12:41.020
LEye coords (204.0, 180.0), REye coords (0.0, 0.0), timeStamp: 2017-03-05 12:12:41.055
LEye coords (204.0, 180.0), REye coords (204.0, 183.0), timeStamp: 2017-03-05 12:12:41.099
LEye coords (205.0, 180.0), REye coords (204.0, 184.0), timeStamp: 2017-03-05 12:12:41.132
LEye coords (205.0, 181.0), REye coords (0.0, 0.0), timeStamp: 2017-03-05 12:12:41.167
LEye coords (205.0, 181.0), REye coords (0.0, 0.0), timeStamp: 2017-03-05 12:12:41.210
LEye coords (205.0, 181.0), REye coords (0.0, 0.0), timeStamp: 2017-03-05 12:12:41.243
LEye coords (151.0, 165.0), REye coords (152.0, 182.0), timeStamp: 2017-03-05 12:12:41.277
LEye coords (144.0, 171.0), REye coords (154.0, 174.0), timeStamp: 2017-03-05 12:12:41.322
LEye coords (144.0, 172.0), REye coords (152.0, 171.0), timeStamp: 2017-03-05 12:12:41.356
LEye coords (144.0, 171.0), REye coords (151.0, 170.0), timeStamp: 2017-03-05 12:12:41.390
LEye coords (145.0, 170.0), REye coords (150.0, 169.0), timeStamp: 2017-03-05 12:12:41.434
LEye coords (146.0, 165.0), REye coords (145.0, 173.0), timeStamp: 2017-03-05 12:12:41.467
LEye coords (123.0, 167.0), REye coords (122.0, 169.0), timeStamp: 2017-03-05 12:12:41.500
LEye coords (119.0, 167.0), REye coords (121.0, 165.0), timeStamp: 2017-03-05 12:12:41.545
LEye coords (118.0, 166.0), REye coords (122.0, 164.0), timeStamp: 2017-03-05 12:12:41.579
LEye coords (118.0, 166.0), REye coords (122.0, 163.0), timeStamp: 2017-03-05 12:12:41.612
LEye coords (118.0, 166.0), REye coords (122.0, 164.0), timeStamp: 2017-03-05 12:12:41.657
LEye coords (119.0, 166.0), REye coords (122.0, 164.0), timeStamp: 2017-03-05 12:12:41.690
LEye coords (117.0, 165.0), REye coords (120.0, 163.0), timeStamp: 2017-03-05 12:12:41.724
LEye coords (116.0, 164.0), REye coords (117.0, 162.0), timeStamp: 2017-03-05 12:12:41.758
LEye coords (116.0, 164.0), REye coords (116.0, 162.0), timeStamp: 2017-03-05 12:12:41.802
LEye coords (115.0, 164.0), REye coords (114.0, 162.0), timeStamp: 2017-03-05 12:12:41.836
LEye coords (114.0, 164.0), REye coords (113.0, 163.0), timeStamp: 2017-03-05 12:12:41.869
LEye coords (114.0, 164.0), REye coords (111.0, 163.0), timeStamp: 2017-03-05 12:12:41.913
LEye coords (113.0, 164.0), REye coords (111.0, 163.0), timeStamp: 2017-03-05 12:12:41.947
LEye coords (113.0, 164.0), REye coords (110.0, 163.0), timeStamp: 2017-03-05 12:12:41.981
LEye coords (113.0, 164.0), REye coords (110.0, 163.0), timeStamp: 2017-03-05 12:12:42.026
