LEye coords (239.0, 205.0), REye coords (274.0, 198.0), timeStamp: 2017-03-05 12:13:18.919
LEye coords (240.0, 205.0), REye coords (273.0, 200.0), timeStamp: 2017-03-05 12:13:18.963
LEye coords (241.0, 206.0), REye coords (272.0, 201.0), timeStamp: 2017-03-05 12:13:18.997
LEye coords (241.0, 206.0), REye coords (272.0, 201.0), timeStamp: 2017-03-05 12:13:19.030
LEye coords (242.0, 206.0), REye coords (272.0, 202.0), timeStamp: 2017-03-05 12:13:19.073
LEye coords (242.0, 206.0), REye coords (271.0, 203.0), timeStamp: 2017-03-05 12:13:19.107
LEye coords (242.0, 206.0), REye coords (271.0, 203.0), timeStamp: 2017-03-05 12:13:19.140
LEye coords (242.0, 207.0), REye coords (271.0, 204.0), timeStamp: 2017-03-05 12:13:19.185
LEye coords (242.0, 207.0), REye coords (271.0, 203.0), timeStamp: 2017-03-05 12:13:19.218
LEye coords (337.0, 166.0), REye coords (364.0, 142.0), timeStamp: 2017-03-05 12:13:19.253
LEye coords (343.0, 163.0), REye coords (375.0, 143.0), timeStamp: 2017-03-05 12:13:19.296
LEye coords (341.0, 164.0), REye coords (366.0, 148.0), timeStamp: 2017-03-05 12:13:19.330
LEye coords (342.0, 165.0), REye coords (370.0, 146.0), timeStamp: 2017-03-05 12:13:19.363
LEye coords (343.0, 165.0), REye coords (371.0, 150.0), timeStamp: 2017-03-05 12:13:19.407
LEye coords (343.0, 162.0), REye coords (372.0, 155.0), timeStamp: 2017-03-05 12:13:19.440
LEye coords (345.0, 167.0), REye coords (371.0, 157.0), timeStamp: 2017-03-05 12:13:19.474
LEye coords (346.0, 165.0), REye coords (371.0, 157.0), timeStamp: 2017-03-05 12:13:19.518
LEye coords (346.0, 165.0), REye coords (374.0, 153.0), timeStamp: 2017-03-05 12:13:19.552
LEye coords (343.0, 169.0), REye coords (370.0, 158.0), timeStamp: 2017-03-05 12:13:19.587
LEye coords (342.0, 171.0), REye coords (366.0, 164.0), timeStamp: 2017-03-05 12:13:19.621
LEye coords (342.0, 173.0), REye coords (363.0, 168.0), timeStamp: 2017-03-05 12:13:19.665
LEye coords (342.0, 174.0), REye coords (362.0, 169.0), timeStamp: 2017-03-05 12:13:19.699
LEye coords (341.0, 175.0), REye coords (361.0, 171.0), timeStamp: 2017-03-05 12:13:19.732
LEye coords (341.0, 176.0), REye coords (361.0, 171.0), timeStamp: 2017-03-05 12:13:19.777
LEye coords (340.0, 177.0), REye coords (360.0, 172.0), timeStamp: 2017-03-05 12:13:19.811
LEye coords (340.0, 177.0), REye coords (360.0, 172.0), timeStamp: 2017-03-05 12:13:19.845
LEye coords (341.0, 178.0), REye coords (360.0, 173.0), timeStamp: 2017-03-05 12:13:19.889
LEye coords (341.0, 178.0), REye coords (360.0, 173.0), timeStamp: 2017-03-05 12:13:19.922
LEye coords (341.0, 179.0), REye coords (360.0, 174.0), timeStamp: 2017-03-05 12:13:19.956
LEye coords (341.0, 180.0), REye coords (360.0, 174.0), timeStamp: 2017-03-05 12:13:19.990
LEye coords (341.0, 180.0), REye coords (359.0, 175.0), timeStamp: 2017-03-05 12:13:20.034
LEye coords (341.0, 181.0), REye coords (359.0, 176.0), timeStamp: 2017-03-05 12:13:20.069
LEye coords (341.0, 181.0), REye coords (359.0, 176.0), timeStamp: 2017-03-05 12:13:20.105
