LEye coords (130.0, 63.0), REye coords (132.0, 54.0), timeStamp: 2017-03-05 12:12:43.618
LEye coords (131.0, 63.0), REye coords (133.0, 54.0), timeStamp: 2017-03-05 12:12:43.652
LEye coords (132.0, 62.0), REye coords (133.0, 53.0), timeStamp: 2017-03-05 12:12:43.686
LEye coords (132.0, 61.0), REye coords (134.0, 53.0), timeStamp: 2017-03-05 12:12:43.719
LEye coords (133.0, 61.0), REye coords (134.0, 53.0), timeStamp: 2017-03-05 12:12:43.764
LEye coords (134.0, 61.0), REye coords (135.0, 52.0), timeStamp: 2017-03-05 12:12:43.797
LEye coords (179.0, 168.0), REye coords (178.0, 168.0), timeStamp: 2017-03-05 12:12:43.830
LEye coords (177.0, 179.0), REye coords (187.0, 193.0), timeStamp: 2017-03-05 12:12:43.874
LEye coords (178.0, 180.0), REye coords (185.0, 194.0), timeStamp: 2017-03-05 12:12:43.908
LEye coords (180.0, 183.0), REye coords (185.0, 196.0), timeStamp: 2017-03-05 12:12:43.942
LEye coords (180.0, 183.0), REye coords (186.0, 197.0), timeStamp: 2017-03-05 12:12:43.985
LEye coords (190.0, 173.0), REye coords (199.0, 185.0), timeStamp: 2017-03-05 12:12:44.020
LEye coords (222.0, 140.0), REye coords (228.0, 123.0), timeStamp: 2017-03-05 12:12:44.054
LEye coords (223.0, 140.0), REye coords (226.0, 128.0), timeStamp: 2017-03-05 12:12:44.097
LEye coords (223.0, 140.0), REye coords (225.0, 131.0), timeStamp: 2017-03-05 12:12:44.131
LEye coords (224.0, 141.0), REye coords (225.0, 133.0), timeStamp: 2017-03-05 12:12:44.165
LEye coords (241.0, 152.0), REye coords (255.0, 158.0), timeStamp: 2017-03-05 12:12:44.209
LEye coords (298.0, 211.0), REye coords (311.0, 219.0), timeStamp: 2017-03-05 12:12:44.243
LEye coords (300.0, 213.0), REye coords (310.0, 219.0), timeStamp: 2017-03-05 12:12:44.277
LEye coords (301.0, 214.0), REye coords (309.0, 219.0), timeStamp: 2017-03-05 12:12:44.321
LEye coords (302.0, 214.0), REye coords (309.0, 218.0), timeStamp: 2017-03-05 12:12:44.355
LEye coords (301.0, 216.0), REye coords (312.0, 216.0), timeStamp: 2017-03-05 12:12:44.389
LEye coords (304.0, 213.0), REye coords (311.0, 217.0), timeStamp: 2017-03-05 12:12:44.424
LEye coords (306.0, 215.0), REye coords (311.0, 219.0), timeStamp: 2017-03-05 12:12:44.467
LEye coords (306.0, 217.0), REye coords (310.0, 221.0), timeStamp: 2017-03-05 12:12:44.502
LEye coords (307.0, 217.0), REye coords (310.0, 220.0), timeStamp: 2017-03-05 12:12:44.535
LEye coords (307.0, 218.0), REye coords (309.0, 220.0), timeStamp: 2017-03-05 12:12:44.579
LEye coords (307.0, 218.0), REye coords (309.0, 220.0), timeStamp: 2017-03-05 12:12:44.613
LEye coords (309.0, 219.0), REye coords (311.0, 220.0), timeStamp: 2017-03-05 12:12:44.647
LEye coords (311.0, 220.0), REye coords (313.0, 221.0), timeStamp: 2017-03-05 12:12:44.691
LEye coords (312.0, 220.0), REye coords (314.0, 221.0), timeStamp: 2017-03-05 12:12:44.725
LEye coords (313.0, 220.0), REye coords (315.0, 221.0), timeStamp: 2017-03-05 12:12:44.758
LEye coords (314.0, 221.0), REye coords (316.0, 220.0), timeStamp: 2017-03-05 12:12:44.802
LEye coords (315.0, 221.0), REye coords (317.0, 220.0), timeStamp: 2017-03-05 12:12:44.836
LEye coords (315.0, 220.0), REye coords (318.0, 219.0), timeStamp: 2017-03-05 12:12:44.870
LEye coords (316.0, 221.0), REye coords (319.0, 219.0), timeStamp: 2017-03-05 12:12:44.904
LEye coords (317.0, 221.0), REye coords (319.0, 219.0), timeStamp: 2017-03-05 12:12:44.948
