LEye coords (72.0, 264.0), REye coords (66.0, 282.0), timeStamp: 2017-03-05 12:13:24.141
LEye coords (72.0, 264.0), REye coords (66.0, 282.0), timeStamp: 2017-03-05 12:13:24.173
LEye coords (72.0, 263.0), REye coords (66.0, 282.0), timeStamp: 2017-03-05 12:13:24.217
LEye coords (72.0, 263.0), REye coords (65.0, 282.0), timeStamp: 2017-03-05 12:13:24.250
LEye coords (72.0, 262.0), REye coords (66.0, 281.0), timeStamp: 2017-03-05 12:13:24.284
LEye coords (170.0, 181.0), REye coords (193.0, 186.0), timeStamp: 2017-03-05 12:13:24.327
LEye coords (181.0, 184.0), REye coords (197.0, 187.0), timeStamp: 2017-03-05 12:13:24.361
LEye coords (180.0, 185.0), REye coords (198.0, 186.0), timeStamp: 2017-03-05 12:13:24.395
LEye coords (181.0, 186.0), REye coords (197.0, 186.0), timeStamp: 2017-03-05 12:13:24.440
LEye coords (180.0, 186.0), REye coords (197.0, 184.0), timeStamp: 2017-03-05 12:13:24.473
LEye coords (178.0, 183.0), REye coords (199.0, 185.0), timeStamp: 2017-03-05 12:13:24.508
LEye coords (188.0, 185.0), REye coords (210.0, 186.0), timeStamp: 2017-03-05 12:13:24.542
LEye coords (209.0, 183.0), REye coords (0.0, 0.0), timeStamp: 2017-03-05 12:13:24.587
LEye coords (216.0, 182.0), REye coords (0.0, 0.0), timeStamp: 2017-03-05 12:13:24.621
LEye coords (219.0, 181.0), REye coords (229.0, 189.0), timeStamp: 2017-03-05 12:13:24.655
LEye coords (221.0, 181.0), REye coords (0.0, 0.0), timeStamp: 2017-03-05 12:13:24.689
LEye coords (223.0, 181.0), REye coords (0.0, 0.0), timeStamp: 2017-03-05 12:13:24.733
LEye coords (225.0, 178.0), REye coords (0.0, 0.0), timeStamp: 2017-03-05 12:13:24.768
LEye coords (229.0, 180.0), REye coords (0.0, 0.0), timeStamp: 2017-03-05 12:13:24.802
LEye coords (221.0, 177.0), REye coords (233.0, 180.0), timeStamp: 2017-03-05 12:13:24.845
LEye coords (219.0, 176.0), REye coords (234.0, 176.0), timeStamp: 2017-03-05 12:13:24.878
LEye coords (218.0, 176.0), REye coords (236.0, 174.0), timeStamp: 2017-03-05 12:13:24.922
LEye coords (217.0, 174.0), REye coords (236.0, 172.0), timeStamp: 2017-03-05 12:13:24.956
LEye coords (217.0, 174.0), REye coords (237.0, 171.0), timeStamp: 2017-03-05 12:13:24.991
LEye coords (217.0, 174.0), REye coords (238.0, 169.0), timeStamp: 2017-03-05 12:13:25.024
LEye coords (217.0, 173.0), REye coords (238.0, 169.0), timeStamp: 2017-03-05 12:13:25.068
LEye coords (218.0, 173.0), REye coords (258.0, 159.0), timeStamp: 2017-03-05 12:13:25.103
LEye coords (218.0, 173.0), REye coords (254.0, 164.0), timeStamp: 2017-03-05 12:13:25.136
LEye coords (219.0, 172.0), REye coords (253.0, 164.0), timeStamp: 2017-03-05 12:13:25.181
LEye coords (219.0, 172.0), REye coords (253.0, 164.0), timeStamp: 2017-03-05 12:13:25.215
LEye coords (220.0, 172.0), REye coords (254.0, 163.0), timeStamp: 2017-03-05 12:13:25.249
LEye coords (220.0, 172.0), REye coords (254.0, 162.0), timeStamp: 2017-03-05 12:13:25.283
LEye coords (221.0, 171.0), REye coords (254.0, 162.0), timeStamp: 2017-03-05 12:13:25.327
LEye coords (221.0, 171.0), REye coords (254.0, 161.0), timeStamp: 2017-03-05 12:13:25.360
LEye coords (222.0, 171.0), REye coords (254.0, 161.0), timeStamp: 2017-03-05 12:13:25.394
LEye coords (222.0, 171.0), REye coords (254.0, 160.0), timeStamp: 2017-03-05 12:13:25.437
LEye coords (223.0, 171.0), REye coords (254.0, 160.0), timeStamp: 2017-03-05 12:13:25.471
