LEye coords (263.0, 103.0), REye coords (287.0, 82.0), timeStamp: 2017-03-05 12:13:40.020
LEye coords (263.0, 105.0), REye coords (288.0, 83.0), timeStamp: 2017-03-05 12:13:40.054
LEye coords (263.0, 108.0), REye coords (289.0, 84.0), timeStamp: 2017-03-05 12:13:40.089
LEye coords (264.0, 111.0), REye coords (289.0, 85.0), timeStamp: 2017-03-05 12:13:40.134
LEye coords (264.0, 114.0), REye coords (290.0, 86.0), timeStamp: 2017-03-05 12:13:40.167
LEye coords (264.0, 116.0), REye coords (290.0, 86.0), timeStamp: 2017-03-05 12:13:40.201
LEye coords (265.0, 119.0), REye coords (291.0, 87.0), timeStamp: 2017-03-05 12:13:40.235
LEye coords (265.0, 121.0), REye coords (292.0, 88.0), timeStamp: 2017-03-05 12:13:40.280
LEye coords (265.0, 122.0), REye coords (292.0, 88.0), timeStamp: 2017-03-05 12:13:40.314
LEye coords (265.0, 124.0), REye coords (293.0, 89.0), timeStamp: 2017-03-05 12:13:40.348
LEye coords (265.0, 126.0), REye coords (293.0, 89.0), timeStamp: 2017-03-05 12:13:40.382
LEye coords (266.0, 127.0), REye coords (294.0, 90.0), timeStamp: 2017-03-05 12:13:40.426
LEye coords (219.0, 156.0), REye coords (239.0, 89.0), timeStamp: 2017-03-05 12:13:40.459
LEye coords (173.0, 166.0), REye coords (190.0, 110.0), timeStamp: 2017-03-05 12:13:40.494
LEye coords (172.0, 168.0), REye coords (192.0, 126.0), timeStamp: 2017-03-05 12:13:40.539
LEye coords (174.0, 168.0), REye coords (193.0, 132.0), timeStamp: 2017-03-05 12:13:40.572
LEye coords (174.0, 169.0), REye coords (194.0, 135.0), timeStamp: 2017-03-05 12:13:40.606
LEye coords (178.0, 170.0), REye coords (197.0, 144.0), timeStamp: 2017-03-05 12:13:40.651
LEye coords (178.0, 168.0), REye coords (194.0, 149.0), timeStamp: 2017-03-05 12:13:40.684
LEye coords (152.0, 171.0), REye coords (161.0, 142.0), timeStamp: 2017-03-05 12:13:40.717
LEye coords (144.0, 173.0), REye coords (154.0, 144.0), timeStamp: 2017-03-05 12:13:40.761
LEye coords (139.0, 173.0), REye coords (149.0, 141.0), timeStamp: 2017-03-05 12:13:40.795
LEye coords (136.0, 173.0), REye coords (147.0, 144.0), timeStamp: 2017-03-05 12:13:40.828
LEye coords (134.0, 173.0), REye coords (135.0, 149.0), timeStamp: 2017-03-05 12:13:40.872
LEye coords (117.0, 175.0), REye coords (128.0, 157.0), timeStamp: 2017-03-05 12:13:40.907
LEye coords (107.0, 177.0), REye coords (123.0, 154.0), timeStamp: 2017-03-05 12:13:40.940
LEye coords (106.0, 176.0), REye coords (121.0, 153.0), timeStamp: 2017-03-05 12:13:40.975
LEye coords (106.0, 174.0), REye coords (121.0, 153.0), timeStamp: 2017-03-05 12:13:41.018
LEye coords (106.0, 174.0), REye coords (120.0, 153.0), timeStamp: 2017-03-05 12:13:41.052
LEye coords (106.0, 174.0), REye coords (121.0, 152.0), timeStamp: 2017-03-05 12:13:41.086
LEye coords (105.0, 174.0), REye coords (121.0, 150.0), timeStamp: 2017-03-05 12:13:41.130
LEye coords (105.0, 174.0), REye coords (121.0, 149.0), timeStamp: 2017-03-05 12:13:41.165
LEye coords (105.0, 174.0), REye coords (120.0, 148.0), timeStamp: 2017-03-05 12:13:41.199
LEye coords (104.0, 173.0), REye coords (120.0, 149.0), timeStamp: 2017-03-05 12:13:41.244
LEye coords (104.0, 173.0), REye coords (120.0, 148.0), timeStamp: 2017-03-05 12:13:41.278
LEye coords (104.0, 172.0), REye coords (120.0, 149.0), timeStamp: 2017-03-05 12:13:41.312
LEye coords (104.0, 172.0), REye coords (119.0, 148.0), timeStamp: 2017-03-05 12:13:41.347
LEye coords (104.0, 172.0), REye coords (119.0, 148.0), timeStamp: 2017-03-05 12:13:41.392
