LEye coords (255.0, 5.0), REye coords (258.0, 23.0), timeStamp: 2017-03-05 12:13:36.764
LEye coords (255.0, 5.0), REye coords (258.0, 23.0), timeStamp: 2017-03-05 12:13:36.797
LEye coords (254.0, 5.0), REye coords (257.0, 23.0), timeStamp: 2017-03-05 12:13:36.832
LEye coords (253.0, 5.0), REye coords (257.0, 23.0), timeStamp: 2017-03-05 12:13:36.866
LEye coords (253.0, 5.0), REye coords (257.0, 23.0), timeStamp: 2017-03-05 12:13:36.910
LEye coords (253.0, 5.0), REye coords (256.0, 23.0), timeStamp: 2017-03-05 12:13:36.943
LEye coords (244.0, 156.0), REye coords (269.0, 126.0), timeStamp: 2017-03-05 12:13:36.987
LEye coords (245.0, 158.0), REye coords (273.0, 131.0), timeStamp: 2017-03-05 12:13:37.022
LEye coords (246.0, 159.0), REye coords (272.0, 133.0), timeStamp: 2017-03-05 12:13:37.055
LEye coords (245.0, 159.0), REye coords (271.0, 133.0), timeStamp: 2017-03-05 12:13:37.090
LEye coords (244.0, 158.0), REye coords (271.0, 132.0), timeStamp: 2017-03-05 12:13:37.134
LEye coords (243.0, 160.0), REye coords (269.0, 131.0), timeStamp: 2017-03-05 12:13:37.168
LEye coords (246.0, 160.0), REye coords (269.0, 139.0), timeStamp: 2017-03-05 12:13:37.201
LEye coords (249.0, 164.0), REye coords (272.0, 140.0), timeStamp: 2017-03-05 12:13:37.245
LEye coords (252.0, 179.0), REye coords (279.0, 155.0), timeStamp: 2017-03-05 12:13:37.279
LEye coords (254.0, 185.0), REye coords (282.0, 163.0), timeStamp: 2017-03-05 12:13:37.313
LEye coords (255.0, 188.0), REye coords (283.0, 169.0), timeStamp: 2017-03-05 12:13:37.357
LEye coords (255.0, 190.0), REye coords (283.0, 173.0), timeStamp: 2017-03-05 12:13:37.391
LEye coords (102.0, 223.0), REye coords (110.0, 201.0), timeStamp: 2017-03-05 12:13:37.425
LEye coords (88.0, 222.0), REye coords (106.0, 194.0), timeStamp: 2017-03-05 12:13:37.458
LEye coords (88.0, 223.0), REye coords (103.0, 192.0), timeStamp: 2017-03-05 12:13:37.504
LEye coords (89.0, 223.0), REye coords (102.0, 196.0), timeStamp: 2017-03-05 12:13:37.538
LEye coords (90.0, 223.0), REye coords (101.0, 197.0), timeStamp: 2017-03-05 12:13:37.571
LEye coords (91.0, 223.0), REye coords (92.0, 194.0), timeStamp: 2017-03-05 12:13:37.616
LEye coords (59.0, 248.0), REye coords (58.0, 252.0), timeStamp: 2017-03-05 12:13:37.650
LEye coords (42.0, 269.0), REye coords (36.0, 275.0), timeStamp: 2017-03-05 12:13:37.684
LEye coords (36.0, 275.0), REye coords (29.0, 283.0), timeStamp: 2017-03-05 12:13:37.727
LEye coords (33.0, 279.0), REye coords (27.0, 287.0), timeStamp: 2017-03-05 12:13:37.761
LEye coords (22.0, 289.0), REye coords (15.0, 298.0), timeStamp: 2017-03-05 12:13:37.795
LEye coords (22.0, 290.0), REye coords (15.0, 301.0), timeStamp: 2017-03-05 12:13:37.839
LEye coords (22.0, 292.0), REye coords (18.0, 301.0), timeStamp: 2017-03-05 12:13:37.872
LEye coords (22.0, 291.0), REye coords (18.0, 301.0), timeStamp: 2017-03-05 12:13:37.907
LEye coords (22.0, 292.0), REye coords (16.0, 302.0), timeStamp: 2017-03-05 12:13:37.939
LEye coords (19.0, 292.0), REye coords (12.0, 303.0), timeStamp: 2017-03-05 12:13:37.984
LEye coords (17.0, 292.0), REye coords (9.0, 304.0), timeStamp: 2017-03-05 12:13:38.017
LEye coords (16.0, 292.0), REye coords (7.0, 304.0), timeStamp: 2017-03-05 12:13:38.061
LEye coords (15.0, 293.0), REye coords (6.0, 304.0), timeStamp: 2017-03-05 12:13:38.095
LEye coords (14.0, 293.0), REye coords (4.0, 303.0), timeStamp: 2017-03-05 12:13:38.129
LEye coords (14.0, 293.0), REye coords (3.0, 303.0), timeStamp: 2017-03-05 12:13:38.162
LEye coords (13.0, 293.0), REye coords (3.0, 303.0), timeStamp: 2017-03-05 12:13:38.206
LEye coords (13.0, 294.0), REye coords (2.0, 303.0), timeStamp: 2017-03-05 12:13:38.240
LEye coords (13.0, 294.0), REye coords (2.0, 304.0), timeStamp: 2017-03-05 12:13:38.273
LEye coords (12.0, 294.0), REye coords (1.0, 304.0), timeStamp: 2017-03-05 12:13:38.318
LEye coords (12.0, 294.0), REye coords (0.0, 305.0), timeStamp: 2017-03-05 12:13:38.352
LEye coords (12.0, 294.0), REye coords (0.0, 305.0), timeStamp: 2017-03-05 12:13:38.385
LEye coords (11.0, 294.0), REye coords (-1.0, 306.0), timeStamp: 2017-03-05 12:13:38.432
LEye coords (11.0, 295.0), REye coords (-1.0, 306.0), timeStamp: 2017-03-05 12:13:38.465
