LEye coords (225.0, 153.0), REye coords (270.0, 143.0), timeStamp: 2017-03-05 12:14:13.621
LEye coords (224.0, 145.0), REye coords (269.0, 146.0), timeStamp: 2017-03-05 12:14:13.655
LEye coords (226.0, 148.0), REye coords (268.0, 143.0), timeStamp: 2017-03-05 12:14:13.698
LEye coords (226.0, 147.0), REye coords (266.0, 142.0), timeStamp: 2017-03-05 12:14:13.732
LEye coords (227.0, 147.0), REye coords (266.0, 142.0), timeStamp: 2017-03-05 12:14:13.775
LEye coords (227.0, 146.0), REye coords (266.0, 145.0), timeStamp: 2017-03-05 12:14:13.808
LEye coords (227.0, 147.0), REye coords (266.0, 144.0), timeStamp: 2017-03-05 12:14:13.842
LEye coords (227.0, 147.0), REye coords (265.0, 145.0), timeStamp: 2017-03-05 12:14:13.887
LEye coords (227.0, 148.0), REye coords (265.0, 145.0), timeStamp: 2017-03-05 12:14:13.921
LEye coords (351.0, 99.0), REye coords (364.0, 118.0), timeStamp: 2017-03-05 12:14:13.956
LEye coords (370.0, 90.0), REye coords (379.0, 114.0), timeStamp: 2017-03-05 12:14:13.990
LEye coords (371.0, 91.0), REye coords (378.0, 111.0), timeStamp: 2017-03-05 12:14:14.034
LEye coords (371.0, 91.0), REye coords (378.0, 109.0), timeStamp: 2017-03-05 12:14:14.067
LEye coords (371.0, 92.0), REye coords (378.0, 108.0), timeStamp: 2017-03-05 12:14:14.100
LEye coords (372.0, 89.0), REye coords (380.0, 111.0), timeStamp: 2017-03-05 12:14:14.144
LEye coords (373.0, 98.0), REye coords (380.0, 114.0), timeStamp: 2017-03-05 12:14:14.177
LEye coords (364.0, 94.0), REye coords (372.0, 109.0), timeStamp: 2017-03-05 12:14:14.212
LEye coords (359.0, 100.0), REye coords (368.0, 108.0), timeStamp: 2017-03-05 12:14:14.255
LEye coords (356.0, 98.0), REye coords (367.0, 108.0), timeStamp: 2017-03-05 12:14:14.288
LEye coords (355.0, 98.0), REye coords (367.0, 108.0), timeStamp: 2017-03-05 12:14:14.322
LEye coords (354.0, 101.0), REye coords (366.0, 108.0), timeStamp: 2017-03-05 12:14:14.366
LEye coords (353.0, 103.0), REye coords (365.0, 109.0), timeStamp: 2017-03-05 12:14:14.400
LEye coords (353.0, 106.0), REye coords (364.0, 109.0), timeStamp: 2017-03-05 12:14:14.434
LEye coords (352.0, 107.0), REye coords (364.0, 110.0), timeStamp: 2017-03-05 12:14:14.478
LEye coords (352.0, 108.0), REye coords (364.0, 110.0), timeStamp: 2017-03-05 12:14:14.512
LEye coords (352.0, 107.0), REye coords (364.0, 110.0), timeStamp: 2017-03-05 12:14:14.545
LEye coords (352.0, 108.0), REye coords (363.0, 110.0), timeStamp: 2017-03-05 12:14:14.589
LEye coords (352.0, 108.0), REye coords (363.0, 110.0), timeStamp: 2017-03-05 12:14:14.623
LEye coords (352.0, 109.0), REye coords (363.0, 110.0), timeStamp: 2017-03-05 12:14:14.656
LEye coords (352.0, 110.0), REye coords (363.0, 110.0), timeStamp: 2017-03-05 12:14:14.701
LEye coords (352.0, 111.0), REye coords (364.0, 109.0), timeStamp: 2017-03-05 12:14:14.735
LEye coords (352.0, 113.0), REye coords (364.0, 109.0), timeStamp: 2017-03-05 12:14:14.769
LEye coords (352.0, 113.0), REye coords (364.0, 109.0), timeStamp: 2017-03-05 12:14:14.812
LEye coords (352.0, 112.0), REye coords (365.0, 108.0), timeStamp: 2017-03-05 12:14:14.845
