LEye coords (73.0, 260.0), REye coords (74.0, 263.0), timeStamp: 2017-03-05 12:14:19.655
LEye coords (74.0, 260.0), REye coords (75.0, 264.0), timeStamp: 2017-03-05 12:14:19.688
LEye coords (74.0, 261.0), REye coords (75.0, 264.0), timeStamp: 2017-03-05 12:14:19.733
LEye coords (75.0, 261.0), REye coords (76.0, 265.0), timeStamp: 2017-03-05 12:14:19.768
LEye coords (76.0, 261.0), REye coords (76.0, 265.0), timeStamp: 2017-03-05 12:14:19.801
LEye coords (76.0, 261.0), REye coords (77.0, 265.0), timeStamp: 2017-03-05 12:14:19.845
LEye coords (131.0, 235.0), REye coords (135.0, 246.0), timeStamp: 2017-03-05 12:14:19.878
LEye coords (182.0, 217.0), REye coords (194.0, 211.0), timeStamp: 2017-03-05 12:14:19.911
LEye coords (181.0, 219.0), REye coords (194.0, 211.0), timeStamp: 2017-03-05 12:14:19.956
LEye coords (182.0, 218.0), REye coords (193.0, 212.0), timeStamp: 2017-03-05 12:14:19.989
LEye coords (182.0, 218.0), REye coords (192.0, 212.0), timeStamp: 2017-03-05 12:14:20.023
LEye coords (345.0, 173.0), REye coords (354.0, 169.0), timeStamp: 2017-03-05 12:14:20.068
LEye coords (368.0, 164.0), REye coords (382.0, 155.0), timeStamp: 2017-03-05 12:14:20.101
LEye coords (370.0, 162.0), REye coords (380.0, 157.0), timeStamp: 2017-03-05 12:14:20.133
LEye coords (372.0, 162.0), REye coords (382.0, 153.0), timeStamp: 2017-03-05 12:14:20.178
LEye coords (371.0, 161.0), REye coords (383.0, 150.0), timeStamp: 2017-03-05 12:14:20.211
LEye coords (338.0, 170.0), REye coords (349.0, 161.0), timeStamp: 2017-03-05 12:14:20.245
LEye coords (232.0, 192.0), REye coords (245.0, 186.0), timeStamp: 2017-03-05 12:14:20.289
LEye coords (234.0, 194.0), REye coords (243.0, 187.0), timeStamp: 2017-03-05 12:14:20.323
LEye coords (234.0, 195.0), REye coords (243.0, 187.0), timeStamp: 2017-03-05 12:14:20.356
LEye coords (234.0, 194.0), REye coords (245.0, 186.0), timeStamp: 2017-03-05 12:14:20.400
LEye coords (233.0, 194.0), REye coords (246.0, 186.0), timeStamp: 2017-03-05 12:14:20.434
LEye coords (235.0, 192.0), REye coords (243.0, 187.0), timeStamp: 2017-03-05 12:14:20.468
LEye coords (235.0, 192.0), REye coords (244.0, 187.0), timeStamp: 2017-03-05 12:14:20.512
LEye coords (235.0, 192.0), REye coords (245.0, 188.0), timeStamp: 2017-03-05 12:14:20.545
LEye coords (235.0, 193.0), REye coords (244.0, 189.0), timeStamp: 2017-03-05 12:14:20.579
LEye coords (236.0, 193.0), REye coords (245.0, 188.0), timeStamp: 2017-03-05 12:14:20.613
LEye coords (236.0, 193.0), REye coords (244.0, 188.0), timeStamp: 2017-03-05 12:14:20.656
LEye coords (237.0, 194.0), REye coords (244.0, 189.0), timeStamp: 2017-03-05 12:14:20.690
LEye coords (237.0, 194.0), REye coords (244.0, 189.0), timeStamp: 2017-03-05 12:14:20.734
LEye coords (237.0, 194.0), REye coords (244.0, 190.0), timeStamp: 2017-03-05 12:14:20.767
LEye coords (237.0, 195.0), REye coords (244.0, 190.0), timeStamp: 2017-03-05 12:14:20.802
LEye coords (236.0, 195.0), REye coords (244.0, 191.0), timeStamp: 2017-03-05 12:14:20.835
LEye coords (236.0, 196.0), REye coords (244.0, 191.0), timeStamp: 2017-03-05 12:14:20.880
LEye coords (236.0, 196.0), REye coords (243.0, 192.0), timeStamp: 2017-03-05 12:14:20.914
LEye coords (236.0, 196.0), REye coords (243.0, 192.0), timeStamp: 2017-03-05 12:14:20.947
LEye coords (236.0, 197.0), REye coords (243.0, 193.0), timeStamp: 2017-03-05 12:14:20.991
LEye coords (236.0, 197.0), REye coords (244.0, 193.0), timeStamp: 2017-03-05 12:14:21.025
LEye coords (236.0, 197.0), REye coords (244.0, 192.0), timeStamp: 2017-03-05 12:14:21.059
LEye coords (235.0, 197.0), REye coords (244.0, 192.0), timeStamp: 2017-03-05 12:14:21.104
