LEye coords (363.0, 38.0), REye coords (363.0, 41.0), timeStamp: 2017-03-05 12:14:22.543
LEye coords (363.0, 38.0), REye coords (363.0, 41.0), timeStamp: 2017-03-05 12:14:22.577
LEye coords (363.0, 38.0), REye coords (364.0, 41.0), timeStamp: 2017-03-05 12:14:22.611
LEye coords (363.0, 38.0), REye coords (364.0, 41.0), timeStamp: 2017-03-05 12:14:22.655
LEye coords (363.0, 38.0), REye coords (364.0, 41.0), timeStamp: 2017-03-05 12:14:22.689
LEye coords (363.0, 38.0), REye coords (365.0, 40.0), timeStamp: 2017-03-05 12:14:22.723
LEye coords (363.0, 39.0), REye coords (365.0, 40.0), timeStamp: 2017-03-05 12:14:22.766
LEye coords (233.0, 176.0), REye coords (248.0, 160.0), timeStamp: 2017-03-05 12:14:22.799
LEye coords (240.0, 185.0), REye coords (250.0, 171.0), timeStamp: 2017-03-05 12:14:22.843
LEye coords (238.0, 185.0), REye coords (251.0, 169.0), timeStamp: 2017-03-05 12:14:22.878
LEye coords (237.0, 183.0), REye coords (250.0, 168.0), timeStamp: 2017-03-05 12:14:22.911
LEye coords (238.0, 183.0), REye coords (251.0, 168.0), timeStamp: 2017-03-05 12:14:22.955
LEye coords (231.0, 186.0), REye coords (242.0, 163.0), timeStamp: 2017-03-05 12:14:22.990
LEye coords (112.0, 179.0), REye coords (109.0, 162.0), timeStamp: 2017-03-05 12:14:23.023
LEye coords (113.0, 180.0), REye coords (111.0, 161.0), timeStamp: 2017-03-05 12:14:23.057
LEye coords (114.0, 180.0), REye coords (112.0, 161.0), timeStamp: 2017-03-05 12:14:23.102
LEye coords (112.0, 176.0), REye coords (114.0, 159.0), timeStamp: 2017-03-05 12:14:23.136
LEye coords (111.0, 169.0), REye coords (117.0, 151.0), timeStamp: 2017-03-05 12:14:23.171
LEye coords (132.0, 156.0), REye coords (0.0, 0.0), timeStamp: 2017-03-05 12:14:23.204
LEye coords (129.0, 153.0), REye coords (121.0, 146.0), timeStamp: 2017-03-05 12:14:23.248
LEye coords (129.0, 154.0), REye coords (122.0, 137.0), timeStamp: 2017-03-05 12:14:23.282
LEye coords (130.0, 153.0), REye coords (125.0, 135.0), timeStamp: 2017-03-05 12:14:23.325
LEye coords (130.0, 153.0), REye coords (126.0, 133.0), timeStamp: 2017-03-05 12:14:23.359
LEye coords (130.0, 152.0), REye coords (125.0, 131.0), timeStamp: 2017-03-05 12:14:23.393
LEye coords (133.0, 152.0), REye coords (128.0, 131.0), timeStamp: 2017-03-05 12:14:23.426
LEye coords (134.0, 151.0), REye coords (131.0, 129.0), timeStamp: 2017-03-05 12:14:23.470
LEye coords (135.0, 151.0), REye coords (133.0, 128.0), timeStamp: 2017-03-05 12:14:23.504
LEye coords (137.0, 150.0), REye coords (134.0, 127.0), timeStamp: 2017-03-05 12:14:23.538
LEye coords (138.0, 150.0), REye coords (136.0, 130.0), timeStamp: 2017-03-05 12:14:23.581
LEye coords (138.0, 150.0), REye coords (137.0, 129.0), timeStamp: 2017-03-05 12:14:23.614
LEye coords (139.0, 149.0), REye coords (138.0, 129.0), timeStamp: 2017-03-05 12:14:23.648
LEye coords (140.0, 151.0), REye coords (139.0, 131.0), timeStamp: 2017-03-05 12:14:23.692
LEye coords (141.0, 152.0), REye coords (140.0, 133.0), timeStamp: 2017-03-05 12:14:23.726
LEye coords (142.0, 153.0), REye coords (140.0, 134.0), timeStamp: 2017-03-05 12:14:23.759
LEye coords (143.0, 155.0), REye coords (141.0, 136.0), timeStamp: 2017-03-05 12:14:23.803
LEye coords (144.0, 156.0), REye coords (141.0, 138.0), timeStamp: 2017-03-05 12:14:23.837
LEye coords (144.0, 157.0), REye coords (142.0, 139.0), timeStamp: 2017-03-05 12:14:23.871
LEye coords (145.0, 158.0), REye coords (142.0, 141.0), timeStamp: 2017-03-05 12:14:23.914
