LEye coords (235.0, 197.0), REye coords (244.0, 193.0), timeStamp: 2017-03-05 12:14:21.213
LEye coords (235.0, 197.0), REye coords (244.0, 193.0), timeStamp: 2017-03-05 12:14:21.247
LEye coords (235.0, 197.0), REye coords (244.0, 193.0), timeStamp: 2017-03-05 12:14:21.280
LEye coords (235.0, 198.0), REye coords (245.0, 193.0), timeStamp: 2017-03-05 12:14:21.325
LEye coords (235.0, 198.0), REye coords (245.0, 194.0), timeStamp: 2017-03-05 12:14:21.359
LEye coords (235.0, 197.0), REye coords (245.0, 194.0), timeStamp: 2017-03-05 12:14:21.392
LEye coords (235.0, 198.0), REye coords (246.0, 194.0), timeStamp: 2017-03-05 12:14:21.437
LEye coords (235.0, 198.0), REye coords (246.0, 195.0), timeStamp: 2017-03-05 12:14:21.471
LEye coords (235.0, 198.0), REye coords (246.0, 195.0), timeStamp: 2017-03-05 12:14:21.504
LEye coords (235.0, 198.0), REye coords (247.0, 195.0), timeStamp: 2017-03-05 12:14:21.547
LEye coords (235.0, 199.0), REye coords (247.0, 195.0), timeStamp: 2017-03-05 12:14:21.581
LEye coords (235.0, 199.0), REye coords (248.0, 195.0), timeStamp: 2017-03-05 12:14:21.616
LEye coords (383.0, 151.0), REye coords (383.0, 140.0), timeStamp: 2017-03-05 12:14:21.650
LEye coords (378.0, 150.0), REye coords (386.0, 130.0), timeStamp: 2017-03-05 12:14:21.696
LEye coords (375.0, 151.0), REye coords (385.0, 130.0), timeStamp: 2017-03-05 12:14:21.729
LEye coords (373.0, 152.0), REye coords (384.0, 130.0), timeStamp: 2017-03-05 12:14:21.762
LEye coords (374.0, 152.0), REye coords (385.0, 129.0), timeStamp: 2017-03-05 12:14:21.807
LEye coords (362.0, 78.0), REye coords (365.0, 77.0), timeStamp: 2017-03-05 12:14:21.841
LEye coords (357.0, 41.0), REye coords (359.0, 46.0), timeStamp: 2017-03-05 12:14:21.874
LEye coords (355.0, 40.0), REye coords (358.0, 48.0), timeStamp: 2017-03-05 12:14:21.919
LEye coords (355.0, 43.0), REye coords (357.0, 47.0), timeStamp: 2017-03-05 12:14:21.953
LEye coords (356.0, 44.0), REye coords (357.0, 48.0), timeStamp: 2017-03-05 12:14:21.986
LEye coords (356.0, 45.0), REye coords (355.0, 47.0), timeStamp: 2017-03-05 12:14:22.020
LEye coords (358.0, 34.0), REye coords (360.0, 44.0), timeStamp: 2017-03-05 12:14:22.063
LEye coords (360.0, 32.0), REye coords (362.0, 41.0), timeStamp: 2017-03-05 12:14:22.097
LEye coords (362.0, 31.0), REye coords (363.0, 41.0), timeStamp: 2017-03-05 12:14:22.130
LEye coords (363.0, 32.0), REye coords (365.0, 40.0), timeStamp: 2017-03-05 12:14:22.174
LEye coords (363.0, 33.0), REye coords (365.0, 39.0), timeStamp: 2017-03-05 12:14:22.208
LEye coords (363.0, 32.0), REye coords (365.0, 39.0), timeStamp: 2017-03-05 12:14:22.242
LEye coords (363.0, 33.0), REye coords (365.0, 39.0), timeStamp: 2017-03-05 12:14:22.285
LEye coords (363.0, 33.0), REye coords (364.0, 39.0), timeStamp: 2017-03-05 12:14:22.319
LEye coords (363.0, 34.0), REye coords (364.0, 40.0), timeStamp: 2017-03-05 12:14:22.353
LEye coords (363.0, 35.0), REye coords (364.0, 39.0), timeStamp: 2017-03-05 12:14:22.398
LEye coords (363.0, 36.0), REye coords (363.0, 40.0), timeStamp: 2017-03-05 12:14:22.432
