LEye coords (432.0, 242.0), REye coords (444.0, 252.0), timeStamp: 2017-03-05 12:15:26.493
LEye coords (432.0, 242.0), REye coords (445.0, 253.0), timeStamp: 2017-03-05 12:15:26.538
LEye coords (433.0, 243.0), REye coords (445.0, 253.0), timeStamp: 2017-03-05 12:15:26.573
LEye coords (433.0, 243.0), REye coords (445.0, 254.0), timeStamp: 2017-03-05 12:15:26.608
LEye coords (434.0, 243.0), REye coords (445.0, 254.0), timeStamp: 2017-03-05 12:15:26.642
LEye coords (434.0, 243.0), REye coords (446.0, 254.0), timeStamp: 2017-03-05 12:15:26.685
LEye coords (337.0, 230.0), REye coords (355.0, 236.0), timeStamp: 2017-03-05 12:15:26.720
LEye coords (209.0, 216.0), REye coords (238.0, 224.0), timeStamp: 2017-03-05 12:15:26.753
LEye coords (213.0, 217.0), REye coords (236.0, 222.0), timeStamp: 2017-03-05 12:15:26.797
LEye coords (214.0, 217.0), REye coords (236.0, 223.0), timeStamp: 2017-03-05 12:15:26.831
LEye coords (216.0, 206.0), REye coords (238.0, 205.0), timeStamp: 2017-03-05 12:15:26.864
LEye coords (222.0, 175.0), REye coords (234.0, 186.0), timeStamp: 2017-03-05 12:15:26.909
LEye coords (222.0, 173.0), REye coords (250.0, 133.0), timeStamp: 2017-03-05 12:15:26.942
LEye coords (221.0, 168.0), REye coords (248.0, 144.0), timeStamp: 2017-03-05 12:15:26.975
LEye coords (217.0, 158.0), REye coords (247.0, 139.0), timeStamp: 2017-03-05 12:15:27.019
LEye coords (215.0, 153.0), REye coords (246.0, 139.0), timeStamp: 2017-03-05 12:15:27.053
LEye coords (214.0, 149.0), REye coords (245.0, 138.0), timeStamp: 2017-03-05 12:15:27.088
LEye coords (213.0, 147.0), REye coords (245.0, 137.0), timeStamp: 2017-03-05 12:15:27.123
LEye coords (211.0, 146.0), REye coords (0.0, 0.0), timeStamp: 2017-03-05 12:15:27.166
LEye coords (210.0, 144.0), REye coords (0.0, 0.0), timeStamp: 2017-03-05 12:15:27.200
LEye coords (209.0, 144.0), REye coords (0.0, 0.0), timeStamp: 2017-03-05 12:15:27.233
LEye coords (208.0, 143.0), REye coords (0.0, 0.0), timeStamp: 2017-03-05 12:15:27.277
LEye coords (208.0, 142.0), REye coords (0.0, 0.0), timeStamp: 2017-03-05 12:15:27.311
LEye coords (207.0, 141.0), REye coords (0.0, 0.0), timeStamp: 2017-03-05 12:15:27.345
LEye coords (207.0, 141.0), REye coords (0.0, 0.0), timeStamp: 2017-03-05 12:15:27.389
LEye coords (206.0, 140.0), REye coords (0.0, 0.0), timeStamp: 2017-03-05 12:15:27.424
