LEye coords (167.0, 117.0), REye coords (171.0, 93.0), timeStamp: 2017-03-05 12:16:05.363
LEye coords (167.0, 117.0), REye coords (171.0, 93.0), timeStamp: 2017-03-05 12:16:05.397
LEye coords (167.0, 119.0), REye coords (171.0, 95.0), timeStamp: 2017-03-05 12:16:05.430
LEye coords (168.0, 119.0), REye coords (171.0, 95.0), timeStamp: 2017-03-05 12:16:05.464
LEye coords (167.0, 119.0), REye coords (171.0, 97.0), timeStamp: 2017-03-05 12:16:05.508
LEye coords (167.0, 119.0), REye coords (172.0, 97.0), timeStamp: 2017-03-05 12:16:05.542
LEye coords (167.0, 119.0), REye coords (172.0, 97.0), timeStamp: 2017-03-05 12:16:05.575
LEye coords (167.0, 119.0), REye coords (172.0, 98.0), timeStamp: 2017-03-05 12:16:05.618
LEye coords (194.0, 224.0), REye coords (202.0, 201.0), timeStamp: 2017-03-05 12:16:05.652
LEye coords (225.0, 302.0), REye coords (240.0, 292.0), timeStamp: 2017-03-05 12:16:05.686
LEye coords (224.0, 302.0), REye coords (240.0, 292.0), timeStamp: 2017-03-05 12:16:05.731
LEye coords (208.0, 297.0), REye coords (223.0, 290.0), timeStamp: 2017-03-05 12:16:05.764
LEye coords (170.0, 284.0), REye coords (181.0, 272.0), timeStamp: 2017-03-05 12:16:05.798
LEye coords (59.0, 243.0), REye coords (60.0, 215.0), timeStamp: 2017-03-05 12:16:05.841
LEye coords (57.0, 243.0), REye coords (60.0, 215.0), timeStamp: 2017-03-05 12:16:05.874
LEye coords (57.0, 242.0), REye coords (58.0, 206.0), timeStamp: 2017-03-05 12:16:05.917
LEye coords (58.0, 244.0), REye coords (59.0, 209.0), timeStamp: 2017-03-05 12:16:05.951
LEye coords (58.0, 246.0), REye coords (59.0, 208.0), timeStamp: 2017-03-05 12:16:05.985
LEye coords (58.0, 246.0), REye coords (57.0, 208.0), timeStamp: 2017-03-05 12:16:06.019
LEye coords (58.0, 246.0), REye coords (58.0, 212.0), timeStamp: 2017-03-05 12:16:06.064
LEye coords (58.0, 246.0), REye coords (56.0, 210.0), timeStamp: 2017-03-05 12:16:06.098
LEye coords (57.0, 246.0), REye coords (55.0, 209.0), timeStamp: 2017-03-05 12:16:06.131
LEye coords (56.0, 246.0), REye coords (54.0, 207.0), timeStamp: 2017-03-05 12:16:06.175
LEye coords (55.0, 245.0), REye coords (53.0, 206.0), timeStamp: 2017-03-05 12:16:06.209
LEye coords (55.0, 244.0), REye coords (51.0, 205.0), timeStamp: 2017-03-05 12:16:06.242
LEye coords (54.0, 242.0), REye coords (51.0, 207.0), timeStamp: 2017-03-05 12:16:06.287
LEye coords (53.0, 242.0), REye coords (49.0, 205.0), timeStamp: 2017-03-05 12:16:06.321
LEye coords (52.0, 242.0), REye coords (48.0, 205.0), timeStamp: 2017-03-05 12:16:06.355
LEye coords (52.0, 242.0), REye coords (47.0, 206.0), timeStamp: 2017-03-05 12:16:06.398
LEye coords (51.0, 242.0), REye coords (47.0, 206.0), timeStamp: 2017-03-05 12:16:06.432
LEye coords (51.0, 242.0), REye coords (46.0, 206.0), timeStamp: 2017-03-05 12:16:06.465
LEye coords (50.0, 242.0), REye coords (45.0, 205.0), timeStamp: 2017-03-05 12:16:06.510
LEye coords (50.0, 242.0), REye coords (44.0, 205.0), timeStamp: 2017-03-05 12:16:06.544
