LEye coords (278.0, 307.0), REye coords (282.0, 314.0), timeStamp: 2017-03-05 12:16:17.132
LEye coords (278.0, 307.0), REye coords (283.0, 314.0), timeStamp: 2017-03-05 12:16:17.166
LEye coords (279.0, 308.0), REye coords (283.0, 314.0), timeStamp: 2017-03-05 12:16:17.199
LEye coords (279.0, 308.0), REye coords (284.0, 314.0), timeStamp: 2017-03-05 12:16:17.233
LEye coords (279.0, 309.0), REye coords (284.0, 314.0), timeStamp: 2017-03-05 12:16:17.278
LEye coords (234.0, 217.0), REye coords (249.0, 220.0), timeStamp: 2017-03-05 12:16:17.313
LEye coords (201.0, 171.0), REye coords (216.0, 120.0), timeStamp: 2017-03-05 12:16:17.348
LEye coords (200.0, 168.0), REye coords (214.0, 120.0), timeStamp: 2017-03-05 12:16:17.381
LEye coords (201.0, 170.0), REye coords (214.0, 122.0), timeStamp: 2017-03-05 12:16:17.425
LEye coords (202.0, 171.0), REye coords (214.0, 124.0), timeStamp: 2017-03-05 12:16:17.459
LEye coords (257.0, 150.0), REye coords (276.0, 111.0), timeStamp: 2017-03-05 12:16:17.502
LEye coords (288.0, 142.0), REye coords (309.0, 112.0), timeStamp: 2017-03-05 12:16:17.536
LEye coords (288.0, 141.0), REye coords (307.0, 111.0), timeStamp: 2017-03-05 12:16:17.570
LEye coords (288.0, 143.0), REye coords (307.0, 111.0), timeStamp: 2017-03-05 12:16:17.614
LEye coords (288.0, 142.0), REye coords (307.0, 111.0), timeStamp: 2017-03-05 12:16:17.647
LEye coords (290.0, 142.0), REye coords (305.0, 111.0), timeStamp: 2017-03-05 12:16:17.680
LEye coords (293.0, 139.0), REye coords (304.0, 117.0), timeStamp: 2017-03-05 12:16:17.725
LEye coords (292.0, 138.0), REye coords (305.0, 117.0), timeStamp: 2017-03-05 12:16:17.759
LEye coords (291.0, 139.0), REye coords (305.0, 113.0), timeStamp: 2017-03-05 12:16:17.792
LEye coords (291.0, 139.0), REye coords (305.0, 115.0), timeStamp: 2017-03-05 12:16:17.835
LEye coords (292.0, 139.0), REye coords (307.0, 114.0), timeStamp: 2017-03-05 12:16:17.869
LEye coords (292.0, 140.0), REye coords (308.0, 116.0), timeStamp: 2017-03-05 12:16:17.902
LEye coords (293.0, 140.0), REye coords (308.0, 115.0), timeStamp: 2017-03-05 12:16:17.946
LEye coords (294.0, 140.0), REye coords (309.0, 115.0), timeStamp: 2017-03-05 12:16:17.979
LEye coords (294.0, 140.0), REye coords (309.0, 115.0), timeStamp: 2017-03-05 12:16:18.014
LEye coords (295.0, 140.0), REye coords (310.0, 114.0), timeStamp: 2017-03-05 12:16:18.048
LEye coords (295.0, 137.0), REye coords (311.0, 114.0), timeStamp: 2017-03-05 12:16:18.091
LEye coords (296.0, 134.0), REye coords (311.0, 115.0), timeStamp: 2017-03-05 12:16:18.125
LEye coords (296.0, 134.0), REye coords (312.0, 115.0), timeStamp: 2017-03-05 12:16:18.159
LEye coords (297.0, 134.0), REye coords (312.0, 115.0), timeStamp: 2017-03-05 12:16:18.203
LEye coords (298.0, 133.0), REye coords (313.0, 115.0), timeStamp: 2017-03-05 12:16:18.238
