LEye coords (71.0, 161.0), REye coords (70.0, 128.0), timeStamp: 2017-03-05 12:16:15.902
LEye coords (71.0, 161.0), REye coords (71.0, 128.0), timeStamp: 2017-03-05 12:16:15.947
LEye coords (71.0, 161.0), REye coords (71.0, 127.0), timeStamp: 2017-03-05 12:16:15.980
LEye coords (71.0, 162.0), REye coords (71.0, 128.0), timeStamp: 2017-03-05 12:16:16.014
LEye coords (72.0, 162.0), REye coords (71.0, 129.0), timeStamp: 2017-03-05 12:16:16.059
LEye coords (73.0, 162.0), REye coords (72.0, 129.0), timeStamp: 2017-03-05 12:16:16.093
LEye coords (74.0, 162.0), REye coords (73.0, 129.0), timeStamp: 2017-03-05 12:16:16.126
LEye coords (256.0, 172.0), REye coords (268.0, 176.0), timeStamp: 2017-03-05 12:16:16.170
LEye coords (0.0, 0.0), REye coords (0.0, 0.0), timeStamp: 2017-03-05 12:16:16.204
LEye coords (254.0, 180.0), REye coords (268.0, 154.0), timeStamp: 2017-03-05 12:16:16.238
LEye coords (253.0, 178.0), REye coords (266.0, 161.0), timeStamp: 2017-03-05 12:16:16.272
LEye coords (252.0, 180.0), REye coords (266.0, 162.0), timeStamp: 2017-03-05 12:16:16.316
LEye coords (253.0, 184.0), REye coords (266.0, 171.0), timeStamp: 2017-03-05 12:16:16.350
LEye coords (260.0, 322.0), REye coords (273.0, 322.0), timeStamp: 2017-03-05 12:16:16.383
LEye coords (263.0, 328.0), REye coords (265.0, 325.0), timeStamp: 2017-03-05 12:16:16.427
LEye coords (262.0, 326.0), REye coords (265.0, 326.0), timeStamp: 2017-03-05 12:16:16.460
LEye coords (262.0, 327.0), REye coords (265.0, 326.0), timeStamp: 2017-03-05 12:16:16.494
LEye coords (0.0, 0.0), REye coords (267.0, 325.0), timeStamp: 2017-03-05 12:16:16.537
LEye coords (263.0, 327.0), REye coords (265.0, 331.0), timeStamp: 2017-03-05 12:16:16.571
LEye coords (261.0, 324.0), REye coords (0.0, 0.0), timeStamp: 2017-03-05 12:16:16.605
LEye coords (265.0, 317.0), REye coords (270.0, 325.0), timeStamp: 2017-03-05 12:16:16.648
LEye coords (268.0, 314.0), REye coords (272.0, 317.0), timeStamp: 2017-03-05 12:16:16.682
LEye coords (269.0, 311.0), REye coords (273.0, 315.0), timeStamp: 2017-03-05 12:16:16.716
LEye coords (269.0, 311.0), REye coords (274.0, 314.0), timeStamp: 2017-03-05 12:16:16.760
LEye coords (270.0, 310.0), REye coords (274.0, 315.0), timeStamp: 2017-03-05 12:16:16.795
LEye coords (270.0, 310.0), REye coords (274.0, 315.0), timeStamp: 2017-03-05 12:16:16.828
LEye coords (271.0, 309.0), REye coords (275.0, 315.0), timeStamp: 2017-03-05 12:16:16.873
LEye coords (272.0, 310.0), REye coords (276.0, 316.0), timeStamp: 2017-03-05 12:16:16.907
LEye coords (274.0, 311.0), REye coords (278.0, 317.0), timeStamp: 2017-03-05 12:16:16.941
LEye coords (275.0, 311.0), REye coords (279.0, 317.0), timeStamp: 2017-03-05 12:16:16.985
