LEye coords (208.0, 210.0), REye coords (214.0, 218.0), timeStamp: 2017-03-05 12:17:21.973
LEye coords (209.0, 211.0), REye coords (215.0, 218.0), timeStamp: 2017-03-05 12:17:22.007
LEye coords (209.0, 211.0), REye coords (216.0, 219.0), timeStamp: 2017-03-05 12:17:22.040
LEye coords (210.0, 211.0), REye coords (217.0, 219.0), timeStamp: 2017-03-05 12:17:22.084
LEye coords (210.0, 211.0), REye coords (217.0, 219.0), timeStamp: 2017-03-05 12:17:22.118
LEye coords (211.0, 212.0), REye coords (218.0, 220.0), timeStamp: 2017-03-05 12:17:22.151
LEye coords (212.0, 212.0), REye coords (219.0, 220.0), timeStamp: 2017-03-05 12:17:22.195
LEye coords (212.0, 213.0), REye coords (221.0, 221.0), timeStamp: 2017-03-05 12:17:22.229
LEye coords (121.0, 129.0), REye coords (135.0, 112.0), timeStamp: 2017-03-05 12:17:22.263
LEye coords (92.0, 95.0), REye coords (103.0, 81.0), timeStamp: 2017-03-05 12:17:22.307
LEye coords (93.0, 98.0), REye coords (104.0, 80.0), timeStamp: 2017-03-05 12:17:22.340
LEye coords (93.0, 97.0), REye coords (104.0, 80.0), timeStamp: 2017-03-05 12:17:22.373
LEye coords (119.0, 107.0), REye coords (133.0, 91.0), timeStamp: 2017-03-05 12:17:22.416
LEye coords (210.0, 157.0), REye coords (235.0, 149.0), timeStamp: 2017-03-05 12:17:22.450
LEye coords (212.0, 145.0), REye coords (236.0, 138.0), timeStamp: 2017-03-05 12:17:22.484
LEye coords (212.0, 148.0), REye coords (234.0, 141.0), timeStamp: 2017-03-05 12:17:22.527
LEye coords (211.0, 149.0), REye coords (235.0, 131.0), timeStamp: 2017-03-05 12:17:22.560
LEye coords (210.0, 149.0), REye coords (235.0, 132.0), timeStamp: 2017-03-05 12:17:22.604
LEye coords (209.0, 149.0), REye coords (235.0, 129.0), timeStamp: 2017-03-05 12:17:22.638
LEye coords (206.0, 145.0), REye coords (235.0, 128.0), timeStamp: 2017-03-05 12:17:22.671
LEye coords (205.0, 139.0), REye coords (234.0, 124.0), timeStamp: 2017-03-05 12:17:22.705
LEye coords (205.0, 135.0), REye coords (235.0, 119.0), timeStamp: 2017-03-05 12:17:22.749
LEye coords (204.0, 133.0), REye coords (234.0, 116.0), timeStamp: 2017-03-05 12:17:22.783
LEye coords (204.0, 130.0), REye coords (234.0, 114.0), timeStamp: 2017-03-05 12:17:22.816
LEye coords (203.0, 128.0), REye coords (234.0, 112.0), timeStamp: 2017-03-05 12:17:22.859
LEye coords (203.0, 126.0), REye coords (234.0, 110.0), timeStamp: 2017-03-05 12:17:22.894
LEye coords (203.0, 124.0), REye coords (234.0, 109.0), timeStamp: 2017-03-05 12:17:22.927
LEye coords (203.0, 123.0), REye coords (234.0, 107.0), timeStamp: 2017-03-05 12:17:22.972
LEye coords (202.0, 121.0), REye coords (234.0, 106.0), timeStamp: 2017-03-05 12:17:23.006
LEye coords (202.0, 121.0), REye coords (233.0, 105.0), timeStamp: 2017-03-05 12:17:23.040
LEye coords (201.0, 120.0), REye coords (233.0, 104.0), timeStamp: 2017-03-05 12:17:23.084
LEye coords (201.0, 119.0), REye coords (233.0, 103.0), timeStamp: 2017-03-05 12:17:23.119
LEye coords (200.0, 118.0), REye coords (232.0, 103.0), timeStamp: 2017-03-05 12:17:23.151
LEye coords (200.0, 117.0), REye coords (232.0, 102.0), timeStamp: 2017-03-05 12:17:23.197
LEye coords (200.0, 116.0), REye coords (232.0, 101.0), timeStamp: 2017-03-05 12:17:23.231
LEye coords (201.0, 117.0), REye coords (232.0, 100.0), timeStamp: 2017-03-05 12:17:23.265
LEye coords (201.0, 117.0), REye coords (232.0, 99.0), timeStamp: 2017-03-05 12:17:23.298
