LEye coords (105.0, 73.0), REye coords (104.0, 59.0), timeStamp: 2017-03-05 12:17:29.593
LEye coords (105.0, 73.0), REye coords (104.0, 59.0), timeStamp: 2017-03-05 12:17:29.627
LEye coords (105.0, 74.0), REye coords (104.0, 59.0), timeStamp: 2017-03-05 12:17:29.670
LEye coords (106.0, 74.0), REye coords (104.0, 59.0), timeStamp: 2017-03-05 12:17:29.705
LEye coords (106.0, 75.0), REye coords (104.0, 59.0), timeStamp: 2017-03-05 12:17:29.737
LEye coords (106.0, 75.0), REye coords (105.0, 59.0), timeStamp: 2017-03-05 12:17:29.782
LEye coords (106.0, 75.0), REye coords (105.0, 59.0), timeStamp: 2017-03-05 12:17:29.815
LEye coords (106.0, 75.0), REye coords (105.0, 60.0), timeStamp: 2017-03-05 12:17:29.849
LEye coords (106.0, 76.0), REye coords (105.0, 60.0), timeStamp: 2017-03-05 12:17:29.893
LEye coords (201.0, 58.0), REye coords (214.0, 44.0), timeStamp: 2017-03-05 12:17:29.926
LEye coords (289.0, 45.0), REye coords (295.0, 61.0), timeStamp: 2017-03-05 12:17:29.960
LEye coords (292.0, 46.0), REye coords (296.0, 62.0), timeStamp: 2017-03-05 12:17:30.004
LEye coords (292.0, 47.0), REye coords (296.0, 61.0), timeStamp: 2017-03-05 12:17:30.038
LEye coords (291.0, 50.0), REye coords (297.0, 61.0), timeStamp: 2017-03-05 12:17:30.072
LEye coords (260.0, 222.0), REye coords (275.0, 204.0), timeStamp: 2017-03-05 12:17:30.116
LEye coords (263.0, 219.0), REye coords (271.0, 211.0), timeStamp: 2017-03-05 12:17:30.150
LEye coords (263.0, 220.0), REye coords (271.0, 208.0), timeStamp: 2017-03-05 12:17:30.184
LEye coords (265.0, 221.0), REye coords (271.0, 208.0), timeStamp: 2017-03-05 12:17:30.229
LEye coords (265.0, 220.0), REye coords (272.0, 208.0), timeStamp: 2017-03-05 12:17:30.262
LEye coords (265.0, 218.0), REye coords (272.0, 212.0), timeStamp: 2017-03-05 12:17:30.295
LEye coords (268.0, 222.0), REye coords (271.0, 212.0), timeStamp: 2017-03-05 12:17:30.330
LEye coords (269.0, 221.0), REye coords (270.0, 212.0), timeStamp: 2017-03-05 12:17:30.374
LEye coords (263.0, 227.0), REye coords (266.0, 221.0), timeStamp: 2017-03-05 12:17:30.406
LEye coords (260.0, 231.0), REye coords (263.0, 229.0), timeStamp: 2017-03-05 12:17:30.440
LEye coords (258.0, 233.0), REye coords (262.0, 233.0), timeStamp: 2017-03-05 12:17:30.484
LEye coords (256.0, 235.0), REye coords (261.0, 237.0), timeStamp: 2017-03-05 12:17:30.517
LEye coords (254.0, 237.0), REye coords (260.0, 240.0), timeStamp: 2017-03-05 12:17:30.552
LEye coords (253.0, 238.0), REye coords (259.0, 241.0), timeStamp: 2017-03-05 12:17:30.596
LEye coords (251.0, 239.0), REye coords (259.0, 242.0), timeStamp: 2017-03-05 12:17:30.630
LEye coords (251.0, 239.0), REye coords (259.0, 242.0), timeStamp: 2017-03-05 12:17:30.664
LEye coords (251.0, 239.0), REye coords (259.0, 243.0), timeStamp: 2017-03-05 12:17:30.709
LEye coords (251.0, 239.0), REye coords (259.0, 243.0), timeStamp: 2017-03-05 12:17:30.743
LEye coords (250.0, 238.0), REye coords (259.0, 244.0), timeStamp: 2017-03-05 12:17:30.777
LEye coords (250.0, 238.0), REye coords (259.0, 244.0), timeStamp: 2017-03-05 12:17:30.811
LEye coords (250.0, 238.0), REye coords (259.0, 244.0), timeStamp: 2017-03-05 12:17:30.856
LEye coords (249.0, 238.0), REye coords (259.0, 245.0), timeStamp: 2017-03-05 12:17:30.888
LEye coords (249.0, 238.0), REye coords (258.0, 245.0), timeStamp: 2017-03-05 12:17:30.932
