LEye coords (405.0, 88.0), REye coords (409.0, 92.0), timeStamp: 2017-03-05 12:17:39.290
LEye coords (405.0, 88.0), REye coords (409.0, 92.0), timeStamp: 2017-03-05 12:17:39.333
LEye coords (406.0, 89.0), REye coords (409.0, 92.0), timeStamp: 2017-03-05 12:17:39.367
LEye coords (406.0, 89.0), REye coords (410.0, 92.0), timeStamp: 2017-03-05 12:17:39.400
LEye coords (406.0, 90.0), REye coords (410.0, 92.0), timeStamp: 2017-03-05 12:17:39.434
LEye coords (406.0, 90.0), REye coords (411.0, 92.0), timeStamp: 2017-03-05 12:17:39.477
LEye coords (326.0, 123.0), REye coords (342.0, 111.0), timeStamp: 2017-03-05 12:17:39.511
LEye coords (279.0, 148.0), REye coords (288.0, 127.0), timeStamp: 2017-03-05 12:17:39.554
LEye coords (279.0, 148.0), REye coords (288.0, 126.0), timeStamp: 2017-03-05 12:17:39.588
LEye coords (280.0, 146.0), REye coords (289.0, 127.0), timeStamp: 2017-03-05 12:17:39.621
LEye coords (277.0, 125.0), REye coords (287.0, 111.0), timeStamp: 2017-03-05 12:17:39.666
LEye coords (275.0, 40.0), REye coords (277.0, 48.0), timeStamp: 2017-03-05 12:17:39.700
LEye coords (274.0, 39.0), REye coords (275.0, 49.0), timeStamp: 2017-03-05 12:17:39.733
LEye coords (274.0, 42.0), REye coords (278.0, 42.0), timeStamp: 2017-03-05 12:17:39.776
LEye coords (275.0, 40.0), REye coords (278.0, 40.0), timeStamp: 2017-03-05 12:17:39.810
LEye coords (275.0, 39.0), REye coords (278.0, 40.0), timeStamp: 2017-03-05 12:17:39.844
LEye coords (275.0, 38.0), REye coords (279.0, 38.0), timeStamp: 2017-03-05 12:17:39.888
LEye coords (275.0, 39.0), REye coords (278.0, 38.0), timeStamp: 2017-03-05 12:17:39.922
LEye coords (275.0, 39.0), REye coords (278.0, 37.0), timeStamp: 2017-03-05 12:17:39.955
LEye coords (275.0, 38.0), REye coords (277.0, 37.0), timeStamp: 2017-03-05 12:17:39.999
LEye coords (277.0, 38.0), REye coords (279.0, 37.0), timeStamp: 2017-03-05 12:17:40.033
LEye coords (278.0, 38.0), REye coords (281.0, 37.0), timeStamp: 2017-03-05 12:17:40.066
LEye coords (280.0, 38.0), REye coords (282.0, 37.0), timeStamp: 2017-03-05 12:17:40.110
LEye coords (281.0, 38.0), REye coords (283.0, 37.0), timeStamp: 2017-03-05 12:17:40.144
LEye coords (282.0, 38.0), REye coords (284.0, 38.0), timeStamp: 2017-03-05 12:17:40.177
