LEye coords (252.0, 32.0), REye coords (202.0, 26.0), timeStamp: 2017-03-05 12:18:39.883
LEye coords (252.0, 32.0), REye coords (202.0, 26.0), timeStamp: 2017-03-05 12:18:39.916
LEye coords (252.0, 32.0), REye coords (203.0, 26.0), timeStamp: 2017-03-05 12:18:39.950
LEye coords (252.0, 31.0), REye coords (203.0, 26.0), timeStamp: 2017-03-05 12:18:39.993
LEye coords (253.0, 31.0), REye coords (204.0, 26.0), timeStamp: 2017-03-05 12:18:40.027
LEye coords (253.0, 31.0), REye coords (204.0, 26.0), timeStamp: 2017-03-05 12:18:40.060
LEye coords (253.0, 31.0), REye coords (205.0, 26.0), timeStamp: 2017-03-05 12:18:40.104
LEye coords (253.0, 32.0), REye coords (205.0, 26.0), timeStamp: 2017-03-05 12:18:40.138
LEye coords (287.0, 181.0), REye coords (282.0, 176.0), timeStamp: 2017-03-05 12:18:40.171
LEye coords (277.0, 177.0), REye coords (278.0, 182.0), timeStamp: 2017-03-05 12:18:40.215
LEye coords (278.0, 179.0), REye coords (280.0, 181.0), timeStamp: 2017-03-05 12:18:40.250
LEye coords (279.0, 180.0), REye coords (280.0, 182.0), timeStamp: 2017-03-05 12:18:40.283
LEye coords (280.0, 183.0), REye coords (281.0, 181.0), timeStamp: 2017-03-05 12:18:40.316
LEye coords (283.0, 186.0), REye coords (282.0, 179.0), timeStamp: 2017-03-05 12:18:40.362
LEye coords (283.0, 181.0), REye coords (284.0, 182.0), timeStamp: 2017-03-05 12:18:40.396
LEye coords (287.0, 157.0), REye coords (282.0, 137.0), timeStamp: 2017-03-05 12:18:40.431
LEye coords (288.0, 145.0), REye coords (280.0, 129.0), timeStamp: 2017-03-05 12:18:40.465
LEye coords (289.0, 140.0), REye coords (280.0, 124.0), timeStamp: 2017-03-05 12:18:40.509
LEye coords (291.0, 129.0), REye coords (276.0, 107.0), timeStamp: 2017-03-05 12:18:40.543
LEye coords (294.0, 124.0), REye coords (278.0, 104.0), timeStamp: 2017-03-05 12:18:40.577
LEye coords (295.0, 124.0), REye coords (279.0, 102.0), timeStamp: 2017-03-05 12:18:40.620
LEye coords (295.0, 124.0), REye coords (280.0, 101.0), timeStamp: 2017-03-05 12:18:40.654
LEye coords (294.0, 123.0), REye coords (280.0, 102.0), timeStamp: 2017-03-05 12:18:40.688
LEye coords (294.0, 123.0), REye coords (280.0, 101.0), timeStamp: 2017-03-05 12:18:40.733
LEye coords (294.0, 122.0), REye coords (280.0, 101.0), timeStamp: 2017-03-05 12:18:40.767
LEye coords (295.0, 117.0), REye coords (277.0, 97.0), timeStamp: 2017-03-05 12:18:40.800
LEye coords (295.0, 114.0), REye coords (275.0, 95.0), timeStamp: 2017-03-05 12:18:40.846
LEye coords (295.0, 111.0), REye coords (274.0, 94.0), timeStamp: 2017-03-05 12:18:40.880
LEye coords (295.0, 109.0), REye coords (273.0, 91.0), timeStamp: 2017-03-05 12:18:40.913
LEye coords (295.0, 107.0), REye coords (272.0, 90.0), timeStamp: 2017-03-05 12:18:40.947
LEye coords (295.0, 106.0), REye coords (271.0, 89.0), timeStamp: 2017-03-05 12:18:40.990
LEye coords (295.0, 104.0), REye coords (271.0, 90.0), timeStamp: 2017-03-05 12:18:41.023
LEye coords (296.0, 104.0), REye coords (270.0, 90.0), timeStamp: 2017-03-05 12:18:41.056
LEye coords (296.0, 103.0), REye coords (269.0, 88.0), timeStamp: 2017-03-05 12:18:41.101
LEye coords (296.0, 102.0), REye coords (269.0, 89.0), timeStamp: 2017-03-05 12:18:41.134
LEye coords (296.0, 101.0), REye coords (268.0, 89.0), timeStamp: 2017-03-05 12:18:41.168
LEye coords (296.0, 101.0), REye coords (268.0, 88.0), timeStamp: 2017-03-05 12:18:41.213
LEye coords (296.0, 100.0), REye coords (267.0, 88.0), timeStamp: 2017-03-05 12:18:41.246
LEye coords (296.0, 99.0), REye coords (267.0, 88.0), timeStamp: 2017-03-05 12:18:41.280
