LEye coords (317.0, 319.0), REye coords (325.0, 322.0), timeStamp: 2017-03-05 12:18:47.837
LEye coords (318.0, 319.0), REye coords (325.0, 322.0), timeStamp: 2017-03-05 12:18:47.870
LEye coords (318.0, 320.0), REye coords (325.0, 323.0), timeStamp: 2017-03-05 12:18:47.904
LEye coords (318.0, 320.0), REye coords (325.0, 323.0), timeStamp: 2017-03-05 12:18:47.948
LEye coords (318.0, 321.0), REye coords (326.0, 323.0), timeStamp: 2017-03-05 12:18:47.981
LEye coords (318.0, 321.0), REye coords (326.0, 323.0), timeStamp: 2017-03-05 12:18:48.015
LEye coords (318.0, 322.0), REye coords (326.0, 323.0), timeStamp: 2017-03-05 12:18:48.060
LEye coords (286.0, 309.0), REye coords (325.0, 322.0), timeStamp: 2017-03-05 12:18:48.094
LEye coords (228.0, 280.0), REye coords (237.0, 270.0), timeStamp: 2017-03-05 12:18:48.128
LEye coords (227.0, 283.0), REye coords (233.0, 273.0), timeStamp: 2017-03-05 12:18:48.171
LEye coords (227.0, 283.0), REye coords (234.0, 275.0), timeStamp: 2017-03-05 12:18:48.205
LEye coords (228.0, 283.0), REye coords (234.0, 275.0), timeStamp: 2017-03-05 12:18:48.239
LEye coords (274.0, 284.0), REye coords (247.0, 275.0), timeStamp: 2017-03-05 12:18:48.284
LEye coords (276.0, 276.0), REye coords (297.0, 257.0), timeStamp: 2017-03-05 12:18:48.317
LEye coords (278.0, 276.0), REye coords (297.0, 253.0), timeStamp: 2017-03-05 12:18:48.352
LEye coords (278.0, 275.0), REye coords (297.0, 251.0), timeStamp: 2017-03-05 12:18:48.384
LEye coords (277.0, 274.0), REye coords (296.0, 252.0), timeStamp: 2017-03-05 12:18:48.428
LEye coords (275.0, 272.0), REye coords (296.0, 252.0), timeStamp: 2017-03-05 12:18:48.462
LEye coords (297.0, 274.0), REye coords (300.0, 254.0), timeStamp: 2017-03-05 12:18:48.496
LEye coords (297.0, 273.0), REye coords (303.0, 256.0), timeStamp: 2017-03-05 12:18:48.539
LEye coords (297.0, 272.0), REye coords (304.0, 256.0), timeStamp: 2017-03-05 12:18:48.573
LEye coords (298.0, 273.0), REye coords (306.0, 256.0), timeStamp: 2017-03-05 12:18:48.607
LEye coords (298.0, 273.0), REye coords (307.0, 256.0), timeStamp: 2017-03-05 12:18:48.652
LEye coords (298.0, 273.0), REye coords (308.0, 256.0), timeStamp: 2017-03-05 12:18:48.685
LEye coords (298.0, 273.0), REye coords (309.0, 257.0), timeStamp: 2017-03-05 12:18:48.719
LEye coords (300.0, 274.0), REye coords (310.0, 258.0), timeStamp: 2017-03-05 12:18:48.763
LEye coords (301.0, 275.0), REye coords (311.0, 259.0), timeStamp: 2017-03-05 12:18:48.796
LEye coords (302.0, 276.0), REye coords (312.0, 259.0), timeStamp: 2017-03-05 12:18:48.830
