LEye coords (289.0, 173.0), REye coords (318.0, 155.0), timeStamp: 2017-03-05 12:19:38.060
LEye coords (289.0, 174.0), REye coords (318.0, 154.0), timeStamp: 2017-03-05 12:19:38.093
LEye coords (289.0, 174.0), REye coords (318.0, 154.0), timeStamp: 2017-03-05 12:19:38.138
LEye coords (289.0, 174.0), REye coords (319.0, 154.0), timeStamp: 2017-03-05 12:19:38.173
LEye coords (290.0, 175.0), REye coords (319.0, 153.0), timeStamp: 2017-03-05 12:19:38.207
LEye coords (290.0, 175.0), REye coords (320.0, 152.0), timeStamp: 2017-03-05 12:19:38.241
LEye coords (290.0, 176.0), REye coords (320.0, 151.0), timeStamp: 2017-03-05 12:19:38.275
LEye coords (290.0, 177.0), REye coords (320.0, 151.0), timeStamp: 2017-03-05 12:19:38.319
LEye coords (290.0, 177.0), REye coords (321.0, 151.0), timeStamp: 2017-03-05 12:19:38.352
LEye coords (291.0, 178.0), REye coords (321.0, 151.0), timeStamp: 2017-03-05 12:19:38.387
LEye coords (354.0, 151.0), REye coords (374.0, 134.0), timeStamp: 2017-03-05 12:19:38.431
LEye coords (351.0, 153.0), REye coords (373.0, 136.0), timeStamp: 2017-03-05 12:19:38.465
LEye coords (353.0, 155.0), REye coords (373.0, 136.0), timeStamp: 2017-03-05 12:19:38.499
LEye coords (353.0, 156.0), REye coords (372.0, 137.0), timeStamp: 2017-03-05 12:19:38.543
LEye coords (354.0, 157.0), REye coords (373.0, 136.0), timeStamp: 2017-03-05 12:19:38.577
LEye coords (353.0, 154.0), REye coords (374.0, 137.0), timeStamp: 2017-03-05 12:19:38.611
LEye coords (353.0, 159.0), REye coords (371.0, 137.0), timeStamp: 2017-03-05 12:19:38.655
LEye coords (353.0, 158.0), REye coords (371.0, 136.0), timeStamp: 2017-03-05 12:19:38.689
LEye coords (352.0, 156.0), REye coords (373.0, 135.0), timeStamp: 2017-03-05 12:19:38.722
LEye coords (352.0, 157.0), REye coords (373.0, 136.0), timeStamp: 2017-03-05 12:19:38.766
LEye coords (353.0, 157.0), REye coords (373.0, 138.0), timeStamp: 2017-03-05 12:19:38.799
LEye coords (353.0, 157.0), REye coords (373.0, 138.0), timeStamp: 2017-03-05 12:19:38.833
LEye coords (354.0, 157.0), REye coords (373.0, 138.0), timeStamp: 2017-03-05 12:19:38.877
LEye coords (354.0, 157.0), REye coords (374.0, 137.0), timeStamp: 2017-03-05 12:19:38.912
LEye coords (355.0, 159.0), REye coords (375.0, 137.0), timeStamp: 2017-03-05 12:19:38.946
LEye coords (355.0, 159.0), REye coords (375.0, 138.0), timeStamp: 2017-03-05 12:19:38.979
LEye coords (356.0, 159.0), REye coords (377.0, 138.0), timeStamp: 2017-03-05 12:19:39.023
LEye coords (356.0, 159.0), REye coords (378.0, 138.0), timeStamp: 2017-03-05 12:19:39.058
LEye coords (357.0, 159.0), REye coords (379.0, 138.0), timeStamp: 2017-03-05 12:19:39.091
LEye coords (357.0, 160.0), REye coords (380.0, 138.0), timeStamp: 2017-03-05 12:19:39.135
LEye coords (357.0, 160.0), REye coords (381.0, 138.0), timeStamp: 2017-03-05 12:19:39.170
LEye coords (357.0, 161.0), REye coords (382.0, 138.0), timeStamp: 2017-03-05 12:19:39.204
LEye coords (358.0, 161.0), REye coords (383.0, 139.0), timeStamp: 2017-03-05 12:19:39.248
LEye coords (358.0, 161.0), REye coords (383.0, 140.0), timeStamp: 2017-03-05 12:19:39.282
LEye coords (358.0, 162.0), REye coords (384.0, 139.0), timeStamp: 2017-03-05 12:19:39.315
LEye coords (358.0, 162.0), REye coords (384.0, 140.0), timeStamp: 2017-03-05 12:19:39.349
LEye coords (358.0, 162.0), REye coords (385.0, 140.0), timeStamp: 2017-03-05 12:19:39.392
LEye coords (358.0, 163.0), REye coords (385.0, 141.0), timeStamp: 2017-03-05 12:19:39.426
