LEye coords (27.0, 173.0), REye coords (28.0, 157.0), timeStamp: 2017-03-05 12:19:44.464
LEye coords (28.0, 173.0), REye coords (28.0, 157.0), timeStamp: 2017-03-05 12:19:44.499
LEye coords (28.0, 174.0), REye coords (27.0, 158.0), timeStamp: 2017-03-05 12:19:44.533
LEye coords (28.0, 174.0), REye coords (27.0, 158.0), timeStamp: 2017-03-05 12:19:44.567
LEye coords (28.0, 174.0), REye coords (27.0, 158.0), timeStamp: 2017-03-05 12:19:44.612
LEye coords (29.0, 174.0), REye coords (27.0, 159.0), timeStamp: 2017-03-05 12:19:44.645
LEye coords (31.0, 174.0), REye coords (29.0, 158.0), timeStamp: 2017-03-05 12:19:44.680
LEye coords (200.0, 181.0), REye coords (216.0, 176.0), timeStamp: 2017-03-05 12:19:44.723
LEye coords (206.0, 186.0), REye coords (218.0, 170.0), timeStamp: 2017-03-05 12:19:44.757
LEye coords (207.0, 185.0), REye coords (217.0, 167.0), timeStamp: 2017-03-05 12:19:44.790
LEye coords (206.0, 185.0), REye coords (210.0, 171.0), timeStamp: 2017-03-05 12:19:44.835
LEye coords (197.0, 186.0), REye coords (202.0, 172.0), timeStamp: 2017-03-05 12:19:44.868
LEye coords (156.0, 188.0), REye coords (167.0, 144.0), timeStamp: 2017-03-05 12:19:44.903
LEye coords (153.0, 180.0), REye coords (169.0, 148.0), timeStamp: 2017-03-05 12:19:44.947
LEye coords (152.0, 181.0), REye coords (168.0, 147.0), timeStamp: 2017-03-05 12:19:44.981
LEye coords (208.0, 155.0), REye coords (224.0, 137.0), timeStamp: 2017-03-05 12:19:45.014
LEye coords (241.0, 142.0), REye coords (257.0, 130.0), timeStamp: 2017-03-05 12:19:45.058
LEye coords (334.0, 94.0), REye coords (351.0, 118.0), timeStamp: 2017-03-05 12:19:45.092
LEye coords (333.0, 97.0), REye coords (357.0, 116.0), timeStamp: 2017-03-05 12:19:45.126
LEye coords (332.0, 95.0), REye coords (352.0, 118.0), timeStamp: 2017-03-05 12:19:45.159
LEye coords (335.0, 94.0), REye coords (352.0, 118.0), timeStamp: 2017-03-05 12:19:45.203
LEye coords (336.0, 94.0), REye coords (353.0, 115.0), timeStamp: 2017-03-05 12:19:45.237
LEye coords (338.0, 93.0), REye coords (353.0, 114.0), timeStamp: 2017-03-05 12:19:45.271
LEye coords (339.0, 94.0), REye coords (353.0, 113.0), timeStamp: 2017-03-05 12:19:45.316
LEye coords (341.0, 94.0), REye coords (354.0, 113.0), timeStamp: 2017-03-05 12:19:45.349
LEye coords (347.0, 93.0), REye coords (359.0, 112.0), timeStamp: 2017-03-05 12:19:45.382
LEye coords (351.0, 94.0), REye coords (363.0, 113.0), timeStamp: 2017-03-05 12:19:45.426
LEye coords (355.0, 94.0), REye coords (366.0, 112.0), timeStamp: 2017-03-05 12:19:45.461
LEye coords (358.0, 95.0), REye coords (369.0, 111.0), timeStamp: 2017-03-05 12:19:45.494
LEye coords (361.0, 95.0), REye coords (372.0, 110.0), timeStamp: 2017-03-05 12:19:45.537
LEye coords (364.0, 95.0), REye coords (374.0, 109.0), timeStamp: 2017-03-05 12:19:45.571
LEye coords (403.0, 99.0), REye coords (377.0, 109.0), timeStamp: 2017-03-05 12:19:45.605
LEye coords (399.0, 117.0), REye coords (379.0, 110.0), timeStamp: 2017-03-05 12:19:45.649
LEye coords (399.0, 111.0), REye coords (382.0, 110.0), timeStamp: 2017-03-05 12:19:45.683
LEye coords (402.0, 108.0), REye coords (384.0, 109.0), timeStamp: 2017-03-05 12:19:45.717
LEye coords (403.0, 107.0), REye coords (385.0, 109.0), timeStamp: 2017-03-05 12:19:45.762
