LEye coords (403.0, 105.0), REye coords (389.0, 110.0), timeStamp: 2017-03-05 12:19:45.872
LEye coords (404.0, 106.0), REye coords (390.0, 111.0), timeStamp: 2017-03-05 12:19:45.905
LEye coords (404.0, 108.0), REye coords (392.0, 111.0), timeStamp: 2017-03-05 12:19:45.939
LEye coords (404.0, 110.0), REye coords (394.0, 112.0), timeStamp: 2017-03-05 12:19:45.983
LEye coords (404.0, 112.0), REye coords (396.0, 113.0), timeStamp: 2017-03-05 12:19:46.018
LEye coords (404.0, 113.0), REye coords (397.0, 113.0), timeStamp: 2017-03-05 12:19:46.051
LEye coords (404.0, 115.0), REye coords (402.0, 117.0), timeStamp: 2017-03-05 12:19:46.085
LEye coords (258.0, 150.0), REye coords (286.0, 110.0), timeStamp: 2017-03-05 12:19:46.129
LEye coords (241.0, 163.0), REye coords (272.0, 115.0), timeStamp: 2017-03-05 12:19:46.162
LEye coords (239.0, 160.0), REye coords (267.0, 115.0), timeStamp: 2017-03-05 12:19:46.197
LEye coords (239.0, 160.0), REye coords (265.0, 116.0), timeStamp: 2017-03-05 12:19:46.242
LEye coords (239.0, 160.0), REye coords (262.0, 116.0), timeStamp: 2017-03-05 12:19:46.275
LEye coords (240.0, 162.0), REye coords (260.0, 124.0), timeStamp: 2017-03-05 12:19:46.310
LEye coords (239.0, 167.0), REye coords (259.0, 125.0), timeStamp: 2017-03-05 12:19:46.344
LEye coords (239.0, 165.0), REye coords (260.0, 124.0), timeStamp: 2017-03-05 12:19:46.388
LEye coords (239.0, 164.0), REye coords (259.0, 129.0), timeStamp: 2017-03-05 12:19:46.422
LEye coords (239.0, 163.0), REye coords (258.0, 131.0), timeStamp: 2017-03-05 12:19:46.455
LEye coords (242.0, 160.0), REye coords (258.0, 131.0), timeStamp: 2017-03-05 12:19:46.500
LEye coords (242.0, 157.0), REye coords (259.0, 126.0), timeStamp: 2017-03-05 12:19:46.532
LEye coords (243.0, 155.0), REye coords (260.0, 124.0), timeStamp: 2017-03-05 12:19:46.576
LEye coords (242.0, 153.0), REye coords (260.0, 122.0), timeStamp: 2017-03-05 12:19:46.611
LEye coords (242.0, 150.0), REye coords (260.0, 122.0), timeStamp: 2017-03-05 12:19:46.644
LEye coords (242.0, 149.0), REye coords (260.0, 120.0), timeStamp: 2017-03-05 12:19:46.677
LEye coords (242.0, 148.0), REye coords (260.0, 118.0), timeStamp: 2017-03-05 12:19:46.722
LEye coords (242.0, 147.0), REye coords (260.0, 117.0), timeStamp: 2017-03-05 12:19:46.756
LEye coords (242.0, 146.0), REye coords (261.0, 115.0), timeStamp: 2017-03-05 12:19:46.789
LEye coords (242.0, 145.0), REye coords (261.0, 114.0), timeStamp: 2017-03-05 12:19:46.834
LEye coords (242.0, 145.0), REye coords (261.0, 114.0), timeStamp: 2017-03-05 12:19:46.868
LEye coords (242.0, 144.0), REye coords (262.0, 113.0), timeStamp: 2017-03-05 12:19:46.902
