LEye coords (32.0, 151.0), REye coords (19.0, 132.0), timeStamp: 2017-03-05 12:20:29.323
LEye coords (32.0, 151.0), REye coords (19.0, 132.0), timeStamp: 2017-03-05 12:20:29.357
LEye coords (32.0, 151.0), REye coords (18.0, 132.0), timeStamp: 2017-03-05 12:20:29.390
LEye coords (32.0, 151.0), REye coords (18.0, 133.0), timeStamp: 2017-03-05 12:20:29.434
LEye coords (33.0, 151.0), REye coords (17.0, 133.0), timeStamp: 2017-03-05 12:20:29.467
LEye coords (33.0, 151.0), REye coords (17.0, 133.0), timeStamp: 2017-03-05 12:20:29.501
LEye coords (142.0, 148.0), REye coords (125.0, 108.0), timeStamp: 2017-03-05 12:20:29.535
LEye coords (239.0, 149.0), REye coords (231.0, 140.0), timeStamp: 2017-03-05 12:20:29.578
LEye coords (239.0, 151.0), REye coords (230.0, 139.0), timeStamp: 2017-03-05 12:20:29.612
LEye coords (238.0, 152.0), REye coords (232.0, 139.0), timeStamp: 2017-03-05 12:20:29.646
LEye coords (237.0, 152.0), REye coords (233.0, 139.0), timeStamp: 2017-03-05 12:20:29.690
LEye coords (239.0, 151.0), REye coords (229.0, 141.0), timeStamp: 2017-03-05 12:20:29.724
LEye coords (350.0, 84.0), REye coords (344.0, 103.0), timeStamp: 2017-03-05 12:20:29.767
LEye coords (0.0, 0.0), REye coords (0.0, 0.0), timeStamp: 2017-03-05 12:20:29.800
LEye coords (349.0, 86.0), REye coords (344.0, 98.0), timeStamp: 2017-03-05 12:20:29.834
LEye coords (348.0, 84.0), REye coords (343.0, 96.0), timeStamp: 2017-03-05 12:20:29.877
LEye coords (349.0, 82.0), REye coords (343.0, 94.0), timeStamp: 2017-03-05 12:20:29.913
LEye coords (350.0, 80.0), REye coords (345.0, 91.0), timeStamp: 2017-03-05 12:20:29.946
LEye coords (352.0, 84.0), REye coords (345.0, 89.0), timeStamp: 2017-03-05 12:20:29.989
LEye coords (352.0, 84.0), REye coords (344.0, 90.0), timeStamp: 2017-03-05 12:20:30.022
LEye coords (353.0, 85.0), REye coords (343.0, 91.0), timeStamp: 2017-03-05 12:20:30.055
LEye coords (353.0, 86.0), REye coords (343.0, 91.0), timeStamp: 2017-03-05 12:20:30.099
LEye coords (355.0, 85.0), REye coords (343.0, 91.0), timeStamp: 2017-03-05 12:20:30.132
LEye coords (354.0, 86.0), REye coords (342.0, 92.0), timeStamp: 2017-03-05 12:20:30.165
LEye coords (353.0, 86.0), REye coords (342.0, 91.0), timeStamp: 2017-03-05 12:20:30.211
LEye coords (353.0, 86.0), REye coords (342.0, 91.0), timeStamp: 2017-03-05 12:20:30.244
LEye coords (353.0, 85.0), REye coords (342.0, 92.0), timeStamp: 2017-03-05 12:20:30.277
LEye coords (353.0, 86.0), REye coords (342.0, 91.0), timeStamp: 2017-03-05 12:20:30.322
LEye coords (353.0, 87.0), REye coords (342.0, 91.0), timeStamp: 2017-03-05 12:20:30.356
LEye coords (352.0, 87.0), REye coords (342.0, 91.0), timeStamp: 2017-03-05 12:20:30.389
LEye coords (352.0, 88.0), REye coords (342.0, 90.0), timeStamp: 2017-03-05 12:20:30.433
LEye coords (352.0, 88.0), REye coords (342.0, 90.0), timeStamp: 2017-03-05 12:20:30.467
LEye coords (352.0, 89.0), REye coords (342.0, 90.0), timeStamp: 2017-03-05 12:20:30.503
LEye coords (351.0, 89.0), REye coords (343.0, 90.0), timeStamp: 2017-03-05 12:20:30.537
