LEye coords (135.0, 451.0), REye coords (134.0, 452.0), timeStamp: 2017-03-05 12:20:33.724
LEye coords (135.0, 451.0), REye coords (134.0, 452.0), timeStamp: 2017-03-05 12:20:33.758
LEye coords (135.0, 450.0), REye coords (134.0, 452.0), timeStamp: 2017-03-05 12:20:33.791
LEye coords (135.0, 449.0), REye coords (134.0, 453.0), timeStamp: 2017-03-05 12:20:33.834
LEye coords (135.0, 449.0), REye coords (133.0, 453.0), timeStamp: 2017-03-05 12:20:33.867
LEye coords (135.0, 447.0), REye coords (134.0, 453.0), timeStamp: 2017-03-05 12:20:33.912
LEye coords (145.0, 239.0), REye coords (146.0, 224.0), timeStamp: 2017-03-05 12:20:33.946
LEye coords (144.0, 241.0), REye coords (149.0, 235.0), timeStamp: 2017-03-05 12:20:33.980
LEye coords (144.0, 246.0), REye coords (146.0, 242.0), timeStamp: 2017-03-05 12:20:34.014
LEye coords (145.0, 247.0), REye coords (146.0, 243.0), timeStamp: 2017-03-05 12:20:34.059
LEye coords (146.0, 249.0), REye coords (145.0, 244.0), timeStamp: 2017-03-05 12:20:34.092
LEye coords (147.0, 256.0), REye coords (147.0, 240.0), timeStamp: 2017-03-05 12:20:34.126
LEye coords (147.0, 257.0), REye coords (146.0, 229.0), timeStamp: 2017-03-05 12:20:34.170
LEye coords (147.0, 257.0), REye coords (146.0, 217.0), timeStamp: 2017-03-05 12:20:34.204
LEye coords (142.0, 250.0), REye coords (142.0, 209.0), timeStamp: 2017-03-05 12:20:34.238
LEye coords (140.0, 249.0), REye coords (140.0, 203.0), timeStamp: 2017-03-05 12:20:34.283
LEye coords (138.0, 248.0), REye coords (138.0, 202.0), timeStamp: 2017-03-05 12:20:34.316
LEye coords (138.0, 246.0), REye coords (137.0, 204.0), timeStamp: 2017-03-05 12:20:34.350
LEye coords (137.0, 246.0), REye coords (135.0, 202.0), timeStamp: 2017-03-05 12:20:34.383
LEye coords (137.0, 246.0), REye coords (134.0, 204.0), timeStamp: 2017-03-05 12:20:34.428
LEye coords (136.0, 246.0), REye coords (134.0, 205.0), timeStamp: 2017-03-05 12:20:34.461
LEye coords (136.0, 246.0), REye coords (133.0, 206.0), timeStamp: 2017-03-05 12:20:34.496
LEye coords (135.0, 247.0), REye coords (133.0, 207.0), timeStamp: 2017-03-05 12:20:34.539
LEye coords (135.0, 247.0), REye coords (132.0, 206.0), timeStamp: 2017-03-05 12:20:34.573
LEye coords (135.0, 246.0), REye coords (132.0, 205.0), timeStamp: 2017-03-05 12:20:34.607
LEye coords (135.0, 246.0), REye coords (132.0, 207.0), timeStamp: 2017-03-05 12:20:34.651
LEye coords (135.0, 246.0), REye coords (131.0, 207.0), timeStamp: 2017-03-05 12:20:34.684
LEye coords (134.0, 246.0), REye coords (131.0, 208.0), timeStamp: 2017-03-05 12:20:34.718
LEye coords (134.0, 245.0), REye coords (131.0, 209.0), timeStamp: 2017-03-05 12:20:34.763
LEye coords (134.0, 245.0), REye coords (131.0, 210.0), timeStamp: 2017-03-05 12:20:34.796
LEye coords (134.0, 246.0), REye coords (131.0, 211.0), timeStamp: 2017-03-05 12:20:34.830
LEye coords (134.0, 246.0), REye coords (131.0, 211.0), timeStamp: 2017-03-05 12:20:34.874
LEye coords (134.0, 246.0), REye coords (131.0, 212.0), timeStamp: 2017-03-05 12:20:34.907
LEye coords (134.0, 246.0), REye coords (131.0, 212.0), timeStamp: 2017-03-05 12:20:34.941
