LEye coords (202.0, 185.0), REye coords (196.0, 160.0), timeStamp: 2017-03-05 12:20:35.052
LEye coords (203.0, 185.0), REye coords (197.0, 161.0), timeStamp: 2017-03-05 12:20:35.096
LEye coords (203.0, 185.0), REye coords (197.0, 162.0), timeStamp: 2017-03-05 12:20:35.128
LEye coords (204.0, 186.0), REye coords (197.0, 163.0), timeStamp: 2017-03-05 12:20:35.162
LEye coords (204.0, 186.0), REye coords (198.0, 163.0), timeStamp: 2017-03-05 12:20:35.206
LEye coords (204.0, 187.0), REye coords (198.0, 163.0), timeStamp: 2017-03-05 12:20:35.240
LEye coords (205.0, 187.0), REye coords (198.0, 163.0), timeStamp: 2017-03-05 12:20:35.275
LEye coords (205.0, 187.0), REye coords (198.0, 164.0), timeStamp: 2017-03-05 12:20:35.318
LEye coords (205.0, 187.0), REye coords (198.0, 164.0), timeStamp: 2017-03-05 12:20:35.351
LEye coords (205.0, 188.0), REye coords (199.0, 164.0), timeStamp: 2017-03-05 12:20:35.384
LEye coords (205.0, 188.0), REye coords (198.0, 165.0), timeStamp: 2017-03-05 12:20:35.429
LEye coords (205.0, 189.0), REye coords (199.0, 165.0), timeStamp: 2017-03-05 12:20:35.462
LEye coords (206.0, 189.0), REye coords (199.0, 166.0), timeStamp: 2017-03-05 12:20:35.496
LEye coords (208.0, 188.0), REye coords (226.0, 119.0), timeStamp: 2017-03-05 12:20:35.540
LEye coords (210.0, 186.0), REye coords (226.0, 132.0), timeStamp: 2017-03-05 12:20:35.574
LEye coords (212.0, 185.0), REye coords (230.0, 123.0), timeStamp: 2017-03-05 12:20:35.608
LEye coords (214.0, 183.0), REye coords (229.0, 121.0), timeStamp: 2017-03-05 12:20:35.642
LEye coords (215.0, 180.0), REye coords (229.0, 120.0), timeStamp: 2017-03-05 12:20:35.686
LEye coords (216.0, 177.0), REye coords (230.0, 103.0), timeStamp: 2017-03-05 12:20:35.719
LEye coords (238.0, 111.0), REye coords (246.0, 101.0), timeStamp: 2017-03-05 12:20:35.753
LEye coords (243.0, 105.0), REye coords (247.0, 97.0), timeStamp: 2017-03-05 12:20:35.797
LEye coords (244.0, 107.0), REye coords (246.0, 93.0), timeStamp: 2017-03-05 12:20:35.832
LEye coords (245.0, 105.0), REye coords (249.0, 95.0), timeStamp: 2017-03-05 12:20:35.865
LEye coords (246.0, 104.0), REye coords (251.0, 93.0), timeStamp: 2017-03-05 12:20:35.910
