LEye coords (251.0, 120.0), REye coords (252.0, 95.0), timeStamp: 2017-03-05 12:20:40.129
LEye coords (252.0, 121.0), REye coords (252.0, 95.0), timeStamp: 2017-03-05 12:20:40.163
LEye coords (251.0, 120.0), REye coords (252.0, 95.0), timeStamp: 2017-03-05 12:20:40.196
LEye coords (252.0, 122.0), REye coords (253.0, 95.0), timeStamp: 2017-03-05 12:20:40.240
LEye coords (253.0, 123.0), REye coords (253.0, 95.0), timeStamp: 2017-03-05 12:20:40.273
LEye coords (254.0, 124.0), REye coords (254.0, 95.0), timeStamp: 2017-03-05 12:20:40.307
LEye coords (254.0, 125.0), REye coords (255.0, 95.0), timeStamp: 2017-03-05 12:20:40.350
LEye coords (255.0, 126.0), REye coords (256.0, 94.0), timeStamp: 2017-03-05 12:20:40.383
LEye coords (255.0, 126.0), REye coords (257.0, 94.0), timeStamp: 2017-03-05 12:20:40.416
LEye coords (255.0, 128.0), REye coords (257.0, 94.0), timeStamp: 2017-03-05 12:20:40.460
LEye coords (58.0, 137.0), REye coords (64.0, 94.0), timeStamp: 2017-03-05 12:20:40.493
LEye coords (58.0, 140.0), REye coords (57.0, 89.0), timeStamp: 2017-03-05 12:20:40.537
LEye coords (58.0, 138.0), REye coords (57.0, 96.0), timeStamp: 2017-03-05 12:20:40.571
LEye coords (56.0, 136.0), REye coords (56.0, 97.0), timeStamp: 2017-03-05 12:20:40.605
LEye coords (55.0, 134.0), REye coords (54.0, 98.0), timeStamp: 2017-03-05 12:20:40.639
LEye coords (51.0, 132.0), REye coords (56.0, 99.0), timeStamp: 2017-03-05 12:20:40.683
LEye coords (50.0, 131.0), REye coords (50.0, 105.0), timeStamp: 2017-03-05 12:20:40.717
LEye coords (50.0, 132.0), REye coords (51.0, 103.0), timeStamp: 2017-03-05 12:20:40.751
LEye coords (42.0, 127.0), REye coords (44.0, 97.0), timeStamp: 2017-03-05 12:20:40.794
LEye coords (38.0, 121.0), REye coords (37.0, 95.0), timeStamp: 2017-03-05 12:20:40.828
LEye coords (34.0, 117.0), REye coords (34.0, 93.0), timeStamp: 2017-03-05 12:20:40.862
LEye coords (31.0, 116.0), REye coords (32.0, 91.0), timeStamp: 2017-03-05 12:20:40.906
LEye coords (27.0, 112.0), REye coords (31.0, 86.0), timeStamp: 2017-03-05 12:20:40.940
LEye coords (26.0, 110.0), REye coords (30.0, 83.0), timeStamp: 2017-03-05 12:20:40.974
LEye coords (24.0, 108.0), REye coords (29.0, 80.0), timeStamp: 2017-03-05 12:20:41.018
LEye coords (22.0, 106.0), REye coords (28.0, 79.0), timeStamp: 2017-03-05 12:20:41.052
LEye coords (21.0, 105.0), REye coords (28.0, 77.0), timeStamp: 2017-03-05 12:20:41.087
LEye coords (21.0, 105.0), REye coords (27.0, 76.0), timeStamp: 2017-03-05 12:20:41.120
LEye coords (20.0, 104.0), REye coords (27.0, 76.0), timeStamp: 2017-03-05 12:20:41.164
LEye coords (20.0, 104.0), REye coords (26.0, 76.0), timeStamp: 2017-03-05 12:20:41.199
LEye coords (19.0, 104.0), REye coords (25.0, 77.0), timeStamp: 2017-03-05 12:20:41.231
LEye coords (19.0, 104.0), REye coords (24.0, 78.0), timeStamp: 2017-03-05 12:20:41.276
