LEye coords (204.0, 123.0), REye coords (234.0, 112.0), timeStamp: 2017-03-05 12:21:19.065
LEye coords (205.0, 124.0), REye coords (226.0, 111.0), timeStamp: 2017-03-05 12:21:19.099
LEye coords (206.0, 123.0), REye coords (229.0, 116.0), timeStamp: 2017-03-05 12:21:19.131
LEye coords (207.0, 122.0), REye coords (231.0, 115.0), timeStamp: 2017-03-05 12:21:19.175
LEye coords (206.0, 122.0), REye coords (232.0, 114.0), timeStamp: 2017-03-05 12:21:19.208
LEye coords (207.0, 123.0), REye coords (231.0, 112.0), timeStamp: 2017-03-05 12:21:19.243
LEye coords (206.0, 122.0), REye coords (232.0, 112.0), timeStamp: 2017-03-05 12:21:19.287
LEye coords (206.0, 123.0), REye coords (233.0, 112.0), timeStamp: 2017-03-05 12:21:19.321
LEye coords (206.0, 123.0), REye coords (233.0, 112.0), timeStamp: 2017-03-05 12:21:19.355
LEye coords (206.0, 122.0), REye coords (234.0, 113.0), timeStamp: 2017-03-05 12:21:19.388
LEye coords (313.0, 105.0), REye coords (331.0, 117.0), timeStamp: 2017-03-05 12:21:19.433
LEye coords (320.0, 109.0), REye coords (338.0, 122.0), timeStamp: 2017-03-05 12:21:19.466
LEye coords (322.0, 118.0), REye coords (337.0, 123.0), timeStamp: 2017-03-05 12:21:19.500
LEye coords (322.0, 113.0), REye coords (338.0, 122.0), timeStamp: 2017-03-05 12:21:19.544
LEye coords (322.0, 115.0), REye coords (338.0, 122.0), timeStamp: 2017-03-05 12:21:19.578
LEye coords (319.0, 104.0), REye coords (337.0, 126.0), timeStamp: 2017-03-05 12:21:19.612
LEye coords (319.0, 130.0), REye coords (340.0, 118.0), timeStamp: 2017-03-05 12:21:19.656
LEye coords (242.0, 131.0), REye coords (258.0, 114.0), timeStamp: 2017-03-05 12:21:19.690
LEye coords (212.0, 136.0), REye coords (224.0, 111.0), timeStamp: 2017-03-05 12:21:19.724
LEye coords (197.0, 137.0), REye coords (208.0, 111.0), timeStamp: 2017-03-05 12:21:19.768
LEye coords (155.0, 139.0), REye coords (161.0, 109.0), timeStamp: 2017-03-05 12:21:19.802
LEye coords (155.0, 139.0), REye coords (162.0, 100.0), timeStamp: 2017-03-05 12:21:19.836
LEye coords (153.0, 140.0), REye coords (161.0, 105.0), timeStamp: 2017-03-05 12:21:19.880
LEye coords (152.0, 142.0), REye coords (161.0, 106.0), timeStamp: 2017-03-05 12:21:19.914
LEye coords (153.0, 142.0), REye coords (160.0, 107.0), timeStamp: 2017-03-05 12:21:19.948
LEye coords (152.0, 143.0), REye coords (159.0, 108.0), timeStamp: 2017-03-05 12:21:19.980
LEye coords (152.0, 143.0), REye coords (158.0, 110.0), timeStamp: 2017-03-05 12:21:20.025
LEye coords (152.0, 144.0), REye coords (158.0, 111.0), timeStamp: 2017-03-05 12:21:20.059
LEye coords (152.0, 144.0), REye coords (157.0, 112.0), timeStamp: 2017-03-05 12:21:20.092
LEye coords (151.0, 145.0), REye coords (157.0, 113.0), timeStamp: 2017-03-05 12:21:20.137
LEye coords (151.0, 145.0), REye coords (157.0, 116.0), timeStamp: 2017-03-05 12:21:20.170
LEye coords (151.0, 145.0), REye coords (157.0, 118.0), timeStamp: 2017-03-05 12:21:20.204
LEye coords (151.0, 146.0), REye coords (157.0, 119.0), timeStamp: 2017-03-05 12:21:20.247
LEye coords (150.0, 146.0), REye coords (157.0, 120.0), timeStamp: 2017-03-05 12:21:20.282
LEye coords (150.0, 146.0), REye coords (158.0, 122.0), timeStamp: 2017-03-05 12:21:20.315
LEye coords (150.0, 146.0), REye coords (158.0, 123.0), timeStamp: 2017-03-05 12:21:20.359
