LEye coords (469.0, 237.0), REye coords (462.0, 241.0), timeStamp: 2017-03-05 12:21:29.058
LEye coords (469.0, 238.0), REye coords (462.0, 241.0), timeStamp: 2017-03-05 12:21:29.092
LEye coords (470.0, 238.0), REye coords (463.0, 242.0), timeStamp: 2017-03-05 12:21:29.125
LEye coords (471.0, 239.0), REye coords (463.0, 242.0), timeStamp: 2017-03-05 12:21:29.169
LEye coords (471.0, 239.0), REye coords (463.0, 242.0), timeStamp: 2017-03-05 12:21:29.203
LEye coords (471.0, 239.0), REye coords (463.0, 242.0), timeStamp: 2017-03-05 12:21:29.237
LEye coords (302.0, 184.0), REye coords (310.0, 187.0), timeStamp: 2017-03-05 12:21:29.271
LEye coords (298.0, 198.0), REye coords (309.0, 185.0), timeStamp: 2017-03-05 12:21:29.316
LEye coords (299.0, 192.0), REye coords (309.0, 184.0), timeStamp: 2017-03-05 12:21:29.349
LEye coords (298.0, 192.0), REye coords (310.0, 184.0), timeStamp: 2017-03-05 12:21:29.382
LEye coords (298.0, 192.0), REye coords (309.0, 184.0), timeStamp: 2017-03-05 12:21:29.426
LEye coords (382.0, 183.0), REye coords (381.0, 185.0), timeStamp: 2017-03-05 12:21:29.460
LEye coords (0.0, 0.0), REye coords (407.0, 188.0), timeStamp: 2017-03-05 12:21:29.494
LEye coords (0.0, 0.0), REye coords (408.0, 188.0), timeStamp: 2017-03-05 12:21:29.538
LEye coords (0.0, 0.0), REye coords (408.0, 187.0), timeStamp: 2017-03-05 12:21:29.571
LEye coords (408.0, 190.0), REye coords (407.0, 188.0), timeStamp: 2017-03-05 12:21:29.604
LEye coords (407.0, 191.0), REye coords (408.0, 185.0), timeStamp: 2017-03-05 12:21:29.648
LEye coords (409.0, 189.0), REye coords (409.0, 186.0), timeStamp: 2017-03-05 12:21:29.682
LEye coords (409.0, 188.0), REye coords (409.0, 187.0), timeStamp: 2017-03-05 12:21:29.715
LEye coords (406.0, 184.0), REye coords (409.0, 187.0), timeStamp: 2017-03-05 12:21:29.759
LEye coords (411.0, 186.0), REye coords (408.0, 186.0), timeStamp: 2017-03-05 12:21:29.792
LEye coords (411.0, 187.0), REye coords (407.0, 187.0), timeStamp: 2017-03-05 12:21:29.826
LEye coords (411.0, 187.0), REye coords (407.0, 187.0), timeStamp: 2017-03-05 12:21:29.871
LEye coords (410.0, 186.0), REye coords (407.0, 187.0), timeStamp: 2017-03-05 12:21:29.905
LEye coords (409.0, 186.0), REye coords (407.0, 188.0), timeStamp: 2017-03-05 12:21:29.939
LEye coords (409.0, 186.0), REye coords (406.0, 188.0), timeStamp: 2017-03-05 12:21:29.982
LEye coords (409.0, 186.0), REye coords (406.0, 188.0), timeStamp: 2017-03-05 12:21:30.016
LEye coords (409.0, 186.0), REye coords (406.0, 189.0), timeStamp: 2017-03-05 12:21:30.049
LEye coords (409.0, 185.0), REye coords (406.0, 190.0), timeStamp: 2017-03-05 12:21:30.094
LEye coords (409.0, 185.0), REye coords (406.0, 190.0), timeStamp: 2017-03-05 12:21:30.128
