LEye coords (238.0, 191.0), REye coords (255.0, 185.0), timeStamp: 2017-03-05 12:22:16.320
LEye coords (239.0, 191.0), REye coords (255.0, 185.0), timeStamp: 2017-03-05 12:22:16.355
LEye coords (239.0, 192.0), REye coords (255.0, 186.0), timeStamp: 2017-03-05 12:22:16.389
LEye coords (240.0, 192.0), REye coords (255.0, 186.0), timeStamp: 2017-03-05 12:22:16.432
LEye coords (240.0, 193.0), REye coords (255.0, 186.0), timeStamp: 2017-03-05 12:22:16.465
LEye coords (241.0, 193.0), REye coords (255.0, 186.0), timeStamp: 2017-03-05 12:22:16.499
LEye coords (241.0, 194.0), REye coords (255.0, 186.0), timeStamp: 2017-03-05 12:22:16.534
LEye coords (241.0, 194.0), REye coords (256.0, 185.0), timeStamp: 2017-03-05 12:22:16.577
LEye coords (242.0, 195.0), REye coords (256.0, 185.0), timeStamp: 2017-03-05 12:22:16.611
LEye coords (242.0, 195.0), REye coords (256.0, 185.0), timeStamp: 2017-03-05 12:22:16.645
LEye coords (243.0, 196.0), REye coords (256.0, 185.0), timeStamp: 2017-03-05 12:22:16.689
LEye coords (243.0, 196.0), REye coords (256.0, 185.0), timeStamp: 2017-03-05 12:22:16.722
LEye coords (243.0, 196.0), REye coords (257.0, 185.0), timeStamp: 2017-03-05 12:22:16.757
LEye coords (356.0, 265.0), REye coords (360.0, 267.0), timeStamp: 2017-03-05 12:22:16.801
LEye coords (345.0, 261.0), REye coords (361.0, 266.0), timeStamp: 2017-03-05 12:22:16.834
LEye coords (346.0, 261.0), REye coords (363.0, 265.0), timeStamp: 2017-03-05 12:22:16.868
LEye coords (346.0, 258.0), REye coords (362.0, 265.0), timeStamp: 2017-03-05 12:22:16.912
LEye coords (347.0, 259.0), REye coords (362.0, 264.0), timeStamp: 2017-03-05 12:22:16.946
LEye coords (352.0, 261.0), REye coords (359.0, 267.0), timeStamp: 2017-03-05 12:22:16.980
LEye coords (354.0, 260.0), REye coords (360.0, 267.0), timeStamp: 2017-03-05 12:22:17.024
LEye coords (370.0, 275.0), REye coords (373.0, 277.0), timeStamp: 2017-03-05 12:22:17.057
LEye coords (375.0, 283.0), REye coords (382.0, 284.0), timeStamp: 2017-03-05 12:22:17.091
LEye coords (379.0, 287.0), REye coords (385.0, 286.0), timeStamp: 2017-03-05 12:22:17.134
LEye coords (380.0, 290.0), REye coords (388.0, 288.0), timeStamp: 2017-03-05 12:22:17.168
LEye coords (381.0, 290.0), REye coords (389.0, 288.0), timeStamp: 2017-03-05 12:22:17.202
LEye coords (381.0, 290.0), REye coords (390.0, 289.0), timeStamp: 2017-03-05 12:22:17.246
LEye coords (382.0, 292.0), REye coords (391.0, 289.0), timeStamp: 2017-03-05 12:22:17.280
