LEye coords (219.0, 91.0), REye coords (253.0, 90.0), timeStamp: 2017-03-05 12:22:15.058
LEye coords (219.0, 91.0), REye coords (253.0, 89.0), timeStamp: 2017-03-05 12:22:15.091
LEye coords (220.0, 93.0), REye coords (253.0, 88.0), timeStamp: 2017-03-05 12:22:15.135
LEye coords (220.0, 92.0), REye coords (254.0, 88.0), timeStamp: 2017-03-05 12:22:15.168
LEye coords (220.0, 92.0), REye coords (254.0, 87.0), timeStamp: 2017-03-05 12:22:15.202
LEye coords (220.0, 92.0), REye coords (254.0, 88.0), timeStamp: 2017-03-05 12:22:15.246
LEye coords (220.0, 92.0), REye coords (254.0, 88.0), timeStamp: 2017-03-05 12:22:15.279
LEye coords (220.0, 92.0), REye coords (254.0, 87.0), timeStamp: 2017-03-05 12:22:15.313
LEye coords (220.0, 92.0), REye coords (254.0, 87.0), timeStamp: 2017-03-05 12:22:15.357
LEye coords (251.0, 163.0), REye coords (255.0, 91.0), timeStamp: 2017-03-05 12:22:15.390
LEye coords (251.0, 170.0), REye coords (256.0, 94.0), timeStamp: 2017-03-05 12:22:15.424
LEye coords (249.0, 168.0), REye coords (261.0, 140.0), timeStamp: 2017-03-05 12:22:15.468
LEye coords (249.0, 169.0), REye coords (258.0, 159.0), timeStamp: 2017-03-05 12:22:15.501
LEye coords (249.0, 168.0), REye coords (257.0, 160.0), timeStamp: 2017-03-05 12:22:15.535
LEye coords (247.0, 166.0), REye coords (259.0, 158.0), timeStamp: 2017-03-05 12:22:15.580
LEye coords (238.0, 178.0), REye coords (259.0, 159.0), timeStamp: 2017-03-05 12:22:15.614
LEye coords (237.0, 178.0), REye coords (259.0, 161.0), timeStamp: 2017-03-05 12:22:15.648
LEye coords (237.0, 179.0), REye coords (258.0, 162.0), timeStamp: 2017-03-05 12:22:15.692
LEye coords (236.0, 179.0), REye coords (258.0, 164.0), timeStamp: 2017-03-05 12:22:15.726
LEye coords (237.0, 180.0), REye coords (258.0, 165.0), timeStamp: 2017-03-05 12:22:15.760
LEye coords (235.0, 179.0), REye coords (257.0, 163.0), timeStamp: 2017-03-05 12:22:15.792
LEye coords (234.0, 180.0), REye coords (256.0, 163.0), timeStamp: 2017-03-05 12:22:15.837
LEye coords (233.0, 179.0), REye coords (255.0, 162.0), timeStamp: 2017-03-05 12:22:15.871
LEye coords (232.0, 180.0), REye coords (255.0, 162.0), timeStamp: 2017-03-05 12:22:15.906
LEye coords (232.0, 180.0), REye coords (255.0, 162.0), timeStamp: 2017-03-05 12:22:15.950
LEye coords (232.0, 180.0), REye coords (254.0, 162.0), timeStamp: 2017-03-05 12:22:15.984
LEye coords (233.0, 181.0), REye coords (254.0, 163.0), timeStamp: 2017-03-05 12:22:16.018
LEye coords (234.0, 181.0), REye coords (254.0, 163.0), timeStamp: 2017-03-05 12:22:16.053
LEye coords (235.0, 181.0), REye coords (254.0, 164.0), timeStamp: 2017-03-05 12:22:16.097
LEye coords (235.0, 182.0), REye coords (254.0, 181.0), timeStamp: 2017-03-05 12:22:16.131
LEye coords (236.0, 183.0), REye coords (255.0, 176.0), timeStamp: 2017-03-05 12:22:16.164
LEye coords (237.0, 183.0), REye coords (254.0, 177.0), timeStamp: 2017-03-05 12:22:16.209
