LEye coords (471.0, 74.0), REye coords (437.0, 91.0), timeStamp: 2017-03-05 12:22:20.355
LEye coords (472.0, 75.0), REye coords (437.0, 91.0), timeStamp: 2017-03-05 12:22:20.389
LEye coords (472.0, 75.0), REye coords (438.0, 91.0), timeStamp: 2017-03-05 12:22:20.422
LEye coords (472.0, 75.0), REye coords (438.0, 92.0), timeStamp: 2017-03-05 12:22:20.456
LEye coords (473.0, 75.0), REye coords (438.0, 92.0), timeStamp: 2017-03-05 12:22:20.502
LEye coords (474.0, 76.0), REye coords (438.0, 92.0), timeStamp: 2017-03-05 12:22:20.534
LEye coords (287.0, 123.0), REye coords (309.0, 88.0), timeStamp: 2017-03-05 12:22:20.568
LEye coords (250.0, 138.0), REye coords (271.0, 91.0), timeStamp: 2017-03-05 12:22:20.612
LEye coords (251.0, 136.0), REye coords (269.0, 101.0), timeStamp: 2017-03-05 12:22:20.646
LEye coords (252.0, 136.0), REye coords (270.0, 104.0), timeStamp: 2017-03-05 12:22:20.679
LEye coords (251.0, 136.0), REye coords (270.0, 101.0), timeStamp: 2017-03-05 12:22:20.723
LEye coords (175.0, 77.0), REye coords (206.0, 70.0), timeStamp: 2017-03-05 12:22:20.756
LEye coords (181.0, 90.0), REye coords (201.0, 67.0), timeStamp: 2017-03-05 12:22:20.789
LEye coords (177.0, 84.0), REye coords (205.0, 67.0), timeStamp: 2017-03-05 12:22:20.833
LEye coords (177.0, 84.0), REye coords (204.0, 71.0), timeStamp: 2017-03-05 12:22:20.867
LEye coords (178.0, 83.0), REye coords (205.0, 70.0), timeStamp: 2017-03-05 12:22:20.910
LEye coords (151.0, 77.0), REye coords (166.0, 60.0), timeStamp: 2017-03-05 12:22:20.945
LEye coords (148.0, 77.0), REye coords (167.0, 64.0), timeStamp: 2017-03-05 12:22:20.978
LEye coords (146.0, 76.0), REye coords (164.0, 62.0), timeStamp: 2017-03-05 12:22:21.011
LEye coords (146.0, 76.0), REye coords (164.0, 62.0), timeStamp: 2017-03-05 12:22:21.055
LEye coords (146.0, 77.0), REye coords (163.0, 63.0), timeStamp: 2017-03-05 12:22:21.088
LEye coords (146.0, 77.0), REye coords (163.0, 62.0), timeStamp: 2017-03-05 12:22:21.122
LEye coords (148.0, 77.0), REye coords (166.0, 62.0), timeStamp: 2017-03-05 12:22:21.167
LEye coords (152.0, 76.0), REye coords (170.0, 61.0), timeStamp: 2017-03-05 12:22:21.201
LEye coords (154.0, 75.0), REye coords (172.0, 61.0), timeStamp: 2017-03-05 12:22:21.233
LEye coords (156.0, 75.0), REye coords (175.0, 61.0), timeStamp: 2017-03-05 12:22:21.278
LEye coords (157.0, 76.0), REye coords (176.0, 61.0), timeStamp: 2017-03-05 12:22:21.311
LEye coords (158.0, 76.0), REye coords (177.0, 61.0), timeStamp: 2017-03-05 12:22:21.354
LEye coords (158.0, 76.0), REye coords (178.0, 61.0), timeStamp: 2017-03-05 12:22:21.387
LEye coords (158.0, 76.0), REye coords (179.0, 62.0), timeStamp: 2017-03-05 12:22:21.421
LEye coords (159.0, 77.0), REye coords (180.0, 63.0), timeStamp: 2017-03-05 12:22:21.466
LEye coords (160.0, 77.0), REye coords (181.0, 62.0), timeStamp: 2017-03-05 12:22:21.499
LEye coords (160.0, 77.0), REye coords (182.0, 62.0), timeStamp: 2017-03-05 12:22:21.533
