LEye coords (162.0, 87.0), REye coords (0.0, 0.0), timeStamp: 2017-03-05 12:22:21.649
LEye coords (162.0, 87.0), REye coords (183.0, 70.0), timeStamp: 2017-03-05 12:22:21.682
LEye coords (162.0, 88.0), REye coords (0.0, 0.0), timeStamp: 2017-03-05 12:22:21.716
LEye coords (163.0, 88.0), REye coords (0.0, 0.0), timeStamp: 2017-03-05 12:22:21.762
LEye coords (163.0, 88.0), REye coords (0.0, 0.0), timeStamp: 2017-03-05 12:22:21.795
LEye coords (164.0, 88.0), REye coords (184.0, 71.0), timeStamp: 2017-03-05 12:22:21.829
LEye coords (165.0, 88.0), REye coords (184.0, 71.0), timeStamp: 2017-03-05 12:22:21.872
LEye coords (165.0, 88.0), REye coords (185.0, 72.0), timeStamp: 2017-03-05 12:22:21.906
LEye coords (167.0, 91.0), REye coords (186.0, 72.0), timeStamp: 2017-03-05 12:22:21.939
LEye coords (320.0, 201.0), REye coords (327.0, 185.0), timeStamp: 2017-03-05 12:22:21.983
LEye coords (0.0, 0.0), REye coords (328.0, 180.0), timeStamp: 2017-03-05 12:22:22.017
LEye coords (363.0, 205.0), REye coords (343.0, 186.0), timeStamp: 2017-03-05 12:22:22.050
LEye coords (389.0, 211.0), REye coords (367.0, 193.0), timeStamp: 2017-03-05 12:22:22.094
LEye coords (396.0, 214.0), REye coords (380.0, 195.0), timeStamp: 2017-03-05 12:22:22.128
LEye coords (400.0, 215.0), REye coords (414.0, 206.0), timeStamp: 2017-03-05 12:22:22.162
LEye coords (412.0, 217.0), REye coords (417.0, 201.0), timeStamp: 2017-03-05 12:22:22.195
LEye coords (416.0, 220.0), REye coords (412.0, 207.0), timeStamp: 2017-03-05 12:22:22.239
LEye coords (412.0, 219.0), REye coords (414.0, 205.0), timeStamp: 2017-03-05 12:22:22.274
LEye coords (408.0, 220.0), REye coords (413.0, 200.0), timeStamp: 2017-03-05 12:22:22.307
LEye coords (404.0, 220.0), REye coords (412.0, 200.0), timeStamp: 2017-03-05 12:22:22.351
LEye coords (401.0, 221.0), REye coords (412.0, 198.0), timeStamp: 2017-03-05 12:22:22.384
LEye coords (400.0, 222.0), REye coords (411.0, 197.0), timeStamp: 2017-03-05 12:22:22.419
LEye coords (399.0, 222.0), REye coords (411.0, 197.0), timeStamp: 2017-03-05 12:22:22.462
LEye coords (398.0, 222.0), REye coords (411.0, 196.0), timeStamp: 2017-03-05 12:22:22.496
LEye coords (398.0, 221.0), REye coords (410.0, 196.0), timeStamp: 2017-03-05 12:22:22.530
LEye coords (398.0, 221.0), REye coords (410.0, 195.0), timeStamp: 2017-03-05 12:22:22.573
LEye coords (398.0, 221.0), REye coords (410.0, 195.0), timeStamp: 2017-03-05 12:22:22.606
LEye coords (397.0, 220.0), REye coords (409.0, 195.0), timeStamp: 2017-03-05 12:22:22.639
LEye coords (397.0, 221.0), REye coords (409.0, 194.0), timeStamp: 2017-03-05 12:22:22.685
LEye coords (397.0, 220.0), REye coords (408.0, 194.0), timeStamp: 2017-03-05 12:22:22.718
LEye coords (396.0, 220.0), REye coords (408.0, 194.0), timeStamp: 2017-03-05 12:22:22.752
LEye coords (396.0, 220.0), REye coords (407.0, 193.0), timeStamp: 2017-03-05 12:22:22.797
