LEye coords (396.0, 195.0), REye coords (406.0, 171.0), timeStamp: 2017-03-05 12:22:22.908
LEye coords (396.0, 195.0), REye coords (406.0, 171.0), timeStamp: 2017-03-05 12:22:22.941
LEye coords (396.0, 195.0), REye coords (406.0, 171.0), timeStamp: 2017-03-05 12:22:22.975
LEye coords (396.0, 195.0), REye coords (406.0, 171.0), timeStamp: 2017-03-05 12:22:23.019
LEye coords (396.0, 195.0), REye coords (405.0, 172.0), timeStamp: 2017-03-05 12:22:23.052
LEye coords (396.0, 195.0), REye coords (404.0, 171.0), timeStamp: 2017-03-05 12:22:23.087
LEye coords (346.0, 162.0), REye coords (368.0, 127.0), timeStamp: 2017-03-05 12:22:23.130
LEye coords (294.0, 98.0), REye coords (309.0, 82.0), timeStamp: 2017-03-05 12:22:23.165
LEye coords (296.0, 93.0), REye coords (309.0, 90.0), timeStamp: 2017-03-05 12:22:23.198
LEye coords (295.0, 91.0), REye coords (308.0, 91.0), timeStamp: 2017-03-05 12:22:23.233
LEye coords (296.0, 90.0), REye coords (308.0, 93.0), timeStamp: 2017-03-05 12:22:23.277
LEye coords (303.0, 87.0), REye coords (0.0, 0.0), timeStamp: 2017-03-05 12:22:23.311
LEye coords (303.0, 108.0), REye coords (315.0, 86.0), timeStamp: 2017-03-05 12:22:23.345
LEye coords (315.0, 125.0), REye coords (340.0, 109.0), timeStamp: 2017-03-05 12:22:23.390
LEye coords (318.0, 131.0), REye coords (341.0, 113.0), timeStamp: 2017-03-05 12:22:23.424
LEye coords (321.0, 134.0), REye coords (339.0, 117.0), timeStamp: 2017-03-05 12:22:23.457
LEye coords (329.0, 142.0), REye coords (339.0, 118.0), timeStamp: 2017-03-05 12:22:23.501
LEye coords (325.0, 142.0), REye coords (339.0, 119.0), timeStamp: 2017-03-05 12:22:23.535
LEye coords (326.0, 144.0), REye coords (338.0, 121.0), timeStamp: 2017-03-05 12:22:23.568
LEye coords (325.0, 146.0), REye coords (0.0, 0.0), timeStamp: 2017-03-05 12:22:23.602
LEye coords (325.0, 144.0), REye coords (0.0, 0.0), timeStamp: 2017-03-05 12:22:23.646
LEye coords (327.0, 144.0), REye coords (339.0, 120.0), timeStamp: 2017-03-05 12:22:23.680
LEye coords (328.0, 144.0), REye coords (340.0, 120.0), timeStamp: 2017-03-05 12:22:23.713
LEye coords (329.0, 145.0), REye coords (341.0, 120.0), timeStamp: 2017-03-05 12:22:23.757
LEye coords (330.0, 145.0), REye coords (342.0, 120.0), timeStamp: 2017-03-05 12:22:23.790
LEye coords (330.0, 146.0), REye coords (342.0, 121.0), timeStamp: 2017-03-05 12:22:23.834
LEye coords (331.0, 147.0), REye coords (343.0, 121.0), timeStamp: 2017-03-05 12:22:23.867
LEye coords (332.0, 147.0), REye coords (343.0, 120.0), timeStamp: 2017-03-05 12:22:23.900
