LEye coords (443.0, 159.0), REye coords (424.0, 138.0), timeStamp: 2017-03-05 12:22:31.599
LEye coords (443.0, 159.0), REye coords (423.0, 138.0), timeStamp: 2017-03-05 12:22:31.633
LEye coords (443.0, 159.0), REye coords (423.0, 138.0), timeStamp: 2017-03-05 12:22:31.677
LEye coords (443.0, 159.0), REye coords (423.0, 138.0), timeStamp: 2017-03-05 12:22:31.710
LEye coords (443.0, 158.0), REye coords (422.0, 138.0), timeStamp: 2017-03-05 12:22:31.744
LEye coords (442.0, 158.0), REye coords (422.0, 137.0), timeStamp: 2017-03-05 12:22:31.788
LEye coords (442.0, 159.0), REye coords (422.0, 137.0), timeStamp: 2017-03-05 12:22:31.822
LEye coords (255.0, 143.0), REye coords (267.0, 121.0), timeStamp: 2017-03-05 12:22:31.856
LEye coords (250.0, 143.0), REye coords (272.0, 117.0), timeStamp: 2017-03-05 12:22:31.900
LEye coords (251.0, 143.0), REye coords (270.0, 116.0), timeStamp: 2017-03-05 12:22:31.934
LEye coords (250.0, 145.0), REye coords (268.0, 117.0), timeStamp: 2017-03-05 12:22:31.968
LEye coords (228.0, 142.0), REye coords (248.0, 109.0), timeStamp: 2017-03-05 12:22:32.012
LEye coords (160.0, 126.0), REye coords (177.0, 84.0), timeStamp: 2017-03-05 12:22:32.047
LEye coords (156.0, 111.0), REye coords (179.0, 86.0), timeStamp: 2017-03-05 12:22:32.079
LEye coords (155.0, 114.0), REye coords (180.0, 85.0), timeStamp: 2017-03-05 12:22:32.123
LEye coords (156.0, 115.0), REye coords (179.0, 85.0), timeStamp: 2017-03-05 12:22:32.155
LEye coords (156.0, 114.0), REye coords (179.0, 87.0), timeStamp: 2017-03-05 12:22:32.189
LEye coords (156.0, 115.0), REye coords (180.0, 87.0), timeStamp: 2017-03-05 12:22:32.233
LEye coords (158.0, 113.0), REye coords (185.0, 87.0), timeStamp: 2017-03-05 12:22:32.268
LEye coords (205.0, 97.0), REye coords (233.0, 83.0), timeStamp: 2017-03-05 12:22:32.302
LEye coords (205.0, 97.0), REye coords (235.0, 78.0), timeStamp: 2017-03-05 12:22:32.337
LEye coords (204.0, 96.0), REye coords (232.0, 80.0), timeStamp: 2017-03-05 12:22:32.382
LEye coords (206.0, 99.0), REye coords (233.0, 82.0), timeStamp: 2017-03-05 12:22:32.416
LEye coords (205.0, 99.0), REye coords (233.0, 84.0), timeStamp: 2017-03-05 12:22:32.450
LEye coords (205.0, 99.0), REye coords (231.0, 83.0), timeStamp: 2017-03-05 12:22:32.484
LEye coords (206.0, 99.0), REye coords (231.0, 83.0), timeStamp: 2017-03-05 12:22:32.528
LEye coords (206.0, 98.0), REye coords (231.0, 83.0), timeStamp: 2017-03-05 12:22:32.563
LEye coords (206.0, 98.0), REye coords (230.0, 83.0), timeStamp: 2017-03-05 12:22:32.597
LEye coords (206.0, 98.0), REye coords (230.0, 83.0), timeStamp: 2017-03-05 12:22:32.643
LEye coords (206.0, 98.0), REye coords (230.0, 83.0), timeStamp: 2017-03-05 12:22:32.677
