LEye coords (407.0, 91.0), REye coords (412.0, 102.0), timeStamp: 2017-03-05 12:23:10.866
LEye coords (407.0, 92.0), REye coords (413.0, 103.0), timeStamp: 2017-03-05 12:23:10.911
LEye coords (407.0, 92.0), REye coords (413.0, 102.0), timeStamp: 2017-03-05 12:23:10.944
LEye coords (408.0, 92.0), REye coords (413.0, 102.0), timeStamp: 2017-03-05 12:23:10.978
LEye coords (408.0, 93.0), REye coords (414.0, 102.0), timeStamp: 2017-03-05 12:23:11.023
LEye coords (408.0, 93.0), REye coords (414.0, 102.0), timeStamp: 2017-03-05 12:23:11.056
LEye coords (325.0, 136.0), REye coords (345.0, 115.0), timeStamp: 2017-03-05 12:23:11.091
LEye coords (244.0, 173.0), REye coords (266.0, 154.0), timeStamp: 2017-03-05 12:23:11.125
LEye coords (245.0, 176.0), REye coords (263.0, 160.0), timeStamp: 2017-03-05 12:23:11.168
LEye coords (245.0, 177.0), REye coords (263.0, 159.0), timeStamp: 2017-03-05 12:23:11.201
LEye coords (246.0, 178.0), REye coords (262.0, 159.0), timeStamp: 2017-03-05 12:23:11.235
LEye coords (248.0, 178.0), REye coords (258.0, 158.0), timeStamp: 2017-03-05 12:23:11.278
LEye coords (245.0, 175.0), REye coords (256.0, 165.0), timeStamp: 2017-03-05 12:23:11.312
LEye coords (244.0, 176.0), REye coords (255.0, 170.0), timeStamp: 2017-03-05 12:23:11.346
LEye coords (246.0, 168.0), REye coords (256.0, 160.0), timeStamp: 2017-03-05 12:23:11.390
LEye coords (246.0, 165.0), REye coords (258.0, 154.0), timeStamp: 2017-03-05 12:23:11.423
LEye coords (247.0, 162.0), REye coords (259.0, 151.0), timeStamp: 2017-03-05 12:23:11.457
LEye coords (246.0, 159.0), REye coords (259.0, 146.0), timeStamp: 2017-03-05 12:23:11.501
LEye coords (245.0, 158.0), REye coords (260.0, 140.0), timeStamp: 2017-03-05 12:23:11.535
LEye coords (244.0, 151.0), REye coords (259.0, 135.0), timeStamp: 2017-03-05 12:23:11.569
LEye coords (244.0, 150.0), REye coords (258.0, 132.0), timeStamp: 2017-03-05 12:23:11.613
LEye coords (243.0, 149.0), REye coords (258.0, 129.0), timeStamp: 2017-03-05 12:23:11.646
LEye coords (243.0, 149.0), REye coords (257.0, 127.0), timeStamp: 2017-03-05 12:23:11.679
LEye coords (242.0, 148.0), REye coords (256.0, 125.0), timeStamp: 2017-03-05 12:23:11.723
LEye coords (242.0, 147.0), REye coords (255.0, 123.0), timeStamp: 2017-03-05 12:23:11.756
LEye coords (240.0, 144.0), REye coords (241.0, 111.0), timeStamp: 2017-03-05 12:23:11.800
