LEye coords (234.0, 160.0), REye coords (240.0, 162.0), timeStamp: 2017-03-05 12:23:22.346
LEye coords (234.0, 160.0), REye coords (240.0, 162.0), timeStamp: 2017-03-05 12:23:22.380
LEye coords (233.0, 160.0), REye coords (241.0, 162.0), timeStamp: 2017-03-05 12:23:22.412
LEye coords (233.0, 161.0), REye coords (241.0, 162.0), timeStamp: 2017-03-05 12:23:22.457
LEye coords (233.0, 161.0), REye coords (241.0, 162.0), timeStamp: 2017-03-05 12:23:22.491
LEye coords (233.0, 161.0), REye coords (241.0, 163.0), timeStamp: 2017-03-05 12:23:22.524
LEye coords (233.0, 162.0), REye coords (241.0, 163.0), timeStamp: 2017-03-05 12:23:22.568
LEye coords (234.0, 162.0), REye coords (242.0, 163.0), timeStamp: 2017-03-05 12:23:22.602
LEye coords (234.0, 163.0), REye coords (242.0, 163.0), timeStamp: 2017-03-05 12:23:22.636
LEye coords (234.0, 164.0), REye coords (242.0, 163.0), timeStamp: 2017-03-05 12:23:22.679
LEye coords (186.0, 130.0), REye coords (193.0, 99.0), timeStamp: 2017-03-05 12:23:22.713
LEye coords (180.0, 128.0), REye coords (190.0, 107.0), timeStamp: 2017-03-05 12:23:22.747
LEye coords (178.0, 128.0), REye coords (189.0, 113.0), timeStamp: 2017-03-05 12:23:22.791
LEye coords (178.0, 127.0), REye coords (187.0, 104.0), timeStamp: 2017-03-05 12:23:22.825
LEye coords (177.0, 128.0), REye coords (186.0, 101.0), timeStamp: 2017-03-05 12:23:22.859
LEye coords (176.0, 125.0), REye coords (184.0, 107.0), timeStamp: 2017-03-05 12:23:22.902
LEye coords (179.0, 127.0), REye coords (178.0, 90.0), timeStamp: 2017-03-05 12:23:22.935
LEye coords (186.0, 128.0), REye coords (191.0, 105.0), timeStamp: 2017-03-05 12:23:22.968
LEye coords (188.0, 126.0), REye coords (196.0, 107.0), timeStamp: 2017-03-05 12:23:23.012
LEye coords (188.0, 127.0), REye coords (198.0, 110.0), timeStamp: 2017-03-05 12:23:23.045
LEye coords (189.0, 126.0), REye coords (199.0, 113.0), timeStamp: 2017-03-05 12:23:23.078
LEye coords (190.0, 126.0), REye coords (199.0, 113.0), timeStamp: 2017-03-05 12:23:23.123
LEye coords (190.0, 126.0), REye coords (199.0, 112.0), timeStamp: 2017-03-05 12:23:23.156
LEye coords (191.0, 125.0), REye coords (200.0, 111.0), timeStamp: 2017-03-05 12:23:23.190
LEye coords (191.0, 125.0), REye coords (200.0, 111.0), timeStamp: 2017-03-05 12:23:23.235
