LEye coords (471.0, 192.0), REye coords (0.0, 0.0), timeStamp: 2017-03-05 12:24:06.126
LEye coords (473.0, 192.0), REye coords (0.0, 0.0), timeStamp: 2017-03-05 12:24:06.160
LEye coords (474.0, 191.0), REye coords (0.0, 0.0), timeStamp: 2017-03-05 12:24:06.204
LEye coords (475.0, 191.0), REye coords (0.0, 0.0), timeStamp: 2017-03-05 12:24:06.237
LEye coords (477.0, 191.0), REye coords (0.0, 0.0), timeStamp: 2017-03-05 12:24:06.271
LEye coords (478.0, 191.0), REye coords (0.0, 0.0), timeStamp: 2017-03-05 12:24:06.316
LEye coords (321.0, 183.0), REye coords (353.0, 196.0), timeStamp: 2017-03-05 12:24:06.350
LEye coords (267.0, 186.0), REye coords (293.0, 210.0), timeStamp: 2017-03-05 12:24:06.384
LEye coords (266.0, 186.0), REye coords (293.0, 209.0), timeStamp: 2017-03-05 12:24:06.419
LEye coords (266.0, 186.0), REye coords (292.0, 210.0), timeStamp: 2017-03-05 12:24:06.464
LEye coords (266.0, 185.0), REye coords (291.0, 208.0), timeStamp: 2017-03-05 12:24:06.497
LEye coords (239.0, 151.0), REye coords (264.0, 166.0), timeStamp: 2017-03-05 12:24:06.531
LEye coords (240.0, 150.0), REye coords (267.0, 138.0), timeStamp: 2017-03-05 12:24:06.575
LEye coords (239.0, 146.0), REye coords (267.0, 139.0), timeStamp: 2017-03-05 12:24:06.608
LEye coords (239.0, 145.0), REye coords (267.0, 135.0), timeStamp: 2017-03-05 12:24:06.641
LEye coords (238.0, 144.0), REye coords (266.0, 137.0), timeStamp: 2017-03-05 12:24:06.687
LEye coords (236.0, 139.0), REye coords (271.0, 132.0), timeStamp: 2017-03-05 12:24:06.720
LEye coords (230.0, 119.0), REye coords (266.0, 136.0), timeStamp: 2017-03-05 12:24:06.754
LEye coords (247.0, 97.0), REye coords (273.0, 127.0), timeStamp: 2017-03-05 12:24:06.788
LEye coords (246.0, 100.0), REye coords (277.0, 119.0), timeStamp: 2017-03-05 12:24:06.831
LEye coords (247.0, 102.0), REye coords (279.0, 118.0), timeStamp: 2017-03-05 12:24:06.865
LEye coords (246.0, 101.0), REye coords (280.0, 117.0), timeStamp: 2017-03-05 12:24:06.909
LEye coords (246.0, 101.0), REye coords (280.0, 117.0), timeStamp: 2017-03-05 12:24:06.943
LEye coords (247.0, 102.0), REye coords (280.0, 117.0), timeStamp: 2017-03-05 12:24:06.977
LEye coords (247.0, 102.0), REye coords (281.0, 116.0), timeStamp: 2017-03-05 12:24:07.011
LEye coords (247.0, 103.0), REye coords (281.0, 117.0), timeStamp: 2017-03-05 12:24:07.055
LEye coords (248.0, 103.0), REye coords (281.0, 116.0), timeStamp: 2017-03-05 12:24:07.088
LEye coords (249.0, 105.0), REye coords (282.0, 116.0), timeStamp: 2017-03-05 12:24:07.122
LEye coords (249.0, 106.0), REye coords (282.0, 116.0), timeStamp: 2017-03-05 12:24:07.167
LEye coords (250.0, 108.0), REye coords (283.0, 117.0), timeStamp: 2017-03-05 12:24:07.199
LEye coords (250.0, 110.0), REye coords (283.0, 117.0), timeStamp: 2017-03-05 12:24:07.234
LEye coords (251.0, 111.0), REye coords (283.0, 118.0), timeStamp: 2017-03-05 12:24:07.278
LEye coords (252.0, 113.0), REye coords (283.0, 119.0), timeStamp: 2017-03-05 12:24:07.312
LEye coords (252.0, 114.0), REye coords (284.0, 120.0), timeStamp: 2017-03-05 12:24:07.346
LEye coords (253.0, 116.0), REye coords (284.0, 121.0), timeStamp: 2017-03-05 12:24:07.389
