LEye coords (60.0, 150.0), REye coords (73.0, 168.0), timeStamp: 2017-03-05 12:24:04.945
LEye coords (60.0, 149.0), REye coords (73.0, 168.0), timeStamp: 2017-03-05 12:24:04.979
LEye coords (60.0, 148.0), REye coords (73.0, 169.0), timeStamp: 2017-03-05 12:24:05.012
LEye coords (60.0, 147.0), REye coords (72.0, 188.0), timeStamp: 2017-03-05 12:24:05.056
LEye coords (59.0, 150.0), REye coords (73.0, 176.0), timeStamp: 2017-03-05 12:24:05.089
LEye coords (59.0, 146.0), REye coords (73.0, 176.0), timeStamp: 2017-03-05 12:24:05.123
LEye coords (59.0, 147.0), REye coords (73.0, 173.0), timeStamp: 2017-03-05 12:24:05.167
LEye coords (59.0, 147.0), REye coords (73.0, 176.0), timeStamp: 2017-03-05 12:24:05.200
LEye coords (60.0, 151.0), REye coords (73.0, 175.0), timeStamp: 2017-03-05 12:24:05.235
LEye coords (60.0, 148.0), REye coords (74.0, 174.0), timeStamp: 2017-03-05 12:24:05.277
LEye coords (123.0, 181.0), REye coords (122.0, 194.0), timeStamp: 2017-03-05 12:24:05.310
LEye coords (119.0, 184.0), REye coords (123.0, 194.0), timeStamp: 2017-03-05 12:24:05.355
LEye coords (118.0, 190.0), REye coords (123.0, 193.0), timeStamp: 2017-03-05 12:24:05.388
LEye coords (118.0, 195.0), REye coords (122.0, 194.0), timeStamp: 2017-03-05 12:24:05.422
LEye coords (117.0, 196.0), REye coords (122.0, 193.0), timeStamp: 2017-03-05 12:24:05.457
LEye coords (116.0, 204.0), REye coords (121.0, 198.0), timeStamp: 2017-03-05 12:24:05.502
LEye coords (116.0, 204.0), REye coords (122.0, 191.0), timeStamp: 2017-03-05 12:24:05.535
LEye coords (116.0, 207.0), REye coords (122.0, 194.0), timeStamp: 2017-03-05 12:24:05.569
LEye coords (116.0, 207.0), REye coords (121.0, 196.0), timeStamp: 2017-03-05 12:24:05.613
LEye coords (116.0, 207.0), REye coords (0.0, 0.0), timeStamp: 2017-03-05 12:24:05.647
LEye coords (116.0, 207.0), REye coords (121.0, 198.0), timeStamp: 2017-03-05 12:24:05.680
LEye coords (116.0, 207.0), REye coords (121.0, 198.0), timeStamp: 2017-03-05 12:24:05.723
LEye coords (116.0, 207.0), REye coords (121.0, 198.0), timeStamp: 2017-03-05 12:24:05.756
LEye coords (116.0, 208.0), REye coords (121.0, 199.0), timeStamp: 2017-03-05 12:24:05.790
LEye coords (116.0, 208.0), REye coords (0.0, 0.0), timeStamp: 2017-03-05 12:24:05.834
LEye coords (116.0, 208.0), REye coords (0.0, 0.0), timeStamp: 2017-03-05 12:24:05.868
LEye coords (117.0, 208.0), REye coords (121.0, 198.0), timeStamp: 2017-03-05 12:24:05.901
LEye coords (118.0, 207.0), REye coords (121.0, 198.0), timeStamp: 2017-03-05 12:24:05.945
LEye coords (118.0, 207.0), REye coords (122.0, 198.0), timeStamp: 2017-03-05 12:24:05.979
LEye coords (119.0, 207.0), REye coords (122.0, 197.0), timeStamp: 2017-03-05 12:24:06.013
