LEye coords (179.0, 234.0), REye coords (195.0, 271.0), timeStamp: 2017-03-05 12:24:11.861
LEye coords (239.0, 155.0), REye coords (260.0, 180.0), timeStamp: 2017-03-05 12:24:11.904
LEye coords (239.0, 155.0), REye coords (260.0, 180.0), timeStamp: 2017-03-05 12:24:11.937
LEye coords (0.0, 0.0), REye coords (260.0, 179.0), timeStamp: 2017-03-05 12:24:11.971
LEye coords (239.0, 155.0), REye coords (259.0, 179.0), timeStamp: 2017-03-05 12:24:12.014
LEye coords (0.0, 0.0), REye coords (260.0, 179.0), timeStamp: 2017-03-05 12:24:12.048
LEye coords (240.0, 155.0), REye coords (260.0, 179.0), timeStamp: 2017-03-05 12:24:12.082
LEye coords (240.0, 155.0), REye coords (260.0, 179.0), timeStamp: 2017-03-05 12:24:12.126
LEye coords (241.0, 155.0), REye coords (260.0, 178.0), timeStamp: 2017-03-05 12:24:12.160
LEye coords (241.0, 156.0), REye coords (260.0, 178.0), timeStamp: 2017-03-05 12:24:12.194
LEye coords (241.0, 155.0), REye coords (261.0, 178.0), timeStamp: 2017-03-05 12:24:12.228
LEye coords (241.0, 156.0), REye coords (261.0, 178.0), timeStamp: 2017-03-05 12:24:12.273
LEye coords (240.0, 155.0), REye coords (260.0, 177.0), timeStamp: 2017-03-05 12:24:12.306
LEye coords (239.0, 154.0), REye coords (260.0, 177.0), timeStamp: 2017-03-05 12:24:12.350
LEye coords (238.0, 154.0), REye coords (259.0, 176.0), timeStamp: 2017-03-05 12:24:12.383
LEye coords (237.0, 153.0), REye coords (259.0, 175.0), timeStamp: 2017-03-05 12:24:12.417
LEye coords (236.0, 152.0), REye coords (258.0, 173.0), timeStamp: 2017-03-05 12:24:12.451
LEye coords (235.0, 150.0), REye coords (257.0, 172.0), timeStamp: 2017-03-05 12:24:12.495
LEye coords (234.0, 149.0), REye coords (256.0, 170.0), timeStamp: 2017-03-05 12:24:12.529
LEye coords (233.0, 147.0), REye coords (254.0, 168.0), timeStamp: 2017-03-05 12:24:12.562
LEye coords (231.0, 145.0), REye coords (240.0, 117.0), timeStamp: 2017-03-05 12:24:12.607
LEye coords (230.0, 143.0), REye coords (235.0, 118.0), timeStamp: 2017-03-05 12:24:12.640
LEye coords (205.0, 93.0), REye coords (236.0, 113.0), timeStamp: 2017-03-05 12:24:12.674
LEye coords (208.0, 92.0), REye coords (235.0, 107.0), timeStamp: 2017-03-05 12:24:12.718
LEye coords (207.0, 93.0), REye coords (234.0, 107.0), timeStamp: 2017-03-05 12:24:12.751
LEye coords (207.0, 93.0), REye coords (236.0, 100.0), timeStamp: 2017-03-05 12:24:12.785
LEye coords (207.0, 90.0), REye coords (238.0, 97.0), timeStamp: 2017-03-05 12:24:12.828
LEye coords (207.0, 89.0), REye coords (236.0, 93.0), timeStamp: 2017-03-05 12:24:12.863
LEye coords (207.0, 89.0), REye coords (237.0, 94.0), timeStamp: 2017-03-05 12:24:12.896
LEye coords (207.0, 88.0), REye coords (237.0, 92.0), timeStamp: 2017-03-05 12:24:12.939
LEye coords (208.0, 88.0), REye coords (238.0, 93.0), timeStamp: 2017-03-05 12:24:12.973
LEye coords (208.0, 87.0), REye coords (239.0, 94.0), timeStamp: 2017-03-05 12:24:13.006
LEye coords (208.0, 88.0), REye coords (240.0, 93.0), timeStamp: 2017-03-05 12:24:13.050
LEye coords (209.0, 87.0), REye coords (240.0, 93.0), timeStamp: 2017-03-05 12:24:13.084
