LEye coords (209.0, 98.0), REye coords (241.0, 105.0), timeStamp: 2017-03-05 12:24:13.194
LEye coords (209.0, 98.0), REye coords (241.0, 105.0), timeStamp: 2017-03-05 12:24:13.228
LEye coords (209.0, 98.0), REye coords (241.0, 105.0), timeStamp: 2017-03-05 12:24:13.272
LEye coords (209.0, 98.0), REye coords (241.0, 105.0), timeStamp: 2017-03-05 12:24:13.307
LEye coords (209.0, 98.0), REye coords (241.0, 104.0), timeStamp: 2017-03-05 12:24:13.341
LEye coords (209.0, 98.0), REye coords (240.0, 104.0), timeStamp: 2017-03-05 12:24:13.386
LEye coords (209.0, 98.0), REye coords (240.0, 105.0), timeStamp: 2017-03-05 12:24:13.419
LEye coords (209.0, 98.0), REye coords (241.0, 105.0), timeStamp: 2017-03-05 12:24:13.453
LEye coords (209.0, 98.0), REye coords (240.0, 105.0), timeStamp: 2017-03-05 12:24:13.496
LEye coords (297.0, 173.0), REye coords (318.0, 204.0), timeStamp: 2017-03-05 12:24:13.530
LEye coords (295.0, 180.0), REye coords (317.0, 203.0), timeStamp: 2017-03-05 12:24:13.563
LEye coords (295.0, 181.0), REye coords (315.0, 204.0), timeStamp: 2017-03-05 12:24:13.607
LEye coords (294.0, 183.0), REye coords (316.0, 204.0), timeStamp: 2017-03-05 12:24:13.641
LEye coords (293.0, 183.0), REye coords (316.0, 203.0), timeStamp: 2017-03-05 12:24:13.675
LEye coords (290.0, 183.0), REye coords (316.0, 204.0), timeStamp: 2017-03-05 12:24:13.718
LEye coords (287.0, 175.0), REye coords (315.0, 201.0), timeStamp: 2017-03-05 12:24:13.752
LEye coords (287.0, 179.0), REye coords (318.0, 201.0), timeStamp: 2017-03-05 12:24:13.785
LEye coords (288.0, 180.0), REye coords (318.0, 202.0), timeStamp: 2017-03-05 12:24:13.829
LEye coords (288.0, 179.0), REye coords (317.0, 202.0), timeStamp: 2017-03-05 12:24:13.862
LEye coords (288.0, 178.0), REye coords (318.0, 201.0), timeStamp: 2017-03-05 12:24:13.896
LEye coords (289.0, 178.0), REye coords (317.0, 201.0), timeStamp: 2017-03-05 12:24:13.941
LEye coords (289.0, 178.0), REye coords (318.0, 201.0), timeStamp: 2017-03-05 12:24:13.974
LEye coords (289.0, 178.0), REye coords (319.0, 198.0), timeStamp: 2017-03-05 12:24:14.007
LEye coords (289.0, 178.0), REye coords (319.0, 199.0), timeStamp: 2017-03-05 12:24:14.052
LEye coords (290.0, 178.0), REye coords (319.0, 199.0), timeStamp: 2017-03-05 12:24:14.086
LEye coords (290.0, 179.0), REye coords (318.0, 199.0), timeStamp: 2017-03-05 12:24:14.120
LEye coords (290.0, 179.0), REye coords (318.0, 199.0), timeStamp: 2017-03-05 12:24:14.154
LEye coords (291.0, 179.0), REye coords (318.0, 199.0), timeStamp: 2017-03-05 12:24:14.199
LEye coords (291.0, 179.0), REye coords (318.0, 199.0), timeStamp: 2017-03-05 12:24:14.232
LEye coords (291.0, 179.0), REye coords (318.0, 199.0), timeStamp: 2017-03-05 12:24:14.267
