LEye coords (232.0, 103.0), REye coords (262.0, 101.0), timeStamp: 2017-03-05 12:24:09.786
LEye coords (232.0, 103.0), REye coords (262.0, 101.0), timeStamp: 2017-03-05 12:24:09.829
LEye coords (232.0, 103.0), REye coords (262.0, 101.0), timeStamp: 2017-03-05 12:24:09.863
LEye coords (232.0, 103.0), REye coords (262.0, 101.0), timeStamp: 2017-03-05 12:24:09.907
LEye coords (232.0, 102.0), REye coords (263.0, 102.0), timeStamp: 2017-03-05 12:24:09.939
LEye coords (232.0, 102.0), REye coords (263.0, 101.0), timeStamp: 2017-03-05 12:24:10.088
LEye coords (232.0, 102.0), REye coords (263.0, 102.0), timeStamp: 2017-03-05 12:24:10.121
LEye coords (233.0, 102.0), REye coords (263.0, 102.0), timeStamp: 2017-03-05 12:24:10.165
LEye coords (232.0, 100.0), REye coords (263.0, 101.0), timeStamp: 2017-03-05 12:24:10.199
LEye coords (232.0, 99.0), REye coords (263.0, 100.0), timeStamp: 2017-03-05 12:24:10.233
LEye coords (232.0, 97.0), REye coords (263.0, 99.0), timeStamp: 2017-03-05 12:24:10.277
LEye coords (232.0, 95.0), REye coords (263.0, 98.0), timeStamp: 2017-03-05 12:24:10.310
LEye coords (232.0, 93.0), REye coords (263.0, 97.0), timeStamp: 2017-03-05 12:24:10.343
LEye coords (232.0, 91.0), REye coords (263.0, 95.0), timeStamp: 2017-03-05 12:24:10.388
LEye coords (232.0, 89.0), REye coords (263.0, 93.0), timeStamp: 2017-03-05 12:24:10.421
LEye coords (232.0, 87.0), REye coords (263.0, 91.0), timeStamp: 2017-03-05 12:24:10.455
LEye coords (232.0, 86.0), REye coords (263.0, 90.0), timeStamp: 2017-03-05 12:24:10.499
LEye coords (232.0, 84.0), REye coords (263.0, 89.0), timeStamp: 2017-03-05 12:24:10.533
LEye coords (232.0, 83.0), REye coords (263.0, 87.0), timeStamp: 2017-03-05 12:24:10.566
LEye coords (232.0, 81.0), REye coords (263.0, 86.0), timeStamp: 2017-03-05 12:24:10.611
LEye coords (232.0, 80.0), REye coords (263.0, 85.0), timeStamp: 2017-03-05 12:24:10.644
