LEye coords (462.0, 177.0), REye coords (0.0, 0.0), timeStamp: 2017-03-05 12:24:20.154
LEye coords (462.0, 178.0), REye coords (0.0, 0.0), timeStamp: 2017-03-05 12:24:20.187
LEye coords (462.0, 179.0), REye coords (0.0, 0.0), timeStamp: 2017-03-05 12:24:20.231
LEye coords (462.0, 180.0), REye coords (0.0, 0.0), timeStamp: 2017-03-05 12:24:20.265
LEye coords (462.0, 181.0), REye coords (0.0, 0.0), timeStamp: 2017-03-05 12:24:20.299
LEye coords (462.0, 182.0), REye coords (0.0, 0.0), timeStamp: 2017-03-05 12:24:20.333
LEye coords (408.0, 180.0), REye coords (468.0, 166.0), timeStamp: 2017-03-05 12:24:20.378
LEye coords (216.0, 148.0), REye coords (226.0, 141.0), timeStamp: 2017-03-05 12:24:20.411
LEye coords (214.0, 150.0), REye coords (243.0, 147.0), timeStamp: 2017-03-05 12:24:20.445
LEye coords (215.0, 152.0), REye coords (243.0, 163.0), timeStamp: 2017-03-05 12:24:20.490
LEye coords (215.0, 152.0), REye coords (243.0, 168.0), timeStamp: 2017-03-05 12:24:20.523
LEye coords (215.0, 151.0), REye coords (242.0, 171.0), timeStamp: 2017-03-05 12:24:20.556
LEye coords (217.0, 154.0), REye coords (242.0, 182.0), timeStamp: 2017-03-05 12:24:20.599
LEye coords (215.0, 154.0), REye coords (242.0, 180.0), timeStamp: 2017-03-05 12:24:20.633
LEye coords (219.0, 129.0), REye coords (253.0, 136.0), timeStamp: 2017-03-05 12:24:20.676
LEye coords (222.0, 118.0), REye coords (0.0, 0.0), timeStamp: 2017-03-05 12:24:20.710
LEye coords (0.0, 0.0), REye coords (0.0, 0.0), timeStamp: 2017-03-05 12:24:20.743
LEye coords (223.0, 110.0), REye coords (0.0, 0.0), timeStamp: 2017-03-05 12:24:20.786
LEye coords (224.0, 104.0), REye coords (0.0, 0.0), timeStamp: 2017-03-05 12:24:20.820
LEye coords (226.0, 101.0), REye coords (259.0, 122.0), timeStamp: 2017-03-05 12:24:20.854
LEye coords (231.0, 84.0), REye coords (262.0, 113.0), timeStamp: 2017-03-05 12:24:20.898
LEye coords (253.0, 71.0), REye coords (282.0, 75.0), timeStamp: 2017-03-05 12:24:20.932
LEye coords (251.0, 68.0), REye coords (285.0, 72.0), timeStamp: 2017-03-05 12:24:20.966
LEye coords (250.0, 67.0), REye coords (284.0, 73.0), timeStamp: 2017-03-05 12:24:21.010
LEye coords (250.0, 67.0), REye coords (283.0, 70.0), timeStamp: 2017-03-05 12:24:21.044
LEye coords (249.0, 67.0), REye coords (282.0, 69.0), timeStamp: 2017-03-05 12:24:21.078
LEye coords (250.0, 67.0), REye coords (282.0, 68.0), timeStamp: 2017-03-05 12:24:21.111
LEye coords (250.0, 68.0), REye coords (281.0, 67.0), timeStamp: 2017-03-05 12:24:21.156
LEye coords (251.0, 68.0), REye coords (281.0, 67.0), timeStamp: 2017-03-05 12:24:21.191
LEye coords (251.0, 68.0), REye coords (281.0, 67.0), timeStamp: 2017-03-05 12:24:21.224
LEye coords (250.0, 68.0), REye coords (280.0, 67.0), timeStamp: 2017-03-05 12:24:21.269
LEye coords (250.0, 68.0), REye coords (280.0, 67.0), timeStamp: 2017-03-05 12:24:21.302
LEye coords (250.0, 69.0), REye coords (279.0, 67.0), timeStamp: 2017-03-05 12:24:21.336
LEye coords (249.0, 68.0), REye coords (280.0, 66.0), timeStamp: 2017-03-05 12:24:21.380
LEye coords (249.0, 69.0), REye coords (279.0, 66.0), timeStamp: 2017-03-05 12:24:21.413
LEye coords (249.0, 69.0), REye coords (279.0, 67.0), timeStamp: 2017-03-05 12:24:21.446
LEye coords (249.0, 69.0), REye coords (279.0, 67.0), timeStamp: 2017-03-05 12:24:21.491
LEye coords (248.0, 69.0), REye coords (279.0, 67.0), timeStamp: 2017-03-05 12:24:21.525
