LEye coords (125.0, 82.0), REye coords (122.0, 68.0), timeStamp: 2017-03-05 12:24:58.568
LEye coords (125.0, 82.0), REye coords (122.0, 67.0), timeStamp: 2017-03-05 12:24:58.611
LEye coords (126.0, 82.0), REye coords (122.0, 67.0), timeStamp: 2017-03-05 12:24:58.644
LEye coords (126.0, 81.0), REye coords (123.0, 67.0), timeStamp: 2017-03-05 12:24:58.677
LEye coords (126.0, 81.0), REye coords (123.0, 67.0), timeStamp: 2017-03-05 12:24:58.722
LEye coords (126.0, 81.0), REye coords (123.0, 67.0), timeStamp: 2017-03-05 12:24:58.755
LEye coords (126.0, 82.0), REye coords (123.0, 67.0), timeStamp: 2017-03-05 12:24:58.789
LEye coords (126.0, 82.0), REye coords (124.0, 67.0), timeStamp: 2017-03-05 12:24:58.834
LEye coords (299.0, 114.0), REye coords (313.0, 129.0), timeStamp: 2017-03-05 12:24:58.868
LEye coords (291.0, 147.0), REye coords (302.0, 152.0), timeStamp: 2017-03-05 12:24:58.901
LEye coords (290.0, 149.0), REye coords (305.0, 137.0), timeStamp: 2017-03-05 12:24:58.946
LEye coords (290.0, 150.0), REye coords (305.0, 139.0), timeStamp: 2017-03-05 12:24:58.980
LEye coords (291.0, 151.0), REye coords (305.0, 135.0), timeStamp: 2017-03-05 12:24:59.014
LEye coords (302.0, 147.0), REye coords (310.0, 117.0), timeStamp: 2017-03-05 12:24:59.048
LEye coords (312.0, 101.0), REye coords (324.0, 93.0), timeStamp: 2017-03-05 12:24:59.093
LEye coords (314.0, 108.0), REye coords (324.0, 92.0), timeStamp: 2017-03-05 12:24:59.126
LEye coords (314.0, 111.0), REye coords (324.0, 93.0), timeStamp: 2017-03-05 12:24:59.161
LEye coords (314.0, 112.0), REye coords (324.0, 93.0), timeStamp: 2017-03-05 12:24:59.205
LEye coords (314.0, 113.0), REye coords (322.0, 93.0), timeStamp: 2017-03-05 12:24:59.239
LEye coords (315.0, 113.0), REye coords (322.0, 95.0), timeStamp: 2017-03-05 12:24:59.272
LEye coords (315.0, 112.0), REye coords (321.0, 95.0), timeStamp: 2017-03-05 12:24:59.316
LEye coords (315.0, 113.0), REye coords (321.0, 94.0), timeStamp: 2017-03-05 12:24:59.349
LEye coords (315.0, 114.0), REye coords (320.0, 94.0), timeStamp: 2017-03-05 12:24:59.383
LEye coords (315.0, 114.0), REye coords (320.0, 94.0), timeStamp: 2017-03-05 12:24:59.417
LEye coords (316.0, 115.0), REye coords (320.0, 94.0), timeStamp: 2017-03-05 12:24:59.462
LEye coords (316.0, 115.0), REye coords (320.0, 94.0), timeStamp: 2017-03-05 12:24:59.496
LEye coords (316.0, 115.0), REye coords (320.0, 94.0), timeStamp: 2017-03-05 12:24:59.529
LEye coords (316.0, 115.0), REye coords (319.0, 95.0), timeStamp: 2017-03-05 12:24:59.572
LEye coords (316.0, 116.0), REye coords (319.0, 94.0), timeStamp: 2017-03-05 12:24:59.605
LEye coords (317.0, 116.0), REye coords (319.0, 96.0), timeStamp: 2017-03-05 12:24:59.649
LEye coords (317.0, 117.0), REye coords (319.0, 96.0), timeStamp: 2017-03-05 12:24:59.683
LEye coords (317.0, 117.0), REye coords (320.0, 96.0), timeStamp: 2017-03-05 12:24:59.717
