LEye coords (237.0, 157.0), REye coords (240.0, 130.0), timeStamp: 2017-03-05 12:24:59.829
LEye coords (237.0, 158.0), REye coords (240.0, 132.0), timeStamp: 2017-03-05 12:24:59.863
LEye coords (238.0, 159.0), REye coords (239.0, 134.0), timeStamp: 2017-03-05 12:24:59.908
LEye coords (238.0, 159.0), REye coords (239.0, 134.0), timeStamp: 2017-03-05 12:24:59.941
LEye coords (238.0, 160.0), REye coords (239.0, 135.0), timeStamp: 2017-03-05 12:24:59.974
LEye coords (238.0, 160.0), REye coords (239.0, 137.0), timeStamp: 2017-03-05 12:25:00.018
LEye coords (238.0, 161.0), REye coords (239.0, 139.0), timeStamp: 2017-03-05 12:25:00.052
LEye coords (238.0, 162.0), REye coords (239.0, 140.0), timeStamp: 2017-03-05 12:25:00.086
LEye coords (238.0, 163.0), REye coords (239.0, 142.0), timeStamp: 2017-03-05 12:25:00.130
LEye coords (284.0, 167.0), REye coords (285.0, 143.0), timeStamp: 2017-03-05 12:25:00.163
LEye coords (328.0, 164.0), REye coords (334.0, 160.0), timeStamp: 2017-03-05 12:25:00.197
LEye coords (328.0, 163.0), REye coords (335.0, 158.0), timeStamp: 2017-03-05 12:25:00.232
LEye coords (328.0, 162.0), REye coords (334.0, 157.0), timeStamp: 2017-03-05 12:25:00.274
LEye coords (329.0, 158.0), REye coords (335.0, 157.0), timeStamp: 2017-03-05 12:25:00.307
LEye coords (332.0, 137.0), REye coords (339.0, 147.0), timeStamp: 2017-03-05 12:25:00.352
LEye coords (335.0, 129.0), REye coords (333.0, 154.0), timeStamp: 2017-03-05 12:25:00.385
LEye coords (334.0, 132.0), REye coords (334.0, 152.0), timeStamp: 2017-03-05 12:25:00.419
LEye coords (333.0, 135.0), REye coords (336.0, 149.0), timeStamp: 2017-03-05 12:25:00.463
LEye coords (333.0, 135.0), REye coords (336.0, 149.0), timeStamp: 2017-03-05 12:25:00.496
LEye coords (333.0, 136.0), REye coords (337.0, 149.0), timeStamp: 2017-03-05 12:25:00.530
LEye coords (334.0, 136.0), REye coords (337.0, 148.0), timeStamp: 2017-03-05 12:25:00.575
LEye coords (334.0, 136.0), REye coords (338.0, 147.0), timeStamp: 2017-03-05 12:25:00.608
LEye coords (335.0, 136.0), REye coords (338.0, 147.0), timeStamp: 2017-03-05 12:25:00.642
LEye coords (336.0, 137.0), REye coords (340.0, 146.0), timeStamp: 2017-03-05 12:25:00.686
LEye coords (338.0, 137.0), REye coords (342.0, 146.0), timeStamp: 2017-03-05 12:25:00.720
LEye coords (340.0, 137.0), REye coords (343.0, 146.0), timeStamp: 2017-03-05 12:25:00.753
LEye coords (341.0, 138.0), REye coords (344.0, 146.0), timeStamp: 2017-03-05 12:25:00.787
LEye coords (342.0, 139.0), REye coords (345.0, 145.0), timeStamp: 2017-03-05 12:25:00.831
LEye coords (343.0, 139.0), REye coords (346.0, 145.0), timeStamp: 2017-03-05 12:25:00.866
