LEye coords (233.0, 113.0), REye coords (252.0, 111.0), timeStamp: 2017-03-05 12:24:57.352
LEye coords (176.0, 150.0), REye coords (190.0, 147.0), timeStamp: 2017-03-05 12:24:57.385
LEye coords (177.0, 150.0), REye coords (188.0, 158.0), timeStamp: 2017-03-05 12:24:57.428
LEye coords (178.0, 152.0), REye coords (191.0, 140.0), timeStamp: 2017-03-05 12:24:57.463
LEye coords (178.0, 150.0), REye coords (191.0, 143.0), timeStamp: 2017-03-05 12:24:57.496
LEye coords (179.0, 152.0), REye coords (191.0, 143.0), timeStamp: 2017-03-05 12:24:57.540
LEye coords (178.0, 152.0), REye coords (191.0, 144.0), timeStamp: 2017-03-05 12:24:57.574
LEye coords (178.0, 153.0), REye coords (190.0, 144.0), timeStamp: 2017-03-05 12:24:57.606
LEye coords (178.0, 153.0), REye coords (191.0, 143.0), timeStamp: 2017-03-05 12:24:57.649
LEye coords (119.0, 111.0), REye coords (123.0, 97.0), timeStamp: 2017-03-05 12:24:57.683
LEye coords (99.0, 97.0), REye coords (99.0, 73.0), timeStamp: 2017-03-05 12:24:57.716
LEye coords (99.0, 96.0), REye coords (98.0, 77.0), timeStamp: 2017-03-05 12:24:57.759
LEye coords (100.0, 97.0), REye coords (99.0, 78.0), timeStamp: 2017-03-05 12:24:57.793
LEye coords (100.0, 97.0), REye coords (98.0, 78.0), timeStamp: 2017-03-05 12:24:57.827
LEye coords (100.0, 98.0), REye coords (97.0, 80.0), timeStamp: 2017-03-05 12:24:57.871
LEye coords (100.0, 98.0), REye coords (98.0, 79.0), timeStamp: 2017-03-05 12:24:57.905
LEye coords (99.0, 96.0), REye coords (99.0, 81.0), timeStamp: 2017-03-05 12:24:57.938
LEye coords (97.0, 98.0), REye coords (98.0, 82.0), timeStamp: 2017-03-05 12:24:57.981
LEye coords (96.0, 103.0), REye coords (96.0, 86.0), timeStamp: 2017-03-05 12:24:58.014
LEye coords (96.0, 107.0), REye coords (95.0, 89.0), timeStamp: 2017-03-05 12:24:58.048
LEye coords (95.0, 109.0), REye coords (94.0, 91.0), timeStamp: 2017-03-05 12:24:58.092
LEye coords (95.0, 110.0), REye coords (94.0, 92.0), timeStamp: 2017-03-05 12:24:58.126
LEye coords (94.0, 112.0), REye coords (94.0, 93.0), timeStamp: 2017-03-05 12:24:58.170
LEye coords (94.0, 112.0), REye coords (94.0, 93.0), timeStamp: 2017-03-05 12:24:58.202
LEye coords (94.0, 112.0), REye coords (94.0, 93.0), timeStamp: 2017-03-05 12:24:58.236
LEye coords (94.0, 112.0), REye coords (94.0, 93.0), timeStamp: 2017-03-05 12:24:58.279
LEye coords (95.0, 111.0), REye coords (93.0, 93.0), timeStamp: 2017-03-05 12:24:58.312
LEye coords (95.0, 111.0), REye coords (93.0, 93.0), timeStamp: 2017-03-05 12:24:58.345
LEye coords (95.0, 111.0), REye coords (93.0, 92.0), timeStamp: 2017-03-05 12:24:58.390
LEye coords (95.0, 110.0), REye coords (93.0, 92.0), timeStamp: 2017-03-05 12:24:58.424
LEye coords (94.0, 110.0), REye coords (93.0, 91.0), timeStamp: 2017-03-05 12:24:58.457
