LEye coords (239.0, 179.0), REye coords (261.0, 212.0), timeStamp: 2017-03-05 12:24:22.927
LEye coords (239.0, 179.0), REye coords (262.0, 212.0), timeStamp: 2017-03-05 12:24:22.971
LEye coords (240.0, 180.0), REye coords (262.0, 213.0), timeStamp: 2017-03-05 12:24:23.004
LEye coords (240.0, 180.0), REye coords (262.0, 213.0), timeStamp: 2017-03-05 12:24:23.039
LEye coords (240.0, 180.0), REye coords (263.0, 213.0), timeStamp: 2017-03-05 12:24:23.083
LEye coords (240.0, 181.0), REye coords (263.0, 214.0), timeStamp: 2017-03-05 12:24:23.115
LEye coords (240.0, 181.0), REye coords (263.0, 214.0), timeStamp: 2017-03-05 12:24:23.150
LEye coords (240.0, 182.0), REye coords (263.0, 214.0), timeStamp: 2017-03-05 12:24:23.183
LEye coords (240.0, 182.0), REye coords (263.0, 214.0), timeStamp: 2017-03-05 12:24:23.227
LEye coords (241.0, 183.0), REye coords (263.0, 215.0), timeStamp: 2017-03-05 12:24:23.262
LEye coords (240.0, 183.0), REye coords (263.0, 215.0), timeStamp: 2017-03-05 12:24:23.296
LEye coords (240.0, 183.0), REye coords (263.0, 216.0), timeStamp: 2017-03-05 12:24:23.340
LEye coords (241.0, 184.0), REye coords (263.0, 217.0), timeStamp: 2017-03-05 12:24:23.374
LEye coords (240.0, 184.0), REye coords (263.0, 217.0), timeStamp: 2017-03-05 12:24:23.408
LEye coords (241.0, 184.0), REye coords (263.0, 217.0), timeStamp: 2017-03-05 12:24:23.452
LEye coords (241.0, 185.0), REye coords (264.0, 218.0), timeStamp: 2017-03-05 12:24:23.486
LEye coords (241.0, 185.0), REye coords (264.0, 217.0), timeStamp: 2017-03-05 12:24:23.519
LEye coords (241.0, 185.0), REye coords (265.0, 217.0), timeStamp: 2017-03-05 12:24:23.554
LEye coords (241.0, 185.0), REye coords (265.0, 218.0), timeStamp: 2017-03-05 12:24:23.597
LEye coords (240.0, 185.0), REye coords (265.0, 218.0), timeStamp: 2017-03-05 12:24:23.631
LEye coords (241.0, 185.0), REye coords (265.0, 218.0), timeStamp: 2017-03-05 12:24:23.674
LEye coords (241.0, 186.0), REye coords (265.0, 218.0), timeStamp: 2017-03-05 12:24:23.708
LEye coords (241.0, 186.0), REye coords (265.0, 219.0), timeStamp: 2017-03-05 12:24:23.741
LEye coords (241.0, 186.0), REye coords (266.0, 219.0), timeStamp: 2017-03-05 12:24:23.785
LEye coords (241.0, 186.0), REye coords (266.0, 219.0), timeStamp: 2017-03-05 12:24:23.819
LEye coords (241.0, 186.0), REye coords (266.0, 219.0), timeStamp: 2017-03-05 12:24:23.852
LEye coords (242.0, 186.0), REye coords (266.0, 219.0), timeStamp: 2017-03-05 12:24:23.897
LEye coords (242.0, 186.0), REye coords (266.0, 219.0), timeStamp: 2017-03-05 12:24:23.930
LEye coords (242.0, 187.0), REye coords (266.0, 219.0), timeStamp: 2017-03-05 12:24:23.964
LEye coords (242.0, 187.0), REye coords (266.0, 219.0), timeStamp: 2017-03-05 12:24:23.998
LEye coords (242.0, 187.0), REye coords (266.0, 219.0), timeStamp: 2017-03-05 12:24:24.042
