LEye coords (261.0, 150.0), REye coords (272.0, 130.0), timeStamp: 2017-03-05 12:25:03.677
LEye coords (261.0, 150.0), REye coords (271.0, 130.0), timeStamp: 2017-03-05 12:25:03.710
LEye coords (261.0, 150.0), REye coords (271.0, 131.0), timeStamp: 2017-03-05 12:25:03.755
LEye coords (262.0, 151.0), REye coords (271.0, 132.0), timeStamp: 2017-03-05 12:25:03.789
LEye coords (262.0, 151.0), REye coords (271.0, 133.0), timeStamp: 2017-03-05 12:25:03.823
LEye coords (262.0, 150.0), REye coords (271.0, 132.0), timeStamp: 2017-03-05 12:25:03.867
LEye coords (262.0, 151.0), REye coords (271.0, 132.0), timeStamp: 2017-03-05 12:25:03.900
LEye coords (262.0, 151.0), REye coords (272.0, 132.0), timeStamp: 2017-03-05 12:25:03.933
LEye coords (262.0, 151.0), REye coords (272.0, 132.0), timeStamp: 2017-03-05 12:25:03.978
LEye coords (261.0, 149.0), REye coords (272.0, 132.0), timeStamp: 2017-03-05 12:25:04.011
LEye coords (261.0, 149.0), REye coords (272.0, 132.0), timeStamp: 2017-03-05 12:25:04.045
LEye coords (262.0, 147.0), REye coords (272.0, 131.0), timeStamp: 2017-03-05 12:25:04.090
LEye coords (261.0, 144.0), REye coords (273.0, 130.0), timeStamp: 2017-03-05 12:25:04.123
LEye coords (261.0, 141.0), REye coords (274.0, 129.0), timeStamp: 2017-03-05 12:25:04.156
LEye coords (261.0, 138.0), REye coords (274.0, 128.0), timeStamp: 2017-03-05 12:25:04.202
LEye coords (261.0, 135.0), REye coords (275.0, 126.0), timeStamp: 2017-03-05 12:25:04.235
LEye coords (261.0, 131.0), REye coords (275.0, 125.0), timeStamp: 2017-03-05 12:25:04.269
LEye coords (261.0, 128.0), REye coords (276.0, 123.0), timeStamp: 2017-03-05 12:25:04.303
LEye coords (261.0, 125.0), REye coords (276.0, 122.0), timeStamp: 2017-03-05 12:25:04.347
LEye coords (261.0, 122.0), REye coords (276.0, 121.0), timeStamp: 2017-03-05 12:25:04.382
LEye coords (262.0, 120.0), REye coords (277.0, 119.0), timeStamp: 2017-03-05 12:25:04.415
LEye coords (262.0, 118.0), REye coords (277.0, 117.0), timeStamp: 2017-03-05 12:25:04.459
LEye coords (262.0, 115.0), REye coords (277.0, 117.0), timeStamp: 2017-03-05 12:25:04.493
LEye coords (262.0, 113.0), REye coords (277.0, 116.0), timeStamp: 2017-03-05 12:25:04.527
LEye coords (262.0, 111.0), REye coords (278.0, 115.0), timeStamp: 2017-03-05 12:25:04.571
