LEye coords (461.0, 105.0), REye coords (465.0, 107.0), timeStamp: 2017-03-05 12:25:00.976
LEye coords (461.0, 105.0), REye coords (465.0, 107.0), timeStamp: 2017-03-05 12:25:01.009
LEye coords (462.0, 106.0), REye coords (466.0, 107.0), timeStamp: 2017-03-05 12:25:01.054
LEye coords (463.0, 106.0), REye coords (466.0, 107.0), timeStamp: 2017-03-05 12:25:01.087
LEye coords (463.0, 106.0), REye coords (467.0, 107.0), timeStamp: 2017-03-05 12:25:01.123
LEye coords (463.0, 107.0), REye coords (467.0, 107.0), timeStamp: 2017-03-05 12:25:01.167
LEye coords (464.0, 108.0), REye coords (468.0, 107.0), timeStamp: 2017-03-05 12:25:01.201
LEye coords (406.0, 125.0), REye coords (466.0, 107.0), timeStamp: 2017-03-05 12:25:01.234
LEye coords (248.0, 159.0), REye coords (260.0, 110.0), timeStamp: 2017-03-05 12:25:01.268
LEye coords (251.0, 159.0), REye coords (263.0, 106.0), timeStamp: 2017-03-05 12:25:01.312
LEye coords (251.0, 157.0), REye coords (264.0, 110.0), timeStamp: 2017-03-05 12:25:01.346
LEye coords (251.0, 157.0), REye coords (264.0, 110.0), timeStamp: 2017-03-05 12:25:01.379
LEye coords (254.0, 159.0), REye coords (266.0, 112.0), timeStamp: 2017-03-05 12:25:01.423
LEye coords (252.0, 160.0), REye coords (267.0, 115.0), timeStamp: 2017-03-05 12:25:01.456
LEye coords (308.0, 177.0), REye coords (361.0, 183.0), timeStamp: 2017-03-05 12:25:01.490
LEye coords (335.0, 191.0), REye coords (381.0, 192.0), timeStamp: 2017-03-05 12:25:01.534
LEye coords (347.0, 198.0), REye coords (386.0, 195.0), timeStamp: 2017-03-05 12:25:01.568
LEye coords (383.0, 219.0), REye coords (386.0, 200.0), timeStamp: 2017-03-05 12:25:01.601
LEye coords (385.0, 218.0), REye coords (396.0, 197.0), timeStamp: 2017-03-05 12:25:01.645
LEye coords (383.0, 220.0), REye coords (388.0, 206.0), timeStamp: 2017-03-05 12:25:01.679
LEye coords (385.0, 219.0), REye coords (389.0, 205.0), timeStamp: 2017-03-05 12:25:01.712
LEye coords (392.0, 218.0), REye coords (398.0, 206.0), timeStamp: 2017-03-05 12:25:01.756
LEye coords (396.0, 218.0), REye coords (402.0, 207.0), timeStamp: 2017-03-05 12:25:01.789
LEye coords (398.0, 219.0), REye coords (405.0, 208.0), timeStamp: 2017-03-05 12:25:01.823
LEye coords (400.0, 219.0), REye coords (406.0, 209.0), timeStamp: 2017-03-05 12:25:01.867
LEye coords (402.0, 219.0), REye coords (408.0, 209.0), timeStamp: 2017-03-05 12:25:01.901
LEye coords (403.0, 219.0), REye coords (409.0, 209.0), timeStamp: 2017-03-05 12:25:01.934
LEye coords (404.0, 219.0), REye coords (409.0, 210.0), timeStamp: 2017-03-05 12:25:01.979
LEye coords (406.0, 221.0), REye coords (412.0, 212.0), timeStamp: 2017-03-05 12:25:02.012
LEye coords (408.0, 222.0), REye coords (413.0, 213.0), timeStamp: 2017-03-05 12:25:02.046
LEye coords (410.0, 224.0), REye coords (414.0, 214.0), timeStamp: 2017-03-05 12:25:02.089
LEye coords (411.0, 225.0), REye coords (415.0, 216.0), timeStamp: 2017-03-05 12:25:02.122
LEye coords (412.0, 227.0), REye coords (416.0, 217.0), timeStamp: 2017-03-05 12:25:02.156
LEye coords (413.0, 228.0), REye coords (417.0, 218.0), timeStamp: 2017-03-05 12:25:02.201
LEye coords (414.0, 229.0), REye coords (418.0, 219.0), timeStamp: 2017-03-05 12:25:02.234
