LEye coords (415.0, 146.0), REye coords (429.0, 150.0), timeStamp: 2017-03-05 12:25:06.086
LEye coords (415.0, 146.0), REye coords (429.0, 150.0), timeStamp: 2017-03-05 12:25:06.120
LEye coords (415.0, 146.0), REye coords (429.0, 149.0), timeStamp: 2017-03-05 12:25:06.163
LEye coords (415.0, 146.0), REye coords (429.0, 149.0), timeStamp: 2017-03-05 12:25:06.197
LEye coords (415.0, 147.0), REye coords (429.0, 149.0), timeStamp: 2017-03-05 12:25:06.231
LEye coords (414.0, 148.0), REye coords (429.0, 149.0), timeStamp: 2017-03-05 12:25:06.264
LEye coords (305.0, 162.0), REye coords (330.0, 131.0), timeStamp: 2017-03-05 12:25:06.309
LEye coords (306.0, 168.0), REye coords (325.0, 136.0), timeStamp: 2017-03-05 12:25:06.343
LEye coords (308.0, 163.0), REye coords (326.0, 134.0), timeStamp: 2017-03-05 12:25:06.376
LEye coords (309.0, 162.0), REye coords (324.0, 135.0), timeStamp: 2017-03-05 12:25:06.421
LEye coords (301.0, 157.0), REye coords (317.0, 129.0), timeStamp: 2017-03-05 12:25:06.454
LEye coords (285.0, 147.0), REye coords (295.0, 110.0), timeStamp: 2017-03-05 12:25:06.487
LEye coords (282.0, 152.0), REye coords (294.0, 110.0), timeStamp: 2017-03-05 12:25:06.532
LEye coords (282.0, 149.0), REye coords (294.0, 110.0), timeStamp: 2017-03-05 12:25:06.565
LEye coords (282.0, 148.0), REye coords (293.0, 111.0), timeStamp: 2017-03-05 12:25:06.599
LEye coords (283.0, 147.0), REye coords (293.0, 112.0), timeStamp: 2017-03-05 12:25:06.644
LEye coords (283.0, 147.0), REye coords (293.0, 112.0), timeStamp: 2017-03-05 12:25:06.676
LEye coords (284.0, 144.0), REye coords (294.0, 111.0), timeStamp: 2017-03-05 12:25:06.711
LEye coords (285.0, 142.0), REye coords (296.0, 111.0), timeStamp: 2017-03-05 12:25:06.745
LEye coords (286.0, 141.0), REye coords (296.0, 111.0), timeStamp: 2017-03-05 12:25:06.790
LEye coords (286.0, 141.0), REye coords (295.0, 110.0), timeStamp: 2017-03-05 12:25:06.823
LEye coords (286.0, 140.0), REye coords (295.0, 109.0), timeStamp: 2017-03-05 12:25:06.857
LEye coords (286.0, 139.0), REye coords (296.0, 109.0), timeStamp: 2017-03-05 12:25:06.901
LEye coords (286.0, 139.0), REye coords (296.0, 108.0), timeStamp: 2017-03-05 12:25:06.935
LEye coords (286.0, 138.0), REye coords (295.0, 108.0), timeStamp: 2017-03-05 12:25:06.968
LEye coords (286.0, 138.0), REye coords (295.0, 108.0), timeStamp: 2017-03-05 12:25:07.012
LEye coords (286.0, 138.0), REye coords (295.0, 108.0), timeStamp: 2017-03-05 12:25:07.046
LEye coords (286.0, 138.0), REye coords (295.0, 108.0), timeStamp: 2017-03-05 12:25:07.079
