LEye coords (276.0, 72.0), REye coords (281.0, 80.0), timeStamp: 2017-03-05 12:25:11.380
LEye coords (277.0, 72.0), REye coords (282.0, 80.0), timeStamp: 2017-03-05 12:25:11.413
LEye coords (277.0, 72.0), REye coords (282.0, 79.0), timeStamp: 2017-03-05 12:25:11.447
LEye coords (277.0, 73.0), REye coords (282.0, 79.0), timeStamp: 2017-03-05 12:25:11.491
LEye coords (276.0, 73.0), REye coords (283.0, 79.0), timeStamp: 2017-03-05 12:25:11.525
LEye coords (277.0, 74.0), REye coords (283.0, 79.0), timeStamp: 2017-03-05 12:25:11.559
LEye coords (276.0, 74.0), REye coords (283.0, 80.0), timeStamp: 2017-03-05 12:25:11.594
LEye coords (276.0, 75.0), REye coords (284.0, 80.0), timeStamp: 2017-03-05 12:25:11.639
LEye coords (276.0, 75.0), REye coords (284.0, 81.0), timeStamp: 2017-03-05 12:25:11.672
LEye coords (276.0, 76.0), REye coords (284.0, 81.0), timeStamp: 2017-03-05 12:25:11.705
LEye coords (275.0, 78.0), REye coords (285.0, 83.0), timeStamp: 2017-03-05 12:25:11.749
LEye coords (241.0, 222.0), REye coords (262.0, 213.0), timeStamp: 2017-03-05 12:25:11.782
LEye coords (241.0, 225.0), REye coords (259.0, 214.0), timeStamp: 2017-03-05 12:25:11.817
LEye coords (242.0, 223.0), REye coords (259.0, 214.0), timeStamp: 2017-03-05 12:25:11.860
LEye coords (243.0, 224.0), REye coords (259.0, 215.0), timeStamp: 2017-03-05 12:25:11.894
LEye coords (243.0, 224.0), REye coords (259.0, 216.0), timeStamp: 2017-03-05 12:25:11.928
LEye coords (244.0, 223.0), REye coords (254.0, 218.0), timeStamp: 2017-03-05 12:25:11.971
LEye coords (244.0, 228.0), REye coords (259.0, 219.0), timeStamp: 2017-03-05 12:25:12.005
LEye coords (244.0, 221.0), REye coords (257.0, 210.0), timeStamp: 2017-03-05 12:25:12.039
LEye coords (244.0, 218.0), REye coords (256.0, 208.0), timeStamp: 2017-03-05 12:25:12.084
LEye coords (244.0, 216.0), REye coords (255.0, 208.0), timeStamp: 2017-03-05 12:25:12.117
LEye coords (243.0, 216.0), REye coords (253.0, 209.0), timeStamp: 2017-03-05 12:25:12.152
LEye coords (243.0, 216.0), REye coords (252.0, 209.0), timeStamp: 2017-03-05 12:25:12.196
LEye coords (243.0, 216.0), REye coords (252.0, 209.0), timeStamp: 2017-03-05 12:25:12.229
LEye coords (242.0, 217.0), REye coords (253.0, 209.0), timeStamp: 2017-03-05 12:25:12.263
LEye coords (242.0, 217.0), REye coords (252.0, 210.0), timeStamp: 2017-03-05 12:25:12.297
LEye coords (241.0, 219.0), REye coords (252.0, 211.0), timeStamp: 2017-03-05 12:25:12.341
LEye coords (240.0, 221.0), REye coords (251.0, 212.0), timeStamp: 2017-03-05 12:25:12.376
LEye coords (240.0, 222.0), REye coords (251.0, 214.0), timeStamp: 2017-03-05 12:25:12.409
LEye coords (239.0, 223.0), REye coords (251.0, 215.0), timeStamp: 2017-03-05 12:25:12.452
LEye coords (239.0, 224.0), REye coords (250.0, 216.0), timeStamp: 2017-03-05 12:25:12.486
LEye coords (238.0, 225.0), REye coords (250.0, 217.0), timeStamp: 2017-03-05 12:25:12.520
