LEye coords (141.0, 124.0), REye coords (134.0, 91.0), timeStamp: 2017-03-05 12:25:14.964
LEye coords (141.0, 124.0), REye coords (134.0, 91.0), timeStamp: 2017-03-05 12:25:15.008
LEye coords (141.0, 125.0), REye coords (134.0, 92.0), timeStamp: 2017-03-05 12:25:15.042
LEye coords (140.0, 124.0), REye coords (135.0, 94.0), timeStamp: 2017-03-05 12:25:15.076
LEye coords (139.0, 125.0), REye coords (135.0, 96.0), timeStamp: 2017-03-05 12:25:15.110
LEye coords (138.0, 130.0), REye coords (136.0, 97.0), timeStamp: 2017-03-05 12:25:15.155
LEye coords (139.0, 129.0), REye coords (137.0, 99.0), timeStamp: 2017-03-05 12:25:15.188
LEye coords (196.0, 129.0), REye coords (264.0, 114.0), timeStamp: 2017-03-05 12:25:15.221
LEye coords (228.0, 131.0), REye coords (307.0, 103.0), timeStamp: 2017-03-05 12:25:15.266
LEye coords (245.0, 132.0), REye coords (305.0, 102.0), timeStamp: 2017-03-05 12:25:15.299
LEye coords (294.0, 133.0), REye coords (303.0, 107.0), timeStamp: 2017-03-05 12:25:15.333
LEye coords (294.0, 130.0), REye coords (301.0, 111.0), timeStamp: 2017-03-05 12:25:15.377
LEye coords (295.0, 131.0), REye coords (299.0, 96.0), timeStamp: 2017-03-05 12:25:15.413
LEye coords (296.0, 131.0), REye coords (308.0, 105.0), timeStamp: 2017-03-05 12:25:15.446
LEye coords (296.0, 132.0), REye coords (303.0, 111.0), timeStamp: 2017-03-05 12:25:15.489
LEye coords (302.0, 130.0), REye coords (312.0, 109.0), timeStamp: 2017-03-05 12:25:15.522
LEye coords (308.0, 128.0), REye coords (320.0, 107.0), timeStamp: 2017-03-05 12:25:15.556
LEye coords (312.0, 127.0), REye coords (324.0, 106.0), timeStamp: 2017-03-05 12:25:15.599
LEye coords (315.0, 126.0), REye coords (327.0, 105.0), timeStamp: 2017-03-05 12:25:15.632
LEye coords (318.0, 125.0), REye coords (329.0, 105.0), timeStamp: 2017-03-05 12:25:15.666
LEye coords (320.0, 124.0), REye coords (330.0, 104.0), timeStamp: 2017-03-05 12:25:15.710
LEye coords (322.0, 124.0), REye coords (331.0, 104.0), timeStamp: 2017-03-05 12:25:15.744
LEye coords (323.0, 124.0), REye coords (332.0, 103.0), timeStamp: 2017-03-05 12:25:15.778
LEye coords (324.0, 123.0), REye coords (333.0, 103.0), timeStamp: 2017-03-05 12:25:15.821
LEye coords (326.0, 123.0), REye coords (334.0, 103.0), timeStamp: 2017-03-05 12:25:15.854
LEye coords (326.0, 123.0), REye coords (334.0, 103.0), timeStamp: 2017-03-05 12:25:15.887
LEye coords (328.0, 122.0), REye coords (335.0, 103.0), timeStamp: 2017-03-05 12:25:15.930
