LEye coords (68.0, 187.0), REye coords (58.0, 176.0), timeStamp: 2017-03-05 12:25:53.458
LEye coords (69.0, 187.0), REye coords (58.0, 177.0), timeStamp: 2017-03-05 12:25:53.493
LEye coords (69.0, 187.0), REye coords (59.0, 178.0), timeStamp: 2017-03-05 12:25:53.536
LEye coords (70.0, 188.0), REye coords (59.0, 179.0), timeStamp: 2017-03-05 12:25:53.570
LEye coords (182.0, 185.0), REye coords (183.0, 172.0), timeStamp: 2017-03-05 12:25:53.605
LEye coords (217.0, 183.0), REye coords (225.0, 175.0), timeStamp: 2017-03-05 12:25:53.638
LEye coords (217.0, 184.0), REye coords (0.0, 0.0), timeStamp: 2017-03-05 12:25:53.683
LEye coords (217.0, 185.0), REye coords (0.0, 0.0), timeStamp: 2017-03-05 12:25:53.717
LEye coords (217.0, 186.0), REye coords (0.0, 0.0), timeStamp: 2017-03-05 12:25:53.751
LEye coords (219.0, 190.0), REye coords (226.0, 170.0), timeStamp: 2017-03-05 12:25:53.796
LEye coords (343.0, 224.0), REye coords (264.0, 186.0), timeStamp: 2017-03-05 12:25:53.829
LEye coords (363.0, 229.0), REye coords (294.0, 198.0), timeStamp: 2017-03-05 12:25:53.862
LEye coords (368.0, 231.0), REye coords (387.0, 231.0), timeStamp: 2017-03-05 12:25:53.905
LEye coords (371.0, 232.0), REye coords (383.0, 235.0), timeStamp: 2017-03-05 12:25:53.939
LEye coords (378.0, 235.0), REye coords (383.0, 233.0), timeStamp: 2017-03-05 12:25:53.972
LEye coords (364.0, 234.0), REye coords (380.0, 234.0), timeStamp: 2017-03-05 12:25:54.016
LEye coords (356.0, 238.0), REye coords (376.0, 233.0), timeStamp: 2017-03-05 12:25:54.051
LEye coords (354.0, 239.0), REye coords (374.0, 234.0), timeStamp: 2017-03-05 12:25:54.084
LEye coords (354.0, 240.0), REye coords (372.0, 233.0), timeStamp: 2017-03-05 12:25:54.128
LEye coords (353.0, 240.0), REye coords (371.0, 232.0), timeStamp: 2017-03-05 12:25:54.161
LEye coords (352.0, 240.0), REye coords (370.0, 232.0), timeStamp: 2017-03-05 12:25:54.195
LEye coords (352.0, 240.0), REye coords (369.0, 233.0), timeStamp: 2017-03-05 12:25:54.238
LEye coords (351.0, 239.0), REye coords (368.0, 233.0), timeStamp: 2017-03-05 12:25:54.273
LEye coords (351.0, 239.0), REye coords (367.0, 233.0), timeStamp: 2017-03-05 12:25:54.306
LEye coords (351.0, 239.0), REye coords (366.0, 233.0), timeStamp: 2017-03-05 12:25:54.350
LEye coords (351.0, 238.0), REye coords (366.0, 234.0), timeStamp: 2017-03-05 12:25:54.384
LEye coords (351.0, 238.0), REye coords (365.0, 234.0), timeStamp: 2017-03-05 12:25:54.417
LEye coords (351.0, 238.0), REye coords (365.0, 234.0), timeStamp: 2017-03-05 12:25:54.462
LEye coords (350.0, 238.0), REye coords (364.0, 234.0), timeStamp: 2017-03-05 12:25:54.495
LEye coords (350.0, 238.0), REye coords (364.0, 234.0), timeStamp: 2017-03-05 12:25:54.529
