LEye coords (249.0, 167.0), REye coords (0.0, 0.0), timeStamp: 2017-03-05 12:26:49.087
LEye coords (249.0, 168.0), REye coords (0.0, 0.0), timeStamp: 2017-03-05 12:26:49.120
LEye coords (249.0, 168.0), REye coords (0.0, 0.0), timeStamp: 2017-03-05 12:26:49.154
LEye coords (250.0, 168.0), REye coords (0.0, 0.0), timeStamp: 2017-03-05 12:26:49.198
LEye coords (250.0, 168.0), REye coords (0.0, 0.0), timeStamp: 2017-03-05 12:26:49.232
LEye coords (249.0, 168.0), REye coords (0.0, 0.0), timeStamp: 2017-03-05 12:26:49.266
LEye coords (249.0, 168.0), REye coords (0.0, 0.0), timeStamp: 2017-03-05 12:26:49.311
LEye coords (249.0, 168.0), REye coords (0.0, 0.0), timeStamp: 2017-03-05 12:26:49.344
LEye coords (249.0, 168.0), REye coords (292.0, 154.0), timeStamp: 2017-03-05 12:26:49.378
LEye coords (191.0, 155.0), REye coords (272.0, 151.0), timeStamp: 2017-03-05 12:26:49.423
LEye coords (185.0, 158.0), REye coords (213.0, 144.0), timeStamp: 2017-03-05 12:26:49.456
LEye coords (150.0, 145.0), REye coords (125.0, 93.0), timeStamp: 2017-03-05 12:26:49.490
LEye coords (139.0, 138.0), REye coords (127.0, 98.0), timeStamp: 2017-03-05 12:26:49.534
LEye coords (134.0, 133.0), REye coords (124.0, 93.0), timeStamp: 2017-03-05 12:26:49.568
LEye coords (120.0, 122.0), REye coords (125.0, 92.0), timeStamp: 2017-03-05 12:26:49.600
LEye coords (116.0, 119.0), REye coords (123.0, 83.0), timeStamp: 2017-03-05 12:26:49.644
LEye coords (118.0, 123.0), REye coords (123.0, 88.0), timeStamp: 2017-03-05 12:26:49.678
LEye coords (117.0, 122.0), REye coords (124.0, 87.0), timeStamp: 2017-03-05 12:26:49.711
LEye coords (116.0, 122.0), REye coords (124.0, 87.0), timeStamp: 2017-03-05 12:26:49.755
LEye coords (117.0, 123.0), REye coords (123.0, 87.0), timeStamp: 2017-03-05 12:26:49.788
LEye coords (117.0, 124.0), REye coords (122.0, 86.0), timeStamp: 2017-03-05 12:26:49.822
LEye coords (117.0, 125.0), REye coords (120.0, 87.0), timeStamp: 2017-03-05 12:26:49.866
LEye coords (117.0, 126.0), REye coords (120.0, 87.0), timeStamp: 2017-03-05 12:26:49.899
LEye coords (117.0, 126.0), REye coords (119.0, 87.0), timeStamp: 2017-03-05 12:26:49.933
LEye coords (117.0, 126.0), REye coords (119.0, 87.0), timeStamp: 2017-03-05 12:26:49.968
LEye coords (117.0, 126.0), REye coords (119.0, 87.0), timeStamp: 2017-03-05 12:26:50.012
LEye coords (117.0, 126.0), REye coords (120.0, 88.0), timeStamp: 2017-03-05 12:26:50.046
LEye coords (117.0, 126.0), REye coords (120.0, 88.0), timeStamp: 2017-03-05 12:26:50.079
LEye coords (117.0, 127.0), REye coords (121.0, 89.0), timeStamp: 2017-03-05 12:26:50.123
