LEye coords (210.0, 211.0), REye coords (231.0, 200.0), timeStamp: 2017-03-05 12:26:51.496
LEye coords (211.0, 211.0), REye coords (232.0, 201.0), timeStamp: 2017-03-05 12:26:51.530
LEye coords (212.0, 212.0), REye coords (233.0, 202.0), timeStamp: 2017-03-05 12:26:51.564
LEye coords (213.0, 213.0), REye coords (234.0, 202.0), timeStamp: 2017-03-05 12:26:51.598
LEye coords (214.0, 213.0), REye coords (235.0, 203.0), timeStamp: 2017-03-05 12:26:51.642
LEye coords (214.0, 214.0), REye coords (236.0, 203.0), timeStamp: 2017-03-05 12:26:51.676
LEye coords (215.0, 214.0), REye coords (236.0, 203.0), timeStamp: 2017-03-05 12:26:51.709
LEye coords (216.0, 214.0), REye coords (237.0, 203.0), timeStamp: 2017-03-05 12:26:51.753
LEye coords (218.0, 213.0), REye coords (239.0, 200.0), timeStamp: 2017-03-05 12:26:51.788
LEye coords (243.0, 134.0), REye coords (270.0, 88.0), timeStamp: 2017-03-05 12:26:51.823
LEye coords (248.0, 134.0), REye coords (278.0, 96.0), timeStamp: 2017-03-05 12:26:51.857
LEye coords (247.0, 136.0), REye coords (277.0, 95.0), timeStamp: 2017-03-05 12:26:51.899
LEye coords (246.0, 135.0), REye coords (277.0, 99.0), timeStamp: 2017-03-05 12:26:51.933
LEye coords (246.0, 134.0), REye coords (277.0, 100.0), timeStamp: 2017-03-05 12:26:51.967
LEye coords (241.0, 109.0), REye coords (277.0, 97.0), timeStamp: 2017-03-05 12:26:52.010
LEye coords (249.0, 128.0), REye coords (273.0, 102.0), timeStamp: 2017-03-05 12:26:52.044
LEye coords (245.0, 116.0), REye coords (275.0, 107.0), timeStamp: 2017-03-05 12:26:52.077
LEye coords (246.0, 111.0), REye coords (275.0, 106.0), timeStamp: 2017-03-05 12:26:52.121
LEye coords (247.0, 108.0), REye coords (0.0, 0.0), timeStamp: 2017-03-05 12:26:52.155
LEye coords (252.0, 105.0), REye coords (280.0, 102.0), timeStamp: 2017-03-05 12:26:52.199
LEye coords (255.0, 102.0), REye coords (281.0, 100.0), timeStamp: 2017-03-05 12:26:52.232
LEye coords (258.0, 100.0), REye coords (282.0, 99.0), timeStamp: 2017-03-05 12:26:52.266
LEye coords (260.0, 98.0), REye coords (283.0, 98.0), timeStamp: 2017-03-05 12:26:52.309
LEye coords (261.0, 97.0), REye coords (283.0, 99.0), timeStamp: 2017-03-05 12:26:52.343
LEye coords (262.0, 96.0), REye coords (283.0, 99.0), timeStamp: 2017-03-05 12:26:52.377
LEye coords (263.0, 94.0), REye coords (284.0, 98.0), timeStamp: 2017-03-05 12:26:52.421
LEye coords (264.0, 93.0), REye coords (284.0, 98.0), timeStamp: 2017-03-05 12:26:52.455
LEye coords (265.0, 93.0), REye coords (284.0, 98.0), timeStamp: 2017-03-05 12:26:52.488
LEye coords (265.0, 92.0), REye coords (284.0, 97.0), timeStamp: 2017-03-05 12:26:52.522
LEye coords (266.0, 91.0), REye coords (285.0, 97.0), timeStamp: 2017-03-05 12:26:52.565
LEye coords (266.0, 91.0), REye coords (285.0, 96.0), timeStamp: 2017-03-05 12:26:52.599
LEye coords (266.0, 91.0), REye coords (285.0, 96.0), timeStamp: 2017-03-05 12:26:52.642
LEye coords (267.0, 90.0), REye coords (285.0, 96.0), timeStamp: 2017-03-05 12:26:52.677
LEye coords (267.0, 90.0), REye coords (285.0, 95.0), timeStamp: 2017-03-05 12:26:52.711
LEye coords (268.0, 90.0), REye coords (285.0, 95.0), timeStamp: 2017-03-05 12:26:52.745
