LEye coords (229.0, 103.0), REye coords (246.0, 75.0), timeStamp: 2017-03-05 12:27:05.670
LEye coords (229.0, 103.0), REye coords (246.0, 75.0), timeStamp: 2017-03-05 12:27:05.704
LEye coords (229.0, 103.0), REye coords (246.0, 74.0), timeStamp: 2017-03-05 12:27:05.738
LEye coords (229.0, 103.0), REye coords (246.0, 74.0), timeStamp: 2017-03-05 12:27:05.772
LEye coords (229.0, 103.0), REye coords (246.0, 75.0), timeStamp: 2017-03-05 12:27:05.816
LEye coords (230.0, 103.0), REye coords (246.0, 75.0), timeStamp: 2017-03-05 12:27:05.849
LEye coords (230.0, 104.0), REye coords (246.0, 75.0), timeStamp: 2017-03-05 12:27:05.893
LEye coords (230.0, 104.0), REye coords (246.0, 75.0), timeStamp: 2017-03-05 12:27:05.927
LEye coords (230.0, 104.0), REye coords (246.0, 75.0), timeStamp: 2017-03-05 12:27:05.961
LEye coords (230.0, 104.0), REye coords (245.0, 75.0), timeStamp: 2017-03-05 12:27:05.994
LEye coords (230.0, 104.0), REye coords (245.0, 75.0), timeStamp: 2017-03-05 12:27:06.038
LEye coords (329.0, 99.0), REye coords (362.0, 79.0), timeStamp: 2017-03-05 12:27:06.071
LEye coords (403.0, 85.0), REye coords (412.0, 90.0), timeStamp: 2017-03-05 12:27:06.104
LEye coords (402.0, 78.0), REye coords (411.0, 88.0), timeStamp: 2017-03-05 12:27:06.150
LEye coords (402.0, 76.0), REye coords (410.0, 91.0), timeStamp: 2017-03-05 12:27:06.182
LEye coords (402.0, 79.0), REye coords (410.0, 91.0), timeStamp: 2017-03-05 12:27:06.216
LEye coords (405.0, 76.0), REye coords (404.0, 95.0), timeStamp: 2017-03-05 12:27:06.261
LEye coords (407.0, 75.0), REye coords (406.0, 93.0), timeStamp: 2017-03-05 12:27:06.294
LEye coords (408.0, 78.0), REye coords (407.0, 91.0), timeStamp: 2017-03-05 12:27:06.327
LEye coords (408.0, 78.0), REye coords (407.0, 89.0), timeStamp: 2017-03-05 12:27:06.371
LEye coords (407.0, 78.0), REye coords (407.0, 87.0), timeStamp: 2017-03-05 12:27:06.404
LEye coords (407.0, 78.0), REye coords (407.0, 87.0), timeStamp: 2017-03-05 12:27:06.447
LEye coords (406.0, 79.0), REye coords (408.0, 87.0), timeStamp: 2017-03-05 12:27:06.481
LEye coords (407.0, 80.0), REye coords (408.0, 86.0), timeStamp: 2017-03-05 12:27:06.514
LEye coords (407.0, 81.0), REye coords (408.0, 86.0), timeStamp: 2017-03-05 12:27:06.558
LEye coords (406.0, 81.0), REye coords (408.0, 86.0), timeStamp: 2017-03-05 12:27:06.592
LEye coords (406.0, 81.0), REye coords (408.0, 86.0), timeStamp: 2017-03-05 12:27:06.625
LEye coords (406.0, 81.0), REye coords (408.0, 86.0), timeStamp: 2017-03-05 12:27:06.670
LEye coords (406.0, 81.0), REye coords (408.0, 86.0), timeStamp: 2017-03-05 12:27:06.704
