LEye coords (386.0, 247.0), REye coords (399.0, 249.0), timeStamp: 2017-03-05 12:28:13.802
LEye coords (387.0, 247.0), REye coords (400.0, 250.0), timeStamp: 2017-03-05 12:28:13.835
LEye coords (389.0, 248.0), REye coords (402.0, 249.0), timeStamp: 2017-03-05 12:28:13.879
LEye coords (390.0, 248.0), REye coords (0.0, 0.0), timeStamp: 2017-03-05 12:28:13.912
LEye coords (391.0, 248.0), REye coords (404.0, 249.0), timeStamp: 2017-03-05 12:28:13.955
LEye coords (298.0, 172.0), REye coords (329.0, 149.0), timeStamp: 2017-03-05 12:28:13.989
LEye coords (285.0, 180.0), REye coords (312.0, 163.0), timeStamp: 2017-03-05 12:28:14.023
LEye coords (286.0, 181.0), REye coords (318.0, 153.0), timeStamp: 2017-03-05 12:28:14.057
LEye coords (288.0, 181.0), REye coords (315.0, 162.0), timeStamp: 2017-03-05 12:28:14.101
LEye coords (287.0, 182.0), REye coords (313.0, 168.0), timeStamp: 2017-03-05 12:28:14.134
LEye coords (288.0, 179.0), REye coords (308.0, 181.0), timeStamp: 2017-03-05 12:28:14.168
LEye coords (300.0, 144.0), REye coords (344.0, 139.0), timeStamp: 2017-03-05 12:28:14.212
LEye coords (356.0, 103.0), REye coords (382.0, 110.0), timeStamp: 2017-03-05 12:28:14.245
LEye coords (372.0, 91.0), REye coords (394.0, 102.0), timeStamp: 2017-03-05 12:28:14.279
LEye coords (380.0, 85.0), REye coords (400.0, 98.0), timeStamp: 2017-03-05 12:28:14.323
LEye coords (403.0, 63.0), REye coords (418.0, 85.0), timeStamp: 2017-03-05 12:28:14.357
LEye coords (402.0, 63.0), REye coords (419.0, 83.0), timeStamp: 2017-03-05 12:28:14.390
LEye coords (403.0, 66.0), REye coords (419.0, 80.0), timeStamp: 2017-03-05 12:28:14.434
LEye coords (402.0, 67.0), REye coords (419.0, 82.0), timeStamp: 2017-03-05 12:28:14.468
LEye coords (402.0, 67.0), REye coords (419.0, 83.0), timeStamp: 2017-03-05 12:28:14.502
LEye coords (402.0, 67.0), REye coords (420.0, 82.0), timeStamp: 2017-03-05 12:28:14.546
LEye coords (401.0, 67.0), REye coords (0.0, 0.0), timeStamp: 2017-03-05 12:28:14.580
LEye coords (401.0, 68.0), REye coords (0.0, 0.0), timeStamp: 2017-03-05 12:28:14.613
LEye coords (402.0, 68.0), REye coords (420.0, 82.0), timeStamp: 2017-03-05 12:28:14.657
LEye coords (403.0, 69.0), REye coords (421.0, 82.0), timeStamp: 2017-03-05 12:28:14.691
LEye coords (405.0, 69.0), REye coords (422.0, 84.0), timeStamp: 2017-03-05 12:28:14.723
LEye coords (407.0, 70.0), REye coords (422.0, 85.0), timeStamp: 2017-03-05 12:28:14.768
