LEye coords (182.0, 120.0), REye coords (196.0, 108.0), timeStamp: 2017-03-05 12:28:12.843
LEye coords (181.0, 121.0), REye coords (194.0, 108.0), timeStamp: 2017-03-05 12:28:12.876
LEye coords (179.0, 122.0), REye coords (193.0, 108.0), timeStamp: 2017-03-05 12:28:12.909
LEye coords (178.0, 124.0), REye coords (192.0, 108.0), timeStamp: 2017-03-05 12:28:12.953
LEye coords (176.0, 124.0), REye coords (180.0, 104.0), timeStamp: 2017-03-05 12:28:12.987
LEye coords (175.0, 125.0), REye coords (184.0, 111.0), timeStamp: 2017-03-05 12:28:13.021
LEye coords (174.0, 126.0), REye coords (185.0, 111.0), timeStamp: 2017-03-05 12:28:13.065
LEye coords (173.0, 127.0), REye coords (186.0, 112.0), timeStamp: 2017-03-05 12:28:13.098
LEye coords (171.0, 127.0), REye coords (186.0, 110.0), timeStamp: 2017-03-05 12:28:13.132
LEye coords (172.0, 127.0), REye coords (190.0, 110.0), timeStamp: 2017-03-05 12:28:13.177
LEye coords (365.0, 199.0), REye coords (380.0, 203.0), timeStamp: 2017-03-05 12:28:13.210
LEye coords (0.0, 0.0), REye coords (0.0, 0.0), timeStamp: 2017-03-05 12:28:13.244
LEye coords (353.0, 202.0), REye coords (377.0, 207.0), timeStamp: 2017-03-05 12:28:13.289
LEye coords (352.0, 203.0), REye coords (376.0, 206.0), timeStamp: 2017-03-05 12:28:13.322
LEye coords (353.0, 202.0), REye coords (378.0, 204.0), timeStamp: 2017-03-05 12:28:13.355
LEye coords (353.0, 202.0), REye coords (379.0, 204.0), timeStamp: 2017-03-05 12:28:13.399
LEye coords (356.0, 202.0), REye coords (378.0, 208.0), timeStamp: 2017-03-05 12:28:13.432
LEye coords (357.0, 200.0), REye coords (378.0, 205.0), timeStamp: 2017-03-05 12:28:13.466
LEye coords (357.0, 202.0), REye coords (380.0, 205.0), timeStamp: 2017-03-05 12:28:13.511
LEye coords (368.0, 211.0), REye coords (387.0, 213.0), timeStamp: 2017-03-05 12:28:13.545
LEye coords (0.0, 0.0), REye coords (391.0, 218.0), timeStamp: 2017-03-05 12:28:13.578
LEye coords (375.0, 217.0), REye coords (393.0, 221.0), timeStamp: 2017-03-05 12:28:13.612
LEye coords (378.0, 220.0), REye coords (395.0, 224.0), timeStamp: 2017-03-05 12:28:13.656
LEye coords (380.0, 222.0), REye coords (396.0, 225.0), timeStamp: 2017-03-05 12:28:13.689
