26
275
101
23
65
48
11
14
34
14
204
132
48
53
107
15
18
21
49
50
44
62
60
220
34
111
119
202
15
57
46
58
70
25
30
64
59
52
158
143
7
52
35
20
34
8
55
68
41
68
84
31
16
22
20
33
37
286
34
19
78
35
5
73
102
61
35
73
126
125
128
5
29
20
26
65
91
64
177
265
91
62
22
25
160
20
55
124
17
139
102
47
143
53
3
30
129
44
7
43
56
52
250
74
40
89
102
23
8
17
54
12
22
59
44
50
19
14
67
160
34
24
104
23
23
207
35
102
45
146
43
59
32
130
203
6
70
92
124
191
30
31
69
13
134
8
95
92
25
74
29
40
42
29
53
56
30
62
17
71
123
91
81
40
16
18
91
28
104
39
20
147
24
260
326
219
49
111
42
49
18
52
189
132
60
