LEye coords (247.0, 195.0), REye coords (256.0, 192.0), timeStamp: 2017-03-02 11:49:25.780
LEye coords (247.0, 173.0), REye coords (257.0, 170.0), timeStamp: 2017-03-02 11:49:25.826
LEye coords (248.0, 172.0), REye coords (257.0, 170.0), timeStamp: 2017-03-02 11:49:25.860
LEye coords (249.0, 172.0), REye coords (258.0, 170.0), timeStamp: 2017-03-02 11:49:25.895
LEye coords (249.0, 172.0), REye coords (258.0, 170.0), timeStamp: 2017-03-02 11:49:25.929
LEye coords (250.0, 172.0), REye coords (258.0, 169.0), timeStamp: 2017-03-02 11:49:25.972
LEye coords (251.0, 172.0), REye coords (259.0, 169.0), timeStamp: 2017-03-02 11:49:26.006
LEye coords (251.0, 172.0), REye coords (259.0, 169.0), timeStamp: 2017-03-02 11:49:26.041
LEye coords (252.0, 172.0), REye coords (259.0, 169.0), timeStamp: 2017-03-02 11:49:26.086
LEye coords (252.0, 172.0), REye coords (259.0, 169.0), timeStamp: 2017-03-02 11:49:26.120
LEye coords (316.0, 140.0), REye coords (324.0, 140.0), timeStamp: 2017-03-02 11:49:26.154
LEye coords (343.0, 128.0), REye coords (358.0, 128.0), timeStamp: 2017-03-02 11:49:26.187
LEye coords (344.0, 129.0), REye coords (359.0, 127.0), timeStamp: 2017-03-02 11:49:26.231
LEye coords (344.0, 130.0), REye coords (359.0, 127.0), timeStamp: 2017-03-02 11:49:26.266
LEye coords (324.0, 124.0), REye coords (337.0, 120.0), timeStamp: 2017-03-02 11:49:26.299
LEye coords (232.0, 102.0), REye coords (242.0, 89.0), timeStamp: 2017-03-02 11:49:26.343
LEye coords (232.0, 100.0), REye coords (242.0, 91.0), timeStamp: 2017-03-02 11:49:26.377
LEye coords (233.0, 101.0), REye coords (242.0, 93.0), timeStamp: 2017-03-02 11:49:26.411
LEye coords (233.0, 101.0), REye coords (240.0, 93.0), timeStamp: 2017-03-02 11:49:26.454
LEye coords (232.0, 102.0), REye coords (239.0, 94.0), timeStamp: 2017-03-02 11:49:26.488
LEye coords (402.0, 98.0), REye coords (402.0, 97.0), timeStamp: 2017-03-02 11:49:26.522
LEye coords (400.0, 97.0), REye coords (407.0, 102.0), timeStamp: 2017-03-02 11:49:26.566
LEye coords (400.0, 96.0), REye coords (406.0, 103.0), timeStamp: 2017-03-02 11:49:26.600
LEye coords (400.0, 96.0), REye coords (405.0, 104.0), timeStamp: 2017-03-02 11:49:26.635
LEye coords (399.0, 98.0), REye coords (404.0, 104.0), timeStamp: 2017-03-02 11:49:26.668
LEye coords (398.0, 101.0), REye coords (404.0, 105.0), timeStamp: 2017-03-02 11:49:26.712
LEye coords (397.0, 101.0), REye coords (406.0, 105.0), timeStamp: 2017-03-02 11:49:26.746
LEye coords (397.0, 97.0), REye coords (404.0, 103.0), timeStamp: 2017-03-02 11:49:26.781
LEye coords (396.0, 89.0), REye coords (392.0, 99.0), timeStamp: 2017-03-02 11:49:26.825
LEye coords (394.0, 85.0), REye coords (392.0, 95.0), timeStamp: 2017-03-02 11:49:26.858
LEye coords (393.0, 82.0), REye coords (392.0, 93.0), timeStamp: 2017-03-02 11:49:26.891
LEye coords (393.0, 81.0), REye coords (392.0, 91.0), timeStamp: 2017-03-02 11:49:26.935
LEye coords (393.0, 80.0), REye coords (392.0, 90.0), timeStamp: 2017-03-02 11:49:26.967
LEye coords (392.0, 80.0), REye coords (392.0, 89.0), timeStamp: 2017-03-02 11:49:27.001
LEye coords (392.0, 79.0), REye coords (392.0, 88.0), timeStamp: 2017-03-02 11:49:27.046
LEye coords (392.0, 78.0), REye coords (392.0, 88.0), timeStamp: 2017-03-02 11:49:27.079
LEye coords (392.0, 78.0), REye coords (393.0, 88.0), timeStamp: 2017-03-02 11:49:27.113
LEye coords (392.0, 78.0), REye coords (393.0, 87.0), timeStamp: 2017-03-02 11:49:27.157
LEye coords (392.0, 78.0), REye coords (393.0, 87.0), timeStamp: 2017-03-02 11:49:27.191
