LEye coords (338.0, 99.0), REye coords (342.0, 108.0), timeStamp: 2017-03-02 11:49:29.266
LEye coords (337.0, 100.0), REye coords (342.0, 108.0), timeStamp: 2017-03-02 11:49:29.300
LEye coords (338.0, 101.0), REye coords (342.0, 108.0), timeStamp: 2017-03-02 11:49:29.333
LEye coords (338.0, 101.0), REye coords (342.0, 108.0), timeStamp: 2017-03-02 11:49:29.377
LEye coords (338.0, 101.0), REye coords (342.0, 108.0), timeStamp: 2017-03-02 11:49:29.412
LEye coords (338.0, 102.0), REye coords (342.0, 109.0), timeStamp: 2017-03-02 11:49:29.446
LEye coords (338.0, 102.0), REye coords (342.0, 109.0), timeStamp: 2017-03-02 11:49:29.490
LEye coords (245.0, 165.0), REye coords (252.0, 157.0), timeStamp: 2017-03-02 11:49:29.524
LEye coords (222.0, 188.0), REye coords (230.0, 181.0), timeStamp: 2017-03-02 11:49:29.557
LEye coords (224.0, 188.0), REye coords (230.0, 179.0), timeStamp: 2017-03-02 11:49:29.601
LEye coords (224.0, 189.0), REye coords (230.0, 180.0), timeStamp: 2017-03-02 11:49:29.634
LEye coords (224.0, 189.0), REye coords (230.0, 178.0), timeStamp: 2017-03-02 11:49:29.667
LEye coords (337.0, 239.0), REye coords (335.0, 235.0), timeStamp: 2017-03-02 11:49:29.710
LEye coords (330.0, 244.0), REye coords (342.0, 243.0), timeStamp: 2017-03-02 11:49:29.743
LEye coords (333.0, 243.0), REye coords (341.0, 243.0), timeStamp: 2017-03-02 11:49:29.787
LEye coords (333.0, 242.0), REye coords (340.0, 242.0), timeStamp: 2017-03-02 11:49:29.820
LEye coords (333.0, 242.0), REye coords (341.0, 241.0), timeStamp: 2017-03-02 11:49:29.854
LEye coords (331.0, 243.0), REye coords (344.0, 236.0), timeStamp: 2017-03-02 11:49:29.898
LEye coords (334.0, 241.0), REye coords (343.0, 240.0), timeStamp: 2017-03-02 11:49:29.931
LEye coords (333.0, 242.0), REye coords (342.0, 237.0), timeStamp: 2017-03-02 11:49:29.965
LEye coords (333.0, 242.0), REye coords (342.0, 238.0), timeStamp: 2017-03-02 11:49:30.010
LEye coords (333.0, 242.0), REye coords (342.0, 239.0), timeStamp: 2017-03-02 11:49:30.044
LEye coords (333.0, 242.0), REye coords (342.0, 239.0), timeStamp: 2017-03-02 11:49:30.077
LEye coords (332.0, 242.0), REye coords (342.0, 239.0), timeStamp: 2017-03-02 11:49:30.111
LEye coords (333.0, 243.0), REye coords (342.0, 240.0), timeStamp: 2017-03-02 11:49:30.155
LEye coords (334.0, 244.0), REye coords (343.0, 241.0), timeStamp: 2017-03-02 11:49:30.188
LEye coords (244.0, 183.0), REye coords (251.0, 171.0), timeStamp: 2017-03-02 11:49:30.221
LEye coords (235.0, 172.0), REye coords (241.0, 154.0), timeStamp: 2017-03-02 11:49:30.267
LEye coords (236.0, 173.0), REye coords (241.0, 154.0), timeStamp: 2017-03-02 11:49:30.300
LEye coords (236.0, 175.0), REye coords (242.0, 154.0), timeStamp: 2017-03-02 11:49:30.334
LEye coords (236.0, 176.0), REye coords (242.0, 154.0), timeStamp: 2017-03-02 11:49:30.378
LEye coords (235.0, 180.0), REye coords (240.0, 161.0), timeStamp: 2017-03-02 11:49:30.412
LEye coords (234.0, 181.0), REye coords (241.0, 168.0), timeStamp: 2017-03-02 11:49:30.446
LEye coords (235.0, 180.0), REye coords (242.0, 167.0), timeStamp: 2017-03-02 11:49:30.480
LEye coords (235.0, 181.0), REye coords (242.0, 166.0), timeStamp: 2017-03-02 11:49:30.525
LEye coords (237.0, 180.0), REye coords (245.0, 169.0), timeStamp: 2017-03-02 11:49:30.559
LEye coords (336.0, 256.0), REye coords (347.0, 259.0), timeStamp: 2017-03-02 11:49:30.592
LEye coords (337.0, 258.0), REye coords (346.0, 259.0), timeStamp: 2017-03-02 11:49:30.637
LEye coords (337.0, 257.0), REye coords (347.0, 258.0), timeStamp: 2017-03-02 11:49:30.671
LEye coords (338.0, 257.0), REye coords (347.0, 258.0), timeStamp: 2017-03-02 11:49:30.705
LEye coords (338.0, 257.0), REye coords (347.0, 258.0), timeStamp: 2017-03-02 11:49:30.748
LEye coords (340.0, 260.0), REye coords (346.0, 258.0), timeStamp: 2017-03-02 11:49:30.781
LEye coords (340.0, 258.0), REye coords (342.0, 259.0), timeStamp: 2017-03-02 11:49:30.815
LEye coords (340.0, 258.0), REye coords (345.0, 260.0), timeStamp: 2017-03-02 11:49:30.860
LEye coords (339.0, 258.0), REye coords (345.0, 260.0), timeStamp: 2017-03-02 11:49:30.894
LEye coords (340.0, 259.0), REye coords (346.0, 260.0), timeStamp: 2017-03-02 11:49:30.928
LEye coords (340.0, 258.0), REye coords (346.0, 259.0), timeStamp: 2017-03-02 11:49:30.961
LEye coords (340.0, 258.0), REye coords (346.0, 259.0), timeStamp: 2017-03-02 11:49:31.005
LEye coords (340.0, 258.0), REye coords (346.0, 260.0), timeStamp: 2017-03-02 11:49:31.039
LEye coords (340.0, 258.0), REye coords (346.0, 259.0), timeStamp: 2017-03-02 11:49:31.073
LEye coords (340.0, 257.0), REye coords (345.0, 260.0), timeStamp: 2017-03-02 11:49:31.115
