LEye coords (208.0, 120.0), REye coords (210.0, 102.0), timeStamp: 2017-03-02 11:49:36.707
LEye coords (209.0, 120.0), REye coords (211.0, 103.0), timeStamp: 2017-03-02 11:49:36.741
LEye coords (210.0, 121.0), REye coords (212.0, 104.0), timeStamp: 2017-03-02 11:49:36.774
LEye coords (210.0, 121.0), REye coords (213.0, 104.0), timeStamp: 2017-03-02 11:49:36.820
LEye coords (211.0, 121.0), REye coords (214.0, 105.0), timeStamp: 2017-03-02 11:49:36.853
LEye coords (212.0, 122.0), REye coords (214.0, 106.0), timeStamp: 2017-03-02 11:49:36.886
LEye coords (213.0, 123.0), REye coords (215.0, 107.0), timeStamp: 2017-03-02 11:49:36.920
LEye coords (213.0, 124.0), REye coords (216.0, 108.0), timeStamp: 2017-03-02 11:49:36.965
LEye coords (214.0, 124.0), REye coords (217.0, 109.0), timeStamp: 2017-03-02 11:49:36.999
LEye coords (215.0, 125.0), REye coords (218.0, 109.0), timeStamp: 2017-03-02 11:49:37.033
LEye coords (215.0, 126.0), REye coords (219.0, 110.0), timeStamp: 2017-03-02 11:49:37.078
LEye coords (217.0, 128.0), REye coords (221.0, 112.0), timeStamp: 2017-03-02 11:49:37.112
LEye coords (219.0, 131.0), REye coords (223.0, 114.0), timeStamp: 2017-03-02 11:49:37.146
LEye coords (221.0, 133.0), REye coords (225.0, 115.0), timeStamp: 2017-03-02 11:49:37.180
LEye coords (222.0, 135.0), REye coords (227.0, 117.0), timeStamp: 2017-03-02 11:49:37.224
LEye coords (118.0, 103.0), REye coords (119.0, 85.0), timeStamp: 2017-03-02 11:49:37.258
LEye coords (66.0, 88.0), REye coords (75.0, 65.0), timeStamp: 2017-03-02 11:49:37.291
LEye coords (67.0, 87.0), REye coords (76.0, 66.0), timeStamp: 2017-03-02 11:49:37.335
LEye coords (68.0, 88.0), REye coords (76.0, 67.0), timeStamp: 2017-03-02 11:49:37.369
LEye coords (69.0, 87.0), REye coords (76.0, 66.0), timeStamp: 2017-03-02 11:49:37.402
LEye coords (73.0, 83.0), REye coords (75.0, 67.0), timeStamp: 2017-03-02 11:49:37.447
LEye coords (84.0, 89.0), REye coords (77.0, 66.0), timeStamp: 2017-03-02 11:49:37.480
LEye coords (64.0, 91.0), REye coords (63.0, 66.0), timeStamp: 2017-03-02 11:49:37.514
LEye coords (55.0, 93.0), REye coords (54.0, 67.0), timeStamp: 2017-03-02 11:49:37.558
LEye coords (50.0, 94.0), REye coords (50.0, 68.0), timeStamp: 2017-03-02 11:49:37.591
LEye coords (47.0, 96.0), REye coords (47.0, 69.0), timeStamp: 2017-03-02 11:49:37.625
LEye coords (44.0, 97.0), REye coords (45.0, 69.0), timeStamp: 2017-03-02 11:49:37.669
LEye coords (43.0, 97.0), REye coords (44.0, 70.0), timeStamp: 2017-03-02 11:49:37.702
LEye coords (42.0, 97.0), REye coords (42.0, 70.0), timeStamp: 2017-03-02 11:49:37.736
LEye coords (34.0, 99.0), REye coords (42.0, 70.0), timeStamp: 2017-03-02 11:49:37.780
LEye coords (37.0, 102.0), REye coords (41.0, 71.0), timeStamp: 2017-03-02 11:49:37.814
LEye coords (37.0, 100.0), REye coords (41.0, 71.0), timeStamp: 2017-03-02 11:49:37.849
LEye coords (36.0, 100.0), REye coords (40.0, 71.0), timeStamp: 2017-03-02 11:49:37.892
LEye coords (36.0, 100.0), REye coords (40.0, 71.0), timeStamp: 2017-03-02 11:49:37.926
LEye coords (36.0, 101.0), REye coords (40.0, 71.0), timeStamp: 2017-03-02 11:49:37.960
LEye coords (36.0, 101.0), REye coords (39.0, 71.0), timeStamp: 2017-03-02 11:49:37.995
LEye coords (36.0, 102.0), REye coords (39.0, 71.0), timeStamp: 2017-03-02 11:49:38.037
LEye coords (36.0, 102.0), REye coords (39.0, 71.0), timeStamp: 2017-03-02 11:49:38.071
LEye coords (36.0, 103.0), REye coords (39.0, 71.0), timeStamp: 2017-03-02 11:49:38.104
LEye coords (36.0, 103.0), REye coords (39.0, 71.0), timeStamp: 2017-03-02 11:49:38.148
LEye coords (36.0, 103.0), REye coords (39.0, 71.0), timeStamp: 2017-03-02 11:49:38.182
LEye coords (36.0, 103.0), REye coords (40.0, 71.0), timeStamp: 2017-03-02 11:49:38.216
LEye coords (37.0, 103.0), REye coords (40.0, 71.0), timeStamp: 2017-03-02 11:49:38.261
