LEye coords (244.0, 151.0), REye coords (253.0, 132.0), timeStamp: 2017-03-02 11:49:40.296
LEye coords (244.0, 151.0), REye coords (253.0, 132.0), timeStamp: 2017-03-02 11:49:40.329
LEye coords (244.0, 151.0), REye coords (253.0, 133.0), timeStamp: 2017-03-02 11:49:40.372
LEye coords (244.0, 151.0), REye coords (253.0, 133.0), timeStamp: 2017-03-02 11:49:40.406
LEye coords (244.0, 151.0), REye coords (253.0, 134.0), timeStamp: 2017-03-02 11:49:40.440
LEye coords (244.0, 151.0), REye coords (253.0, 134.0), timeStamp: 2017-03-02 11:49:40.474
LEye coords (244.0, 151.0), REye coords (253.0, 135.0), timeStamp: 2017-03-02 11:49:40.518
LEye coords (244.0, 150.0), REye coords (253.0, 135.0), timeStamp: 2017-03-02 11:49:40.552
LEye coords (244.0, 150.0), REye coords (253.0, 136.0), timeStamp: 2017-03-02 11:49:40.586
LEye coords (244.0, 150.0), REye coords (253.0, 136.0), timeStamp: 2017-03-02 11:49:40.631
LEye coords (244.0, 149.0), REye coords (253.0, 136.0), timeStamp: 2017-03-02 11:49:40.665
LEye coords (244.0, 149.0), REye coords (253.0, 136.0), timeStamp: 2017-03-02 11:49:40.699
LEye coords (173.0, 159.0), REye coords (179.0, 141.0), timeStamp: 2017-03-02 11:49:40.733
LEye coords (125.0, 156.0), REye coords (136.0, 130.0), timeStamp: 2017-03-02 11:49:40.777
LEye coords (125.0, 156.0), REye coords (135.0, 129.0), timeStamp: 2017-03-02 11:49:40.810
LEye coords (126.0, 157.0), REye coords (135.0, 128.0), timeStamp: 2017-03-02 11:49:40.845
LEye coords (126.0, 157.0), REye coords (136.0, 129.0), timeStamp: 2017-03-02 11:49:40.889
LEye coords (128.0, 154.0), REye coords (134.0, 127.0), timeStamp: 2017-03-02 11:49:40.922
LEye coords (126.0, 159.0), REye coords (134.0, 126.0), timeStamp: 2017-03-02 11:49:40.956
LEye coords (125.0, 159.0), REye coords (134.0, 128.0), timeStamp: 2017-03-02 11:49:41.000
LEye coords (126.0, 158.0), REye coords (134.0, 129.0), timeStamp: 2017-03-02 11:49:41.033
LEye coords (126.0, 157.0), REye coords (134.0, 130.0), timeStamp: 2017-03-02 11:49:41.067
LEye coords (126.0, 157.0), REye coords (133.0, 130.0), timeStamp: 2017-03-02 11:49:41.111
LEye coords (125.0, 157.0), REye coords (133.0, 131.0), timeStamp: 2017-03-02 11:49:41.145
LEye coords (125.0, 156.0), REye coords (133.0, 131.0), timeStamp: 2017-03-02 11:49:41.179
LEye coords (125.0, 156.0), REye coords (133.0, 131.0), timeStamp: 2017-03-02 11:49:41.223
LEye coords (125.0, 156.0), REye coords (133.0, 131.0), timeStamp: 2017-03-02 11:49:41.256
LEye coords (125.0, 157.0), REye coords (132.0, 133.0), timeStamp: 2017-03-02 11:49:41.289
LEye coords (124.0, 158.0), REye coords (131.0, 133.0), timeStamp: 2017-03-02 11:49:41.334
LEye coords (124.0, 158.0), REye coords (130.0, 134.0), timeStamp: 2017-03-02 11:49:41.368
