LEye coords (231.0, 73.0), REye coords (228.0, 68.0), timeStamp: 2017-03-02 11:51:26.177
LEye coords (231.0, 73.0), REye coords (228.0, 68.0), timeStamp: 2017-03-02 11:51:26.220
LEye coords (230.0, 73.0), REye coords (227.0, 68.0), timeStamp: 2017-03-02 11:51:26.253
LEye coords (230.0, 73.0), REye coords (226.0, 69.0), timeStamp: 2017-03-02 11:51:26.286
LEye coords (230.0, 73.0), REye coords (226.0, 69.0), timeStamp: 2017-03-02 11:51:26.331
LEye coords (230.0, 73.0), REye coords (226.0, 68.0), timeStamp: 2017-03-02 11:51:26.365
LEye coords (230.0, 73.0), REye coords (226.0, 69.0), timeStamp: 2017-03-02 11:51:26.400
LEye coords (232.0, 145.0), REye coords (237.0, 142.0), timeStamp: 2017-03-02 11:51:26.442
LEye coords (234.0, 154.0), REye coords (238.0, 144.0), timeStamp: 2017-03-02 11:51:26.476
LEye coords (233.0, 153.0), REye coords (238.0, 142.0), timeStamp: 2017-03-02 11:51:26.510
LEye coords (232.0, 127.0), REye coords (237.0, 121.0), timeStamp: 2017-03-02 11:51:26.554
LEye coords (232.0, 108.0), REye coords (234.0, 101.0), timeStamp: 2017-03-02 11:51:26.588
LEye coords (233.0, 53.0), REye coords (224.0, 45.0), timeStamp: 2017-03-02 11:51:26.622
LEye coords (234.0, 51.0), REye coords (226.0, 47.0), timeStamp: 2017-03-02 11:51:26.666
LEye coords (234.0, 51.0), REye coords (225.0, 46.0), timeStamp: 2017-03-02 11:51:26.699
LEye coords (233.0, 51.0), REye coords (226.0, 46.0), timeStamp: 2017-03-02 11:51:26.732
LEye coords (234.0, 51.0), REye coords (226.0, 47.0), timeStamp: 2017-03-02 11:51:26.775
LEye coords (234.0, 51.0), REye coords (226.0, 47.0), timeStamp: 2017-03-02 11:51:26.809
LEye coords (235.0, 48.0), REye coords (226.0, 45.0), timeStamp: 2017-03-02 11:51:26.843
LEye coords (0.0, 0.0), REye coords (227.0, 44.0), timeStamp: 2017-03-02 11:51:26.887
LEye coords (236.0, 46.0), REye coords (227.0, 43.0), timeStamp: 2017-03-02 11:51:26.920
LEye coords (236.0, 44.0), REye coords (228.0, 42.0), timeStamp: 2017-03-02 11:51:26.955
LEye coords (236.0, 43.0), REye coords (228.0, 41.0), timeStamp: 2017-03-02 11:51:27.000
