LEye coords (274.0, 36.0), REye coords (270.0, 29.0), timeStamp: 2017-03-02 11:51:28.517
LEye coords (273.0, 36.0), REye coords (269.0, 29.0), timeStamp: 2017-03-02 11:51:28.550
LEye coords (272.0, 36.0), REye coords (268.0, 29.0), timeStamp: 2017-03-02 11:51:28.585
LEye coords (272.0, 36.0), REye coords (267.0, 30.0), timeStamp: 2017-03-02 11:51:28.628
LEye coords (271.0, 36.0), REye coords (267.0, 30.0), timeStamp: 2017-03-02 11:51:28.663
LEye coords (271.0, 36.0), REye coords (266.0, 30.0), timeStamp: 2017-03-02 11:51:28.696
LEye coords (270.0, 36.0), REye coords (265.0, 30.0), timeStamp: 2017-03-02 11:51:28.729
LEye coords (254.0, 140.0), REye coords (247.0, 130.0), timeStamp: 2017-03-02 11:51:28.774
LEye coords (248.0, 158.0), REye coords (253.0, 148.0), timeStamp: 2017-03-02 11:51:28.808
LEye coords (249.0, 158.0), REye coords (253.0, 149.0), timeStamp: 2017-03-02 11:51:28.841
LEye coords (249.0, 158.0), REye coords (250.0, 154.0), timeStamp: 2017-03-02 11:51:28.885
LEye coords (249.0, 159.0), REye coords (251.0, 152.0), timeStamp: 2017-03-02 11:51:28.918
LEye coords (249.0, 159.0), REye coords (254.0, 145.0), timeStamp: 2017-03-02 11:51:28.951
LEye coords (250.0, 157.0), REye coords (253.0, 144.0), timeStamp: 2017-03-02 11:51:28.995
LEye coords (253.0, 164.0), REye coords (259.0, 154.0), timeStamp: 2017-03-02 11:51:29.028
LEye coords (259.0, 176.0), REye coords (263.0, 166.0), timeStamp: 2017-03-02 11:51:29.072
LEye coords (261.0, 181.0), REye coords (266.0, 170.0), timeStamp: 2017-03-02 11:51:29.106
LEye coords (263.0, 184.0), REye coords (267.0, 172.0), timeStamp: 2017-03-02 11:51:29.140
LEye coords (263.0, 185.0), REye coords (269.0, 174.0), timeStamp: 2017-03-02 11:51:29.173
LEye coords (263.0, 187.0), REye coords (269.0, 175.0), timeStamp: 2017-03-02 11:51:29.217
LEye coords (263.0, 188.0), REye coords (269.0, 175.0), timeStamp: 2017-03-02 11:51:29.250
LEye coords (192.0, 175.0), REye coords (210.0, 160.0), timeStamp: 2017-03-02 11:51:29.294
LEye coords (192.0, 174.0), REye coords (199.0, 166.0), timeStamp: 2017-03-02 11:51:29.328
LEye coords (190.0, 174.0), REye coords (201.0, 163.0), timeStamp: 2017-03-02 11:51:29.362
LEye coords (190.0, 176.0), REye coords (200.0, 164.0), timeStamp: 2017-03-02 11:51:29.406
LEye coords (193.0, 178.0), REye coords (204.0, 164.0), timeStamp: 2017-03-02 11:51:29.440
LEye coords (0.0, 0.0), REye coords (386.0, 262.0), timeStamp: 2017-03-02 11:51:29.473
LEye coords (0.0, 0.0), REye coords (384.0, 268.0), timeStamp: 2017-03-02 11:51:29.507
LEye coords (0.0, 0.0), REye coords (383.0, 268.0), timeStamp: 2017-03-02 11:51:29.552
LEye coords (370.0, 271.0), REye coords (383.0, 267.0), timeStamp: 2017-03-02 11:51:29.585
LEye coords (200.0, 287.0), REye coords (340.0, 271.0), timeStamp: 2017-03-02 11:51:29.619
LEye coords (99.0, 295.0), REye coords (-6.0, 299.0), timeStamp: 2017-03-02 11:51:29.663
LEye coords (67.0, 297.0), REye coords (1.0, 300.0), timeStamp: 2017-03-02 11:51:29.697
LEye coords (51.0, 298.0), REye coords (1.0, 299.0), timeStamp: 2017-03-02 11:51:29.732
LEye coords (3.0, 300.0), REye coords (0.0, 299.0), timeStamp: 2017-03-02 11:51:29.766
LEye coords (5.0, 304.0), REye coords (0.0, 299.0), timeStamp: 2017-03-02 11:51:29.810
LEye coords (5.0, 303.0), REye coords (2.0, 299.0), timeStamp: 2017-03-02 11:51:29.843
LEye coords (5.0, 304.0), REye coords (-2.0, 297.0), timeStamp: 2017-03-02 11:51:29.877
LEye coords (6.0, 304.0), REye coords (-1.0, 299.0), timeStamp: 2017-03-02 11:51:29.920
LEye coords (6.0, 304.0), REye coords (-1.0, 299.0), timeStamp: 2017-03-02 11:51:29.953
LEye coords (6.0, 304.0), REye coords (0.0, 298.0), timeStamp: 2017-03-02 11:51:29.997
LEye coords (7.0, 304.0), REye coords (0.0, 298.0), timeStamp: 2017-03-02 11:51:30.030
LEye coords (9.0, 302.0), REye coords (3.0, 297.0), timeStamp: 2017-03-02 11:51:30.065
LEye coords (12.0, 302.0), REye coords (6.0, 297.0), timeStamp: 2017-03-02 11:51:30.108
LEye coords (13.0, 301.0), REye coords (8.0, 296.0), timeStamp: 2017-03-02 11:51:30.142
LEye coords (14.0, 300.0), REye coords (9.0, 296.0), timeStamp: 2017-03-02 11:51:30.175
LEye coords (15.0, 300.0), REye coords (10.0, 296.0), timeStamp: 2017-03-02 11:51:30.220
LEye coords (16.0, 299.0), REye coords (11.0, 296.0), timeStamp: 2017-03-02 11:51:30.255
LEye coords (16.0, 298.0), REye coords (11.0, 296.0), timeStamp: 2017-03-02 11:51:30.289
LEye coords (16.0, 297.0), REye coords (11.0, 296.0), timeStamp: 2017-03-02 11:51:30.321
