LEye coords (347.0, 181.0), REye coords (363.0, 190.0), timeStamp: 2017-03-02 11:51:32.587
LEye coords (347.0, 182.0), REye coords (362.0, 192.0), timeStamp: 2017-03-02 11:51:32.622
LEye coords (348.0, 182.0), REye coords (362.0, 191.0), timeStamp: 2017-03-02 11:51:32.655
LEye coords (348.0, 183.0), REye coords (362.0, 192.0), timeStamp: 2017-03-02 11:51:32.698
LEye coords (348.0, 184.0), REye coords (362.0, 193.0), timeStamp: 2017-03-02 11:51:32.732
LEye coords (349.0, 184.0), REye coords (361.0, 193.0), timeStamp: 2017-03-02 11:51:32.766
LEye coords (349.0, 184.0), REye coords (361.0, 193.0), timeStamp: 2017-03-02 11:51:32.801
LEye coords (227.0, 159.0), REye coords (231.0, 150.0), timeStamp: 2017-03-02 11:51:32.844
LEye coords (208.0, 160.0), REye coords (214.0, 143.0), timeStamp: 2017-03-02 11:51:32.877
LEye coords (208.0, 156.0), REye coords (213.0, 141.0), timeStamp: 2017-03-02 11:51:32.912
LEye coords (189.0, 143.0), REye coords (193.0, 131.0), timeStamp: 2017-03-02 11:51:32.955
LEye coords (168.0, 132.0), REye coords (170.0, 120.0), timeStamp: 2017-03-02 11:51:32.989
LEye coords (107.0, 101.0), REye coords (105.0, 89.0), timeStamp: 2017-03-02 11:51:33.023
LEye coords (135.0, 95.0), REye coords (104.0, 88.0), timeStamp: 2017-03-02 11:51:33.067
LEye coords (121.0, 98.0), REye coords (105.0, 88.0), timeStamp: 2017-03-02 11:51:33.101
LEye coords (117.0, 98.0), REye coords (106.0, 87.0), timeStamp: 2017-03-02 11:51:33.134
LEye coords (115.0, 99.0), REye coords (107.0, 87.0), timeStamp: 2017-03-02 11:51:33.178
LEye coords (113.0, 99.0), REye coords (106.0, 87.0), timeStamp: 2017-03-02 11:51:33.212
LEye coords (112.0, 99.0), REye coords (105.0, 87.0), timeStamp: 2017-03-02 11:51:33.246
LEye coords (112.0, 100.0), REye coords (105.0, 87.0), timeStamp: 2017-03-02 11:51:33.289
LEye coords (111.0, 100.0), REye coords (105.0, 87.0), timeStamp: 2017-03-02 11:51:33.324
LEye coords (111.0, 101.0), REye coords (105.0, 87.0), timeStamp: 2017-03-02 11:51:33.357
LEye coords (110.0, 101.0), REye coords (106.0, 88.0), timeStamp: 2017-03-02 11:51:33.401
LEye coords (110.0, 101.0), REye coords (105.0, 88.0), timeStamp: 2017-03-02 11:51:33.435
LEye coords (110.0, 101.0), REye coords (105.0, 88.0), timeStamp: 2017-03-02 11:51:33.469
LEye coords (110.0, 101.0), REye coords (105.0, 88.0), timeStamp: 2017-03-02 11:51:33.512
