LEye coords (318.0, 113.0), REye coords (325.0, 137.0), timeStamp: 2017-03-02 11:53:11.139
LEye coords (319.0, 114.0), REye coords (325.0, 139.0), timeStamp: 2017-03-02 11:53:11.183
LEye coords (319.0, 115.0), REye coords (325.0, 140.0), timeStamp: 2017-03-02 11:53:11.217
LEye coords (319.0, 116.0), REye coords (326.0, 141.0), timeStamp: 2017-03-02 11:53:11.252
LEye coords (318.0, 117.0), REye coords (324.0, 142.0), timeStamp: 2017-03-02 11:53:11.296
LEye coords (190.0, 197.0), REye coords (195.0, 217.0), timeStamp: 2017-03-02 11:53:11.329
LEye coords (192.0, 204.0), REye coords (198.0, 216.0), timeStamp: 2017-03-02 11:53:11.363
LEye coords (192.0, 202.0), REye coords (198.0, 219.0), timeStamp: 2017-03-02 11:53:11.397
LEye coords (192.0, 203.0), REye coords (198.0, 217.0), timeStamp: 2017-03-02 11:53:11.441
LEye coords (192.0, 203.0), REye coords (199.0, 214.0), timeStamp: 2017-03-02 11:53:11.474
LEye coords (193.0, 204.0), REye coords (198.0, 208.0), timeStamp: 2017-03-02 11:53:11.507
LEye coords (191.0, 202.0), REye coords (199.0, 213.0), timeStamp: 2017-03-02 11:53:11.552
LEye coords (161.0, 209.0), REye coords (165.0, 219.0), timeStamp: 2017-03-02 11:53:11.585
LEye coords (150.0, 209.0), REye coords (155.0, 216.0), timeStamp: 2017-03-02 11:53:11.629
LEye coords (144.0, 210.0), REye coords (149.0, 215.0), timeStamp: 2017-03-02 11:53:11.662
LEye coords (128.0, 208.0), REye coords (130.0, 205.0), timeStamp: 2017-03-02 11:53:11.697
LEye coords (125.0, 212.0), REye coords (130.0, 214.0), timeStamp: 2017-03-02 11:53:11.731
LEye coords (125.0, 214.0), REye coords (129.0, 213.0), timeStamp: 2017-03-02 11:53:11.774
LEye coords (125.0, 213.0), REye coords (129.0, 209.0), timeStamp: 2017-03-02 11:53:11.807
LEye coords (123.0, 215.0), REye coords (126.0, 211.0), timeStamp: 2017-03-02 11:53:11.841
LEye coords (122.0, 216.0), REye coords (125.0, 213.0), timeStamp: 2017-03-02 11:53:11.884
LEye coords (121.0, 216.0), REye coords (125.0, 213.0), timeStamp: 2017-03-02 11:53:11.918
LEye coords (121.0, 217.0), REye coords (125.0, 213.0), timeStamp: 2017-03-02 11:53:11.961
LEye coords (121.0, 218.0), REye coords (125.0, 213.0), timeStamp: 2017-03-02 11:53:11.996
LEye coords (120.0, 218.0), REye coords (124.0, 215.0), timeStamp: 2017-03-02 11:53:12.029
LEye coords (120.0, 219.0), REye coords (124.0, 216.0), timeStamp: 2017-03-02 11:53:12.063
LEye coords (120.0, 219.0), REye coords (124.0, 217.0), timeStamp: 2017-03-02 11:53:12.106
LEye coords (121.0, 219.0), REye coords (125.0, 217.0), timeStamp: 2017-03-02 11:53:12.139
LEye coords (122.0, 220.0), REye coords (126.0, 218.0), timeStamp: 2017-03-02 11:53:12.184
LEye coords (123.0, 221.0), REye coords (127.0, 219.0), timeStamp: 2017-03-02 11:53:12.218
LEye coords (124.0, 221.0), REye coords (128.0, 219.0), timeStamp: 2017-03-02 11:53:12.252
