LEye coords (52.0, 224.0), REye coords (50.0, 224.0), timeStamp: 2017-03-02 11:53:13.478
LEye coords (51.0, 225.0), REye coords (50.0, 224.0), timeStamp: 2017-03-02 11:53:13.512
LEye coords (51.0, 225.0), REye coords (51.0, 224.0), timeStamp: 2017-03-02 11:53:13.545
LEye coords (118.0, 201.0), REye coords (131.0, 199.0), timeStamp: 2017-03-02 11:53:13.588
LEye coords (213.0, 179.0), REye coords (232.0, 177.0), timeStamp: 2017-03-02 11:53:13.622
LEye coords (213.0, 179.0), REye coords (230.0, 178.0), timeStamp: 2017-03-02 11:53:13.656
LEye coords (213.0, 176.0), REye coords (229.0, 177.0), timeStamp: 2017-03-02 11:53:13.701
LEye coords (212.0, 175.0), REye coords (228.0, 179.0), timeStamp: 2017-03-02 11:53:13.734
LEye coords (213.0, 179.0), REye coords (229.0, 181.0), timeStamp: 2017-03-02 11:53:13.768
LEye coords (214.0, 177.0), REye coords (229.0, 185.0), timeStamp: 2017-03-02 11:53:13.811
LEye coords (214.0, 179.0), REye coords (227.0, 184.0), timeStamp: 2017-03-02 11:53:13.844
LEye coords (215.0, 179.0), REye coords (226.0, 184.0), timeStamp: 2017-03-02 11:53:13.878
LEye coords (235.0, 188.0), REye coords (246.0, 190.0), timeStamp: 2017-03-02 11:53:13.922
LEye coords (301.0, 221.0), REye coords (315.0, 208.0), timeStamp: 2017-03-02 11:53:13.955
LEye coords (296.0, 219.0), REye coords (316.0, 207.0), timeStamp: 2017-03-02 11:53:13.989
LEye coords (296.0, 216.0), REye coords (313.0, 210.0), timeStamp: 2017-03-02 11:53:14.033
LEye coords (296.0, 218.0), REye coords (313.0, 208.0), timeStamp: 2017-03-02 11:53:14.066
LEye coords (296.0, 219.0), REye coords (312.0, 207.0), timeStamp: 2017-03-02 11:53:14.100
LEye coords (297.0, 219.0), REye coords (312.0, 207.0), timeStamp: 2017-03-02 11:53:14.145
LEye coords (298.0, 220.0), REye coords (311.0, 208.0), timeStamp: 2017-03-02 11:53:14.178
LEye coords (298.0, 220.0), REye coords (311.0, 208.0), timeStamp: 2017-03-02 11:53:14.212
LEye coords (299.0, 220.0), REye coords (310.0, 210.0), timeStamp: 2017-03-02 11:53:14.256
LEye coords (300.0, 220.0), REye coords (309.0, 211.0), timeStamp: 2017-03-02 11:53:14.290
LEye coords (300.0, 221.0), REye coords (309.0, 212.0), timeStamp: 2017-03-02 11:53:14.323
LEye coords (300.0, 221.0), REye coords (309.0, 212.0), timeStamp: 2017-03-02 11:53:14.357
LEye coords (300.0, 221.0), REye coords (309.0, 213.0), timeStamp: 2017-03-02 11:53:14.401
LEye coords (300.0, 221.0), REye coords (309.0, 215.0), timeStamp: 2017-03-02 11:53:14.434
LEye coords (301.0, 222.0), REye coords (309.0, 215.0), timeStamp: 2017-03-02 11:53:14.478
LEye coords (301.0, 222.0), REye coords (308.0, 216.0), timeStamp: 2017-03-02 11:53:14.512
