LEye coords (83.0, 176.0), REye coords (78.0, 171.0), timeStamp: 2017-03-02 11:53:16.700
LEye coords (83.0, 176.0), REye coords (78.0, 172.0), timeStamp: 2017-03-02 11:53:16.733
LEye coords (83.0, 176.0), REye coords (78.0, 171.0), timeStamp: 2017-03-02 11:53:16.767
LEye coords (83.0, 176.0), REye coords (78.0, 172.0), timeStamp: 2017-03-02 11:53:16.801
LEye coords (83.0, 176.0), REye coords (79.0, 172.0), timeStamp: 2017-03-02 11:53:16.845
LEye coords (84.0, 176.0), REye coords (80.0, 172.0), timeStamp: 2017-03-02 11:53:16.879
LEye coords (191.0, 154.0), REye coords (201.0, 160.0), timeStamp: 2017-03-02 11:53:16.914
LEye coords (190.0, 151.0), REye coords (194.0, 167.0), timeStamp: 2017-03-02 11:53:16.958
LEye coords (191.0, 152.0), REye coords (194.0, 165.0), timeStamp: 2017-03-02 11:53:16.992
LEye coords (190.0, 152.0), REye coords (194.0, 165.0), timeStamp: 2017-03-02 11:53:17.025
LEye coords (190.0, 152.0), REye coords (194.0, 165.0), timeStamp: 2017-03-02 11:53:17.069
LEye coords (249.0, 106.0), REye coords (265.0, 125.0), timeStamp: 2017-03-02 11:53:17.103
LEye coords (331.0, 71.0), REye coords (336.0, 85.0), timeStamp: 2017-03-02 11:53:17.136
LEye coords (332.0, 68.0), REye coords (334.0, 86.0), timeStamp: 2017-03-02 11:53:17.181
LEye coords (331.0, 67.0), REye coords (333.0, 86.0), timeStamp: 2017-03-02 11:53:17.214
LEye coords (331.0, 67.0), REye coords (332.0, 86.0), timeStamp: 2017-03-02 11:53:17.247
LEye coords (330.0, 68.0), REye coords (330.0, 88.0), timeStamp: 2017-03-02 11:53:17.281
LEye coords (329.0, 68.0), REye coords (330.0, 88.0), timeStamp: 2017-03-02 11:53:17.325
LEye coords (330.0, 68.0), REye coords (330.0, 89.0), timeStamp: 2017-03-02 11:53:17.359
LEye coords (347.0, 65.0), REye coords (348.0, 84.0), timeStamp: 2017-03-02 11:53:17.392
LEye coords (356.0, 63.0), REye coords (0.0, 0.0), timeStamp: 2017-03-02 11:53:17.436
LEye coords (361.0, 62.0), REye coords (358.0, 83.0), timeStamp: 2017-03-02 11:53:17.470
LEye coords (365.0, 61.0), REye coords (364.0, 82.0), timeStamp: 2017-03-02 11:53:17.504
LEye coords (367.0, 60.0), REye coords (368.0, 81.0), timeStamp: 2017-03-02 11:53:17.549
LEye coords (369.0, 59.0), REye coords (371.0, 80.0), timeStamp: 2017-03-02 11:53:17.582
LEye coords (371.0, 59.0), REye coords (373.0, 79.0), timeStamp: 2017-03-02 11:53:17.616
LEye coords (372.0, 59.0), REye coords (387.0, 72.0), timeStamp: 2017-03-02 11:53:17.661
LEye coords (373.0, 59.0), REye coords (386.0, 76.0), timeStamp: 2017-03-02 11:53:17.693
LEye coords (381.0, 58.0), REye coords (386.0, 75.0), timeStamp: 2017-03-02 11:53:17.726
LEye coords (384.0, 57.0), REye coords (386.0, 76.0), timeStamp: 2017-03-02 11:53:17.769
