LEye coords (394.0, 58.0), REye coords (394.0, 75.0), timeStamp: 2017-03-02 11:53:17.882
LEye coords (296.0, 77.0), REye coords (297.0, 99.0), timeStamp: 2017-03-02 11:53:17.915
LEye coords (296.0, 77.0), REye coords (297.0, 99.0), timeStamp: 2017-03-02 11:53:17.949
LEye coords (296.0, 76.0), REye coords (298.0, 99.0), timeStamp: 2017-03-02 11:53:17.993
LEye coords (296.0, 76.0), REye coords (298.0, 98.0), timeStamp: 2017-03-02 11:53:18.027
LEye coords (297.0, 75.0), REye coords (298.0, 98.0), timeStamp: 2017-03-02 11:53:18.060
LEye coords (260.0, 109.0), REye coords (265.0, 135.0), timeStamp: 2017-03-02 11:53:18.105
LEye coords (175.0, 254.0), REye coords (183.0, 253.0), timeStamp: 2017-03-02 11:53:18.139
LEye coords (176.0, 256.0), REye coords (182.0, 254.0), timeStamp: 2017-03-02 11:53:18.172
LEye coords (177.0, 256.0), REye coords (182.0, 257.0), timeStamp: 2017-03-02 11:53:18.217
LEye coords (177.0, 254.0), REye coords (181.0, 258.0), timeStamp: 2017-03-02 11:53:18.250
LEye coords (174.0, 248.0), REye coords (181.0, 263.0), timeStamp: 2017-03-02 11:53:18.285
LEye coords (176.0, 252.0), REye coords (179.0, 258.0), timeStamp: 2017-03-02 11:53:18.317
LEye coords (175.0, 252.0), REye coords (179.0, 262.0), timeStamp: 2017-03-02 11:53:18.362
LEye coords (171.0, 259.0), REye coords (176.0, 264.0), timeStamp: 2017-03-02 11:53:18.395
LEye coords (164.0, 283.0), REye coords (168.0, 289.0), timeStamp: 2017-03-02 11:53:18.429
LEye coords (136.0, 356.0), REye coords (138.0, 371.0), timeStamp: 2017-03-02 11:53:18.473
LEye coords (133.0, 357.0), REye coords (139.0, 367.0), timeStamp: 2017-03-02 11:53:18.508
LEye coords (136.0, 355.0), REye coords (140.0, 360.0), timeStamp: 2017-03-02 11:53:18.542
LEye coords (136.0, 356.0), REye coords (140.0, 360.0), timeStamp: 2017-03-02 11:53:18.586
LEye coords (136.0, 357.0), REye coords (140.0, 363.0), timeStamp: 2017-03-02 11:53:18.620
LEye coords (136.0, 357.0), REye coords (139.0, 365.0), timeStamp: 2017-03-02 11:53:18.654
LEye coords (136.0, 357.0), REye coords (140.0, 365.0), timeStamp: 2017-03-02 11:53:18.688
LEye coords (136.0, 358.0), REye coords (140.0, 365.0), timeStamp: 2017-03-02 11:53:18.732
LEye coords (137.0, 359.0), REye coords (140.0, 365.0), timeStamp: 2017-03-02 11:53:18.766
LEye coords (137.0, 359.0), REye coords (140.0, 365.0), timeStamp: 2017-03-02 11:53:18.800
LEye coords (137.0, 360.0), REye coords (140.0, 365.0), timeStamp: 2017-03-02 11:53:18.844
LEye coords (137.0, 359.0), REye coords (140.0, 365.0), timeStamp: 2017-03-02 11:53:18.877
LEye coords (138.0, 359.0), REye coords (140.0, 365.0), timeStamp: 2017-03-02 11:53:18.910
LEye coords (138.0, 359.0), REye coords (140.0, 365.0), timeStamp: 2017-03-02 11:53:18.955
LEye coords (138.0, 360.0), REye coords (140.0, 366.0), timeStamp: 2017-03-02 11:53:18.989
LEye coords (138.0, 360.0), REye coords (140.0, 366.0), timeStamp: 2017-03-02 11:53:19.022
