LEye coords (270.0, 155.0), REye coords (278.0, 154.0), timeStamp: 2017-03-02 11:53:59.661
LEye coords (269.0, 155.0), REye coords (279.0, 154.0), timeStamp: 2017-03-02 11:53:59.705
LEye coords (269.0, 155.0), REye coords (279.0, 154.0), timeStamp: 2017-03-02 11:53:59.739
LEye coords (269.0, 155.0), REye coords (279.0, 154.0), timeStamp: 2017-03-02 11:53:59.772
LEye coords (269.0, 155.0), REye coords (279.0, 154.0), timeStamp: 2017-03-02 11:53:59.815
LEye coords (269.0, 155.0), REye coords (279.0, 154.0), timeStamp: 2017-03-02 11:53:59.850
LEye coords (269.0, 155.0), REye coords (279.0, 154.0), timeStamp: 2017-03-02 11:53:59.885
LEye coords (269.0, 155.0), REye coords (279.0, 153.0), timeStamp: 2017-03-02 11:53:59.918
LEye coords (269.0, 154.0), REye coords (279.0, 153.0), timeStamp: 2017-03-02 11:53:59.963
LEye coords (269.0, 154.0), REye coords (279.0, 153.0), timeStamp: 2017-03-02 11:53:59.997
LEye coords (190.0, 123.0), REye coords (197.0, 115.0), timeStamp: 2017-03-02 11:54:00.031
LEye coords (190.0, 129.0), REye coords (199.0, 117.0), timeStamp: 2017-03-02 11:54:00.066
LEye coords (190.0, 125.0), REye coords (199.0, 114.0), timeStamp: 2017-03-02 11:54:00.110
LEye coords (190.0, 123.0), REye coords (199.0, 114.0), timeStamp: 2017-03-02 11:54:00.144
LEye coords (190.0, 122.0), REye coords (200.0, 114.0), timeStamp: 2017-03-02 11:54:00.178
LEye coords (191.0, 124.0), REye coords (196.0, 112.0), timeStamp: 2017-03-02 11:54:00.223
LEye coords (190.0, 122.0), REye coords (198.0, 116.0), timeStamp: 2017-03-02 11:54:00.256
LEye coords (189.0, 121.0), REye coords (197.0, 114.0), timeStamp: 2017-03-02 11:54:00.291
LEye coords (186.0, 125.0), REye coords (196.0, 117.0), timeStamp: 2017-03-02 11:54:00.335
LEye coords (176.0, 164.0), REye coords (187.0, 154.0), timeStamp: 2017-03-02 11:54:00.370
LEye coords (150.0, 280.0), REye coords (163.0, 261.0), timeStamp: 2017-03-02 11:54:00.404
LEye coords (146.0, 282.0), REye coords (162.0, 269.0), timeStamp: 2017-03-02 11:54:00.438
LEye coords (146.0, 283.0), REye coords (164.0, 267.0), timeStamp: 2017-03-02 11:54:00.483
LEye coords (146.0, 284.0), REye coords (164.0, 268.0), timeStamp: 2017-03-02 11:54:00.516
LEye coords (146.0, 284.0), REye coords (163.0, 268.0), timeStamp: 2017-03-02 11:54:00.550
LEye coords (146.0, 283.0), REye coords (161.0, 271.0), timeStamp: 2017-03-02 11:54:00.593
LEye coords (144.0, 287.0), REye coords (158.0, 276.0), timeStamp: 2017-03-02 11:54:00.627
LEye coords (79.0, 357.0), REye coords (0.0, 0.0), timeStamp: 2017-03-02 11:54:00.662
LEye coords (81.0, 357.0), REye coords (0.0, 0.0), timeStamp: 2017-03-02 11:54:00.696
LEye coords (84.0, 343.0), REye coords (0.0, 0.0), timeStamp: 2017-03-02 11:54:00.741
LEye coords (82.0, 348.0), REye coords (0.0, 0.0), timeStamp: 2017-03-02 11:54:00.775
LEye coords (81.0, 349.0), REye coords (89.0, 357.0), timeStamp: 2017-03-02 11:54:00.809
LEye coords (119.0, 338.0), REye coords (131.0, 355.0), timeStamp: 2017-03-02 11:54:00.852
LEye coords (138.0, 339.0), REye coords (135.0, 355.0), timeStamp: 2017-03-02 11:54:00.885
LEye coords (137.0, 340.0), REye coords (136.0, 355.0), timeStamp: 2017-03-02 11:54:00.919
LEye coords (137.0, 340.0), REye coords (136.0, 357.0), timeStamp: 2017-03-02 11:54:00.963
LEye coords (137.0, 340.0), REye coords (137.0, 356.0), timeStamp: 2017-03-02 11:54:00.997
LEye coords (138.0, 339.0), REye coords (138.0, 355.0), timeStamp: 2017-03-02 11:54:01.031
LEye coords (0.0, 0.0), REye coords (142.0, 355.0), timeStamp: 2017-03-02 11:54:01.065
LEye coords (0.0, 0.0), REye coords (145.0, 355.0), timeStamp: 2017-03-02 11:54:01.109
LEye coords (0.0, 0.0), REye coords (169.0, 354.0), timeStamp: 2017-03-02 11:54:01.143
LEye coords (0.0, 0.0), REye coords (166.0, 357.0), timeStamp: 2017-03-02 11:54:01.177
LEye coords (0.0, 0.0), REye coords (167.0, 355.0), timeStamp: 2017-03-02 11:54:01.220
LEye coords (0.0, 0.0), REye coords (167.0, 355.0), timeStamp: 2017-03-02 11:54:01.254
LEye coords (0.0, 0.0), REye coords (167.0, 354.0), timeStamp: 2017-03-02 11:54:01.287
LEye coords (0.0, 0.0), REye coords (168.0, 354.0), timeStamp: 2017-03-02 11:54:01.331
LEye coords (0.0, 0.0), REye coords (168.0, 354.0), timeStamp: 2017-03-02 11:54:01.364
LEye coords (0.0, 0.0), REye coords (169.0, 354.0), timeStamp: 2017-03-02 11:54:01.408
LEye coords (173.0, 291.0), REye coords (189.0, 283.0), timeStamp: 2017-03-02 11:54:01.442
LEye coords (175.0, 286.0), REye coords (187.0, 272.0), timeStamp: 2017-03-02 11:54:01.476
LEye coords (174.0, 284.0), REye coords (189.0, 269.0), timeStamp: 2017-03-02 11:54:01.511
LEye coords (174.0, 284.0), REye coords (191.0, 267.0), timeStamp: 2017-03-02 11:54:01.555
LEye coords (179.0, 281.0), REye coords (191.0, 268.0), timeStamp: 2017-03-02 11:54:01.590
LEye coords (175.0, 278.0), REye coords (197.0, 264.0), timeStamp: 2017-03-02 11:54:01.623
LEye coords (183.0, 265.0), REye coords (199.0, 242.0), timeStamp: 2017-03-02 11:54:01.666
LEye coords (186.0, 262.0), REye coords (197.0, 244.0), timeStamp: 2017-03-02 11:54:01.700
LEye coords (188.0, 260.0), REye coords (199.0, 244.0), timeStamp: 2017-03-02 11:54:01.733
LEye coords (188.0, 258.0), REye coords (199.0, 243.0), timeStamp: 2017-03-02 11:54:01.778
LEye coords (188.0, 258.0), REye coords (199.0, 244.0), timeStamp: 2017-03-02 11:54:01.811
LEye coords (188.0, 257.0), REye coords (200.0, 243.0), timeStamp: 2017-03-02 11:54:01.845
LEye coords (189.0, 256.0), REye coords (202.0, 243.0), timeStamp: 2017-03-02 11:54:01.879
LEye coords (189.0, 255.0), REye coords (203.0, 242.0), timeStamp: 2017-03-02 11:54:01.923
LEye coords (190.0, 255.0), REye coords (203.0, 241.0), timeStamp: 2017-03-02 11:54:01.957
