LEye coords (222.0, 152.0), REye coords (226.0, 198.0), timeStamp: 2017-03-02 11:54:02.069
LEye coords (222.0, 148.0), REye coords (230.0, 170.0), timeStamp: 2017-03-02 11:54:02.102
LEye coords (222.0, 145.0), REye coords (232.0, 163.0), timeStamp: 2017-03-02 11:54:02.145
LEye coords (222.0, 144.0), REye coords (232.0, 158.0), timeStamp: 2017-03-02 11:54:02.179
LEye coords (221.0, 142.0), REye coords (230.0, 141.0), timeStamp: 2017-03-02 11:54:02.213
LEye coords (222.0, 148.0), REye coords (234.0, 146.0), timeStamp: 2017-03-02 11:54:02.257
LEye coords (223.0, 146.0), REye coords (232.0, 147.0), timeStamp: 2017-03-02 11:54:02.291
LEye coords (223.0, 146.0), REye coords (232.0, 148.0), timeStamp: 2017-03-02 11:54:02.324
LEye coords (223.0, 147.0), REye coords (232.0, 147.0), timeStamp: 2017-03-02 11:54:02.367
LEye coords (225.0, 147.0), REye coords (234.0, 146.0), timeStamp: 2017-03-02 11:54:02.400
LEye coords (278.0, 149.0), REye coords (287.0, 146.0), timeStamp: 2017-03-02 11:54:02.435
LEye coords (281.0, 144.0), REye coords (291.0, 145.0), timeStamp: 2017-03-02 11:54:02.478
LEye coords (283.0, 142.0), REye coords (289.0, 146.0), timeStamp: 2017-03-02 11:54:02.511
LEye coords (282.0, 144.0), REye coords (288.0, 147.0), timeStamp: 2017-03-02 11:54:02.556
LEye coords (283.0, 143.0), REye coords (289.0, 147.0), timeStamp: 2017-03-02 11:54:02.589
LEye coords (323.0, 126.0), REye coords (333.0, 137.0), timeStamp: 2017-03-02 11:54:02.622
LEye coords (330.0, 130.0), REye coords (338.0, 139.0), timeStamp: 2017-03-02 11:54:02.666
LEye coords (330.0, 129.0), REye coords (339.0, 138.0), timeStamp: 2017-03-02 11:54:02.701
LEye coords (329.0, 128.0), REye coords (335.0, 139.0), timeStamp: 2017-03-02 11:54:02.734
LEye coords (330.0, 127.0), REye coords (336.0, 138.0), timeStamp: 2017-03-02 11:54:02.767
LEye coords (330.0, 126.0), REye coords (336.0, 137.0), timeStamp: 2017-03-02 11:54:02.811
LEye coords (327.0, 124.0), REye coords (337.0, 137.0), timeStamp: 2017-03-02 11:54:02.845
LEye coords (330.0, 123.0), REye coords (339.0, 129.0), timeStamp: 2017-03-02 11:54:02.878
LEye coords (324.0, 124.0), REye coords (327.0, 133.0), timeStamp: 2017-03-02 11:54:02.923
LEye coords (322.0, 124.0), REye coords (326.0, 134.0), timeStamp: 2017-03-02 11:54:02.957
LEye coords (321.0, 125.0), REye coords (327.0, 133.0), timeStamp: 2017-03-02 11:54:02.999
LEye coords (321.0, 125.0), REye coords (327.0, 133.0), timeStamp: 2017-03-02 11:54:03.033
LEye coords (321.0, 126.0), REye coords (329.0, 132.0), timeStamp: 2017-03-02 11:54:03.067
LEye coords (321.0, 127.0), REye coords (329.0, 132.0), timeStamp: 2017-03-02 11:54:03.100
LEye coords (321.0, 127.0), REye coords (330.0, 132.0), timeStamp: 2017-03-02 11:54:03.145
