LEye coords (322.0, 127.0), REye coords (330.0, 133.0), timeStamp: 2017-03-02 11:54:03.249
LEye coords (322.0, 127.0), REye coords (331.0, 133.0), timeStamp: 2017-03-02 11:54:03.293
LEye coords (322.0, 127.0), REye coords (331.0, 134.0), timeStamp: 2017-03-02 11:54:03.327
LEye coords (322.0, 127.0), REye coords (331.0, 134.0), timeStamp: 2017-03-02 11:54:03.360
LEye coords (322.0, 127.0), REye coords (331.0, 134.0), timeStamp: 2017-03-02 11:54:03.406
LEye coords (322.0, 127.0), REye coords (332.0, 134.0), timeStamp: 2017-03-02 11:54:03.439
LEye coords (322.0, 128.0), REye coords (332.0, 134.0), timeStamp: 2017-03-02 11:54:03.473
LEye coords (275.0, 140.0), REye coords (283.0, 142.0), timeStamp: 2017-03-02 11:54:03.517
LEye coords (206.0, 150.0), REye coords (216.0, 145.0), timeStamp: 2017-03-02 11:54:03.551
LEye coords (207.0, 153.0), REye coords (219.0, 143.0), timeStamp: 2017-03-02 11:54:03.584
LEye coords (208.0, 155.0), REye coords (218.0, 144.0), timeStamp: 2017-03-02 11:54:03.628
LEye coords (209.0, 146.0), REye coords (219.0, 137.0), timeStamp: 2017-03-02 11:54:03.661
LEye coords (216.0, 111.0), REye coords (225.0, 106.0), timeStamp: 2017-03-02 11:54:03.694
LEye coords (222.0, 113.0), REye coords (225.0, 108.0), timeStamp: 2017-03-02 11:54:03.739
LEye coords (222.0, 113.0), REye coords (227.0, 109.0), timeStamp: 2017-03-02 11:54:03.773
LEye coords (221.0, 113.0), REye coords (227.0, 109.0), timeStamp: 2017-03-02 11:54:03.806
LEye coords (220.0, 112.0), REye coords (227.0, 109.0), timeStamp: 2017-03-02 11:54:03.849
LEye coords (220.0, 112.0), REye coords (227.0, 109.0), timeStamp: 2017-03-02 11:54:03.882
LEye coords (220.0, 112.0), REye coords (227.0, 109.0), timeStamp: 2017-03-02 11:54:03.915
LEye coords (221.0, 112.0), REye coords (227.0, 110.0), timeStamp: 2017-03-02 11:54:03.959
LEye coords (221.0, 112.0), REye coords (228.0, 110.0), timeStamp: 2017-03-02 11:54:03.993
LEye coords (221.0, 112.0), REye coords (228.0, 109.0), timeStamp: 2017-03-02 11:54:04.026
LEye coords (221.0, 112.0), REye coords (229.0, 108.0), timeStamp: 2017-03-02 11:54:04.070
LEye coords (221.0, 112.0), REye coords (230.0, 107.0), timeStamp: 2017-03-02 11:54:04.103
LEye coords (221.0, 112.0), REye coords (231.0, 106.0), timeStamp: 2017-03-02 11:54:04.147
LEye coords (221.0, 113.0), REye coords (232.0, 106.0), timeStamp: 2017-03-02 11:54:04.181
