LEye coords (153.0, 196.0), REye coords (163.0, 190.0), timeStamp: 2017-03-02 11:54:09.842
LEye coords (152.0, 196.0), REye coords (163.0, 191.0), timeStamp: 2017-03-02 11:54:09.876
LEye coords (152.0, 196.0), REye coords (164.0, 191.0), timeStamp: 2017-03-02 11:54:09.919
LEye coords (152.0, 196.0), REye coords (164.0, 192.0), timeStamp: 2017-03-02 11:54:09.952
LEye coords (152.0, 196.0), REye coords (163.0, 191.0), timeStamp: 2017-03-02 11:54:09.986
LEye coords (152.0, 196.0), REye coords (163.0, 191.0), timeStamp: 2017-03-02 11:54:10.031
LEye coords (152.0, 196.0), REye coords (163.0, 191.0), timeStamp: 2017-03-02 11:54:10.065
LEye coords (152.0, 196.0), REye coords (163.0, 190.0), timeStamp: 2017-03-02 11:54:10.099
LEye coords (152.0, 195.0), REye coords (162.0, 190.0), timeStamp: 2017-03-02 11:54:10.132
LEye coords (116.0, 129.0), REye coords (117.0, 128.0), timeStamp: 2017-03-02 11:54:10.177
LEye coords (116.0, 128.0), REye coords (122.0, 131.0), timeStamp: 2017-03-02 11:54:10.210
LEye coords (116.0, 129.0), REye coords (119.0, 131.0), timeStamp: 2017-03-02 11:54:10.254
LEye coords (116.0, 129.0), REye coords (118.0, 129.0), timeStamp: 2017-03-02 11:54:10.288
LEye coords (116.0, 131.0), REye coords (119.0, 129.0), timeStamp: 2017-03-02 11:54:10.322
LEye coords (118.0, 130.0), REye coords (121.0, 126.0), timeStamp: 2017-03-02 11:54:10.355
LEye coords (119.0, 128.0), REye coords (121.0, 131.0), timeStamp: 2017-03-02 11:54:10.398
LEye coords (213.0, 129.0), REye coords (224.0, 134.0), timeStamp: 2017-03-02 11:54:10.432
LEye coords (262.0, 137.0), REye coords (275.0, 141.0), timeStamp: 2017-03-02 11:54:10.476
LEye coords (287.0, 142.0), REye coords (301.0, 146.0), timeStamp: 2017-03-02 11:54:10.509
LEye coords (361.0, 163.0), REye coords (373.0, 160.0), timeStamp: 2017-03-02 11:54:10.542
LEye coords (359.0, 144.0), REye coords (373.0, 159.0), timeStamp: 2017-03-02 11:54:10.586
LEye coords (360.0, 148.0), REye coords (374.0, 159.0), timeStamp: 2017-03-02 11:54:10.621
LEye coords (359.0, 151.0), REye coords (375.0, 157.0), timeStamp: 2017-03-02 11:54:10.655
LEye coords (358.0, 151.0), REye coords (375.0, 156.0), timeStamp: 2017-03-02 11:54:10.689
LEye coords (363.0, 150.0), REye coords (0.0, 0.0), timeStamp: 2017-03-02 11:54:10.733
LEye coords (424.0, 133.0), REye coords (440.0, 139.0), timeStamp: 2017-03-02 11:54:10.767
LEye coords (422.0, 133.0), REye coords (445.0, 134.0), timeStamp: 2017-03-02 11:54:10.800
LEye coords (422.0, 135.0), REye coords (445.0, 131.0), timeStamp: 2017-03-02 11:54:10.844
LEye coords (423.0, 135.0), REye coords (445.0, 131.0), timeStamp: 2017-03-02 11:54:10.877
LEye coords (423.0, 137.0), REye coords (445.0, 131.0), timeStamp: 2017-03-02 11:54:10.912
LEye coords (423.0, 136.0), REye coords (445.0, 137.0), timeStamp: 2017-03-02 11:54:10.956
LEye coords (423.0, 136.0), REye coords (446.0, 134.0), timeStamp: 2017-03-02 11:54:10.989
