LEye coords (381.0, 82.0), REye coords (389.0, 102.0), timeStamp: 2017-03-02 11:54:57.810
LEye coords (382.0, 82.0), REye coords (390.0, 102.0), timeStamp: 2017-03-02 11:54:57.844
LEye coords (383.0, 82.0), REye coords (391.0, 102.0), timeStamp: 2017-03-02 11:54:57.878
LEye coords (384.0, 82.0), REye coords (392.0, 102.0), timeStamp: 2017-03-02 11:54:57.924
LEye coords (384.0, 83.0), REye coords (392.0, 102.0), timeStamp: 2017-03-02 11:54:57.958
LEye coords (385.0, 82.0), REye coords (393.0, 103.0), timeStamp: 2017-03-02 11:54:57.992
LEye coords (244.0, 201.0), REye coords (229.0, 209.0), timeStamp: 2017-03-02 11:54:58.026
LEye coords (245.0, 205.0), REye coords (248.0, 196.0), timeStamp: 2017-03-02 11:54:58.069
LEye coords (244.0, 205.0), REye coords (247.0, 196.0), timeStamp: 2017-03-02 11:54:58.102
LEye coords (243.0, 204.0), REye coords (247.0, 196.0), timeStamp: 2017-03-02 11:54:58.135
LEye coords (242.0, 203.0), REye coords (251.0, 195.0), timeStamp: 2017-03-02 11:54:58.180
LEye coords (240.0, 209.0), REye coords (263.0, 190.0), timeStamp: 2017-03-02 11:54:58.213
LEye coords (240.0, 203.0), REye coords (256.0, 190.0), timeStamp: 2017-03-02 11:54:58.257
LEye coords (244.0, 179.0), REye coords (257.0, 167.0), timeStamp: 2017-03-02 11:54:58.290
LEye coords (245.0, 170.0), REye coords (255.0, 160.0), timeStamp: 2017-03-02 11:54:58.323
LEye coords (0.0, 0.0), REye coords (257.0, 157.0), timeStamp: 2017-03-02 11:54:58.367
LEye coords (246.0, 166.0), REye coords (256.0, 156.0), timeStamp: 2017-03-02 11:54:58.400
LEye coords (247.0, 165.0), REye coords (256.0, 156.0), timeStamp: 2017-03-02 11:54:58.434
LEye coords (247.0, 164.0), REye coords (257.0, 156.0), timeStamp: 2017-03-02 11:54:58.478
LEye coords (247.0, 163.0), REye coords (256.0, 155.0), timeStamp: 2017-03-02 11:54:58.512
LEye coords (247.0, 162.0), REye coords (256.0, 155.0), timeStamp: 2017-03-02 11:54:58.546
LEye coords (247.0, 162.0), REye coords (256.0, 156.0), timeStamp: 2017-03-02 11:54:58.581
LEye coords (247.0, 162.0), REye coords (256.0, 155.0), timeStamp: 2017-03-02 11:54:58.626
LEye coords (248.0, 161.0), REye coords (256.0, 155.0), timeStamp: 2017-03-02 11:54:58.659
LEye coords (248.0, 160.0), REye coords (256.0, 154.0), timeStamp: 2017-03-02 11:54:58.693
LEye coords (248.0, 160.0), REye coords (256.0, 153.0), timeStamp: 2017-03-02 11:54:58.737
