LEye coords (324.0, 291.0), REye coords (318.0, 281.0), timeStamp: 2017-03-02 11:56:11.684
LEye coords (325.0, 293.0), REye coords (319.0, 282.0), timeStamp: 2017-03-02 11:56:11.718
LEye coords (325.0, 294.0), REye coords (319.0, 283.0), timeStamp: 2017-03-02 11:56:11.752
LEye coords (324.0, 292.0), REye coords (318.0, 281.0), timeStamp: 2017-03-02 11:56:11.796
LEye coords (212.0, 171.0), REye coords (200.0, 196.0), timeStamp: 2017-03-02 11:56:11.830
LEye coords (211.0, 192.0), REye coords (195.0, 184.0), timeStamp: 2017-03-02 11:56:11.864
LEye coords (211.0, 186.0), REye coords (195.0, 188.0), timeStamp: 2017-03-02 11:56:11.898
LEye coords (211.0, 187.0), REye coords (195.0, 189.0), timeStamp: 2017-03-02 11:56:11.943
LEye coords (211.0, 188.0), REye coords (195.0, 190.0), timeStamp: 2017-03-02 11:56:11.977
LEye coords (212.0, 194.0), REye coords (196.0, 197.0), timeStamp: 2017-03-02 11:56:12.011
LEye coords (213.0, 198.0), REye coords (195.0, 195.0), timeStamp: 2017-03-02 11:56:12.046
LEye coords (268.0, 225.0), REye coords (248.0, 221.0), timeStamp: 2017-03-02 11:56:12.091
LEye coords (286.0, 244.0), REye coords (270.0, 239.0), timeStamp: 2017-03-02 11:56:12.124
LEye coords (295.0, 255.0), REye coords (281.0, 247.0), timeStamp: 2017-03-02 11:56:12.158
LEye coords (323.0, 285.0), REye coords (312.0, 272.0), timeStamp: 2017-03-02 11:56:12.201
LEye coords (320.0, 283.0), REye coords (313.0, 275.0), timeStamp: 2017-03-02 11:56:12.235
LEye coords (321.0, 277.0), REye coords (313.0, 276.0), timeStamp: 2017-03-02 11:56:12.268
LEye coords (321.0, 276.0), REye coords (310.0, 278.0), timeStamp: 2017-03-02 11:56:12.313
LEye coords (321.0, 277.0), REye coords (311.0, 277.0), timeStamp: 2017-03-02 11:56:12.346
LEye coords (321.0, 278.0), REye coords (311.0, 275.0), timeStamp: 2017-03-02 11:56:12.380
LEye coords (321.0, 278.0), REye coords (312.0, 274.0), timeStamp: 2017-03-02 11:56:12.423
LEye coords (321.0, 276.0), REye coords (312.0, 274.0), timeStamp: 2017-03-02 11:56:12.457
LEye coords (323.0, 273.0), REye coords (314.0, 271.0), timeStamp: 2017-03-02 11:56:12.490
LEye coords (324.0, 271.0), REye coords (315.0, 269.0), timeStamp: 2017-03-02 11:56:12.533
