LEye coords (363.0, 209.0), REye coords (353.0, 200.0), timeStamp: 2017-03-02 11:56:08.499
LEye coords (364.0, 209.0), REye coords (354.0, 200.0), timeStamp: 2017-03-02 11:56:08.534
LEye coords (364.0, 209.0), REye coords (355.0, 200.0), timeStamp: 2017-03-02 11:56:08.567
LEye coords (365.0, 209.0), REye coords (355.0, 200.0), timeStamp: 2017-03-02 11:56:08.612
LEye coords (365.0, 209.0), REye coords (355.0, 199.0), timeStamp: 2017-03-02 11:56:08.646
LEye coords (320.0, 153.0), REye coords (303.0, 143.0), timeStamp: 2017-03-02 11:56:08.678
LEye coords (307.0, 142.0), REye coords (295.0, 140.0), timeStamp: 2017-03-02 11:56:08.723
LEye coords (308.0, 142.0), REye coords (297.0, 138.0), timeStamp: 2017-03-02 11:56:08.757
LEye coords (310.0, 143.0), REye coords (297.0, 137.0), timeStamp: 2017-03-02 11:56:08.790
LEye coords (310.0, 143.0), REye coords (298.0, 138.0), timeStamp: 2017-03-02 11:56:08.835
LEye coords (309.0, 147.0), REye coords (295.0, 142.0), timeStamp: 2017-03-02 11:56:08.868
LEye coords (311.0, 146.0), REye coords (0.0, 0.0), timeStamp: 2017-03-02 11:56:08.902
LEye coords (305.0, 145.0), REye coords (290.0, 146.0), timeStamp: 2017-03-02 11:56:08.945
LEye coords (279.0, 144.0), REye coords (248.0, 138.0), timeStamp: 2017-03-02 11:56:08.980
LEye coords (267.0, 145.0), REye coords (233.0, 137.0), timeStamp: 2017-03-02 11:56:09.014
LEye coords (231.0, 143.0), REye coords (226.0, 137.0), timeStamp: 2017-03-02 11:56:09.057
LEye coords (228.0, 141.0), REye coords (204.0, 140.0), timeStamp: 2017-03-02 11:56:09.090
LEye coords (228.0, 141.0), REye coords (204.0, 140.0), timeStamp: 2017-03-02 11:56:09.124
LEye coords (229.0, 142.0), REye coords (204.0, 140.0), timeStamp: 2017-03-02 11:56:09.168
LEye coords (230.0, 142.0), REye coords (203.0, 141.0), timeStamp: 2017-03-02 11:56:09.201
LEye coords (230.0, 142.0), REye coords (203.0, 141.0), timeStamp: 2017-03-02 11:56:09.234
LEye coords (230.0, 142.0), REye coords (203.0, 141.0), timeStamp: 2017-03-02 11:56:09.279
LEye coords (0.0, 0.0), REye coords (365.0, 190.0), timeStamp: 2017-03-02 11:56:09.312
LEye coords (374.0, 208.0), REye coords (362.0, 202.0), timeStamp: 2017-03-02 11:56:09.346
LEye coords (376.0, 205.0), REye coords (365.0, 201.0), timeStamp: 2017-03-02 11:56:09.390
LEye coords (378.0, 205.0), REye coords (364.0, 203.0), timeStamp: 2017-03-02 11:56:09.424
LEye coords (377.0, 204.0), REye coords (364.0, 204.0), timeStamp: 2017-03-02 11:56:09.457
LEye coords (377.0, 204.0), REye coords (363.0, 207.0), timeStamp: 2017-03-02 11:56:09.492
LEye coords (379.0, 207.0), REye coords (362.0, 211.0), timeStamp: 2017-03-02 11:56:09.536
LEye coords (375.0, 212.0), REye coords (365.0, 210.0), timeStamp: 2017-03-02 11:56:09.569
LEye coords (362.0, 198.0), REye coords (356.0, 199.0), timeStamp: 2017-03-02 11:56:09.603
LEye coords (357.0, 192.0), REye coords (0.0, 0.0), timeStamp: 2017-03-02 11:56:09.649
LEye coords (353.0, 191.0), REye coords (350.0, 195.0), timeStamp: 2017-03-02 11:56:09.682
LEye coords (352.0, 189.0), REye coords (346.0, 192.0), timeStamp: 2017-03-02 11:56:09.716
LEye coords (351.0, 188.0), REye coords (344.0, 189.0), timeStamp: 2017-03-02 11:56:09.761
LEye coords (350.0, 187.0), REye coords (343.0, 186.0), timeStamp: 2017-03-02 11:56:09.796
LEye coords (350.0, 187.0), REye coords (341.0, 185.0), timeStamp: 2017-03-02 11:56:09.829
LEye coords (349.0, 186.0), REye coords (340.0, 184.0), timeStamp: 2017-03-02 11:56:09.863
LEye coords (343.0, 140.0), REye coords (339.0, 180.0), timeStamp: 2017-03-02 11:56:09.908
LEye coords (340.0, 149.0), REye coords (338.0, 176.0), timeStamp: 2017-03-02 11:56:09.942
LEye coords (340.0, 150.0), REye coords (337.0, 173.0), timeStamp: 2017-03-02 11:56:09.975
LEye coords (340.0, 150.0), REye coords (322.0, 150.0), timeStamp: 2017-03-02 11:56:10.020
LEye coords (340.0, 150.0), REye coords (325.0, 149.0), timeStamp: 2017-03-02 11:56:10.052
LEye coords (340.0, 150.0), REye coords (323.0, 149.0), timeStamp: 2017-03-02 11:56:10.088
LEye coords (340.0, 150.0), REye coords (323.0, 151.0), timeStamp: 2017-03-02 11:56:10.122
LEye coords (340.0, 150.0), REye coords (323.0, 151.0), timeStamp: 2017-03-02 11:56:10.167
LEye coords (340.0, 150.0), REye coords (322.0, 152.0), timeStamp: 2017-03-02 11:56:10.201
LEye coords (340.0, 149.0), REye coords (322.0, 152.0), timeStamp: 2017-03-02 11:56:10.234
LEye coords (341.0, 148.0), REye coords (323.0, 152.0), timeStamp: 2017-03-02 11:56:10.269
LEye coords (341.0, 148.0), REye coords (323.0, 153.0), timeStamp: 2017-03-02 11:56:10.314
LEye coords (341.0, 148.0), REye coords (323.0, 153.0), timeStamp: 2017-03-02 11:56:10.347
LEye coords (341.0, 148.0), REye coords (323.0, 153.0), timeStamp: 2017-03-02 11:56:10.381
LEye coords (341.0, 148.0), REye coords (323.0, 154.0), timeStamp: 2017-03-02 11:56:10.426
LEye coords (341.0, 148.0), REye coords (323.0, 154.0), timeStamp: 2017-03-02 11:56:10.460
LEye coords (341.0, 148.0), REye coords (323.0, 154.0), timeStamp: 2017-03-02 11:56:10.493
