LEye coords (342.0, 166.0), REye coords (324.0, 174.0), timeStamp: 2017-03-02 11:56:10.605
LEye coords (342.0, 165.0), REye coords (324.0, 174.0), timeStamp: 2017-03-02 11:56:10.648
LEye coords (342.0, 166.0), REye coords (324.0, 174.0), timeStamp: 2017-03-02 11:56:10.682
LEye coords (342.0, 166.0), REye coords (324.0, 174.0), timeStamp: 2017-03-02 11:56:10.715
LEye coords (343.0, 166.0), REye coords (324.0, 174.0), timeStamp: 2017-03-02 11:56:10.759
LEye coords (283.0, 121.0), REye coords (265.0, 123.0), timeStamp: 2017-03-02 11:56:10.792
LEye coords (279.0, 117.0), REye coords (267.0, 126.0), timeStamp: 2017-03-02 11:56:10.825
LEye coords (281.0, 117.0), REye coords (265.0, 126.0), timeStamp: 2017-03-02 11:56:10.869
LEye coords (282.0, 116.0), REye coords (264.0, 129.0), timeStamp: 2017-03-02 11:56:10.902
LEye coords (283.0, 116.0), REye coords (264.0, 130.0), timeStamp: 2017-03-02 11:56:10.946
LEye coords (339.0, 147.0), REye coords (316.0, 166.0), timeStamp: 2017-03-02 11:56:10.979
LEye coords (432.0, 212.0), REye coords (420.0, 208.0), timeStamp: 2017-03-02 11:56:11.012
LEye coords (429.0, 212.0), REye coords (419.0, 208.0), timeStamp: 2017-03-02 11:56:11.046
LEye coords (428.0, 213.0), REye coords (419.0, 207.0), timeStamp: 2017-03-02 11:56:11.091
LEye coords (427.0, 213.0), REye coords (418.0, 207.0), timeStamp: 2017-03-02 11:56:11.125
LEye coords (425.0, 213.0), REye coords (418.0, 207.0), timeStamp: 2017-03-02 11:56:11.159
LEye coords (426.0, 211.0), REye coords (419.0, 209.0), timeStamp: 2017-03-02 11:56:11.203
LEye coords (426.0, 209.0), REye coords (419.0, 207.0), timeStamp: 2017-03-02 11:56:11.236
LEye coords (426.0, 211.0), REye coords (419.0, 206.0), timeStamp: 2017-03-02 11:56:11.270
LEye coords (426.0, 211.0), REye coords (415.0, 209.0), timeStamp: 2017-03-02 11:56:11.314
LEye coords (426.0, 211.0), REye coords (416.0, 209.0), timeStamp: 2017-03-02 11:56:11.348
LEye coords (426.0, 211.0), REye coords (416.0, 208.0), timeStamp: 2017-03-02 11:56:11.381
LEye coords (426.0, 210.0), REye coords (416.0, 208.0), timeStamp: 2017-03-02 11:56:11.426
LEye coords (427.0, 210.0), REye coords (417.0, 208.0), timeStamp: 2017-03-02 11:56:11.461
LEye coords (427.0, 211.0), REye coords (417.0, 208.0), timeStamp: 2017-03-02 11:56:11.494
LEye coords (428.0, 212.0), REye coords (419.0, 209.0), timeStamp: 2017-03-02 11:56:11.538
LEye coords (429.0, 214.0), REye coords (420.0, 209.0), timeStamp: 2017-03-02 11:56:11.572
