LEye coords (247.0, 126.0), REye coords (223.0, 142.0), timeStamp: 2017-03-02 11:56:18.457
LEye coords (248.0, 126.0), REye coords (224.0, 142.0), timeStamp: 2017-03-02 11:56:18.491
LEye coords (248.0, 126.0), REye coords (225.0, 141.0), timeStamp: 2017-03-02 11:56:18.524
LEye coords (248.0, 126.0), REye coords (226.0, 141.0), timeStamp: 2017-03-02 11:56:18.568
LEye coords (249.0, 126.0), REye coords (226.0, 141.0), timeStamp: 2017-03-02 11:56:18.602
LEye coords (249.0, 126.0), REye coords (227.0, 141.0), timeStamp: 2017-03-02 11:56:18.635
LEye coords (250.0, 127.0), REye coords (228.0, 142.0), timeStamp: 2017-03-02 11:56:18.679
LEye coords (251.0, 127.0), REye coords (229.0, 142.0), timeStamp: 2017-03-02 11:56:18.712
LEye coords (228.0, 213.0), REye coords (201.0, 214.0), timeStamp: 2017-03-02 11:56:18.746
LEye coords (228.0, 212.0), REye coords (199.0, 211.0), timeStamp: 2017-03-02 11:56:18.790
LEye coords (228.0, 212.0), REye coords (198.0, 212.0), timeStamp: 2017-03-02 11:56:18.824
LEye coords (227.0, 212.0), REye coords (198.0, 212.0), timeStamp: 2017-03-02 11:56:18.858
LEye coords (226.0, 212.0), REye coords (197.0, 211.0), timeStamp: 2017-03-02 11:56:18.901
LEye coords (216.0, 183.0), REye coords (0.0, 0.0), timeStamp: 2017-03-02 11:56:18.935
LEye coords (220.0, 183.0), REye coords (0.0, 0.0), timeStamp: 2017-03-02 11:56:18.970
LEye coords (219.0, 181.0), REye coords (0.0, 0.0), timeStamp: 2017-03-02 11:56:19.004
LEye coords (218.0, 180.0), REye coords (0.0, 0.0), timeStamp: 2017-03-02 11:56:19.047
LEye coords (218.0, 180.0), REye coords (0.0, 0.0), timeStamp: 2017-03-02 11:56:19.082
LEye coords (218.0, 178.0), REye coords (0.0, 0.0), timeStamp: 2017-03-02 11:56:19.116
LEye coords (218.0, 177.0), REye coords (0.0, 0.0), timeStamp: 2017-03-02 11:56:19.161
LEye coords (218.0, 177.0), REye coords (0.0, 0.0), timeStamp: 2017-03-02 11:56:19.194
LEye coords (218.0, 177.0), REye coords (0.0, 0.0), timeStamp: 2017-03-02 11:56:19.228
LEye coords (217.0, 176.0), REye coords (0.0, 0.0), timeStamp: 2017-03-02 11:56:19.272
LEye coords (217.0, 176.0), REye coords (0.0, 0.0), timeStamp: 2017-03-02 11:56:19.308
LEye coords (217.0, 176.0), REye coords (0.0, 0.0), timeStamp: 2017-03-02 11:56:19.342
