LEye coords (80.0, 194.0), REye coords (106.0, 183.0), timeStamp: 2017-03-02 11:56:57.759
LEye coords (80.0, 195.0), REye coords (105.0, 184.0), timeStamp: 2017-03-02 11:56:57.793
LEye coords (80.0, 195.0), REye coords (104.0, 184.0), timeStamp: 2017-03-02 11:56:57.827
LEye coords (80.0, 195.0), REye coords (104.0, 185.0), timeStamp: 2017-03-02 11:56:57.872
LEye coords (80.0, 195.0), REye coords (103.0, 185.0), timeStamp: 2017-03-02 11:56:57.906
LEye coords (158.0, 153.0), REye coords (201.0, 156.0), timeStamp: 2017-03-02 11:56:57.940
LEye coords (267.0, 139.0), REye coords (310.0, 145.0), timeStamp: 2017-03-02 11:56:57.985
LEye coords (267.0, 138.0), REye coords (310.0, 142.0), timeStamp: 2017-03-02 11:56:58.018
LEye coords (267.0, 135.0), REye coords (309.0, 144.0), timeStamp: 2017-03-02 11:56:58.051
LEye coords (268.0, 136.0), REye coords (310.0, 143.0), timeStamp: 2017-03-02 11:56:58.094
LEye coords (191.0, 273.0), REye coords (0.0, 0.0), timeStamp: 2017-03-02 11:56:58.128
LEye coords (192.0, 281.0), REye coords (0.0, 0.0), timeStamp: 2017-03-02 11:56:58.162
LEye coords (190.0, 277.0), REye coords (231.0, 252.0), timeStamp: 2017-03-02 11:56:58.206
LEye coords (190.0, 276.0), REye coords (225.0, 253.0), timeStamp: 2017-03-02 11:56:58.239
LEye coords (189.0, 276.0), REye coords (219.0, 259.0), timeStamp: 2017-03-02 11:56:58.273
LEye coords (186.0, 273.0), REye coords (220.0, 257.0), timeStamp: 2017-03-02 11:56:58.316
LEye coords (188.0, 269.0), REye coords (222.0, 257.0), timeStamp: 2017-03-02 11:56:58.350
LEye coords (186.0, 270.0), REye coords (215.0, 262.0), timeStamp: 2017-03-02 11:56:58.383
LEye coords (186.0, 272.0), REye coords (224.0, 260.0), timeStamp: 2017-03-02 11:56:58.428
LEye coords (186.0, 272.0), REye coords (223.0, 258.0), timeStamp: 2017-03-02 11:56:58.461
LEye coords (185.0, 269.0), REye coords (224.0, 255.0), timeStamp: 2017-03-02 11:56:58.494
LEye coords (184.0, 267.0), REye coords (228.0, 249.0), timeStamp: 2017-03-02 11:56:58.537
LEye coords (184.0, 265.0), REye coords (229.0, 245.0), timeStamp: 2017-03-02 11:56:58.570
LEye coords (183.0, 264.0), REye coords (229.0, 243.0), timeStamp: 2017-03-02 11:56:58.615
LEye coords (183.0, 263.0), REye coords (230.0, 241.0), timeStamp: 2017-03-02 11:56:58.649
LEye coords (182.0, 262.0), REye coords (230.0, 240.0), timeStamp: 2017-03-02 11:56:58.683
