LEye coords (317.0, 83.0), REye coords (357.0, 102.0), timeStamp: 2017-03-02 11:57:06.008
LEye coords (317.0, 83.0), REye coords (357.0, 102.0), timeStamp: 2017-03-02 11:57:06.052
LEye coords (317.0, 83.0), REye coords (357.0, 102.0), timeStamp: 2017-03-02 11:57:06.086
LEye coords (317.0, 82.0), REye coords (357.0, 102.0), timeStamp: 2017-03-02 11:57:06.120
LEye coords (317.0, 82.0), REye coords (357.0, 102.0), timeStamp: 2017-03-02 11:57:06.165
LEye coords (317.0, 82.0), REye coords (357.0, 102.0), timeStamp: 2017-03-02 11:57:06.198
LEye coords (318.0, 82.0), REye coords (357.0, 103.0), timeStamp: 2017-03-02 11:57:06.232
LEye coords (314.0, 85.0), REye coords (355.0, 105.0), timeStamp: 2017-03-02 11:57:06.276
LEye coords (255.0, 173.0), REye coords (304.0, 170.0), timeStamp: 2017-03-02 11:57:06.310
LEye coords (253.0, 176.0), REye coords (308.0, 174.0), timeStamp: 2017-03-02 11:57:06.343
LEye coords (252.0, 174.0), REye coords (304.0, 173.0), timeStamp: 2017-03-02 11:57:06.377
LEye coords (232.0, 158.0), REye coords (278.0, 157.0), timeStamp: 2017-03-02 11:57:06.421
LEye coords (221.0, 149.0), REye coords (264.0, 151.0), timeStamp: 2017-03-02 11:57:06.454
LEye coords (188.0, 125.0), REye coords (223.0, 125.0), timeStamp: 2017-03-02 11:57:06.489
LEye coords (187.0, 123.0), REye coords (222.0, 124.0), timeStamp: 2017-03-02 11:57:06.533
LEye coords (188.0, 124.0), REye coords (223.0, 126.0), timeStamp: 2017-03-02 11:57:06.566
LEye coords (188.0, 124.0), REye coords (223.0, 127.0), timeStamp: 2017-03-02 11:57:06.600
LEye coords (188.0, 125.0), REye coords (223.0, 128.0), timeStamp: 2017-03-02 11:57:06.644
LEye coords (185.0, 126.0), REye coords (220.0, 127.0), timeStamp: 2017-03-02 11:57:06.677
LEye coords (183.0, 127.0), REye coords (217.0, 126.0), timeStamp: 2017-03-02 11:57:06.711
LEye coords (181.0, 128.0), REye coords (215.0, 125.0), timeStamp: 2017-03-02 11:57:06.754
LEye coords (179.0, 129.0), REye coords (213.0, 124.0), timeStamp: 2017-03-02 11:57:06.788
