LEye coords (170.0, 80.0), REye coords (194.0, 77.0), timeStamp: 2017-03-02 11:57:05.159
LEye coords (170.0, 80.0), REye coords (193.0, 80.0), timeStamp: 2017-03-02 11:57:05.204
LEye coords (170.0, 79.0), REye coords (193.0, 80.0), timeStamp: 2017-03-02 11:57:05.237
LEye coords (170.0, 79.0), REye coords (192.0, 80.0), timeStamp: 2017-03-02 11:57:05.271
LEye coords (170.0, 79.0), REye coords (193.0, 80.0), timeStamp: 2017-03-02 11:57:05.304
LEye coords (170.0, 78.0), REye coords (193.0, 79.0), timeStamp: 2017-03-02 11:57:05.349
LEye coords (170.0, 78.0), REye coords (194.0, 78.0), timeStamp: 2017-03-02 11:57:05.383
LEye coords (170.0, 78.0), REye coords (194.0, 78.0), timeStamp: 2017-03-02 11:57:05.417
LEye coords (173.0, 79.0), REye coords (243.0, 90.0), timeStamp: 2017-03-02 11:57:05.461
LEye coords (261.0, 89.0), REye coords (0.0, 0.0), timeStamp: 2017-03-02 11:57:05.494
LEye coords (264.0, 87.0), REye coords (302.0, 105.0), timeStamp: 2017-03-02 11:57:05.529
LEye coords (265.0, 90.0), REye coords (301.0, 96.0), timeStamp: 2017-03-02 11:57:05.572
LEye coords (265.0, 90.0), REye coords (301.0, 94.0), timeStamp: 2017-03-02 11:57:05.606
LEye coords (265.0, 89.0), REye coords (300.0, 91.0), timeStamp: 2017-03-02 11:57:05.641
LEye coords (264.0, 92.0), REye coords (308.0, 97.0), timeStamp: 2017-03-02 11:57:05.674
LEye coords (315.0, 79.0), REye coords (356.0, 101.0), timeStamp: 2017-03-02 11:57:05.718
LEye coords (315.0, 82.0), REye coords (356.0, 101.0), timeStamp: 2017-03-02 11:57:05.752
LEye coords (315.0, 83.0), REye coords (357.0, 101.0), timeStamp: 2017-03-02 11:57:05.786
LEye coords (315.0, 83.0), REye coords (357.0, 100.0), timeStamp: 2017-03-02 11:57:05.830
LEye coords (317.0, 86.0), REye coords (357.0, 97.0), timeStamp: 2017-03-02 11:57:05.864
LEye coords (315.0, 80.0), REye coords (357.0, 101.0), timeStamp: 2017-03-02 11:57:05.897
