LEye coords (177.0, 116.0), REye coords (208.0, 112.0), timeStamp: 2017-03-02 11:57:06.932
LEye coords (177.0, 115.0), REye coords (209.0, 110.0), timeStamp: 2017-03-02 11:57:06.898
LEye coords (176.0, 116.0), REye coords (208.0, 111.0), timeStamp: 2017-03-02 11:57:06.977
LEye coords (240.0, 138.0), REye coords (238.0, 144.0), timeStamp: 2017-03-02 11:57:39.134
LEye coords (239.0, 135.0), REye coords (239.0, 143.0), timeStamp: 2017-03-02 11:57:39.177
LEye coords (240.0, 134.0), REye coords (239.0, 144.0), timeStamp: 2017-03-02 11:57:39.209
LEye coords (240.0, 134.0), REye coords (238.0, 143.0), timeStamp: 2017-03-02 11:57:39.243
LEye coords (240.0, 133.0), REye coords (238.0, 143.0), timeStamp: 2017-03-02 11:57:39.287
LEye coords (240.0, 133.0), REye coords (238.0, 143.0), timeStamp: 2017-03-02 11:57:39.321
LEye coords (239.0, 134.0), REye coords (238.0, 143.0), timeStamp: 2017-03-02 11:57:39.354
LEye coords (239.0, 134.0), REye coords (237.0, 143.0), timeStamp: 2017-03-02 11:57:39.398
LEye coords (239.0, 134.0), REye coords (237.0, 143.0), timeStamp: 2017-03-02 11:57:39.432
LEye coords (240.0, 130.0), REye coords (239.0, 141.0), timeStamp: 2017-03-02 11:57:39.466
LEye coords (267.0, 65.0), REye coords (272.0, 92.0), timeStamp: 2017-03-02 11:57:39.510
LEye coords (266.0, 68.0), REye coords (271.0, 92.0), timeStamp: 2017-03-02 11:57:39.544
LEye coords (266.0, 67.0), REye coords (270.0, 92.0), timeStamp: 2017-03-02 11:57:39.577
LEye coords (266.0, 67.0), REye coords (269.0, 93.0), timeStamp: 2017-03-02 11:57:39.622
LEye coords (267.0, 67.0), REye coords (269.0, 93.0), timeStamp: 2017-03-02 11:57:39.656
LEye coords (267.0, 68.0), REye coords (269.0, 92.0), timeStamp: 2017-03-02 11:57:39.690
LEye coords (265.0, 69.0), REye coords (266.0, 92.0), timeStamp: 2017-03-02 11:57:39.733
LEye coords (264.0, 69.0), REye coords (264.0, 92.0), timeStamp: 2017-03-02 11:57:39.767
LEye coords (263.0, 69.0), REye coords (263.0, 92.0), timeStamp: 2017-03-02 11:57:39.800
LEye coords (262.0, 69.0), REye coords (262.0, 92.0), timeStamp: 2017-03-02 11:57:39.844
LEye coords (262.0, 70.0), REye coords (260.0, 93.0), timeStamp: 2017-03-02 11:57:39.877
LEye coords (261.0, 69.0), REye coords (259.0, 92.0), timeStamp: 2017-03-02 11:57:39.911
LEye coords (261.0, 70.0), REye coords (259.0, 93.0), timeStamp: 2017-03-02 11:57:39.955
