LEye coords (195.0, 107.0), REye coords (192.0, 141.0), timeStamp: 2017-03-02 11:57:40.101
LEye coords (195.0, 107.0), REye coords (192.0, 141.0), timeStamp: 2017-03-02 11:57:40.134
LEye coords (194.0, 107.0), REye coords (191.0, 142.0), timeStamp: 2017-03-02 11:57:40.178
LEye coords (194.0, 108.0), REye coords (191.0, 143.0), timeStamp: 2017-03-02 11:57:40.212
LEye coords (194.0, 108.0), REye coords (191.0, 144.0), timeStamp: 2017-03-02 11:57:40.246
LEye coords (194.0, 108.0), REye coords (191.0, 144.0), timeStamp: 2017-03-02 11:57:40.280
LEye coords (194.0, 109.0), REye coords (191.0, 145.0), timeStamp: 2017-03-02 11:57:40.324
LEye coords (194.0, 110.0), REye coords (190.0, 145.0), timeStamp: 2017-03-02 11:57:40.357
LEye coords (193.0, 111.0), REye coords (190.0, 146.0), timeStamp: 2017-03-02 11:57:40.391
LEye coords (192.0, 113.0), REye coords (189.0, 148.0), timeStamp: 2017-03-02 11:57:40.435
LEye coords (82.0, 329.0), REye coords (88.0, 304.0), timeStamp: 2017-03-02 11:57:40.468
LEye coords (84.0, 331.0), REye coords (89.0, 301.0), timeStamp: 2017-03-02 11:57:40.502
LEye coords (84.0, 330.0), REye coords (86.0, 303.0), timeStamp: 2017-03-02 11:57:40.546
LEye coords (84.0, 329.0), REye coords (85.0, 305.0), timeStamp: 2017-03-02 11:57:40.579
LEye coords (83.0, 329.0), REye coords (84.0, 305.0), timeStamp: 2017-03-02 11:57:40.612
LEye coords (83.0, 328.0), REye coords (83.0, 304.0), timeStamp: 2017-03-02 11:57:40.656
LEye coords (83.0, 332.0), REye coords (80.0, 312.0), timeStamp: 2017-03-02 11:57:40.689
LEye coords (83.0, 329.0), REye coords (82.0, 310.0), timeStamp: 2017-03-02 11:57:40.723
LEye coords (83.0, 330.0), REye coords (81.0, 310.0), timeStamp: 2017-03-02 11:57:40.767
LEye coords (79.0, 338.0), REye coords (75.0, 318.0), timeStamp: 2017-03-02 11:57:40.801
LEye coords (76.0, 344.0), REye coords (72.0, 325.0), timeStamp: 2017-03-02 11:57:40.834
LEye coords (74.0, 349.0), REye coords (70.0, 330.0), timeStamp: 2017-03-02 11:57:40.878
LEye coords (73.0, 352.0), REye coords (69.0, 333.0), timeStamp: 2017-03-02 11:57:40.911
LEye coords (72.0, 353.0), REye coords (68.0, 335.0), timeStamp: 2017-03-02 11:57:40.955
LEye coords (71.0, 355.0), REye coords (67.0, 338.0), timeStamp: 2017-03-02 11:57:40.989
