LEye coords (129.0, 287.0), REye coords (135.0, 275.0), timeStamp: 2017-03-02 11:57:46.802
LEye coords (145.0, 219.0), REye coords (147.0, 221.0), timeStamp: 2017-03-02 11:57:46.836
LEye coords (145.0, 220.0), REye coords (147.0, 220.0), timeStamp: 2017-03-02 11:57:46.870
LEye coords (146.0, 220.0), REye coords (145.0, 223.0), timeStamp: 2017-03-02 11:57:46.915
LEye coords (145.0, 221.0), REye coords (145.0, 225.0), timeStamp: 2017-03-02 11:57:46.949
LEye coords (145.0, 219.0), REye coords (145.0, 233.0), timeStamp: 2017-03-02 11:57:46.982
LEye coords (146.0, 218.0), REye coords (146.0, 228.0), timeStamp: 2017-03-02 11:57:47.016
LEye coords (145.0, 220.0), REye coords (145.0, 229.0), timeStamp: 2017-03-02 11:57:47.061
LEye coords (145.0, 222.0), REye coords (144.0, 232.0), timeStamp: 2017-03-02 11:57:47.096
LEye coords (145.0, 222.0), REye coords (145.0, 231.0), timeStamp: 2017-03-02 11:57:47.130
LEye coords (145.0, 223.0), REye coords (145.0, 231.0), timeStamp: 2017-03-02 11:57:47.164
LEye coords (145.0, 223.0), REye coords (145.0, 230.0), timeStamp: 2017-03-02 11:57:47.208
LEye coords (144.0, 223.0), REye coords (143.0, 231.0), timeStamp: 2017-03-02 11:57:47.242
LEye coords (142.0, 223.0), REye coords (141.0, 230.0), timeStamp: 2017-03-02 11:57:47.275
LEye coords (141.0, 222.0), REye coords (140.0, 229.0), timeStamp: 2017-03-02 11:57:47.320
LEye coords (140.0, 222.0), REye coords (139.0, 229.0), timeStamp: 2017-03-02 11:57:47.354
LEye coords (139.0, 222.0), REye coords (138.0, 228.0), timeStamp: 2017-03-02 11:57:47.388
LEye coords (139.0, 222.0), REye coords (138.0, 228.0), timeStamp: 2017-03-02 11:57:47.432
LEye coords (138.0, 222.0), REye coords (137.0, 229.0), timeStamp: 2017-03-02 11:57:47.467
LEye coords (138.0, 222.0), REye coords (136.0, 230.0), timeStamp: 2017-03-02 11:57:47.500
LEye coords (138.0, 223.0), REye coords (136.0, 230.0), timeStamp: 2017-03-02 11:57:47.534
LEye coords (137.0, 223.0), REye coords (135.0, 230.0), timeStamp: 2017-03-02 11:57:47.577
LEye coords (137.0, 223.0), REye coords (135.0, 230.0), timeStamp: 2017-03-02 11:57:47.610
LEye coords (137.0, 223.0), REye coords (135.0, 231.0), timeStamp: 2017-03-02 11:57:47.654
LEye coords (137.0, 222.0), REye coords (135.0, 231.0), timeStamp: 2017-03-02 11:57:47.687
LEye coords (136.0, 223.0), REye coords (135.0, 230.0), timeStamp: 2017-03-02 11:57:47.720
LEye coords (136.0, 223.0), REye coords (135.0, 230.0), timeStamp: 2017-03-02 11:57:47.764
