LEye coords (203.0, 168.0), REye coords (201.0, 172.0), timeStamp: 2017-03-02 11:57:47.875
LEye coords (203.0, 168.0), REye coords (201.0, 172.0), timeStamp: 2017-03-02 11:57:47.909
LEye coords (202.0, 168.0), REye coords (200.0, 172.0), timeStamp: 2017-03-02 11:57:47.942
LEye coords (202.0, 168.0), REye coords (200.0, 172.0), timeStamp: 2017-03-02 11:57:47.985
LEye coords (202.0, 168.0), REye coords (200.0, 172.0), timeStamp: 2017-03-02 11:57:48.019
LEye coords (202.0, 168.0), REye coords (200.0, 172.0), timeStamp: 2017-03-02 11:57:48.052
LEye coords (201.0, 168.0), REye coords (200.0, 172.0), timeStamp: 2017-03-02 11:57:48.098
LEye coords (201.0, 168.0), REye coords (200.0, 172.0), timeStamp: 2017-03-02 11:57:48.133
LEye coords (201.0, 169.0), REye coords (200.0, 172.0), timeStamp: 2017-03-02 11:57:48.166
LEye coords (201.0, 169.0), REye coords (200.0, 173.0), timeStamp: 2017-03-02 11:57:48.200
LEye coords (203.0, 167.0), REye coords (202.0, 172.0), timeStamp: 2017-03-02 11:57:48.244
LEye coords (252.0, 108.0), REye coords (254.0, 134.0), timeStamp: 2017-03-02 11:57:48.277
LEye coords (252.0, 108.0), REye coords (252.0, 131.0), timeStamp: 2017-03-02 11:57:48.320
LEye coords (250.0, 106.0), REye coords (253.0, 130.0), timeStamp: 2017-03-02 11:57:48.354
LEye coords (250.0, 105.0), REye coords (253.0, 129.0), timeStamp: 2017-03-02 11:57:48.388
LEye coords (251.0, 105.0), REye coords (252.0, 129.0), timeStamp: 2017-03-02 11:57:48.422
LEye coords (251.0, 104.0), REye coords (247.0, 126.0), timeStamp: 2017-03-02 11:57:48.466
LEye coords (252.0, 105.0), REye coords (251.0, 126.0), timeStamp: 2017-03-02 11:57:48.500
LEye coords (253.0, 105.0), REye coords (250.0, 126.0), timeStamp: 2017-03-02 11:57:48.534
LEye coords (257.0, 99.0), REye coords (259.0, 122.0), timeStamp: 2017-03-02 11:57:48.578
LEye coords (259.0, 98.0), REye coords (262.0, 121.0), timeStamp: 2017-03-02 11:57:48.611
