LEye coords (261.0, 95.0), REye coords (269.0, 118.0), timeStamp: 2017-03-02 11:57:48.759
LEye coords (261.0, 95.0), REye coords (270.0, 117.0), timeStamp: 2017-03-02 11:57:48.792
LEye coords (262.0, 95.0), REye coords (270.0, 117.0), timeStamp: 2017-03-02 11:57:48.836
LEye coords (262.0, 95.0), REye coords (270.0, 117.0), timeStamp: 2017-03-02 11:57:48.872
LEye coords (262.0, 95.0), REye coords (271.0, 117.0), timeStamp: 2017-03-02 11:57:48.906
LEye coords (262.0, 96.0), REye coords (271.0, 116.0), timeStamp: 2017-03-02 11:57:48.940
LEye coords (262.0, 96.0), REye coords (271.0, 116.0), timeStamp: 2017-03-02 11:57:48.984
LEye coords (262.0, 97.0), REye coords (272.0, 116.0), timeStamp: 2017-03-02 11:57:49.018
LEye coords (262.0, 97.0), REye coords (272.0, 116.0), timeStamp: 2017-03-02 11:57:49.051
LEye coords (262.0, 97.0), REye coords (273.0, 116.0), timeStamp: 2017-03-02 11:57:49.095
LEye coords (315.0, 113.0), REye coords (318.0, 149.0), timeStamp: 2017-03-02 11:57:49.128
LEye coords (321.0, 125.0), REye coords (333.0, 154.0), timeStamp: 2017-03-02 11:57:49.161
LEye coords (321.0, 125.0), REye coords (333.0, 151.0), timeStamp: 2017-03-02 11:57:49.204
LEye coords (321.0, 124.0), REye coords (333.0, 151.0), timeStamp: 2017-03-02 11:57:49.237
LEye coords (321.0, 126.0), REye coords (333.0, 151.0), timeStamp: 2017-03-02 11:57:49.280
LEye coords (324.0, 126.0), REye coords (333.0, 153.0), timeStamp: 2017-03-02 11:57:49.314
LEye coords (336.0, 128.0), REye coords (346.0, 152.0), timeStamp: 2017-03-02 11:57:49.347
LEye coords (345.0, 129.0), REye coords (0.0, 0.0), timeStamp: 2017-03-02 11:57:49.393
LEye coords (348.0, 129.0), REye coords (358.0, 145.0), timeStamp: 2017-03-02 11:57:49.427
LEye coords (349.0, 129.0), REye coords (364.0, 143.0), timeStamp: 2017-03-02 11:57:49.460
LEye coords (350.0, 129.0), REye coords (367.0, 142.0), timeStamp: 2017-03-02 11:57:49.504
