LEye coords (19.0, 143.0), REye coords (22.0, 145.0), timeStamp: 2017-03-02 11:57:50.833
LEye coords (20.0, 142.0), REye coords (22.0, 144.0), timeStamp: 2017-03-02 11:57:50.867
LEye coords (20.0, 141.0), REye coords (23.0, 143.0), timeStamp: 2017-03-02 11:57:50.901
LEye coords (21.0, 140.0), REye coords (23.0, 142.0), timeStamp: 2017-03-02 11:57:50.945
LEye coords (21.0, 139.0), REye coords (22.0, 142.0), timeStamp: 2017-03-02 11:57:50.978
LEye coords (23.0, 139.0), REye coords (25.0, 143.0), timeStamp: 2017-03-02 11:57:51.012
LEye coords (239.0, 130.0), REye coords (250.0, 164.0), timeStamp: 2017-03-02 11:57:51.058
LEye coords (242.0, 132.0), REye coords (249.0, 170.0), timeStamp: 2017-03-02 11:57:51.092
LEye coords (244.0, 130.0), REye coords (248.0, 166.0), timeStamp: 2017-03-02 11:57:51.126
LEye coords (243.0, 132.0), REye coords (247.0, 165.0), timeStamp: 2017-03-02 11:57:51.170
LEye coords (244.0, 133.0), REye coords (247.0, 166.0), timeStamp: 2017-03-02 11:57:51.204
LEye coords (0.0, 0.0), REye coords (348.0, 138.0), timeStamp: 2017-03-02 11:57:51.237
LEye coords (336.0, 106.0), REye coords (349.0, 135.0), timeStamp: 2017-03-02 11:57:51.271
LEye coords (334.0, 111.0), REye coords (349.0, 137.0), timeStamp: 2017-03-02 11:57:51.315
LEye coords (337.0, 108.0), REye coords (350.0, 138.0), timeStamp: 2017-03-02 11:57:51.349
LEye coords (338.0, 108.0), REye coords (349.0, 138.0), timeStamp: 2017-03-02 11:57:51.392
LEye coords (337.0, 109.0), REye coords (349.0, 136.0), timeStamp: 2017-03-02 11:57:51.426
LEye coords (337.0, 111.0), REye coords (344.0, 138.0), timeStamp: 2017-03-02 11:57:51.460
LEye coords (339.0, 115.0), REye coords (346.0, 138.0), timeStamp: 2017-03-02 11:57:51.493
LEye coords (338.0, 110.0), REye coords (347.0, 137.0), timeStamp: 2017-03-02 11:57:51.538
LEye coords (344.0, 111.0), REye coords (347.0, 140.0), timeStamp: 2017-03-02 11:57:51.571
LEye coords (348.0, 112.0), REye coords (353.0, 139.0), timeStamp: 2017-03-02 11:57:51.605
LEye coords (351.0, 112.0), REye coords (357.0, 138.0), timeStamp: 2017-03-02 11:57:51.647
LEye coords (353.0, 111.0), REye coords (360.0, 137.0), timeStamp: 2017-03-02 11:57:51.681
LEye coords (354.0, 111.0), REye coords (362.0, 137.0), timeStamp: 2017-03-02 11:57:51.715
