LEye coords (374.0, 62.0), REye coords (366.0, 86.0), timeStamp: 2017-03-02 11:58:52.566
LEye coords (375.0, 70.0), REye coords (367.0, 97.0), timeStamp: 2017-03-02 11:58:52.600
LEye coords (375.0, 70.0), REye coords (368.0, 97.0), timeStamp: 2017-03-02 11:58:52.645
LEye coords (376.0, 70.0), REye coords (368.0, 97.0), timeStamp: 2017-03-02 11:58:52.679
LEye coords (376.0, 70.0), REye coords (369.0, 98.0), timeStamp: 2017-03-02 11:58:52.713
LEye coords (377.0, 71.0), REye coords (369.0, 98.0), timeStamp: 2017-03-02 11:58:52.756
LEye coords (376.0, 71.0), REye coords (369.0, 98.0), timeStamp: 2017-03-02 11:58:52.790
LEye coords (196.0, 162.0), REye coords (177.0, 147.0), timeStamp: 2017-03-02 11:58:52.824
LEye coords (196.0, 164.0), REye coords (167.0, 156.0), timeStamp: 2017-03-02 11:58:52.858
LEye coords (197.0, 167.0), REye coords (172.0, 154.0), timeStamp: 2017-03-02 11:58:52.901
LEye coords (196.0, 168.0), REye coords (174.0, 154.0), timeStamp: 2017-03-02 11:58:52.935
LEye coords (196.0, 166.0), REye coords (175.0, 154.0), timeStamp: 2017-03-02 11:58:52.969
LEye coords (289.0, 149.0), REye coords (0.0, 0.0), timeStamp: 2017-03-02 11:58:53.014
LEye coords (282.0, 147.0), REye coords (0.0, 0.0), timeStamp: 2017-03-02 11:58:53.048
LEye coords (281.0, 152.0), REye coords (0.0, 0.0), timeStamp: 2017-03-02 11:58:53.081
LEye coords (282.0, 154.0), REye coords (0.0, 0.0), timeStamp: 2017-03-02 11:58:53.126
LEye coords (309.0, 137.0), REye coords (385.0, 115.0), timeStamp: 2017-03-02 11:58:53.160
LEye coords (406.0, 75.0), REye coords (399.0, 98.0), timeStamp: 2017-03-02 11:58:53.193
LEye coords (405.0, 75.0), REye coords (398.0, 100.0), timeStamp: 2017-03-02 11:58:53.227
LEye coords (405.0, 74.0), REye coords (399.0, 100.0), timeStamp: 2017-03-02 11:58:53.271
LEye coords (406.0, 74.0), REye coords (398.0, 100.0), timeStamp: 2017-03-02 11:58:53.304
LEye coords (405.0, 75.0), REye coords (398.0, 101.0), timeStamp: 2017-03-02 11:58:53.349
LEye coords (405.0, 75.0), REye coords (399.0, 98.0), timeStamp: 2017-03-02 11:58:53.382
LEye coords (405.0, 76.0), REye coords (399.0, 98.0), timeStamp: 2017-03-02 11:58:53.416
LEye coords (405.0, 76.0), REye coords (399.0, 98.0), timeStamp: 2017-03-02 11:58:53.451
LEye coords (405.0, 75.0), REye coords (401.0, 98.0), timeStamp: 2017-03-02 11:58:53.494
LEye coords (405.0, 76.0), REye coords (406.0, 98.0), timeStamp: 2017-03-02 11:58:53.528
LEye coords (310.0, 74.0), REye coords (409.0, 98.0), timeStamp: 2017-03-02 11:58:53.561
LEye coords (410.0, 82.0), REye coords (411.0, 98.0), timeStamp: 2017-03-02 11:58:53.605
LEye coords (413.0, 77.0), REye coords (413.0, 99.0), timeStamp: 2017-03-02 11:58:53.639
LEye coords (0.0, 0.0), REye coords (414.0, 99.0), timeStamp: 2017-03-02 11:58:53.673
LEye coords (0.0, 0.0), REye coords (416.0, 98.0), timeStamp: 2017-03-02 11:58:53.717
LEye coords (415.0, 77.0), REye coords (417.0, 99.0), timeStamp: 2017-03-02 11:58:53.751
LEye coords (422.0, 139.0), REye coords (457.0, 313.0), timeStamp: 2017-03-02 11:58:53.784
LEye coords (443.0, 322.0), REye coords (459.0, 305.0), timeStamp: 2017-03-02 11:58:53.827
LEye coords (448.0, 321.0), REye coords (460.0, 308.0), timeStamp: 2017-03-02 11:58:53.861
LEye coords (445.0, 321.0), REye coords (460.0, 309.0), timeStamp: 2017-03-02 11:58:53.895
LEye coords (444.0, 322.0), REye coords (459.0, 309.0), timeStamp: 2017-03-02 11:58:53.940
LEye coords (444.0, 322.0), REye coords (459.0, 314.0), timeStamp: 2017-03-02 11:58:53.972
LEye coords (444.0, 323.0), REye coords (458.0, 309.0), timeStamp: 2017-03-02 11:58:54.006
LEye coords (444.0, 324.0), REye coords (458.0, 311.0), timeStamp: 2017-03-02 11:58:54.052
LEye coords (444.0, 324.0), REye coords (458.0, 312.0), timeStamp: 2017-03-02 11:58:54.086
LEye coords (444.0, 325.0), REye coords (459.0, 312.0), timeStamp: 2017-03-02 11:58:54.119
LEye coords (445.0, 326.0), REye coords (463.0, 315.0), timeStamp: 2017-03-02 11:58:54.163
LEye coords (447.0, 327.0), REye coords (465.0, 317.0), timeStamp: 2017-03-02 11:58:54.196
LEye coords (448.0, 328.0), REye coords (467.0, 318.0), timeStamp: 2017-03-02 11:58:54.230
LEye coords (450.0, 328.0), REye coords (468.0, 319.0), timeStamp: 2017-03-02 11:58:54.264
LEye coords (451.0, 328.0), REye coords (470.0, 320.0), timeStamp: 2017-03-02 11:58:54.309
LEye coords (452.0, 328.0), REye coords (471.0, 321.0), timeStamp: 2017-03-02 11:58:54.344
LEye coords (453.0, 329.0), REye coords (472.0, 321.0), timeStamp: 2017-03-02 11:58:54.377
LEye coords (453.0, 328.0), REye coords (0.0, 0.0), timeStamp: 2017-03-02 11:58:54.411
LEye coords (453.0, 327.0), REye coords (0.0, 0.0), timeStamp: 2017-03-02 11:58:54.456
LEye coords (453.0, 326.0), REye coords (472.0, 318.0), timeStamp: 2017-03-02 11:58:54.489
LEye coords (454.0, 326.0), REye coords (472.0, 316.0), timeStamp: 2017-03-02 11:58:54.523
