LEye coords (250.0, 149.0), REye coords (232.0, 152.0), timeStamp: 2017-03-02 11:58:57.044
LEye coords (250.0, 149.0), REye coords (231.0, 153.0), timeStamp: 2017-03-02 11:58:57.077
LEye coords (249.0, 149.0), REye coords (231.0, 153.0), timeStamp: 2017-03-02 11:58:57.122
LEye coords (249.0, 149.0), REye coords (230.0, 153.0), timeStamp: 2017-03-02 11:58:57.155
LEye coords (248.0, 148.0), REye coords (230.0, 152.0), timeStamp: 2017-03-02 11:58:57.189
LEye coords (248.0, 148.0), REye coords (230.0, 152.0), timeStamp: 2017-03-02 11:58:57.233
LEye coords (248.0, 148.0), REye coords (231.0, 153.0), timeStamp: 2017-03-02 11:58:57.268
LEye coords (248.0, 148.0), REye coords (231.0, 153.0), timeStamp: 2017-03-02 11:58:57.300
LEye coords (248.0, 149.0), REye coords (231.0, 153.0), timeStamp: 2017-03-02 11:58:57.344
LEye coords (320.0, 143.0), REye coords (321.0, 157.0), timeStamp: 2017-03-02 11:58:57.378
LEye coords (392.0, 143.0), REye coords (394.0, 165.0), timeStamp: 2017-03-02 11:58:57.413
LEye coords (394.0, 144.0), REye coords (393.0, 164.0), timeStamp: 2017-03-02 11:58:57.455
LEye coords (394.0, 146.0), REye coords (393.0, 165.0), timeStamp: 2017-03-02 11:58:57.490
LEye coords (394.0, 147.0), REye coords (390.0, 167.0), timeStamp: 2017-03-02 11:58:57.524
LEye coords (396.0, 148.0), REye coords (392.0, 166.0), timeStamp: 2017-03-02 11:58:57.557
LEye coords (398.0, 148.0), REye coords (390.0, 164.0), timeStamp: 2017-03-02 11:58:57.601
LEye coords (395.0, 148.0), REye coords (391.0, 166.0), timeStamp: 2017-03-02 11:58:57.634
LEye coords (396.0, 149.0), REye coords (392.0, 167.0), timeStamp: 2017-03-02 11:58:57.678
LEye coords (401.0, 154.0), REye coords (397.0, 170.0), timeStamp: 2017-03-02 11:58:57.712
LEye coords (405.0, 158.0), REye coords (400.0, 173.0), timeStamp: 2017-03-02 11:58:57.747
LEye coords (407.0, 162.0), REye coords (402.0, 175.0), timeStamp: 2017-03-02 11:58:57.780
LEye coords (409.0, 165.0), REye coords (404.0, 177.0), timeStamp: 2017-03-02 11:58:57.825
