LEye coords (209.0, 266.0), REye coords (198.0, 242.0), timeStamp: 2017-03-02 11:59:01.078
LEye coords (209.0, 266.0), REye coords (198.0, 242.0), timeStamp: 2017-03-02 11:59:01.112
LEye coords (209.0, 266.0), REye coords (198.0, 242.0), timeStamp: 2017-03-02 11:59:01.156
LEye coords (208.0, 266.0), REye coords (197.0, 243.0), timeStamp: 2017-03-02 11:59:01.189
LEye coords (208.0, 267.0), REye coords (197.0, 243.0), timeStamp: 2017-03-02 11:59:01.223
LEye coords (208.0, 266.0), REye coords (197.0, 243.0), timeStamp: 2017-03-02 11:59:01.268
LEye coords (208.0, 266.0), REye coords (197.0, 243.0), timeStamp: 2017-03-02 11:59:01.302
LEye coords (208.0, 266.0), REye coords (197.0, 243.0), timeStamp: 2017-03-02 11:59:01.335
LEye coords (208.0, 266.0), REye coords (197.0, 243.0), timeStamp: 2017-03-02 11:59:01.379
LEye coords (267.0, 243.0), REye coords (263.0, 244.0), timeStamp: 2017-03-02 11:59:01.413
LEye coords (265.0, 238.0), REye coords (263.0, 245.0), timeStamp: 2017-03-02 11:59:01.447
LEye coords (266.0, 239.0), REye coords (264.0, 244.0), timeStamp: 2017-03-02 11:59:01.490
LEye coords (265.0, 238.0), REye coords (263.0, 246.0), timeStamp: 2017-03-02 11:59:01.523
LEye coords (266.0, 237.0), REye coords (263.0, 245.0), timeStamp: 2017-03-02 11:59:01.557
LEye coords (266.0, 232.0), REye coords (263.0, 244.0), timeStamp: 2017-03-02 11:59:01.601
LEye coords (268.0, 226.0), REye coords (264.0, 239.0), timeStamp: 2017-03-02 11:59:01.635
LEye coords (267.0, 227.0), REye coords (264.0, 237.0), timeStamp: 2017-03-02 11:59:01.669
LEye coords (267.0, 227.0), REye coords (264.0, 238.0), timeStamp: 2017-03-02 11:59:01.703
LEye coords (267.0, 229.0), REye coords (263.0, 238.0), timeStamp: 2017-03-02 11:59:01.747
LEye coords (267.0, 228.0), REye coords (264.0, 238.0), timeStamp: 2017-03-02 11:59:01.782
LEye coords (268.0, 225.0), REye coords (265.0, 235.0), timeStamp: 2017-03-02 11:59:01.816
LEye coords (269.0, 224.0), REye coords (266.0, 233.0), timeStamp: 2017-03-02 11:59:01.859
