LEye coords (34.0, 80.0), REye coords (36.0, 84.0), timeStamp: 2017-03-02 11:59:06.039
LEye coords (33.0, 81.0), REye coords (35.0, 83.0), timeStamp: 2017-03-02 11:59:06.073
LEye coords (33.0, 81.0), REye coords (35.0, 85.0), timeStamp: 2017-03-02 11:59:06.107
LEye coords (137.0, 115.0), REye coords (132.0, 102.0), timeStamp: 2017-03-02 11:59:06.150
LEye coords (228.0, 163.0), REye coords (0.0, 0.0), timeStamp: 2017-03-02 11:59:06.184
LEye coords (229.0, 163.0), REye coords (223.0, 183.0), timeStamp: 2017-03-02 11:59:06.227
LEye coords (233.0, 174.0), REye coords (221.0, 189.0), timeStamp: 2017-03-02 11:59:06.261
LEye coords (235.0, 179.0), REye coords (222.0, 189.0), timeStamp: 2017-03-02 11:59:06.294
LEye coords (243.0, 189.0), REye coords (222.0, 186.0), timeStamp: 2017-03-02 11:59:06.337
LEye coords (242.0, 192.0), REye coords (220.0, 194.0), timeStamp: 2017-03-02 11:59:06.370
LEye coords (243.0, 196.0), REye coords (225.0, 187.0), timeStamp: 2017-03-02 11:59:06.403
LEye coords (235.0, 193.0), REye coords (213.0, 180.0), timeStamp: 2017-03-02 11:59:06.448
LEye coords (196.0, 169.0), REye coords (166.0, 152.0), timeStamp: 2017-03-02 11:59:06.482
LEye coords (78.0, 106.0), REye coords (141.0, 139.0), timeStamp: 2017-03-02 11:59:06.515
LEye coords (-6.0, 92.0), REye coords (6.0, 97.0), timeStamp: 2017-03-02 11:59:06.559
LEye coords (18.0, 86.0), REye coords (50.0, 86.0), timeStamp: 2017-03-02 11:59:06.593
LEye coords (28.0, 87.0), REye coords (48.0, 90.0), timeStamp: 2017-03-02 11:59:06.625
LEye coords (32.0, 87.0), REye coords (48.0, 89.0), timeStamp: 2017-03-02 11:59:06.669
LEye coords (44.0, 90.0), REye coords (48.0, 87.0), timeStamp: 2017-03-02 11:59:06.703
LEye coords (41.0, 90.0), REye coords (48.0, 87.0), timeStamp: 2017-03-02 11:59:06.746
LEye coords (42.0, 86.0), REye coords (46.0, 88.0), timeStamp: 2017-03-02 11:59:06.780
LEye coords (38.0, 85.0), REye coords (44.0, 86.0), timeStamp: 2017-03-02 11:59:06.813
LEye coords (42.0, 85.0), REye coords (45.0, 84.0), timeStamp: 2017-03-02 11:59:06.847
LEye coords (39.0, 85.0), REye coords (44.0, 83.0), timeStamp: 2017-03-02 11:59:06.892
LEye coords (37.0, 85.0), REye coords (42.0, 82.0), timeStamp: 2017-03-02 11:59:06.926
LEye coords (36.0, 84.0), REye coords (41.0, 82.0), timeStamp: 2017-03-02 11:59:06.959
LEye coords (35.0, 83.0), REye coords (41.0, 82.0), timeStamp: 2017-03-02 11:59:07.004
LEye coords (34.0, 83.0), REye coords (40.0, 82.0), timeStamp: 2017-03-02 11:59:07.038
