LEye coords (111.0, 269.0), REye coords (119.0, 258.0), timeStamp: 2017-03-02 11:59:42.683
LEye coords (163.0, 183.0), REye coords (179.0, 188.0), timeStamp: 2017-03-02 11:59:42.717
LEye coords (211.0, 143.0), REye coords (229.0, 143.0), timeStamp: 2017-03-02 11:59:42.750
LEye coords (211.0, 141.0), REye coords (226.0, 147.0), timeStamp: 2017-03-02 11:59:42.795
LEye coords (210.0, 138.0), REye coords (225.0, 148.0), timeStamp: 2017-03-02 11:59:42.829
LEye coords (211.0, 139.0), REye coords (223.0, 149.0), timeStamp: 2017-03-02 11:59:42.861
LEye coords (211.0, 135.0), REye coords (221.0, 153.0), timeStamp: 2017-03-02 11:59:42.906
LEye coords (214.0, 135.0), REye coords (224.0, 158.0), timeStamp: 2017-03-02 11:59:42.940
LEye coords (214.0, 139.0), REye coords (227.0, 152.0), timeStamp: 2017-03-02 11:59:42.974
LEye coords (213.0, 141.0), REye coords (227.0, 148.0), timeStamp: 2017-03-02 11:59:43.007
LEye coords (212.0, 142.0), REye coords (228.0, 147.0), timeStamp: 2017-03-02 11:59:43.051
LEye coords (212.0, 141.0), REye coords (229.0, 145.0), timeStamp: 2017-03-02 11:59:43.084
LEye coords (212.0, 140.0), REye coords (229.0, 145.0), timeStamp: 2017-03-02 11:59:43.118
LEye coords (212.0, 141.0), REye coords (229.0, 144.0), timeStamp: 2017-03-02 11:59:43.163
LEye coords (210.0, 139.0), REye coords (225.0, 142.0), timeStamp: 2017-03-02 11:59:43.198
LEye coords (159.0, 107.0), REye coords (165.0, 109.0), timeStamp: 2017-03-02 11:59:43.230
LEye coords (156.0, 113.0), REye coords (158.0, 119.0), timeStamp: 2017-03-02 11:59:43.274
LEye coords (156.0, 111.0), REye coords (158.0, 114.0), timeStamp: 2017-03-02 11:59:43.309
LEye coords (157.0, 109.0), REye coords (158.0, 113.0), timeStamp: 2017-03-02 11:59:43.343
LEye coords (157.0, 109.0), REye coords (158.0, 113.0), timeStamp: 2017-03-02 11:59:43.376
LEye coords (157.0, 109.0), REye coords (158.0, 113.0), timeStamp: 2017-03-02 11:59:43.421
LEye coords (157.0, 109.0), REye coords (156.0, 105.0), timeStamp: 2017-03-02 11:59:43.454
LEye coords (157.0, 109.0), REye coords (157.0, 110.0), timeStamp: 2017-03-02 11:59:43.488
LEye coords (157.0, 110.0), REye coords (159.0, 110.0), timeStamp: 2017-03-02 11:59:43.532
LEye coords (118.0, 143.0), REye coords (146.0, 121.0), timeStamp: 2017-03-02 11:59:43.564
LEye coords (111.0, 154.0), REye coords (138.0, 127.0), timeStamp: 2017-03-02 11:59:43.607
LEye coords (110.0, 152.0), REye coords (134.0, 132.0), timeStamp: 2017-03-02 11:59:43.641
LEye coords (139.0, 152.0), REye coords (211.0, 153.0), timeStamp: 2017-03-02 11:59:43.675
LEye coords (218.0, 156.0), REye coords (453.0, 178.0), timeStamp: 2017-03-02 11:59:43.720
LEye coords (465.0, 170.0), REye coords (459.0, 182.0), timeStamp: 2017-03-02 11:59:43.754
LEye coords (464.0, 166.0), REye coords (462.0, 182.0), timeStamp: 2017-03-02 11:59:43.787
LEye coords (462.0, 169.0), REye coords (0.0, 0.0), timeStamp: 2017-03-02 11:59:43.822
LEye coords (463.0, 169.0), REye coords (463.0, 182.0), timeStamp: 2017-03-02 11:59:43.865
LEye coords (464.0, 169.0), REye coords (468.0, 190.0), timeStamp: 2017-03-02 11:59:43.900
LEye coords (464.0, 169.0), REye coords (468.0, 185.0), timeStamp: 2017-03-02 11:59:43.933
LEye coords (407.0, 170.0), REye coords (448.0, 184.0), timeStamp: 2017-03-02 11:59:43.978
LEye coords (129.0, 188.0), REye coords (0.0, 0.0), timeStamp: 2017-03-02 11:59:44.011
LEye coords (97.0, 192.0), REye coords (320.0, 183.0), timeStamp: 2017-03-02 11:59:44.046
LEye coords (85.0, 194.0), REye coords (256.0, 183.0), timeStamp: 2017-03-02 11:59:44.090
LEye coords (80.0, 195.0), REye coords (64.0, 187.0), timeStamp: 2017-03-02 11:59:44.123
LEye coords (75.0, 192.0), REye coords (69.0, 188.0), timeStamp: 2017-03-02 11:59:44.157
LEye coords (65.0, 197.0), REye coords (69.0, 188.0), timeStamp: 2017-03-02 11:59:44.191
LEye coords (66.0, 198.0), REye coords (70.0, 188.0), timeStamp: 2017-03-02 11:59:44.235
LEye coords (67.0, 199.0), REye coords (71.0, 188.0), timeStamp: 2017-03-02 11:59:44.268
LEye coords (69.0, 197.0), REye coords (73.0, 186.0), timeStamp: 2017-03-02 11:59:44.311
LEye coords (71.0, 196.0), REye coords (75.0, 184.0), timeStamp: 2017-03-02 11:59:44.345
LEye coords (72.0, 195.0), REye coords (76.0, 183.0), timeStamp: 2017-03-02 11:59:44.379
