LEye coords (395.0, 192.0), REye coords (398.0, 210.0), timeStamp: 2017-03-02 11:59:47.599
LEye coords (396.0, 172.0), REye coords (398.0, 187.0), timeStamp: 2017-03-02 11:59:47.633
LEye coords (328.0, 146.0), REye coords (349.0, 161.0), timeStamp: 2017-03-02 11:59:47.677
LEye coords (283.0, 140.0), REye coords (306.0, 139.0), timeStamp: 2017-03-02 11:59:47.710
LEye coords (284.0, 142.0), REye coords (303.0, 140.0), timeStamp: 2017-03-02 11:59:47.744
LEye coords (284.0, 141.0), REye coords (302.0, 140.0), timeStamp: 2017-03-02 11:59:47.789
LEye coords (284.0, 141.0), REye coords (300.0, 139.0), timeStamp: 2017-03-02 11:59:47.823
LEye coords (282.0, 141.0), REye coords (294.0, 142.0), timeStamp: 2017-03-02 11:59:47.856
LEye coords (284.0, 139.0), REye coords (295.0, 138.0), timeStamp: 2017-03-02 11:59:47.900
LEye coords (283.0, 141.0), REye coords (295.0, 138.0), timeStamp: 2017-03-02 11:59:47.933
LEye coords (283.0, 141.0), REye coords (295.0, 140.0), timeStamp: 2017-03-02 11:59:47.967
LEye coords (283.0, 142.0), REye coords (295.0, 140.0), timeStamp: 2017-03-02 11:59:48.011
LEye coords (283.0, 142.0), REye coords (295.0, 142.0), timeStamp: 2017-03-02 11:59:48.044
LEye coords (286.0, 142.0), REye coords (299.0, 144.0), timeStamp: 2017-03-02 11:59:48.077
LEye coords (291.0, 142.0), REye coords (305.0, 145.0), timeStamp: 2017-03-02 11:59:48.121
LEye coords (295.0, 142.0), REye coords (309.0, 147.0), timeStamp: 2017-03-02 11:59:48.156
LEye coords (299.0, 142.0), REye coords (312.0, 148.0), timeStamp: 2017-03-02 11:59:48.190
LEye coords (301.0, 142.0), REye coords (316.0, 148.0), timeStamp: 2017-03-02 11:59:48.235
LEye coords (303.0, 142.0), REye coords (319.0, 148.0), timeStamp: 2017-03-02 11:59:48.270
LEye coords (305.0, 142.0), REye coords (321.0, 149.0), timeStamp: 2017-03-02 11:59:48.304
