LEye coords (239.0, 124.0), REye coords (0.0, 0.0), timeStamp: 2017-03-02 11:59:57.666
LEye coords (237.0, 123.0), REye coords (0.0, 0.0), timeStamp: 2017-03-02 11:59:57.589
LEye coords (238.0, 123.0), REye coords (0.0, 0.0), timeStamp: 2017-03-02 11:59:57.633
LEye coords (220.0, 153.0), REye coords (234.0, 142.0), timeStamp: 2017-03-02 12:00:58.372
LEye coords (220.0, 151.0), REye coords (234.0, 145.0), timeStamp: 2017-03-02 12:00:58.405
LEye coords (221.0, 152.0), REye coords (233.0, 145.0), timeStamp: 2017-03-02 12:00:58.439
LEye coords (221.0, 152.0), REye coords (232.0, 145.0), timeStamp: 2017-03-02 12:00:58.471
LEye coords (221.0, 152.0), REye coords (231.0, 146.0), timeStamp: 2017-03-02 12:00:58.516
LEye coords (221.0, 152.0), REye coords (232.0, 146.0), timeStamp: 2017-03-02 12:00:58.550
LEye coords (221.0, 151.0), REye coords (231.0, 146.0), timeStamp: 2017-03-02 12:00:58.583
LEye coords (221.0, 152.0), REye coords (230.0, 147.0), timeStamp: 2017-03-02 12:00:58.627
LEye coords (220.0, 152.0), REye coords (229.0, 146.0), timeStamp: 2017-03-02 12:00:58.662
LEye coords (126.0, 177.0), REye coords (131.0, 162.0), timeStamp: 2017-03-02 12:00:58.695
LEye coords (129.0, 180.0), REye coords (127.0, 162.0), timeStamp: 2017-03-02 12:00:58.738
LEye coords (128.0, 178.0), REye coords (125.0, 163.0), timeStamp: 2017-03-02 12:00:58.772
LEye coords (129.0, 179.0), REye coords (126.0, 162.0), timeStamp: 2017-03-02 12:00:58.806
LEye coords (129.0, 180.0), REye coords (127.0, 160.0), timeStamp: 2017-03-02 12:00:58.850
LEye coords (130.0, 181.0), REye coords (129.0, 155.0), timeStamp: 2017-03-02 12:00:58.883
LEye coords (129.0, 182.0), REye coords (130.0, 158.0), timeStamp: 2017-03-02 12:00:58.917
LEye coords (129.0, 182.0), REye coords (133.0, 158.0), timeStamp: 2017-03-02 12:00:58.961
LEye coords (129.0, 180.0), REye coords (134.0, 159.0), timeStamp: 2017-03-02 12:00:58.995
LEye coords (126.0, 180.0), REye coords (129.0, 162.0), timeStamp: 2017-03-02 12:00:59.029
LEye coords (124.0, 179.0), REye coords (127.0, 163.0), timeStamp: 2017-03-02 12:00:59.073
LEye coords (123.0, 180.0), REye coords (125.0, 163.0), timeStamp: 2017-03-02 12:00:59.107
LEye coords (121.0, 180.0), REye coords (124.0, 163.0), timeStamp: 2017-03-02 12:00:59.141
LEye coords (121.0, 180.0), REye coords (123.0, 164.0), timeStamp: 2017-03-02 12:00:59.175
LEye coords (121.0, 181.0), REye coords (122.0, 164.0), timeStamp: 2017-03-02 12:00:59.219
LEye coords (120.0, 181.0), REye coords (122.0, 164.0), timeStamp: 2017-03-02 12:00:59.253
