LEye coords (123.0, 157.0), REye coords (125.0, 143.0), timeStamp: 2017-03-02 12:00:59.362
LEye coords (124.0, 157.0), REye coords (126.0, 143.0), timeStamp: 2017-03-02 12:00:59.406
LEye coords (125.0, 158.0), REye coords (126.0, 144.0), timeStamp: 2017-03-02 12:00:59.439
LEye coords (125.0, 159.0), REye coords (127.0, 144.0), timeStamp: 2017-03-02 12:00:59.472
LEye coords (126.0, 159.0), REye coords (128.0, 144.0), timeStamp: 2017-03-02 12:00:59.516
LEye coords (226.0, 136.0), REye coords (229.0, 125.0), timeStamp: 2017-03-02 12:00:59.550
LEye coords (223.0, 142.0), REye coords (232.0, 123.0), timeStamp: 2017-03-02 12:00:59.584
LEye coords (222.0, 139.0), REye coords (233.0, 123.0), timeStamp: 2017-03-02 12:00:59.627
LEye coords (222.0, 138.0), REye coords (234.0, 122.0), timeStamp: 2017-03-02 12:00:59.661
LEye coords (231.0, 133.0), REye coords (243.0, 121.0), timeStamp: 2017-03-02 12:00:59.694
LEye coords (302.0, 100.0), REye coords (308.0, 111.0), timeStamp: 2017-03-02 12:00:59.739
LEye coords (303.0, 98.0), REye coords (0.0, 0.0), timeStamp: 2017-03-02 12:00:59.772
LEye coords (304.0, 97.0), REye coords (308.0, 106.0), timeStamp: 2017-03-02 12:00:59.805
LEye coords (303.0, 96.0), REye coords (307.0, 105.0), timeStamp: 2017-03-02 12:00:59.850
LEye coords (303.0, 97.0), REye coords (307.0, 106.0), timeStamp: 2017-03-02 12:00:59.883
LEye coords (302.0, 107.0), REye coords (306.0, 108.0), timeStamp: 2017-03-02 12:00:59.916
LEye coords (301.0, 100.0), REye coords (306.0, 108.0), timeStamp: 2017-03-02 12:00:59.960
LEye coords (301.0, 101.0), REye coords (305.0, 108.0), timeStamp: 2017-03-02 12:00:59.994
LEye coords (302.0, 101.0), REye coords (305.0, 110.0), timeStamp: 2017-03-02 12:01:00.026
LEye coords (302.0, 100.0), REye coords (305.0, 109.0), timeStamp: 2017-03-02 12:01:00.070
LEye coords (302.0, 101.0), REye coords (306.0, 108.0), timeStamp: 2017-03-02 12:01:00.104
LEye coords (303.0, 101.0), REye coords (306.0, 108.0), timeStamp: 2017-03-02 12:01:00.147
LEye coords (302.0, 102.0), REye coords (306.0, 108.0), timeStamp: 2017-03-02 12:01:00.180
