LEye coords (78.0, 125.0), REye coords (96.0, 105.0), timeStamp: 2017-03-02 12:01:01.365
LEye coords (78.0, 125.0), REye coords (96.0, 105.0), timeStamp: 2017-03-02 12:01:01.398
LEye coords (130.0, 123.0), REye coords (99.0, 106.0), timeStamp: 2017-03-02 12:01:01.432
LEye coords (220.0, 162.0), REye coords (226.0, 168.0), timeStamp: 2017-03-02 12:01:01.477
LEye coords (221.0, 167.0), REye coords (225.0, 160.0), timeStamp: 2017-03-02 12:01:01.511
LEye coords (222.0, 166.0), REye coords (225.0, 164.0), timeStamp: 2017-03-02 12:01:01.545
LEye coords (221.0, 167.0), REye coords (225.0, 165.0), timeStamp: 2017-03-02 12:01:01.590
LEye coords (221.0, 159.0), REye coords (224.0, 165.0), timeStamp: 2017-03-02 12:01:01.623
LEye coords (226.0, 167.0), REye coords (224.0, 166.0), timeStamp: 2017-03-02 12:01:01.658
LEye coords (224.0, 167.0), REye coords (221.0, 162.0), timeStamp: 2017-03-02 12:01:01.692
LEye coords (230.0, 163.0), REye coords (233.0, 162.0), timeStamp: 2017-03-02 12:01:01.737
LEye coords (270.0, 153.0), REye coords (284.0, 153.0), timeStamp: 2017-03-02 12:01:01.771
LEye coords (385.0, 124.0), REye coords (310.0, 149.0), timeStamp: 2017-03-02 12:01:01.804
LEye coords (385.0, 119.0), REye coords (382.0, 135.0), timeStamp: 2017-03-02 12:01:01.847
LEye coords (385.0, 123.0), REye coords (386.0, 134.0), timeStamp: 2017-03-02 12:01:01.881
LEye coords (386.0, 124.0), REye coords (385.0, 134.0), timeStamp: 2017-03-02 12:01:01.915
LEye coords (386.0, 123.0), REye coords (384.0, 134.0), timeStamp: 2017-03-02 12:01:01.960
LEye coords (387.0, 124.0), REye coords (385.0, 133.0), timeStamp: 2017-03-02 12:01:01.994
LEye coords (389.0, 124.0), REye coords (387.0, 133.0), timeStamp: 2017-03-02 12:01:02.027
LEye coords (0.0, 0.0), REye coords (390.0, 133.0), timeStamp: 2017-03-02 12:01:02.071
LEye coords (0.0, 0.0), REye coords (0.0, 0.0), timeStamp: 2017-03-02 12:01:02.105
LEye coords (0.0, 0.0), REye coords (392.0, 132.0), timeStamp: 2017-03-02 12:01:02.139
LEye coords (0.0, 0.0), REye coords (393.0, 132.0), timeStamp: 2017-03-02 12:01:02.172
LEye coords (0.0, 0.0), REye coords (395.0, 132.0), timeStamp: 2017-03-02 12:01:02.216
LEye coords (0.0, 0.0), REye coords (396.0, 132.0), timeStamp: 2017-03-02 12:01:02.250
LEye coords (392.0, 122.0), REye coords (397.0, 131.0), timeStamp: 2017-03-02 12:01:02.283
LEye coords (395.0, 122.0), REye coords (397.0, 131.0), timeStamp: 2017-03-02 12:01:02.329
LEye coords (396.0, 121.0), REye coords (398.0, 131.0), timeStamp: 2017-03-02 12:01:02.362
LEye coords (398.0, 121.0), REye coords (399.0, 132.0), timeStamp: 2017-03-02 12:01:02.396
LEye coords (400.0, 121.0), REye coords (399.0, 132.0), timeStamp: 2017-03-02 12:01:02.440
LEye coords (402.0, 120.0), REye coords (400.0, 131.0), timeStamp: 2017-03-02 12:01:02.475
LEye coords (403.0, 120.0), REye coords (400.0, 131.0), timeStamp: 2017-03-02 12:01:02.509
LEye coords (404.0, 120.0), REye coords (400.0, 131.0), timeStamp: 2017-03-02 12:01:02.543
LEye coords (405.0, 120.0), REye coords (401.0, 131.0), timeStamp: 2017-03-02 12:01:02.588
LEye coords (406.0, 119.0), REye coords (401.0, 131.0), timeStamp: 2017-03-02 12:01:02.622
LEye coords (407.0, 119.0), REye coords (402.0, 130.0), timeStamp: 2017-03-02 12:01:02.655
LEye coords (409.0, 118.0), REye coords (402.0, 130.0), timeStamp: 2017-03-02 12:01:02.700
LEye coords (410.0, 118.0), REye coords (403.0, 129.0), timeStamp: 2017-03-02 12:01:02.733
LEye coords (411.0, 117.0), REye coords (404.0, 128.0), timeStamp: 2017-03-02 12:01:02.766
LEye coords (412.0, 117.0), REye coords (405.0, 128.0), timeStamp: 2017-03-02 12:01:02.811
LEye coords (413.0, 117.0), REye coords (406.0, 127.0), timeStamp: 2017-03-02 12:01:02.844
LEye coords (415.0, 117.0), REye coords (406.0, 127.0), timeStamp: 2017-03-02 12:01:02.878
LEye coords (416.0, 116.0), REye coords (407.0, 126.0), timeStamp: 2017-03-02 12:01:02.922
