LEye coords (378.0, 181.0), REye coords (377.0, 184.0), timeStamp: 2017-03-02 12:01:05.616
LEye coords (379.0, 181.0), REye coords (378.0, 183.0), timeStamp: 2017-03-02 12:01:05.661
LEye coords (380.0, 181.0), REye coords (378.0, 184.0), timeStamp: 2017-03-02 12:01:05.695
LEye coords (380.0, 182.0), REye coords (379.0, 184.0), timeStamp: 2017-03-02 12:01:05.730
LEye coords (380.0, 183.0), REye coords (379.0, 183.0), timeStamp: 2017-03-02 12:01:05.763
LEye coords (286.0, 167.0), REye coords (303.0, 151.0), timeStamp: 2017-03-02 12:01:05.807
LEye coords (228.0, 144.0), REye coords (237.0, 141.0), timeStamp: 2017-03-02 12:01:05.841
LEye coords (231.0, 143.0), REye coords (239.0, 144.0), timeStamp: 2017-03-02 12:01:05.874
LEye coords (232.0, 143.0), REye coords (240.0, 141.0), timeStamp: 2017-03-02 12:01:05.918
LEye coords (232.0, 145.0), REye coords (241.0, 140.0), timeStamp: 2017-03-02 12:01:05.952
LEye coords (231.0, 148.0), REye coords (243.0, 136.0), timeStamp: 2017-03-02 12:01:05.986
LEye coords (114.0, 144.0), REye coords (127.0, 131.0), timeStamp: 2017-03-02 12:01:06.030
LEye coords (100.0, 148.0), REye coords (108.0, 136.0), timeStamp: 2017-03-02 12:01:06.063
LEye coords (98.0, 151.0), REye coords (102.0, 138.0), timeStamp: 2017-03-02 12:01:06.095
LEye coords (95.0, 151.0), REye coords (99.0, 137.0), timeStamp: 2017-03-02 12:01:06.140
LEye coords (85.0, 153.0), REye coords (88.0, 140.0), timeStamp: 2017-03-02 12:01:06.173
LEye coords (85.0, 154.0), REye coords (91.0, 135.0), timeStamp: 2017-03-02 12:01:06.216
LEye coords (85.0, 152.0), REye coords (90.0, 138.0), timeStamp: 2017-03-02 12:01:06.250
LEye coords (93.0, 143.0), REye coords (99.0, 130.0), timeStamp: 2017-03-02 12:01:06.284
LEye coords (97.0, 137.0), REye coords (103.0, 124.0), timeStamp: 2017-03-02 12:01:06.328
LEye coords (99.0, 133.0), REye coords (105.0, 123.0), timeStamp: 2017-03-02 12:01:06.362
LEye coords (100.0, 131.0), REye coords (106.0, 122.0), timeStamp: 2017-03-02 12:01:06.396
LEye coords (102.0, 129.0), REye coords (107.0, 121.0), timeStamp: 2017-03-02 12:01:06.429
LEye coords (103.0, 128.0), REye coords (108.0, 120.0), timeStamp: 2017-03-02 12:01:06.473
LEye coords (104.0, 127.0), REye coords (108.0, 119.0), timeStamp: 2017-03-02 12:01:06.507
LEye coords (105.0, 126.0), REye coords (109.0, 119.0), timeStamp: 2017-03-02 12:01:06.541
LEye coords (106.0, 126.0), REye coords (109.0, 118.0), timeStamp: 2017-03-02 12:01:06.586
LEye coords (107.0, 126.0), REye coords (110.0, 118.0), timeStamp: 2017-03-02 12:01:06.620
