LEye coords (300.0, 323.0), REye coords (299.0, 322.0), timeStamp: 2017-03-02 12:01:08.251
LEye coords (299.0, 323.0), REye coords (297.0, 323.0), timeStamp: 2017-03-02 12:01:08.285
LEye coords (297.0, 323.0), REye coords (296.0, 324.0), timeStamp: 2017-03-02 12:01:08.319
LEye coords (296.0, 323.0), REye coords (295.0, 324.0), timeStamp: 2017-03-02 12:01:08.353
LEye coords (295.0, 323.0), REye coords (294.0, 325.0), timeStamp: 2017-03-02 12:01:08.397
LEye coords (294.0, 321.0), REye coords (293.0, 322.0), timeStamp: 2017-03-02 12:01:08.430
LEye coords (267.0, 213.0), REye coords (274.0, 195.0), timeStamp: 2017-03-02 12:01:08.464
LEye coords (271.0, 211.0), REye coords (275.0, 195.0), timeStamp: 2017-03-02 12:01:08.508
LEye coords (272.0, 212.0), REye coords (274.0, 195.0), timeStamp: 2017-03-02 12:01:08.542
LEye coords (273.0, 214.0), REye coords (274.0, 193.0), timeStamp: 2017-03-02 12:01:08.575
LEye coords (273.0, 214.0), REye coords (273.0, 193.0), timeStamp: 2017-03-02 12:01:08.619
LEye coords (274.0, 211.0), REye coords (275.0, 193.0), timeStamp: 2017-03-02 12:01:08.654
LEye coords (273.0, 213.0), REye coords (273.0, 196.0), timeStamp: 2017-03-02 12:01:08.687
LEye coords (267.0, 184.0), REye coords (272.0, 169.0), timeStamp: 2017-03-02 12:01:08.731
LEye coords (0.0, 0.0), REye coords (0.0, 0.0), timeStamp: 2017-03-02 12:01:08.765
LEye coords (267.0, 174.0), REye coords (273.0, 158.0), timeStamp: 2017-03-02 12:01:08.800
LEye coords (266.0, 168.0), REye coords (272.0, 154.0), timeStamp: 2017-03-02 12:01:08.843
LEye coords (333.0, 139.0), REye coords (337.0, 132.0), timeStamp: 2017-03-02 12:01:08.877
LEye coords (355.0, 142.0), REye coords (355.0, 144.0), timeStamp: 2017-03-02 12:01:08.910
LEye coords (354.0, 141.0), REye coords (355.0, 144.0), timeStamp: 2017-03-02 12:01:08.953
LEye coords (354.0, 142.0), REye coords (356.0, 144.0), timeStamp: 2017-03-02 12:01:08.986
LEye coords (355.0, 143.0), REye coords (356.0, 143.0), timeStamp: 2017-03-02 12:01:09.019
LEye coords (358.0, 144.0), REye coords (355.0, 146.0), timeStamp: 2017-03-02 12:01:09.064
LEye coords (354.0, 142.0), REye coords (351.0, 145.0), timeStamp: 2017-03-02 12:01:09.097
LEye coords (354.0, 143.0), REye coords (353.0, 143.0), timeStamp: 2017-03-02 12:01:09.131
LEye coords (353.0, 141.0), REye coords (353.0, 142.0), timeStamp: 2017-03-02 12:01:09.175
LEye coords (353.0, 139.0), REye coords (353.0, 142.0), timeStamp: 2017-03-02 12:01:09.209
LEye coords (354.0, 139.0), REye coords (353.0, 142.0), timeStamp: 2017-03-02 12:01:09.241
