LEye coords (354.0, 139.0), REye coords (353.0, 141.0), timeStamp: 2017-03-02 12:01:09.354
LEye coords (355.0, 139.0), REye coords (353.0, 141.0), timeStamp: 2017-03-02 12:01:09.399
LEye coords (354.0, 139.0), REye coords (353.0, 141.0), timeStamp: 2017-03-02 12:01:09.432
LEye coords (355.0, 139.0), REye coords (353.0, 141.0), timeStamp: 2017-03-02 12:01:09.466
LEye coords (355.0, 140.0), REye coords (353.0, 141.0), timeStamp: 2017-03-02 12:01:09.500
LEye coords (355.0, 140.0), REye coords (353.0, 141.0), timeStamp: 2017-03-02 12:01:09.545
LEye coords (353.0, 140.0), REye coords (352.0, 141.0), timeStamp: 2017-03-02 12:01:09.578
LEye coords (233.0, 152.0), REye coords (243.0, 135.0), timeStamp: 2017-03-02 12:01:09.612
LEye coords (236.0, 151.0), REye coords (241.0, 143.0), timeStamp: 2017-03-02 12:01:09.656
LEye coords (238.0, 154.0), REye coords (243.0, 138.0), timeStamp: 2017-03-02 12:01:09.690
LEye coords (238.0, 152.0), REye coords (244.0, 136.0), timeStamp: 2017-03-02 12:01:09.723
LEye coords (238.0, 153.0), REye coords (245.0, 134.0), timeStamp: 2017-03-02 12:01:09.767
LEye coords (239.0, 152.0), REye coords (247.0, 130.0), timeStamp: 2017-03-02 12:01:09.801
LEye coords (238.0, 155.0), REye coords (244.0, 137.0), timeStamp: 2017-03-02 12:01:09.835
LEye coords (238.0, 156.0), REye coords (244.0, 137.0), timeStamp: 2017-03-02 12:01:09.878
LEye coords (242.0, 159.0), REye coords (249.0, 141.0), timeStamp: 2017-03-02 12:01:09.912
LEye coords (245.0, 162.0), REye coords (251.0, 145.0), timeStamp: 2017-03-02 12:01:09.946
LEye coords (247.0, 164.0), REye coords (252.0, 147.0), timeStamp: 2017-03-02 12:01:09.990
LEye coords (248.0, 165.0), REye coords (254.0, 147.0), timeStamp: 2017-03-02 12:01:10.023
LEye coords (249.0, 165.0), REye coords (255.0, 149.0), timeStamp: 2017-03-02 12:01:10.057
LEye coords (249.0, 165.0), REye coords (255.0, 149.0), timeStamp: 2017-03-02 12:01:10.102
