LEye coords (336.0, 131.0), REye coords (329.0, 135.0), timeStamp: 2017-03-02 12:01:11.434
LEye coords (336.0, 131.0), REye coords (329.0, 135.0), timeStamp: 2017-03-02 12:01:11.467
LEye coords (336.0, 131.0), REye coords (329.0, 134.0), timeStamp: 2017-03-02 12:01:11.500
LEye coords (336.0, 131.0), REye coords (329.0, 134.0), timeStamp: 2017-03-02 12:01:11.545
LEye coords (337.0, 130.0), REye coords (329.0, 134.0), timeStamp: 2017-03-02 12:01:11.578
LEye coords (336.0, 130.0), REye coords (329.0, 134.0), timeStamp: 2017-03-02 12:01:11.612
LEye coords (196.0, 251.0), REye coords (202.0, 213.0), timeStamp: 2017-03-02 12:01:11.655
LEye coords (195.0, 262.0), REye coords (199.0, 211.0), timeStamp: 2017-03-02 12:01:11.689
LEye coords (193.0, 259.0), REye coords (199.0, 210.0), timeStamp: 2017-03-02 12:01:11.723
LEye coords (195.0, 257.0), REye coords (200.0, 209.0), timeStamp: 2017-03-02 12:01:11.768
LEye coords (193.0, 254.0), REye coords (199.0, 213.0), timeStamp: 2017-03-02 12:01:11.802
LEye coords (190.0, 236.0), REye coords (196.0, 224.0), timeStamp: 2017-03-02 12:01:11.836
LEye coords (185.0, 198.0), REye coords (196.0, 171.0), timeStamp: 2017-03-02 12:01:11.870
LEye coords (183.0, 202.0), REye coords (195.0, 174.0), timeStamp: 2017-03-02 12:01:11.913
LEye coords (183.0, 206.0), REye coords (195.0, 172.0), timeStamp: 2017-03-02 12:01:11.947
LEye coords (182.0, 207.0), REye coords (195.0, 169.0), timeStamp: 2017-03-02 12:01:11.981
LEye coords (183.0, 207.0), REye coords (195.0, 171.0), timeStamp: 2017-03-02 12:01:12.025
LEye coords (183.0, 206.0), REye coords (194.0, 171.0), timeStamp: 2017-03-02 12:01:12.057
LEye coords (184.0, 205.0), REye coords (194.0, 172.0), timeStamp: 2017-03-02 12:01:12.091
LEye coords (184.0, 205.0), REye coords (194.0, 172.0), timeStamp: 2017-03-02 12:01:12.135
LEye coords (184.0, 205.0), REye coords (195.0, 171.0), timeStamp: 2017-03-02 12:01:12.168
LEye coords (184.0, 205.0), REye coords (195.0, 171.0), timeStamp: 2017-03-02 12:01:12.202
LEye coords (185.0, 205.0), REye coords (195.0, 172.0), timeStamp: 2017-03-02 12:01:12.246
