LEye coords (444.0, 182.0), REye coords (442.0, 184.0), timeStamp: 2017-03-02 12:01:47.441
LEye coords (446.0, 182.0), REye coords (444.0, 183.0), timeStamp: 2017-03-02 12:01:47.475
LEye coords (447.0, 182.0), REye coords (445.0, 183.0), timeStamp: 2017-03-02 12:01:47.520
LEye coords (448.0, 182.0), REye coords (447.0, 182.0), timeStamp: 2017-03-02 12:01:47.553
LEye coords (447.0, 182.0), REye coords (446.0, 182.0), timeStamp: 2017-03-02 12:01:47.588
LEye coords (270.0, 156.0), REye coords (272.0, 162.0), timeStamp: 2017-03-02 12:01:47.621
LEye coords (261.0, 167.0), REye coords (254.0, 164.0), timeStamp: 2017-03-02 12:01:47.666
LEye coords (259.0, 167.0), REye coords (255.0, 166.0), timeStamp: 2017-03-02 12:01:47.700
LEye coords (0.0, 0.0), REye coords (256.0, 166.0), timeStamp: 2017-03-02 12:01:47.733
LEye coords (259.0, 168.0), REye coords (256.0, 169.0), timeStamp: 2017-03-02 12:01:47.776
LEye coords (259.0, 169.0), REye coords (267.0, 164.0), timeStamp: 2017-03-02 12:01:47.810
LEye coords (252.0, 124.0), REye coords (251.0, 126.0), timeStamp: 2017-03-02 12:01:47.843
LEye coords (251.0, 108.0), REye coords (250.0, 116.0), timeStamp: 2017-03-02 12:01:47.886
LEye coords (252.0, 106.0), REye coords (250.0, 114.0), timeStamp: 2017-03-02 12:01:47.919
LEye coords (252.0, 106.0), REye coords (249.0, 113.0), timeStamp: 2017-03-02 12:01:47.963
LEye coords (252.0, 105.0), REye coords (249.0, 108.0), timeStamp: 2017-03-02 12:01:47.996
LEye coords (250.0, 101.0), REye coords (251.0, 113.0), timeStamp: 2017-03-02 12:01:48.031
LEye coords (250.0, 100.0), REye coords (250.0, 113.0), timeStamp: 2017-03-02 12:01:48.074
LEye coords (250.0, 99.0), REye coords (249.0, 112.0), timeStamp: 2017-03-02 12:01:48.108
LEye coords (255.0, 96.0), REye coords (251.0, 109.0), timeStamp: 2017-03-02 12:01:48.142
LEye coords (257.0, 94.0), REye coords (251.0, 107.0), timeStamp: 2017-03-02 12:01:48.185
LEye coords (258.0, 93.0), REye coords (252.0, 106.0), timeStamp: 2017-03-02 12:01:48.219
LEye coords (259.0, 92.0), REye coords (253.0, 105.0), timeStamp: 2017-03-02 12:01:48.253
LEye coords (260.0, 92.0), REye coords (254.0, 104.0), timeStamp: 2017-03-02 12:01:48.297
