LEye coords (261.0, 90.0), REye coords (254.0, 103.0), timeStamp: 2017-03-02 12:01:48.399
LEye coords (174.0, 120.0), REye coords (169.0, 136.0), timeStamp: 2017-03-02 12:01:48.442
LEye coords (174.0, 120.0), REye coords (170.0, 136.0), timeStamp: 2017-03-02 12:01:48.475
LEye coords (174.0, 119.0), REye coords (170.0, 135.0), timeStamp: 2017-03-02 12:01:48.518
LEye coords (174.0, 120.0), REye coords (170.0, 136.0), timeStamp: 2017-03-02 12:01:48.552
LEye coords (175.0, 120.0), REye coords (170.0, 136.0), timeStamp: 2017-03-02 12:01:48.585
LEye coords (175.0, 120.0), REye coords (170.0, 136.0), timeStamp: 2017-03-02 12:01:48.629
LEye coords (175.0, 120.0), REye coords (170.0, 136.0), timeStamp: 2017-03-02 12:01:48.664
LEye coords (175.0, 120.0), REye coords (171.0, 136.0), timeStamp: 2017-03-02 12:01:48.696
LEye coords (175.0, 120.0), REye coords (171.0, 136.0), timeStamp: 2017-03-02 12:01:48.740
LEye coords (175.0, 120.0), REye coords (171.0, 137.0), timeStamp: 2017-03-02 12:01:48.775
LEye coords (224.0, 94.0), REye coords (225.0, 125.0), timeStamp: 2017-03-02 12:01:48.809
LEye coords (223.0, 90.0), REye coords (229.0, 126.0), timeStamp: 2017-03-02 12:01:48.852
LEye coords (223.0, 89.0), REye coords (229.0, 124.0), timeStamp: 2017-03-02 12:01:48.887
LEye coords (223.0, 91.0), REye coords (229.0, 125.0), timeStamp: 2017-03-02 12:01:48.920
LEye coords (222.0, 91.0), REye coords (229.0, 124.0), timeStamp: 2017-03-02 12:01:48.954
LEye coords (221.0, 93.0), REye coords (229.0, 121.0), timeStamp: 2017-03-02 12:01:48.999
LEye coords (223.0, 98.0), REye coords (230.0, 127.0), timeStamp: 2017-03-02 12:01:49.033
LEye coords (223.0, 99.0), REye coords (230.0, 124.0), timeStamp: 2017-03-02 12:01:49.067
LEye coords (223.0, 96.0), REye coords (230.0, 123.0), timeStamp: 2017-03-02 12:01:49.111
LEye coords (224.0, 94.0), REye coords (230.0, 122.0), timeStamp: 2017-03-02 12:01:49.144
LEye coords (224.0, 93.0), REye coords (231.0, 123.0), timeStamp: 2017-03-02 12:01:49.178
LEye coords (228.0, 94.0), REye coords (234.0, 124.0), timeStamp: 2017-03-02 12:01:49.222
