LEye coords (353.0, 72.0), REye coords (359.0, 95.0), timeStamp: 2017-03-02 12:01:49.332
LEye coords (355.0, 72.0), REye coords (361.0, 95.0), timeStamp: 2017-03-02 12:01:49.367
LEye coords (357.0, 72.0), REye coords (363.0, 96.0), timeStamp: 2017-03-02 12:01:49.400
LEye coords (359.0, 72.0), REye coords (364.0, 95.0), timeStamp: 2017-03-02 12:01:49.435
LEye coords (360.0, 72.0), REye coords (365.0, 96.0), timeStamp: 2017-03-02 12:01:49.477
LEye coords (360.0, 73.0), REye coords (365.0, 96.0), timeStamp: 2017-03-02 12:01:49.512
LEye coords (281.0, 160.0), REye coords (285.0, 164.0), timeStamp: 2017-03-02 12:01:49.546
LEye coords (284.0, 166.0), REye coords (286.0, 163.0), timeStamp: 2017-03-02 12:01:49.591
LEye coords (284.0, 166.0), REye coords (285.0, 159.0), timeStamp: 2017-03-02 12:01:49.624
LEye coords (277.0, 157.0), REye coords (278.0, 152.0), timeStamp: 2017-03-02 12:01:49.657
LEye coords (270.0, 141.0), REye coords (270.0, 138.0), timeStamp: 2017-03-02 12:01:49.701
LEye coords (249.0, 98.0), REye coords (248.0, 96.0), timeStamp: 2017-03-02 12:01:49.735
LEye coords (251.0, 91.0), REye coords (249.0, 106.0), timeStamp: 2017-03-02 12:01:49.769
LEye coords (250.0, 92.0), REye coords (247.0, 106.0), timeStamp: 2017-03-02 12:01:49.812
LEye coords (250.0, 91.0), REye coords (247.0, 103.0), timeStamp: 2017-03-02 12:01:49.846
LEye coords (249.0, 91.0), REye coords (247.0, 102.0), timeStamp: 2017-03-02 12:01:49.879
LEye coords (249.0, 91.0), REye coords (246.0, 101.0), timeStamp: 2017-03-02 12:01:49.922
LEye coords (248.0, 91.0), REye coords (246.0, 100.0), timeStamp: 2017-03-02 12:01:49.956
LEye coords (248.0, 91.0), REye coords (246.0, 99.0), timeStamp: 2017-03-02 12:01:49.999
LEye coords (248.0, 91.0), REye coords (245.0, 99.0), timeStamp: 2017-03-02 12:01:50.033
LEye coords (248.0, 91.0), REye coords (245.0, 98.0), timeStamp: 2017-03-02 12:01:50.066
LEye coords (248.0, 90.0), REye coords (245.0, 98.0), timeStamp: 2017-03-02 12:01:50.110
LEye coords (248.0, 90.0), REye coords (245.0, 97.0), timeStamp: 2017-03-02 12:01:50.143
