LEye coords (69.0, 157.0), REye coords (70.0, 145.0), timeStamp: 2017-03-02 12:01:13.841
LEye coords (69.0, 155.0), REye coords (70.0, 146.0), timeStamp: 2017-03-02 12:01:13.874
LEye coords (69.0, 155.0), REye coords (70.0, 146.0), timeStamp: 2017-03-02 12:01:13.908
LEye coords (68.0, 159.0), REye coords (69.0, 146.0), timeStamp: 2017-03-02 12:01:13.942
LEye coords (68.0, 164.0), REye coords (69.0, 149.0), timeStamp: 2017-03-02 12:01:14.099
LEye coords (68.0, 162.0), REye coords (69.0, 147.0), timeStamp: 2017-03-02 12:01:14.020
LEye coords (68.0, 160.0), REye coords (69.0, 146.0), timeStamp: 2017-03-02 12:01:13.986
LEye coords (68.0, 163.0), REye coords (69.0, 148.0), timeStamp: 2017-03-02 12:01:14.054
LEye coords (58.0, 174.0), REye coords (62.0, 170.0), timeStamp: 2017-03-02 12:01:46.333
LEye coords (58.0, 174.0), REye coords (62.0, 170.0), timeStamp: 2017-03-02 12:01:46.367
LEye coords (58.0, 174.0), REye coords (62.0, 170.0), timeStamp: 2017-03-02 12:01:46.400
LEye coords (58.0, 175.0), REye coords (62.0, 170.0), timeStamp: 2017-03-02 12:01:46.445
LEye coords (58.0, 176.0), REye coords (62.0, 170.0), timeStamp: 2017-03-02 12:01:46.478
LEye coords (58.0, 176.0), REye coords (61.0, 171.0), timeStamp: 2017-03-02 12:01:46.521
LEye coords (58.0, 176.0), REye coords (61.0, 171.0), timeStamp: 2017-03-02 12:01:46.553
LEye coords (58.0, 176.0), REye coords (61.0, 172.0), timeStamp: 2017-03-02 12:01:46.586
LEye coords (58.0, 177.0), REye coords (61.0, 172.0), timeStamp: 2017-03-02 12:01:46.630
LEye coords (59.0, 177.0), REye coords (62.0, 174.0), timeStamp: 2017-03-02 12:01:46.663
LEye coords (108.0, 188.0), REye coords (108.0, 196.0), timeStamp: 2017-03-02 12:01:46.696
LEye coords (0.0, 0.0), REye coords (0.0, 0.0), timeStamp: 2017-03-02 12:01:46.741
LEye coords (107.0, 192.0), REye coords (108.0, 198.0), timeStamp: 2017-03-02 12:01:46.775
LEye coords (106.0, 191.0), REye coords (107.0, 201.0), timeStamp: 2017-03-02 12:01:46.808
LEye coords (106.0, 190.0), REye coords (107.0, 200.0), timeStamp: 2017-03-02 12:01:46.852
LEye coords (106.0, 192.0), REye coords (107.0, 200.0), timeStamp: 2017-03-02 12:01:46.885
LEye coords (106.0, 194.0), REye coords (108.0, 199.0), timeStamp: 2017-03-02 12:01:46.918
LEye coords (107.0, 196.0), REye coords (108.0, 198.0), timeStamp: 2017-03-02 12:01:46.962
LEye coords (107.0, 196.0), REye coords (107.0, 198.0), timeStamp: 2017-03-02 12:01:46.995
LEye coords (107.0, 196.0), REye coords (108.0, 198.0), timeStamp: 2017-03-02 12:01:47.039
LEye coords (109.0, 196.0), REye coords (109.0, 198.0), timeStamp: 2017-03-02 12:01:47.072
LEye coords (110.0, 195.0), REye coords (109.0, 198.0), timeStamp: 2017-03-02 12:01:47.106
LEye coords (110.0, 195.0), REye coords (110.0, 198.0), timeStamp: 2017-03-02 12:01:47.140
LEye coords (110.0, 194.0), REye coords (110.0, 198.0), timeStamp: 2017-03-02 12:01:47.185
LEye coords (111.0, 193.0), REye coords (110.0, 198.0), timeStamp: 2017-03-02 12:01:47.218
LEye coords (111.0, 193.0), REye coords (111.0, 197.0), timeStamp: 2017-03-02 12:01:47.251
LEye coords (111.0, 193.0), REye coords (111.0, 198.0), timeStamp: 2017-03-02 12:01:47.296
LEye coords (112.0, 193.0), REye coords (111.0, 198.0), timeStamp: 2017-03-02 12:01:47.330
