LEye coords (248.0, 90.0), REye coords (245.0, 96.0), timeStamp: 2017-03-02 12:01:50.255
LEye coords (248.0, 90.0), REye coords (245.0, 96.0), timeStamp: 2017-03-02 12:01:50.289
LEye coords (248.0, 91.0), REye coords (245.0, 96.0), timeStamp: 2017-03-02 12:01:50.333
LEye coords (248.0, 91.0), REye coords (245.0, 96.0), timeStamp: 2017-03-02 12:01:50.368
LEye coords (248.0, 92.0), REye coords (245.0, 96.0), timeStamp: 2017-03-02 12:01:50.401
LEye coords (248.0, 92.0), REye coords (245.0, 96.0), timeStamp: 2017-03-02 12:01:50.436
LEye coords (248.0, 92.0), REye coords (245.0, 96.0), timeStamp: 2017-03-02 12:01:50.480
LEye coords (248.0, 93.0), REye coords (245.0, 96.0), timeStamp: 2017-03-02 12:01:50.514
LEye coords (248.0, 93.0), REye coords (245.0, 96.0), timeStamp: 2017-03-02 12:01:50.548
LEye coords (248.0, 93.0), REye coords (245.0, 96.0), timeStamp: 2017-03-02 12:01:50.592
LEye coords (248.0, 94.0), REye coords (246.0, 96.0), timeStamp: 2017-03-02 12:01:50.625
LEye coords (247.0, 91.0), REye coords (246.0, 94.0), timeStamp: 2017-03-02 12:01:50.659
LEye coords (247.0, 89.0), REye coords (246.0, 92.0), timeStamp: 2017-03-02 12:01:50.703
LEye coords (247.0, 87.0), REye coords (246.0, 90.0), timeStamp: 2017-03-02 12:01:50.737
LEye coords (246.0, 85.0), REye coords (246.0, 88.0), timeStamp: 2017-03-02 12:01:50.772
LEye coords (246.0, 83.0), REye coords (246.0, 87.0), timeStamp: 2017-03-02 12:01:50.805
LEye coords (247.0, 80.0), REye coords (246.0, 85.0), timeStamp: 2017-03-02 12:01:50.850
LEye coords (247.0, 77.0), REye coords (246.0, 83.0), timeStamp: 2017-03-02 12:01:50.884
LEye coords (247.0, 75.0), REye coords (245.0, 82.0), timeStamp: 2017-03-02 12:01:50.919
