LEye coords (296.0, 230.0), REye coords (300.0, 213.0), timeStamp: 2017-03-02 12:02:00.876
LEye coords (222.0, 301.0), REye coords (225.0, 278.0), timeStamp: 2017-03-02 12:02:01.023
LEye coords (222.0, 302.0), REye coords (225.0, 279.0), timeStamp: 2017-03-02 12:02:00.990
LEye coords (223.0, 304.0), REye coords (226.0, 281.0), timeStamp: 2017-03-02 12:02:00.945
LEye coords (236.0, 143.0), REye coords (249.0, 146.0), timeStamp: 2017-03-02 12:02:32.039
LEye coords (179.0, 191.0), REye coords (189.0, 196.0), timeStamp: 2017-03-02 12:02:32.072
LEye coords (179.0, 191.0), REye coords (189.0, 194.0), timeStamp: 2017-03-02 12:02:32.117
LEye coords (179.0, 191.0), REye coords (189.0, 194.0), timeStamp: 2017-03-02 12:02:32.151
LEye coords (178.0, 191.0), REye coords (189.0, 195.0), timeStamp: 2017-03-02 12:02:32.185
LEye coords (178.0, 191.0), REye coords (189.0, 195.0), timeStamp: 2017-03-02 12:02:32.219
LEye coords (178.0, 191.0), REye coords (189.0, 195.0), timeStamp: 2017-03-02 12:02:32.263
LEye coords (178.0, 192.0), REye coords (189.0, 195.0), timeStamp: 2017-03-02 12:02:32.297
LEye coords (178.0, 192.0), REye coords (189.0, 196.0), timeStamp: 2017-03-02 12:02:32.331
LEye coords (120.0, 110.0), REye coords (125.0, 106.0), timeStamp: 2017-03-02 12:02:32.376
LEye coords (109.0, 107.0), REye coords (113.0, 103.0), timeStamp: 2017-03-02 12:02:32.410
LEye coords (109.0, 108.0), REye coords (112.0, 107.0), timeStamp: 2017-03-02 12:02:32.443
LEye coords (109.0, 109.0), REye coords (113.0, 110.0), timeStamp: 2017-03-02 12:02:32.487
LEye coords (109.0, 109.0), REye coords (113.0, 111.0), timeStamp: 2017-03-02 12:02:32.520
LEye coords (110.0, 106.0), REye coords (112.0, 113.0), timeStamp: 2017-03-02 12:02:32.554
LEye coords (110.0, 110.0), REye coords (112.0, 119.0), timeStamp: 2017-03-02 12:02:32.598
LEye coords (104.0, 109.0), REye coords (107.0, 122.0), timeStamp: 2017-03-02 12:02:32.633
LEye coords (102.0, 111.0), REye coords (105.0, 126.0), timeStamp: 2017-03-02 12:02:32.666
LEye coords (101.0, 110.0), REye coords (104.0, 126.0), timeStamp: 2017-03-02 12:02:32.710
LEye coords (100.0, 110.0), REye coords (104.0, 126.0), timeStamp: 2017-03-02 12:02:32.744
LEye coords (100.0, 109.0), REye coords (103.0, 126.0), timeStamp: 2017-03-02 12:02:32.778
LEye coords (100.0, 108.0), REye coords (103.0, 126.0), timeStamp: 2017-03-02 12:02:32.811
LEye coords (100.0, 108.0), REye coords (103.0, 126.0), timeStamp: 2017-03-02 12:02:32.855
LEye coords (100.0, 107.0), REye coords (103.0, 126.0), timeStamp: 2017-03-02 12:02:32.889
LEye coords (100.0, 107.0), REye coords (102.0, 126.0), timeStamp: 2017-03-02 12:02:32.923
LEye coords (100.0, 107.0), REye coords (102.0, 126.0), timeStamp: 2017-03-02 12:02:32.966
LEye coords (100.0, 107.0), REye coords (102.0, 126.0), timeStamp: 2017-03-02 12:02:33.001
