LEye coords (237.0, 143.0), REye coords (234.0, 181.0), timeStamp: 2017-03-02 12:02:34.375
LEye coords (237.0, 143.0), REye coords (234.0, 182.0), timeStamp: 2017-03-02 12:02:34.407
LEye coords (182.0, 161.0), REye coords (181.0, 181.0), timeStamp: 2017-03-02 12:02:34.440
LEye coords (174.0, 169.0), REye coords (0.0, 0.0), timeStamp: 2017-03-02 12:02:34.485
LEye coords (175.0, 174.0), REye coords (0.0, 0.0), timeStamp: 2017-03-02 12:02:34.518
LEye coords (174.0, 176.0), REye coords (0.0, 0.0), timeStamp: 2017-03-02 12:02:34.551
LEye coords (174.0, 175.0), REye coords (0.0, 0.0), timeStamp: 2017-03-02 12:02:34.596
LEye coords (174.0, 176.0), REye coords (0.0, 0.0), timeStamp: 2017-03-02 12:02:34.630
LEye coords (177.0, 175.0), REye coords (0.0, 0.0), timeStamp: 2017-03-02 12:02:34.663
LEye coords (189.0, 166.0), REye coords (206.0, 202.0), timeStamp: 2017-03-02 12:02:34.708
LEye coords (239.0, 159.0), REye coords (274.0, 183.0), timeStamp: 2017-03-02 12:02:34.741
LEye coords (261.0, 151.0), REye coords (298.0, 172.0), timeStamp: 2017-03-02 12:02:34.775
LEye coords (328.0, 133.0), REye coords (309.0, 170.0), timeStamp: 2017-03-02 12:02:34.819
LEye coords (330.0, 134.0), REye coords (343.0, 156.0), timeStamp: 2017-03-02 12:02:34.852
LEye coords (330.0, 137.0), REye coords (346.0, 149.0), timeStamp: 2017-03-02 12:02:34.886
LEye coords (330.0, 136.0), REye coords (345.0, 145.0), timeStamp: 2017-03-02 12:02:34.930
LEye coords (331.0, 135.0), REye coords (345.0, 144.0), timeStamp: 2017-03-02 12:02:34.963
LEye coords (331.0, 136.0), REye coords (344.0, 147.0), timeStamp: 2017-03-02 12:02:34.997
LEye coords (332.0, 137.0), REye coords (0.0, 0.0), timeStamp: 2017-03-02 12:02:35.041
LEye coords (332.0, 138.0), REye coords (343.0, 147.0), timeStamp: 2017-03-02 12:02:35.075
LEye coords (334.0, 141.0), REye coords (345.0, 153.0), timeStamp: 2017-03-02 12:02:35.109
LEye coords (335.0, 144.0), REye coords (346.0, 157.0), timeStamp: 2017-03-02 12:02:35.143
LEye coords (336.0, 146.0), REye coords (347.0, 161.0), timeStamp: 2017-03-02 12:02:35.187
LEye coords (337.0, 148.0), REye coords (348.0, 163.0), timeStamp: 2017-03-02 12:02:35.221
