LEye coords (409.0, 273.0), REye coords (420.0, 252.0), timeStamp: 2017-03-02 12:02:36.555
LEye coords (410.0, 273.0), REye coords (420.0, 252.0), timeStamp: 2017-03-02 12:02:36.588
LEye coords (323.0, 142.0), REye coords (340.0, 151.0), timeStamp: 2017-03-02 12:02:36.632
LEye coords (238.0, 95.0), REye coords (239.0, 117.0), timeStamp: 2017-03-02 12:02:36.666
LEye coords (0.0, 0.0), REye coords (239.0, 123.0), timeStamp: 2017-03-02 12:02:36.700
LEye coords (240.0, 101.0), REye coords (239.0, 123.0), timeStamp: 2017-03-02 12:02:36.745
LEye coords (242.0, 100.0), REye coords (239.0, 124.0), timeStamp: 2017-03-02 12:02:36.778
LEye coords (242.0, 99.0), REye coords (239.0, 124.0), timeStamp: 2017-03-02 12:02:36.812
LEye coords (243.0, 99.0), REye coords (239.0, 118.0), timeStamp: 2017-03-02 12:02:36.855
LEye coords (244.0, 98.0), REye coords (238.0, 120.0), timeStamp: 2017-03-02 12:02:36.889
LEye coords (243.0, 101.0), REye coords (239.0, 121.0), timeStamp: 2017-03-02 12:02:36.923
LEye coords (241.0, 102.0), REye coords (239.0, 123.0), timeStamp: 2017-03-02 12:02:36.967
LEye coords (242.0, 118.0), REye coords (242.0, 131.0), timeStamp: 2017-03-02 12:02:37.001
LEye coords (243.0, 127.0), REye coords (244.0, 136.0), timeStamp: 2017-03-02 12:02:37.035
LEye coords (243.0, 134.0), REye coords (245.0, 139.0), timeStamp: 2017-03-02 12:02:37.068
LEye coords (243.0, 138.0), REye coords (247.0, 141.0), timeStamp: 2017-03-02 12:02:37.113
LEye coords (243.0, 142.0), REye coords (247.0, 142.0), timeStamp: 2017-03-02 12:02:37.145
LEye coords (243.0, 145.0), REye coords (248.0, 145.0), timeStamp: 2017-03-02 12:02:37.180
LEye coords (243.0, 148.0), REye coords (248.0, 146.0), timeStamp: 2017-03-02 12:02:37.224
LEye coords (244.0, 150.0), REye coords (250.0, 148.0), timeStamp: 2017-03-02 12:02:37.258
LEye coords (253.0, 165.0), REye coords (252.0, 150.0), timeStamp: 2017-03-02 12:02:37.292
LEye coords (256.0, 173.0), REye coords (253.0, 152.0), timeStamp: 2017-03-02 12:02:37.327
