LEye coords (133.0, 226.0), REye coords (135.0, 219.0), timeStamp: 2017-03-02 12:04:02.415
LEye coords (133.0, 226.0), REye coords (135.0, 219.0), timeStamp: 2017-03-02 12:04:02.460
LEye coords (133.0, 225.0), REye coords (135.0, 220.0), timeStamp: 2017-03-02 12:04:02.493
LEye coords (133.0, 225.0), REye coords (135.0, 219.0), timeStamp: 2017-03-02 12:04:02.527
LEye coords (133.0, 224.0), REye coords (135.0, 220.0), timeStamp: 2017-03-02 12:04:02.571
LEye coords (133.0, 224.0), REye coords (135.0, 220.0), timeStamp: 2017-03-02 12:04:02.605
LEye coords (133.0, 223.0), REye coords (135.0, 220.0), timeStamp: 2017-03-02 12:04:02.640
LEye coords (133.0, 223.0), REye coords (135.0, 220.0), timeStamp: 2017-03-02 12:04:02.683
LEye coords (171.0, 193.0), REye coords (174.0, 192.0), timeStamp: 2017-03-02 12:04:02.717
LEye coords (197.0, 180.0), REye coords (203.0, 177.0), timeStamp: 2017-03-02 12:04:02.752
LEye coords (196.0, 181.0), REye coords (203.0, 176.0), timeStamp: 2017-03-02 12:04:02.786
LEye coords (208.0, 165.0), REye coords (214.0, 167.0), timeStamp: 2017-03-02 12:04:02.831
LEye coords (213.0, 158.0), REye coords (219.0, 161.0), timeStamp: 2017-03-02 12:04:02.865
LEye coords (232.0, 143.0), REye coords (235.0, 145.0), timeStamp: 2017-03-02 12:04:02.899
LEye coords (231.0, 138.0), REye coords (235.0, 144.0), timeStamp: 2017-03-02 12:04:02.933
LEye coords (230.0, 136.0), REye coords (235.0, 146.0), timeStamp: 2017-03-02 12:04:02.978
LEye coords (230.0, 135.0), REye coords (234.0, 147.0), timeStamp: 2017-03-02 12:04:03.012
LEye coords (230.0, 136.0), REye coords (234.0, 147.0), timeStamp: 2017-03-02 12:04:03.045
LEye coords (230.0, 135.0), REye coords (235.0, 148.0), timeStamp: 2017-03-02 12:04:03.090
LEye coords (231.0, 135.0), REye coords (235.0, 148.0), timeStamp: 2017-03-02 12:04:03.124
LEye coords (231.0, 135.0), REye coords (235.0, 148.0), timeStamp: 2017-03-02 12:04:03.157
LEye coords (231.0, 134.0), REye coords (235.0, 148.0), timeStamp: 2017-03-02 12:04:03.191
LEye coords (231.0, 135.0), REye coords (235.0, 147.0), timeStamp: 2017-03-02 12:04:03.234
LEye coords (231.0, 134.0), REye coords (235.0, 146.0), timeStamp: 2017-03-02 12:04:03.268
