LEye coords (361.0, 199.0), REye coords (360.0, 216.0), timeStamp: 2017-03-02 12:04:43.060
LEye coords (273.0, 197.0), REye coords (278.0, 201.0), timeStamp: 2017-03-02 12:04:43.093
LEye coords (209.0, 215.0), REye coords (204.0, 203.0), timeStamp: 2017-03-02 12:04:43.126
LEye coords (210.0, 215.0), REye coords (205.0, 198.0), timeStamp: 2017-03-02 12:04:43.171
LEye coords (209.0, 214.0), REye coords (205.0, 199.0), timeStamp: 2017-03-02 12:04:43.205
LEye coords (209.0, 215.0), REye coords (205.0, 198.0), timeStamp: 2017-03-02 12:04:43.238
LEye coords (215.0, 210.0), REye coords (203.0, 203.0), timeStamp: 2017-03-02 12:04:43.281
LEye coords (209.0, 207.0), REye coords (204.0, 197.0), timeStamp: 2017-03-02 12:04:43.315
LEye coords (209.0, 211.0), REye coords (204.0, 198.0), timeStamp: 2017-03-02 12:04:43.348
LEye coords (209.0, 208.0), REye coords (204.0, 198.0), timeStamp: 2017-03-02 12:04:43.392
LEye coords (208.0, 206.0), REye coords (204.0, 200.0), timeStamp: 2017-03-02 12:04:43.427
LEye coords (208.0, 207.0), REye coords (204.0, 201.0), timeStamp: 2017-03-02 12:04:43.461
LEye coords (208.0, 207.0), REye coords (204.0, 200.0), timeStamp: 2017-03-02 12:04:43.505
LEye coords (207.0, 207.0), REye coords (204.0, 200.0), timeStamp: 2017-03-02 12:04:43.538
LEye coords (206.0, 209.0), REye coords (202.0, 201.0), timeStamp: 2017-03-02 12:04:43.573
LEye coords (204.0, 212.0), REye coords (201.0, 202.0), timeStamp: 2017-03-02 12:04:43.617
LEye coords (201.0, 215.0), REye coords (200.0, 204.0), timeStamp: 2017-03-02 12:04:43.650
LEye coords (200.0, 216.0), REye coords (0.0, 0.0), timeStamp: 2017-03-02 12:04:43.684
LEye coords (198.0, 218.0), REye coords (0.0, 0.0), timeStamp: 2017-03-02 12:04:43.718
LEye coords (197.0, 219.0), REye coords (0.0, 0.0), timeStamp: 2017-03-02 12:04:43.761
LEye coords (196.0, 220.0), REye coords (199.0, 203.0), timeStamp: 2017-03-02 12:04:43.796
