LEye coords (192.0, 157.0), REye coords (0.0, 0.0), timeStamp: 2017-03-02 12:04:51.417
LEye coords (192.0, 157.0), REye coords (0.0, 0.0), timeStamp: 2017-03-02 12:04:51.461
LEye coords (192.0, 157.0), REye coords (0.0, 0.0), timeStamp: 2017-03-02 12:04:51.494
LEye coords (192.0, 157.0), REye coords (0.0, 0.0), timeStamp: 2017-03-02 12:04:51.527
LEye coords (192.0, 157.0), REye coords (0.0, 0.0), timeStamp: 2017-03-02 12:04:51.571
LEye coords (192.0, 157.0), REye coords (0.0, 0.0), timeStamp: 2017-03-02 12:04:51.604
LEye coords (192.0, 157.0), REye coords (0.0, 0.0), timeStamp: 2017-03-02 12:04:51.638
LEye coords (192.0, 157.0), REye coords (0.0, 0.0), timeStamp: 2017-03-02 12:04:51.683
LEye coords (192.0, 157.0), REye coords (0.0, 0.0), timeStamp: 2017-03-02 12:04:51.717
LEye coords (195.0, 154.0), REye coords (210.0, 133.0), timeStamp: 2017-03-02 12:04:51.751
LEye coords (223.0, 106.0), REye coords (213.0, 128.0), timeStamp: 2017-03-02 12:04:51.796
LEye coords (226.0, 108.0), REye coords (215.0, 123.0), timeStamp: 2017-03-02 12:04:51.828
LEye coords (225.0, 112.0), REye coords (217.0, 120.0), timeStamp: 2017-03-02 12:04:51.861
LEye coords (225.0, 113.0), REye coords (218.0, 119.0), timeStamp: 2017-03-02 12:04:51.905
LEye coords (226.0, 114.0), REye coords (220.0, 118.0), timeStamp: 2017-03-02 12:04:51.938
LEye coords (228.0, 114.0), REye coords (221.0, 117.0), timeStamp: 2017-03-02 12:04:51.972
LEye coords (231.0, 113.0), REye coords (225.0, 115.0), timeStamp: 2017-03-02 12:04:52.014
LEye coords (234.0, 111.0), REye coords (229.0, 114.0), timeStamp: 2017-03-02 12:04:52.047
