LEye coords (247.0, 120.0), REye coords (246.0, 113.0), timeStamp: 2017-03-02 12:04:54.563
LEye coords (247.0, 104.0), REye coords (246.0, 98.0), timeStamp: 2017-03-02 12:04:54.607
LEye coords (247.0, 104.0), REye coords (245.0, 97.0), timeStamp: 2017-03-02 12:04:54.641
LEye coords (247.0, 103.0), REye coords (245.0, 96.0), timeStamp: 2017-03-02 12:04:54.676
LEye coords (246.0, 103.0), REye coords (244.0, 95.0), timeStamp: 2017-03-02 12:04:54.719
LEye coords (246.0, 102.0), REye coords (244.0, 95.0), timeStamp: 2017-03-02 12:04:54.753
LEye coords (246.0, 102.0), REye coords (244.0, 95.0), timeStamp: 2017-03-02 12:04:54.787
LEye coords (246.0, 102.0), REye coords (244.0, 95.0), timeStamp: 2017-03-02 12:04:54.822
LEye coords (245.0, 102.0), REye coords (244.0, 95.0), timeStamp: 2017-03-02 12:04:54.867
LEye coords (245.0, 102.0), REye coords (244.0, 95.0), timeStamp: 2017-03-02 12:04:54.900
LEye coords (245.0, 102.0), REye coords (244.0, 95.0), timeStamp: 2017-03-02 12:04:54.933
LEye coords (387.0, 79.0), REye coords (383.0, 90.0), timeStamp: 2017-03-02 12:04:54.978
LEye coords (397.0, 79.0), REye coords (399.0, 87.0), timeStamp: 2017-03-02 12:04:55.012
LEye coords (396.0, 79.0), REye coords (399.0, 89.0), timeStamp: 2017-03-02 12:04:55.047
LEye coords (396.0, 81.0), REye coords (400.0, 91.0), timeStamp: 2017-03-02 12:04:55.081
LEye coords (395.0, 81.0), REye coords (400.0, 91.0), timeStamp: 2017-03-02 12:04:55.125
LEye coords (395.0, 81.0), REye coords (399.0, 91.0), timeStamp: 2017-03-02 12:04:55.158
LEye coords (397.0, 80.0), REye coords (401.0, 89.0), timeStamp: 2017-03-02 12:04:55.191
LEye coords (397.0, 82.0), REye coords (402.0, 90.0), timeStamp: 2017-03-02 12:04:55.235
LEye coords (397.0, 82.0), REye coords (395.0, 93.0), timeStamp: 2017-03-02 12:04:55.269
LEye coords (397.0, 81.0), REye coords (396.0, 93.0), timeStamp: 2017-03-02 12:04:55.302
LEye coords (397.0, 82.0), REye coords (397.0, 93.0), timeStamp: 2017-03-02 12:04:55.346
