LEye coords (207.0, 264.0), REye coords (198.0, 263.0), timeStamp: 2017-03-02 12:05:51.301
LEye coords (208.0, 265.0), REye coords (199.0, 265.0), timeStamp: 2017-03-02 12:05:51.345
LEye coords (208.0, 266.0), REye coords (200.0, 265.0), timeStamp: 2017-03-02 12:05:51.378
LEye coords (208.0, 267.0), REye coords (201.0, 266.0), timeStamp: 2017-03-02 12:05:51.411
LEye coords (209.0, 267.0), REye coords (202.0, 267.0), timeStamp: 2017-03-02 12:05:51.457
LEye coords (209.0, 268.0), REye coords (203.0, 267.0), timeStamp: 2017-03-02 12:05:51.492
LEye coords (202.0, 189.0), REye coords (202.0, 202.0), timeStamp: 2017-03-02 12:05:51.526
LEye coords (205.0, 218.0), REye coords (208.0, 160.0), timeStamp: 2017-03-02 12:05:51.559
LEye coords (209.0, 190.0), REye coords (208.0, 160.0), timeStamp: 2017-03-02 12:05:51.603
LEye coords (209.0, 178.0), REye coords (208.0, 157.0), timeStamp: 2017-03-02 12:05:51.638
LEye coords (209.0, 171.0), REye coords (208.0, 157.0), timeStamp: 2017-03-02 12:05:51.672
LEye coords (209.0, 165.0), REye coords (210.0, 150.0), timeStamp: 2017-03-02 12:05:51.716
LEye coords (218.0, 169.0), REye coords (210.0, 161.0), timeStamp: 2017-03-02 12:05:51.750
LEye coords (232.0, 166.0), REye coords (226.0, 161.0), timeStamp: 2017-03-02 12:05:51.783
LEye coords (238.0, 165.0), REye coords (231.0, 163.0), timeStamp: 2017-03-02 12:05:51.817
LEye coords (241.0, 164.0), REye coords (234.0, 163.0), timeStamp: 2017-03-02 12:05:51.862
LEye coords (242.0, 161.0), REye coords (235.0, 164.0), timeStamp: 2017-03-02 12:05:51.896
LEye coords (242.0, 160.0), REye coords (235.0, 165.0), timeStamp: 2017-03-02 12:05:51.929
LEye coords (243.0, 158.0), REye coords (237.0, 165.0), timeStamp: 2017-03-02 12:05:51.974
LEye coords (247.0, 158.0), REye coords (240.0, 165.0), timeStamp: 2017-03-02 12:05:52.008
LEye coords (250.0, 158.0), REye coords (241.0, 165.0), timeStamp: 2017-03-02 12:05:52.041
