LEye coords (265.0, 166.0), REye coords (247.0, 179.0), timeStamp: 2017-03-02 12:05:52.901
LEye coords (0.0, 0.0), REye coords (247.0, 180.0), timeStamp: 2017-03-02 12:05:52.935
LEye coords (265.0, 168.0), REye coords (247.0, 182.0), timeStamp: 2017-03-02 12:05:52.968
LEye coords (265.0, 170.0), REye coords (246.0, 183.0), timeStamp: 2017-03-02 12:05:53.001
LEye coords (265.0, 173.0), REye coords (245.0, 184.0), timeStamp: 2017-03-02 12:05:53.045
LEye coords (264.0, 175.0), REye coords (245.0, 185.0), timeStamp: 2017-03-02 12:05:53.079
LEye coords (264.0, 178.0), REye coords (245.0, 186.0), timeStamp: 2017-03-02 12:05:53.113
LEye coords (264.0, 180.0), REye coords (244.0, 187.0), timeStamp: 2017-03-02 12:05:53.156
LEye coords (264.0, 182.0), REye coords (244.0, 188.0), timeStamp: 2017-03-02 12:05:53.189
LEye coords (443.0, 165.0), REye coords (415.0, 179.0), timeStamp: 2017-03-02 12:05:53.223
LEye coords (429.0, 174.0), REye coords (413.0, 182.0), timeStamp: 2017-03-02 12:05:53.268
LEye coords (431.0, 171.0), REye coords (412.0, 181.0), timeStamp: 2017-03-02 12:05:53.301
LEye coords (430.0, 170.0), REye coords (413.0, 181.0), timeStamp: 2017-03-02 12:05:53.335
LEye coords (430.0, 169.0), REye coords (413.0, 181.0), timeStamp: 2017-03-02 12:05:53.378
LEye coords (429.0, 169.0), REye coords (417.0, 180.0), timeStamp: 2017-03-02 12:05:53.412
LEye coords (428.0, 167.0), REye coords (416.0, 180.0), timeStamp: 2017-03-02 12:05:53.445
LEye coords (426.0, 169.0), REye coords (416.0, 180.0), timeStamp: 2017-03-02 12:05:53.490
LEye coords (427.0, 168.0), REye coords (416.0, 181.0), timeStamp: 2017-03-02 12:05:53.524
LEye coords (429.0, 159.0), REye coords (0.0, 0.0), timeStamp: 2017-03-02 12:05:53.558
LEye coords (430.0, 153.0), REye coords (417.0, 172.0), timeStamp: 2017-03-02 12:05:53.601
LEye coords (430.0, 147.0), REye coords (417.0, 166.0), timeStamp: 2017-03-02 12:05:53.635
