LEye coords (422.0, 91.0), REye coords (407.0, 110.0), timeStamp: 2017-03-02 12:05:57.187
LEye coords (421.0, 89.0), REye coords (406.0, 108.0), timeStamp: 2017-03-02 12:05:57.153
LEye coords (423.0, 93.0), REye coords (407.0, 112.0), timeStamp: 2017-03-02 12:05:57.221
LEye coords (423.0, 94.0), REye coords (407.0, 113.0), timeStamp: 2017-03-02 12:05:57.265
LEye coords (240.0, 152.0), REye coords (249.0, 142.0), timeStamp: 2017-03-02 12:06:33.352
LEye coords (241.0, 155.0), REye coords (249.0, 139.0), timeStamp: 2017-03-02 12:06:33.385
LEye coords (238.0, 153.0), REye coords (249.0, 141.0), timeStamp: 2017-03-02 12:06:33.418
LEye coords (238.0, 153.0), REye coords (248.0, 141.0), timeStamp: 2017-03-02 12:06:33.463
LEye coords (239.0, 153.0), REye coords (247.0, 141.0), timeStamp: 2017-03-02 12:06:33.497
LEye coords (238.0, 154.0), REye coords (248.0, 142.0), timeStamp: 2017-03-02 12:06:33.530
LEye coords (238.0, 154.0), REye coords (248.0, 142.0), timeStamp: 2017-03-02 12:06:33.574
LEye coords (239.0, 154.0), REye coords (248.0, 142.0), timeStamp: 2017-03-02 12:06:33.608
LEye coords (239.0, 155.0), REye coords (248.0, 143.0), timeStamp: 2017-03-02 12:06:33.642
LEye coords (365.0, 155.0), REye coords (369.0, 155.0), timeStamp: 2017-03-02 12:06:33.676
LEye coords (370.0, 149.0), REye coords (376.0, 158.0), timeStamp: 2017-03-02 12:06:33.720
LEye coords (370.0, 149.0), REye coords (376.0, 159.0), timeStamp: 2017-03-02 12:06:33.753
LEye coords (369.0, 151.0), REye coords (375.0, 159.0), timeStamp: 2017-03-02 12:06:33.787
LEye coords (369.0, 153.0), REye coords (375.0, 159.0), timeStamp: 2017-03-02 12:06:33.832
LEye coords (370.0, 153.0), REye coords (379.0, 158.0), timeStamp: 2017-03-02 12:06:33.866
LEye coords (372.0, 162.0), REye coords (376.0, 163.0), timeStamp: 2017-03-02 12:06:33.899
LEye coords (373.0, 159.0), REye coords (375.0, 163.0), timeStamp: 2017-03-02 12:06:33.943
LEye coords (372.0, 158.0), REye coords (376.0, 163.0), timeStamp: 2017-03-02 12:06:33.977
LEye coords (372.0, 158.0), REye coords (376.0, 162.0), timeStamp: 2017-03-02 12:06:34.011
LEye coords (375.0, 158.0), REye coords (379.0, 162.0), timeStamp: 2017-03-02 12:06:34.055
LEye coords (377.0, 158.0), REye coords (381.0, 161.0), timeStamp: 2017-03-02 12:06:34.089
LEye coords (378.0, 157.0), REye coords (382.0, 161.0), timeStamp: 2017-03-02 12:06:34.121
LEye coords (379.0, 157.0), REye coords (383.0, 160.0), timeStamp: 2017-03-02 12:06:34.164
LEye coords (380.0, 157.0), REye coords (384.0, 160.0), timeStamp: 2017-03-02 12:06:34.198
LEye coords (381.0, 157.0), REye coords (385.0, 160.0), timeStamp: 2017-03-02 12:06:34.232
LEye coords (382.0, 157.0), REye coords (385.0, 160.0), timeStamp: 2017-03-02 12:06:34.277
