LEye coords (240.0, 246.0), REye coords (253.0, 213.0), timeStamp: 2017-03-02 11:27:56.375
LEye coords (239.0, 245.0), REye coords (253.0, 212.0), timeStamp: 2017-03-02 11:27:56.408
LEye coords (239.0, 245.0), REye coords (254.0, 211.0), timeStamp: 2017-03-02 11:27:56.442
LEye coords (239.0, 245.0), REye coords (254.0, 210.0), timeStamp: 2017-03-02 11:27:56.487
LEye coords (240.0, 246.0), REye coords (254.0, 208.0), timeStamp: 2017-03-02 11:27:56.521
LEye coords (240.0, 246.0), REye coords (254.0, 207.0), timeStamp: 2017-03-02 11:27:56.555
LEye coords (240.0, 246.0), REye coords (254.0, 206.0), timeStamp: 2017-03-02 11:27:56.600
LEye coords (240.0, 246.0), REye coords (254.0, 205.0), timeStamp: 2017-03-02 11:27:56.633
LEye coords (240.0, 246.0), REye coords (254.0, 205.0), timeStamp: 2017-03-02 11:27:56.667
LEye coords (240.0, 247.0), REye coords (254.0, 204.0), timeStamp: 2017-03-02 11:27:56.711
LEye coords (239.0, 249.0), REye coords (222.0, 268.0), timeStamp: 2017-03-02 11:27:56.745
LEye coords (187.0, 332.0), REye coords (192.0, 323.0), timeStamp: 2017-03-02 11:27:56.779
LEye coords (189.0, 331.0), REye coords (191.0, 324.0), timeStamp: 2017-03-02 11:27:56.813
LEye coords (187.0, 329.0), REye coords (192.0, 324.0), timeStamp: 2017-03-02 11:27:56.857
LEye coords (186.0, 329.0), REye coords (192.0, 325.0), timeStamp: 2017-03-02 11:27:56.890
LEye coords (186.0, 330.0), REye coords (190.0, 322.0), timeStamp: 2017-03-02 11:27:56.924
LEye coords (187.0, 330.0), REye coords (192.0, 325.0), timeStamp: 2017-03-02 11:27:56.968
LEye coords (186.0, 333.0), REye coords (191.0, 321.0), timeStamp: 2017-03-02 11:27:57.001
LEye coords (188.0, 335.0), REye coords (191.0, 322.0), timeStamp: 2017-03-02 11:27:57.035
LEye coords (186.0, 335.0), REye coords (191.0, 324.0), timeStamp: 2017-03-02 11:27:57.078
LEye coords (186.0, 333.0), REye coords (192.0, 324.0), timeStamp: 2017-03-02 11:27:57.112
LEye coords (185.0, 332.0), REye coords (192.0, 324.0), timeStamp: 2017-03-02 11:27:57.146
LEye coords (185.0, 331.0), REye coords (192.0, 323.0), timeStamp: 2017-03-02 11:27:57.190
LEye coords (185.0, 332.0), REye coords (193.0, 323.0), timeStamp: 2017-03-02 11:27:57.224
