LEye coords (191.0, 339.0), REye coords (0.0, 0.0), timeStamp: 2017-03-02 11:27:57.335
LEye coords (216.0, 226.0), REye coords (0.0, 0.0), timeStamp: 2017-03-02 11:27:57.370
LEye coords (217.0, 227.0), REye coords (0.0, 0.0), timeStamp: 2017-03-02 11:27:57.414
LEye coords (217.0, 228.0), REye coords (0.0, 0.0), timeStamp: 2017-03-02 11:27:57.447
LEye coords (218.0, 228.0), REye coords (0.0, 0.0), timeStamp: 2017-03-02 11:27:57.481
LEye coords (219.0, 229.0), REye coords (0.0, 0.0), timeStamp: 2017-03-02 11:27:57.515
LEye coords (219.0, 229.0), REye coords (0.0, 0.0), timeStamp: 2017-03-02 11:27:57.559
LEye coords (220.0, 230.0), REye coords (0.0, 0.0), timeStamp: 2017-03-02 11:27:57.594
LEye coords (221.0, 227.0), REye coords (251.0, 183.0), timeStamp: 2017-03-02 11:27:57.628
LEye coords (239.0, 163.0), REye coords (256.0, 129.0), timeStamp: 2017-03-02 11:27:57.672
LEye coords (241.0, 166.0), REye coords (255.0, 124.0), timeStamp: 2017-03-02 11:27:57.705
LEye coords (241.0, 165.0), REye coords (256.0, 124.0), timeStamp: 2017-03-02 11:27:57.740
LEye coords (241.0, 165.0), REye coords (255.0, 125.0), timeStamp: 2017-03-02 11:27:57.784
LEye coords (241.0, 164.0), REye coords (254.0, 127.0), timeStamp: 2017-03-02 11:27:57.818
LEye coords (241.0, 164.0), REye coords (249.0, 144.0), timeStamp: 2017-03-02 11:27:57.852
LEye coords (241.0, 164.0), REye coords (250.0, 140.0), timeStamp: 2017-03-02 11:27:57.886
LEye coords (240.0, 164.0), REye coords (251.0, 137.0), timeStamp: 2017-03-02 11:27:57.930
LEye coords (242.0, 163.0), REye coords (257.0, 133.0), timeStamp: 2017-03-02 11:27:57.963
LEye coords (245.0, 162.0), REye coords (260.0, 130.0), timeStamp: 2017-03-02 11:27:57.997
LEye coords (246.0, 162.0), REye coords (263.0, 129.0), timeStamp: 2017-03-02 11:27:58.042
LEye coords (247.0, 161.0), REye coords (265.0, 127.0), timeStamp: 2017-03-02 11:27:58.076
LEye coords (248.0, 161.0), REye coords (266.0, 127.0), timeStamp: 2017-03-02 11:27:58.109
LEye coords (249.0, 161.0), REye coords (268.0, 126.0), timeStamp: 2017-03-02 11:27:58.153
LEye coords (250.0, 161.0), REye coords (269.0, 125.0), timeStamp: 2017-03-02 11:27:58.187
LEye coords (251.0, 161.0), REye coords (269.0, 124.0), timeStamp: 2017-03-02 11:27:58.221
