LEye coords (148.0, 179.0), REye coords (154.0, 158.0), timeStamp: 2017-03-02 11:28:03.403
LEye coords (148.0, 179.0), REye coords (154.0, 158.0), timeStamp: 2017-03-02 11:28:03.437
LEye coords (148.0, 179.0), REye coords (154.0, 159.0), timeStamp: 2017-03-02 11:28:03.482
LEye coords (148.0, 180.0), REye coords (154.0, 158.0), timeStamp: 2017-03-02 11:28:03.516
LEye coords (148.0, 180.0), REye coords (154.0, 158.0), timeStamp: 2017-03-02 11:28:03.550
LEye coords (149.0, 180.0), REye coords (154.0, 158.0), timeStamp: 2017-03-02 11:28:03.594
LEye coords (149.0, 180.0), REye coords (154.0, 159.0), timeStamp: 2017-03-02 11:28:03.627
LEye coords (149.0, 180.0), REye coords (154.0, 159.0), timeStamp: 2017-03-02 11:28:03.660
LEye coords (150.0, 180.0), REye coords (156.0, 160.0), timeStamp: 2017-03-02 11:28:03.704
LEye coords (210.0, 144.0), REye coords (221.0, 131.0), timeStamp: 2017-03-02 11:28:03.738
LEye coords (213.0, 144.0), REye coords (221.0, 117.0), timeStamp: 2017-03-02 11:28:03.773
LEye coords (214.0, 145.0), REye coords (223.0, 110.0), timeStamp: 2017-03-02 11:28:03.807
LEye coords (210.0, 142.0), REye coords (220.0, 105.0), timeStamp: 2017-03-02 11:28:03.851
LEye coords (200.0, 137.0), REye coords (212.0, 99.0), timeStamp: 2017-03-02 11:28:03.885
LEye coords (171.0, 118.0), REye coords (185.0, 80.0), timeStamp: 2017-03-02 11:28:03.919
LEye coords (172.0, 114.0), REye coords (186.0, 80.0), timeStamp: 2017-03-02 11:28:03.963
LEye coords (172.0, 115.0), REye coords (185.0, 80.0), timeStamp: 2017-03-02 11:28:03.996
LEye coords (172.0, 115.0), REye coords (185.0, 81.0), timeStamp: 2017-03-02 11:28:04.030
LEye coords (171.0, 115.0), REye coords (185.0, 81.0), timeStamp: 2017-03-02 11:28:04.074
LEye coords (168.0, 113.0), REye coords (182.0, 80.0), timeStamp: 2017-03-02 11:28:04.109
LEye coords (166.0, 111.0), REye coords (181.0, 80.0), timeStamp: 2017-03-02 11:28:04.142
LEye coords (164.0, 110.0), REye coords (180.0, 79.0), timeStamp: 2017-03-02 11:28:04.185
LEye coords (163.0, 109.0), REye coords (179.0, 79.0), timeStamp: 2017-03-02 11:28:04.219
LEye coords (162.0, 108.0), REye coords (178.0, 79.0), timeStamp: 2017-03-02 11:28:04.252
LEye coords (161.0, 108.0), REye coords (177.0, 79.0), timeStamp: 2017-03-02 11:28:04.297
