LEye coords (231.0, 143.0), REye coords (243.0, 110.0), timeStamp: 2017-03-02 11:28:07.444
LEye coords (232.0, 143.0), REye coords (243.0, 110.0), timeStamp: 2017-03-02 11:28:07.478
LEye coords (233.0, 143.0), REye coords (244.0, 110.0), timeStamp: 2017-03-02 11:28:07.512
LEye coords (234.0, 143.0), REye coords (244.0, 110.0), timeStamp: 2017-03-02 11:28:07.545
LEye coords (235.0, 144.0), REye coords (245.0, 109.0), timeStamp: 2017-03-02 11:28:07.590
LEye coords (235.0, 144.0), REye coords (246.0, 109.0), timeStamp: 2017-03-02 11:28:07.624
LEye coords (235.0, 144.0), REye coords (246.0, 108.0), timeStamp: 2017-03-02 11:28:07.659
LEye coords (235.0, 144.0), REye coords (245.0, 108.0), timeStamp: 2017-03-02 11:28:07.702
LEye coords (234.0, 144.0), REye coords (245.0, 108.0), timeStamp: 2017-03-02 11:28:07.736
LEye coords (234.0, 145.0), REye coords (245.0, 108.0), timeStamp: 2017-03-02 11:28:07.771
LEye coords (234.0, 145.0), REye coords (245.0, 109.0), timeStamp: 2017-03-02 11:28:07.806
LEye coords (306.0, 155.0), REye coords (0.0, 0.0), timeStamp: 2017-03-02 11:28:07.849
LEye coords (304.0, 157.0), REye coords (306.0, 134.0), timeStamp: 2017-03-02 11:28:07.882
LEye coords (303.0, 156.0), REye coords (312.0, 125.0), timeStamp: 2017-03-02 11:28:07.916
LEye coords (304.0, 156.0), REye coords (313.0, 124.0), timeStamp: 2017-03-02 11:28:07.960
LEye coords (304.0, 157.0), REye coords (313.0, 124.0), timeStamp: 2017-03-02 11:28:07.993
LEye coords (306.0, 156.0), REye coords (314.0, 125.0), timeStamp: 2017-03-02 11:28:08.027
LEye coords (304.0, 161.0), REye coords (316.0, 123.0), timeStamp: 2017-03-02 11:28:08.071
LEye coords (306.0, 159.0), REye coords (315.0, 129.0), timeStamp: 2017-03-02 11:28:08.105
LEye coords (306.0, 158.0), REye coords (314.0, 128.0), timeStamp: 2017-03-02 11:28:08.139
LEye coords (306.0, 158.0), REye coords (314.0, 130.0), timeStamp: 2017-03-02 11:28:08.183
LEye coords (306.0, 158.0), REye coords (314.0, 129.0), timeStamp: 2017-03-02 11:28:08.217
LEye coords (306.0, 158.0), REye coords (314.0, 130.0), timeStamp: 2017-03-02 11:28:08.251
LEye coords (306.0, 158.0), REye coords (314.0, 129.0), timeStamp: 2017-03-02 11:28:08.296
