LEye coords (190.0, 153.0), REye coords (204.0, 117.0), timeStamp: 2017-03-02 11:28:06.407
LEye coords (190.0, 153.0), REye coords (204.0, 118.0), timeStamp: 2017-03-02 11:28:06.440
LEye coords (190.0, 153.0), REye coords (204.0, 117.0), timeStamp: 2017-03-02 11:28:06.473
LEye coords (190.0, 154.0), REye coords (204.0, 117.0), timeStamp: 2017-03-02 11:28:06.519
LEye coords (190.0, 154.0), REye coords (204.0, 117.0), timeStamp: 2017-03-02 11:28:06.553
LEye coords (190.0, 154.0), REye coords (204.0, 116.0), timeStamp: 2017-03-02 11:28:06.587
LEye coords (190.0, 154.0), REye coords (205.0, 116.0), timeStamp: 2017-03-02 11:28:06.621
LEye coords (190.0, 154.0), REye coords (205.0, 116.0), timeStamp: 2017-03-02 11:28:06.664
LEye coords (190.0, 154.0), REye coords (205.0, 116.0), timeStamp: 2017-03-02 11:28:06.697
LEye coords (190.0, 153.0), REye coords (205.0, 116.0), timeStamp: 2017-03-02 11:28:06.732
LEye coords (190.0, 153.0), REye coords (205.0, 117.0), timeStamp: 2017-03-02 11:28:06.776
LEye coords (190.0, 153.0), REye coords (205.0, 117.0), timeStamp: 2017-03-02 11:28:06.810
LEye coords (192.0, 154.0), REye coords (207.0, 118.0), timeStamp: 2017-03-02 11:28:06.844
LEye coords (195.0, 154.0), REye coords (210.0, 119.0), timeStamp: 2017-03-02 11:28:06.888
LEye coords (197.0, 154.0), REye coords (212.0, 119.0), timeStamp: 2017-03-02 11:28:06.922
LEye coords (199.0, 154.0), REye coords (214.0, 119.0), timeStamp: 2017-03-02 11:28:06.956
LEye coords (202.0, 154.0), REye coords (216.0, 120.0), timeStamp: 2017-03-02 11:28:06.990
LEye coords (204.0, 154.0), REye coords (218.0, 120.0), timeStamp: 2017-03-02 11:28:07.035
LEye coords (207.0, 154.0), REye coords (220.0, 121.0), timeStamp: 2017-03-02 11:28:07.069
LEye coords (209.0, 154.0), REye coords (222.0, 120.0), timeStamp: 2017-03-02 11:28:07.101
LEye coords (211.0, 154.0), REye coords (223.0, 121.0), timeStamp: 2017-03-02 11:28:07.145
LEye coords (212.0, 154.0), REye coords (225.0, 121.0), timeStamp: 2017-03-02 11:28:07.179
LEye coords (214.0, 154.0), REye coords (226.0, 121.0), timeStamp: 2017-03-02 11:28:07.223
LEye coords (216.0, 154.0), REye coords (228.0, 120.0), timeStamp: 2017-03-02 11:28:07.256
LEye coords (217.0, 154.0), REye coords (229.0, 121.0), timeStamp: 2017-03-02 11:28:07.291
