LEye coords (202.0, 182.0), REye coords (205.0, 168.0), timeStamp: 2017-03-02 11:29:10.206
LEye coords (202.0, 182.0), REye coords (205.0, 168.0), timeStamp: 2017-03-02 11:29:10.250
LEye coords (202.0, 182.0), REye coords (205.0, 168.0), timeStamp: 2017-03-02 11:29:10.284
LEye coords (202.0, 182.0), REye coords (205.0, 169.0), timeStamp: 2017-03-02 11:29:10.318
LEye coords (202.0, 183.0), REye coords (205.0, 169.0), timeStamp: 2017-03-02 11:29:10.352
LEye coords (202.0, 182.0), REye coords (205.0, 170.0), timeStamp: 2017-03-02 11:29:10.396
LEye coords (202.0, 182.0), REye coords (206.0, 170.0), timeStamp: 2017-03-02 11:29:10.429
LEye coords (202.0, 182.0), REye coords (206.0, 170.0), timeStamp: 2017-03-02 11:29:10.463
LEye coords (202.0, 182.0), REye coords (206.0, 170.0), timeStamp: 2017-03-02 11:29:10.507
LEye coords (202.0, 182.0), REye coords (206.0, 171.0), timeStamp: 2017-03-02 11:29:10.542
LEye coords (204.0, 183.0), REye coords (208.0, 169.0), timeStamp: 2017-03-02 11:29:10.577
LEye coords (275.0, 187.0), REye coords (293.0, 176.0), timeStamp: 2017-03-02 11:29:10.620
LEye coords (281.0, 191.0), REye coords (290.0, 178.0), timeStamp: 2017-03-02 11:29:10.653
LEye coords (280.0, 191.0), REye coords (287.0, 178.0), timeStamp: 2017-03-02 11:29:10.688
LEye coords (279.0, 189.0), REye coords (287.0, 181.0), timeStamp: 2017-03-02 11:29:10.731
LEye coords (279.0, 190.0), REye coords (287.0, 183.0), timeStamp: 2017-03-02 11:29:10.765
LEye coords (280.0, 191.0), REye coords (285.0, 186.0), timeStamp: 2017-03-02 11:29:10.798
LEye coords (283.0, 195.0), REye coords (294.0, 160.0), timeStamp: 2017-03-02 11:29:10.843
LEye coords (284.0, 190.0), REye coords (300.0, 158.0), timeStamp: 2017-03-02 11:29:10.876
LEye coords (303.0, 184.0), REye coords (318.0, 159.0), timeStamp: 2017-03-02 11:29:10.909
LEye coords (312.0, 182.0), REye coords (327.0, 160.0), timeStamp: 2017-03-02 11:29:10.954
LEye coords (318.0, 180.0), REye coords (354.0, 162.0), timeStamp: 2017-03-02 11:29:10.987
LEye coords (321.0, 179.0), REye coords (354.0, 163.0), timeStamp: 2017-03-02 11:29:11.020
LEye coords (324.0, 179.0), REye coords (355.0, 163.0), timeStamp: 2017-03-02 11:29:11.064
LEye coords (342.0, 174.0), REye coords (354.0, 164.0), timeStamp: 2017-03-02 11:29:11.098
LEye coords (343.0, 172.0), REye coords (355.0, 164.0), timeStamp: 2017-03-02 11:29:11.131
LEye coords (341.0, 174.0), REye coords (354.0, 164.0), timeStamp: 2017-03-02 11:29:11.175
