LEye coords (346.0, 221.0), REye coords (364.0, 215.0), timeStamp: 2017-03-02 11:29:59.618
LEye coords (347.0, 220.0), REye coords (366.0, 214.0), timeStamp: 2017-03-02 11:29:59.653
LEye coords (347.0, 220.0), REye coords (366.0, 214.0), timeStamp: 2017-03-02 11:29:59.697
LEye coords (348.0, 220.0), REye coords (375.0, 210.0), timeStamp: 2017-03-02 11:29:59.731
LEye coords (349.0, 220.0), REye coords (368.0, 220.0), timeStamp: 2017-03-02 11:29:59.765
LEye coords (350.0, 219.0), REye coords (375.0, 210.0), timeStamp: 2017-03-02 11:29:59.799
LEye coords (351.0, 219.0), REye coords (374.0, 213.0), timeStamp: 2017-03-02 11:29:59.844
LEye coords (352.0, 219.0), REye coords (372.0, 216.0), timeStamp: 2017-03-02 11:29:59.878
LEye coords (282.0, 165.0), REye coords (289.0, 171.0), timeStamp: 2017-03-02 11:29:59.913
LEye coords (252.0, 137.0), REye coords (258.0, 140.0), timeStamp: 2017-03-02 11:29:59.947
LEye coords (252.0, 137.0), REye coords (260.0, 142.0), timeStamp: 2017-03-02 11:29:59.991
LEye coords (252.0, 139.0), REye coords (261.0, 142.0), timeStamp: 2017-03-02 11:30:00.025
LEye coords (252.0, 138.0), REye coords (261.0, 140.0), timeStamp: 2017-03-02 11:30:00.057
LEye coords (258.0, 134.0), REye coords (270.0, 135.0), timeStamp: 2017-03-02 11:30:00.102
LEye coords (366.0, 118.0), REye coords (373.0, 133.0), timeStamp: 2017-03-02 11:30:00.136
LEye coords (362.0, 114.0), REye coords (371.0, 133.0), timeStamp: 2017-03-02 11:30:00.169
LEye coords (361.0, 114.0), REye coords (369.0, 133.0), timeStamp: 2017-03-02 11:30:00.212
LEye coords (360.0, 113.0), REye coords (369.0, 132.0), timeStamp: 2017-03-02 11:30:00.246
LEye coords (360.0, 109.0), REye coords (366.0, 131.0), timeStamp: 2017-03-02 11:30:00.289
LEye coords (359.0, 112.0), REye coords (366.0, 131.0), timeStamp: 2017-03-02 11:30:00.323
LEye coords (359.0, 113.0), REye coords (365.0, 129.0), timeStamp: 2017-03-02 11:30:00.357
LEye coords (360.0, 113.0), REye coords (366.0, 130.0), timeStamp: 2017-03-02 11:30:00.391
LEye coords (360.0, 113.0), REye coords (367.0, 132.0), timeStamp: 2017-03-02 11:30:00.435
LEye coords (360.0, 112.0), REye coords (368.0, 132.0), timeStamp: 2017-03-02 11:30:00.469
LEye coords (360.0, 112.0), REye coords (369.0, 130.0), timeStamp: 2017-03-02 11:30:00.502
LEye coords (361.0, 112.0), REye coords (0.0, 0.0), timeStamp: 2017-03-02 11:30:00.546
LEye coords (361.0, 113.0), REye coords (369.0, 131.0), timeStamp: 2017-03-02 11:30:00.579
LEye coords (361.0, 113.0), REye coords (368.0, 131.0), timeStamp: 2017-03-02 11:30:00.614
LEye coords (361.0, 113.0), REye coords (368.0, 131.0), timeStamp: 2017-03-02 11:30:00.658
