LEye coords (0.0, 0.0), REye coords (321.0, 149.0), timeStamp: 2017-03-02 11:31:05.465
LEye coords (0.0, 0.0), REye coords (321.0, 150.0), timeStamp: 2017-03-02 11:31:05.498
LEye coords (303.0, 158.0), REye coords (321.0, 150.0), timeStamp: 2017-03-02 11:31:05.531
LEye coords (305.0, 159.0), REye coords (321.0, 150.0), timeStamp: 2017-03-02 11:31:05.576
LEye coords (305.0, 159.0), REye coords (321.0, 150.0), timeStamp: 2017-03-02 11:31:05.611
LEye coords (305.0, 159.0), REye coords (321.0, 150.0), timeStamp: 2017-03-02 11:31:05.644
LEye coords (305.0, 159.0), REye coords (321.0, 151.0), timeStamp: 2017-03-02 11:31:05.678
LEye coords (253.0, 179.0), REye coords (264.0, 156.0), timeStamp: 2017-03-02 11:31:05.722
LEye coords (253.0, 178.0), REye coords (0.0, 0.0), timeStamp: 2017-03-02 11:31:05.755
LEye coords (254.0, 177.0), REye coords (0.0, 0.0), timeStamp: 2017-03-02 11:31:05.790
LEye coords (255.0, 177.0), REye coords (0.0, 0.0), timeStamp: 2017-03-02 11:31:05.834
LEye coords (258.0, 181.0), REye coords (0.0, 0.0), timeStamp: 2017-03-02 11:31:05.868
LEye coords (255.0, 178.0), REye coords (270.0, 160.0), timeStamp: 2017-03-02 11:31:05.901
LEye coords (255.0, 178.0), REye coords (270.0, 158.0), timeStamp: 2017-03-02 11:31:05.944
LEye coords (255.0, 177.0), REye coords (269.0, 159.0), timeStamp: 2017-03-02 11:31:05.977
LEye coords (255.0, 177.0), REye coords (269.0, 158.0), timeStamp: 2017-03-02 11:31:06.021
LEye coords (255.0, 177.0), REye coords (265.0, 160.0), timeStamp: 2017-03-02 11:31:06.055
LEye coords (255.0, 177.0), REye coords (265.0, 162.0), timeStamp: 2017-03-02 11:31:06.089
LEye coords (255.0, 177.0), REye coords (265.0, 161.0), timeStamp: 2017-03-02 11:31:06.123
LEye coords (255.0, 177.0), REye coords (265.0, 161.0), timeStamp: 2017-03-02 11:31:06.167
LEye coords (254.0, 176.0), REye coords (265.0, 162.0), timeStamp: 2017-03-02 11:31:06.200
LEye coords (255.0, 177.0), REye coords (266.0, 161.0), timeStamp: 2017-03-02 11:31:06.235
