LEye coords (0.0, 0.0), REye coords (0.0, 0.0), timeStamp: 2017-03-02 11:31:09.425
LEye coords (89.0, 215.0), REye coords (0.0, 0.0), timeStamp: 2017-03-02 11:31:09.459
LEye coords (88.0, 215.0), REye coords (0.0, 0.0), timeStamp: 2017-03-02 11:31:09.494
LEye coords (88.0, 215.0), REye coords (0.0, 0.0), timeStamp: 2017-03-02 11:31:09.528
LEye coords (87.0, 215.0), REye coords (0.0, 0.0), timeStamp: 2017-03-02 11:31:09.574
LEye coords (87.0, 215.0), REye coords (0.0, 0.0), timeStamp: 2017-03-02 11:31:09.607
LEye coords (87.0, 215.0), REye coords (80.0, 191.0), timeStamp: 2017-03-02 11:31:09.641
LEye coords (161.0, 281.0), REye coords (167.0, 255.0), timeStamp: 2017-03-02 11:31:09.684
LEye coords (162.0, 282.0), REye coords (0.0, 0.0), timeStamp: 2017-03-02 11:31:09.718
LEye coords (162.0, 281.0), REye coords (167.0, 253.0), timeStamp: 2017-03-02 11:31:09.752
LEye coords (161.0, 279.0), REye coords (166.0, 252.0), timeStamp: 2017-03-02 11:31:09.795
LEye coords (162.0, 279.0), REye coords (165.0, 258.0), timeStamp: 2017-03-02 11:31:09.829
LEye coords (164.0, 276.0), REye coords (164.0, 261.0), timeStamp: 2017-03-02 11:31:09.863
LEye coords (164.0, 278.0), REye coords (162.0, 265.0), timeStamp: 2017-03-02 11:31:09.896
LEye coords (163.0, 275.0), REye coords (162.0, 263.0), timeStamp: 2017-03-02 11:31:09.940
LEye coords (163.0, 277.0), REye coords (163.0, 263.0), timeStamp: 2017-03-02 11:31:09.972
LEye coords (164.0, 276.0), REye coords (163.0, 263.0), timeStamp: 2017-03-02 11:31:10.017
LEye coords (164.0, 275.0), REye coords (163.0, 263.0), timeStamp: 2017-03-02 11:31:10.051
LEye coords (164.0, 275.0), REye coords (163.0, 263.0), timeStamp: 2017-03-02 11:31:10.084
LEye coords (164.0, 273.0), REye coords (163.0, 263.0), timeStamp: 2017-03-02 11:31:10.128
LEye coords (164.0, 273.0), REye coords (163.0, 262.0), timeStamp: 2017-03-02 11:31:10.161
LEye coords (164.0, 273.0), REye coords (163.0, 261.0), timeStamp: 2017-03-02 11:31:10.195
LEye coords (164.0, 273.0), REye coords (164.0, 261.0), timeStamp: 2017-03-02 11:31:10.239
LEye coords (164.0, 273.0), REye coords (163.0, 261.0), timeStamp: 2017-03-02 11:31:10.273
