LEye coords (190.0, 285.0), REye coords (198.0, 264.0), timeStamp: 2017-03-02 11:31:12.270
LEye coords (191.0, 283.0), REye coords (198.0, 264.0), timeStamp: 2017-03-02 11:31:12.304
LEye coords (191.0, 284.0), REye coords (201.0, 262.0), timeStamp: 2017-03-02 11:31:12.348
LEye coords (191.0, 283.0), REye coords (199.0, 255.0), timeStamp: 2017-03-02 11:31:12.382
LEye coords (191.0, 284.0), REye coords (200.0, 259.0), timeStamp: 2017-03-02 11:31:12.416
LEye coords (191.0, 284.0), REye coords (200.0, 263.0), timeStamp: 2017-03-02 11:31:12.450
LEye coords (212.0, 199.0), REye coords (206.0, 240.0), timeStamp: 2017-03-02 11:31:12.494
LEye coords (214.0, 193.0), REye coords (223.0, 164.0), timeStamp: 2017-03-02 11:31:12.529
LEye coords (212.0, 194.0), REye coords (222.0, 166.0), timeStamp: 2017-03-02 11:31:12.563
LEye coords (212.0, 197.0), REye coords (220.0, 168.0), timeStamp: 2017-03-02 11:31:12.606
LEye coords (212.0, 197.0), REye coords (220.0, 170.0), timeStamp: 2017-03-02 11:31:12.640
LEye coords (214.0, 203.0), REye coords (220.0, 169.0), timeStamp: 2017-03-02 11:31:12.673
LEye coords (213.0, 197.0), REye coords (221.0, 168.0), timeStamp: 2017-03-02 11:31:12.718
LEye coords (214.0, 200.0), REye coords (221.0, 169.0), timeStamp: 2017-03-02 11:31:12.752
LEye coords (215.0, 202.0), REye coords (221.0, 169.0), timeStamp: 2017-03-02 11:31:12.785
LEye coords (215.0, 205.0), REye coords (221.0, 170.0), timeStamp: 2017-03-02 11:31:12.829
LEye coords (215.0, 206.0), REye coords (221.0, 171.0), timeStamp: 2017-03-02 11:31:12.862
LEye coords (215.0, 208.0), REye coords (221.0, 173.0), timeStamp: 2017-03-02 11:31:12.897
LEye coords (213.0, 214.0), REye coords (220.0, 179.0), timeStamp: 2017-03-02 11:31:12.941
LEye coords (211.0, 220.0), REye coords (219.0, 184.0), timeStamp: 2017-03-02 11:31:12.974
LEye coords (211.0, 223.0), REye coords (218.0, 189.0), timeStamp: 2017-03-02 11:31:13.007
LEye coords (210.0, 226.0), REye coords (217.0, 193.0), timeStamp: 2017-03-02 11:31:13.052
LEye coords (209.0, 228.0), REye coords (216.0, 197.0), timeStamp: 2017-03-02 11:31:13.086
LEye coords (209.0, 230.0), REye coords (216.0, 201.0), timeStamp: 2017-03-02 11:31:13.119
LEye coords (209.0, 233.0), REye coords (216.0, 205.0), timeStamp: 2017-03-02 11:31:13.154
LEye coords (210.0, 237.0), REye coords (0.0, 0.0), timeStamp: 2017-03-02 11:31:13.198
LEye coords (211.0, 240.0), REye coords (0.0, 0.0), timeStamp: 2017-03-02 11:31:13.232
LEye coords (213.0, 243.0), REye coords (0.0, 0.0), timeStamp: 2017-03-02 11:31:13.266
LEye coords (213.0, 246.0), REye coords (0.0, 0.0), timeStamp: 2017-03-02 11:31:13.311
LEye coords (214.0, 248.0), REye coords (0.0, 0.0), timeStamp: 2017-03-02 11:31:13.344
