LEye coords (174.0, 234.0), REye coords (167.0, 236.0), timeStamp: 2017-03-02 11:31:14.459
LEye coords (175.0, 234.0), REye coords (168.0, 236.0), timeStamp: 2017-03-02 11:31:14.493
LEye coords (176.0, 234.0), REye coords (190.0, 236.0), timeStamp: 2017-03-02 11:31:14.527
LEye coords (177.0, 234.0), REye coords (188.0, 231.0), timeStamp: 2017-03-02 11:31:14.561
LEye coords (178.0, 234.0), REye coords (187.0, 233.0), timeStamp: 2017-03-02 11:31:14.605
LEye coords (180.0, 233.0), REye coords (192.0, 227.0), timeStamp: 2017-03-02 11:31:14.638
LEye coords (216.0, 164.0), REye coords (202.0, 208.0), timeStamp: 2017-03-02 11:31:14.671
LEye coords (217.0, 165.0), REye coords (0.0, 0.0), timeStamp: 2017-03-02 11:31:14.716
LEye coords (218.0, 167.0), REye coords (0.0, 0.0), timeStamp: 2017-03-02 11:31:14.750
LEye coords (218.0, 167.0), REye coords (0.0, 0.0), timeStamp: 2017-03-02 11:31:14.783
LEye coords (240.0, 171.0), REye coords (321.0, 156.0), timeStamp: 2017-03-02 11:31:14.828
LEye coords (302.0, 181.0), REye coords (311.0, 175.0), timeStamp: 2017-03-02 11:31:14.861
LEye coords (300.0, 188.0), REye coords (317.0, 167.0), timeStamp: 2017-03-02 11:31:14.895
LEye coords (300.0, 184.0), REye coords (319.0, 165.0), timeStamp: 2017-03-02 11:31:14.939
LEye coords (299.0, 183.0), REye coords (319.0, 164.0), timeStamp: 2017-03-02 11:31:14.971
LEye coords (299.0, 183.0), REye coords (326.0, 154.0), timeStamp: 2017-03-02 11:31:15.005
LEye coords (299.0, 183.0), REye coords (320.0, 155.0), timeStamp: 2017-03-02 11:31:15.049
LEye coords (300.0, 182.0), REye coords (320.0, 154.0), timeStamp: 2017-03-02 11:31:15.082
LEye coords (300.0, 182.0), REye coords (321.0, 154.0), timeStamp: 2017-03-02 11:31:15.115
LEye coords (299.0, 182.0), REye coords (320.0, 155.0), timeStamp: 2017-03-02 11:31:15.159
LEye coords (299.0, 181.0), REye coords (321.0, 155.0), timeStamp: 2017-03-02 11:31:15.193
LEye coords (299.0, 181.0), REye coords (320.0, 155.0), timeStamp: 2017-03-02 11:31:15.227
LEye coords (298.0, 181.0), REye coords (321.0, 155.0), timeStamp: 2017-03-02 11:31:15.272
LEye coords (298.0, 181.0), REye coords (321.0, 155.0), timeStamp: 2017-03-02 11:31:15.305
LEye coords (298.0, 181.0), REye coords (320.0, 156.0), timeStamp: 2017-03-02 11:31:15.339
LEye coords (298.0, 181.0), REye coords (320.0, 156.0), timeStamp: 2017-03-02 11:31:15.383
