LEye coords (297.0, 182.0), REye coords (319.0, 157.0), timeStamp: 2017-03-02 11:31:15.494
LEye coords (297.0, 182.0), REye coords (320.0, 158.0), timeStamp: 2017-03-02 11:31:15.528
LEye coords (297.0, 182.0), REye coords (319.0, 158.0), timeStamp: 2017-03-02 11:31:15.562
LEye coords (297.0, 182.0), REye coords (320.0, 158.0), timeStamp: 2017-03-02 11:31:15.606
LEye coords (297.0, 182.0), REye coords (319.0, 159.0), timeStamp: 2017-03-02 11:31:15.639
LEye coords (297.0, 182.0), REye coords (320.0, 159.0), timeStamp: 2017-03-02 11:31:15.672
LEye coords (297.0, 182.0), REye coords (320.0, 159.0), timeStamp: 2017-03-02 11:31:15.716
LEye coords (297.0, 183.0), REye coords (320.0, 159.0), timeStamp: 2017-03-02 11:31:15.749
LEye coords (296.0, 183.0), REye coords (320.0, 159.0), timeStamp: 2017-03-02 11:31:15.783
LEye coords (241.0, 186.0), REye coords (258.0, 157.0), timeStamp: 2017-03-02 11:31:15.826
LEye coords (241.0, 184.0), REye coords (0.0, 0.0), timeStamp: 2017-03-02 11:31:15.860
LEye coords (224.0, 181.0), REye coords (226.0, 147.0), timeStamp: 2017-03-02 11:31:15.894
LEye coords (215.0, 179.0), REye coords (219.0, 137.0), timeStamp: 2017-03-02 11:31:15.937
LEye coords (210.0, 179.0), REye coords (214.0, 142.0), timeStamp: 2017-03-02 11:31:15.970
LEye coords (199.0, 171.0), REye coords (212.0, 141.0), timeStamp: 2017-03-02 11:31:16.005
LEye coords (199.0, 169.0), REye coords (210.0, 132.0), timeStamp: 2017-03-02 11:31:16.048
LEye coords (199.0, 170.0), REye coords (210.0, 128.0), timeStamp: 2017-03-02 11:31:16.082
LEye coords (200.0, 170.0), REye coords (212.0, 130.0), timeStamp: 2017-03-02 11:31:16.116
LEye coords (199.0, 170.0), REye coords (212.0, 131.0), timeStamp: 2017-03-02 11:31:16.160
LEye coords (206.0, 170.0), REye coords (220.0, 135.0), timeStamp: 2017-03-02 11:31:16.194
LEye coords (210.0, 171.0), REye coords (226.0, 137.0), timeStamp: 2017-03-02 11:31:16.228
LEye coords (213.0, 171.0), REye coords (229.0, 137.0), timeStamp: 2017-03-02 11:31:16.271
LEye coords (216.0, 172.0), REye coords (231.0, 141.0), timeStamp: 2017-03-02 11:31:16.305
LEye coords (218.0, 172.0), REye coords (232.0, 144.0), timeStamp: 2017-03-02 11:31:16.339
LEye coords (220.0, 173.0), REye coords (233.0, 147.0), timeStamp: 2017-03-02 11:31:16.373
LEye coords (221.0, 173.0), REye coords (234.0, 149.0), timeStamp: 2017-03-02 11:31:16.417
LEye coords (223.0, 173.0), REye coords (234.0, 151.0), timeStamp: 2017-03-02 11:31:16.451
LEye coords (225.0, 174.0), REye coords (236.0, 153.0), timeStamp: 2017-03-02 11:31:16.485
LEye coords (227.0, 174.0), REye coords (237.0, 155.0), timeStamp: 2017-03-02 11:31:16.529
LEye coords (229.0, 175.0), REye coords (239.0, 157.0), timeStamp: 2017-03-02 11:31:16.562
