LEye coords (272.0, 156.0), REye coords (276.0, 167.0), timeStamp: 2017-03-02 11:32:07.009
LEye coords (272.0, 156.0), REye coords (276.0, 167.0), timeStamp: 2017-03-02 11:32:07.042
LEye coords (271.0, 157.0), REye coords (276.0, 166.0), timeStamp: 2017-03-02 11:32:07.086
LEye coords (272.0, 158.0), REye coords (276.0, 166.0), timeStamp: 2017-03-02 11:32:07.120
LEye coords (272.0, 159.0), REye coords (276.0, 166.0), timeStamp: 2017-03-02 11:32:07.155
LEye coords (272.0, 159.0), REye coords (276.0, 166.0), timeStamp: 2017-03-02 11:32:07.189
LEye coords (272.0, 159.0), REye coords (276.0, 166.0), timeStamp: 2017-03-02 11:32:07.233
LEye coords (272.0, 160.0), REye coords (276.0, 166.0), timeStamp: 2017-03-02 11:32:07.269
LEye coords (272.0, 160.0), REye coords (276.0, 167.0), timeStamp: 2017-03-02 11:32:07.302
LEye coords (271.0, 161.0), REye coords (274.0, 168.0), timeStamp: 2017-03-02 11:32:07.346
LEye coords (213.0, 186.0), REye coords (215.0, 171.0), timeStamp: 2017-03-02 11:32:07.380
LEye coords (213.0, 184.0), REye coords (216.0, 176.0), timeStamp: 2017-03-02 11:32:07.413
LEye coords (213.0, 185.0), REye coords (216.0, 174.0), timeStamp: 2017-03-02 11:32:07.448
LEye coords (213.0, 185.0), REye coords (216.0, 174.0), timeStamp: 2017-03-02 11:32:07.492
LEye coords (213.0, 185.0), REye coords (217.0, 175.0), timeStamp: 2017-03-02 11:32:07.525
LEye coords (213.0, 185.0), REye coords (0.0, 0.0), timeStamp: 2017-03-02 11:32:07.569
LEye coords (215.0, 185.0), REye coords (217.0, 177.0), timeStamp: 2017-03-02 11:32:07.603
LEye coords (219.0, 185.0), REye coords (220.0, 179.0), timeStamp: 2017-03-02 11:32:07.636
LEye coords (222.0, 184.0), REye coords (223.0, 180.0), timeStamp: 2017-03-02 11:32:07.670
LEye coords (224.0, 185.0), REye coords (224.0, 181.0), timeStamp: 2017-03-02 11:32:07.714
LEye coords (226.0, 185.0), REye coords (226.0, 182.0), timeStamp: 2017-03-02 11:32:07.747
LEye coords (228.0, 185.0), REye coords (227.0, 182.0), timeStamp: 2017-03-02 11:32:07.791
