LEye coords (151.0, 192.0), REye coords (146.0, 176.0), timeStamp: 2017-03-02 11:32:10.781
LEye coords (151.0, 192.0), REye coords (146.0, 177.0), timeStamp: 2017-03-02 11:32:10.816
LEye coords (151.0, 192.0), REye coords (145.0, 179.0), timeStamp: 2017-03-02 11:32:10.860
LEye coords (150.0, 192.0), REye coords (145.0, 179.0), timeStamp: 2017-03-02 11:32:10.893
LEye coords (150.0, 192.0), REye coords (145.0, 180.0), timeStamp: 2017-03-02 11:32:10.936
LEye coords (150.0, 192.0), REye coords (145.0, 181.0), timeStamp: 2017-03-02 11:32:10.970
LEye coords (149.0, 193.0), REye coords (145.0, 181.0), timeStamp: 2017-03-02 11:32:11.003
LEye coords (149.0, 193.0), REye coords (145.0, 183.0), timeStamp: 2017-03-02 11:32:11.047
LEye coords (149.0, 193.0), REye coords (146.0, 183.0), timeStamp: 2017-03-02 11:32:11.081
LEye coords (150.0, 195.0), REye coords (147.0, 184.0), timeStamp: 2017-03-02 11:32:11.115
LEye coords (0.0, 0.0), REye coords (189.0, 229.0), timeStamp: 2017-03-02 11:32:11.159
LEye coords (181.0, 236.0), REye coords (188.0, 223.0), timeStamp: 2017-03-02 11:32:11.192
LEye coords (183.0, 234.0), REye coords (188.0, 222.0), timeStamp: 2017-03-02 11:32:11.226
LEye coords (183.0, 236.0), REye coords (188.0, 221.0), timeStamp: 2017-03-02 11:32:11.270
LEye coords (183.0, 237.0), REye coords (187.0, 224.0), timeStamp: 2017-03-02 11:32:11.303
LEye coords (189.0, 231.0), REye coords (191.0, 225.0), timeStamp: 2017-03-02 11:32:11.336
LEye coords (192.0, 225.0), REye coords (194.0, 224.0), timeStamp: 2017-03-02 11:32:11.380
LEye coords (194.0, 221.0), REye coords (195.0, 221.0), timeStamp: 2017-03-02 11:32:11.414
LEye coords (196.0, 219.0), REye coords (197.0, 219.0), timeStamp: 2017-03-02 11:32:11.448
LEye coords (198.0, 218.0), REye coords (198.0, 217.0), timeStamp: 2017-03-02 11:32:11.492
LEye coords (199.0, 216.0), REye coords (207.0, 198.0), timeStamp: 2017-03-02 11:32:11.525
LEye coords (199.0, 214.0), REye coords (202.0, 213.0), timeStamp: 2017-03-02 11:32:11.558
LEye coords (200.0, 211.0), REye coords (203.0, 213.0), timeStamp: 2017-03-02 11:32:11.602
LEye coords (202.0, 208.0), REye coords (207.0, 203.0), timeStamp: 2017-03-02 11:32:11.635
LEye coords (210.0, 184.0), REye coords (209.0, 194.0), timeStamp: 2017-03-02 11:32:11.668
LEye coords (212.0, 188.0), REye coords (211.0, 191.0), timeStamp: 2017-03-02 11:32:11.714
LEye coords (212.0, 189.0), REye coords (211.0, 188.0), timeStamp: 2017-03-02 11:32:11.747
LEye coords (213.0, 190.0), REye coords (212.0, 187.0), timeStamp: 2017-03-02 11:32:11.781
LEye coords (214.0, 190.0), REye coords (212.0, 187.0), timeStamp: 2017-03-02 11:32:11.825
LEye coords (214.0, 188.0), REye coords (213.0, 186.0), timeStamp: 2017-03-02 11:32:11.858
LEye coords (215.0, 188.0), REye coords (213.0, 185.0), timeStamp: 2017-03-02 11:32:11.891
LEye coords (214.0, 187.0), REye coords (213.0, 184.0), timeStamp: 2017-03-02 11:32:11.935
