LEye coords (293.0, 181.0), REye coords (296.0, 175.0), timeStamp: 2017-03-02 11:32:15.556
LEye coords (195.0, 241.0), REye coords (197.0, 235.0), timeStamp: 2017-03-02 11:32:15.590
LEye coords (195.0, 242.0), REye coords (197.0, 236.0), timeStamp: 2017-03-02 11:32:15.634
LEye coords (195.0, 242.0), REye coords (197.0, 237.0), timeStamp: 2017-03-02 11:32:15.668
LEye coords (196.0, 243.0), REye coords (196.0, 237.0), timeStamp: 2017-03-02 11:32:15.702
LEye coords (196.0, 243.0), REye coords (196.0, 238.0), timeStamp: 2017-03-02 11:32:15.745
LEye coords (196.0, 244.0), REye coords (197.0, 238.0), timeStamp: 2017-03-02 11:32:15.779
LEye coords (196.0, 244.0), REye coords (197.0, 238.0), timeStamp: 2017-03-02 11:32:15.813
LEye coords (196.0, 245.0), REye coords (197.0, 239.0), timeStamp: 2017-03-02 11:32:15.857
LEye coords (196.0, 245.0), REye coords (197.0, 240.0), timeStamp: 2017-03-02 11:32:15.891
LEye coords (196.0, 245.0), REye coords (196.0, 241.0), timeStamp: 2017-03-02 11:32:15.925
LEye coords (197.0, 245.0), REye coords (198.0, 240.0), timeStamp: 2017-03-02 11:32:15.968
LEye coords (198.0, 245.0), REye coords (199.0, 240.0), timeStamp: 2017-03-02 11:32:16.002
LEye coords (199.0, 245.0), REye coords (201.0, 240.0), timeStamp: 2017-03-02 11:32:16.034
LEye coords (200.0, 245.0), REye coords (203.0, 241.0), timeStamp: 2017-03-02 11:32:16.079
LEye coords (202.0, 245.0), REye coords (204.0, 241.0), timeStamp: 2017-03-02 11:32:16.113
LEye coords (203.0, 245.0), REye coords (206.0, 242.0), timeStamp: 2017-03-02 11:32:16.146
LEye coords (204.0, 245.0), REye coords (207.0, 242.0), timeStamp: 2017-03-02 11:32:16.189
LEye coords (205.0, 246.0), REye coords (208.0, 242.0), timeStamp: 2017-03-02 11:32:16.222
LEye coords (207.0, 245.0), REye coords (210.0, 241.0), timeStamp: 2017-03-02 11:32:16.257
LEye coords (208.0, 244.0), REye coords (212.0, 240.0), timeStamp: 2017-03-02 11:32:16.301
LEye coords (210.0, 244.0), REye coords (213.0, 239.0), timeStamp: 2017-03-02 11:32:16.334
LEye coords (211.0, 244.0), REye coords (215.0, 239.0), timeStamp: 2017-03-02 11:32:16.367
LEye coords (213.0, 243.0), REye coords (217.0, 238.0), timeStamp: 2017-03-02 11:32:16.412
