LEye coords (412.0, 149.0), REye coords (415.0, 169.0), timeStamp: 2017-03-02 11:33:12.669
LEye coords (413.0, 149.0), REye coords (415.0, 169.0), timeStamp: 2017-03-02 11:33:12.704
LEye coords (413.0, 149.0), REye coords (416.0, 169.0), timeStamp: 2017-03-02 11:33:12.737
LEye coords (413.0, 149.0), REye coords (416.0, 169.0), timeStamp: 2017-03-02 11:33:12.772
LEye coords (413.0, 150.0), REye coords (416.0, 169.0), timeStamp: 2017-03-02 11:33:12.817
LEye coords (325.0, 162.0), REye coords (348.0, 161.0), timeStamp: 2017-03-02 11:33:12.850
LEye coords (235.0, 177.0), REye coords (243.0, 182.0), timeStamp: 2017-03-02 11:33:12.884
LEye coords (238.0, 176.0), REye coords (243.0, 183.0), timeStamp: 2017-03-02 11:33:12.929
LEye coords (238.0, 175.0), REye coords (243.0, 184.0), timeStamp: 2017-03-02 11:33:12.962
LEye coords (238.0, 175.0), REye coords (243.0, 184.0), timeStamp: 2017-03-02 11:33:12.995
LEye coords (240.0, 176.0), REye coords (242.0, 190.0), timeStamp: 2017-03-02 11:33:13.039
LEye coords (234.0, 173.0), REye coords (243.0, 181.0), timeStamp: 2017-03-02 11:33:13.072
LEye coords (216.0, 161.0), REye coords (228.0, 172.0), timeStamp: 2017-03-02 11:33:13.105
LEye coords (210.0, 158.0), REye coords (222.0, 168.0), timeStamp: 2017-03-02 11:33:13.150
LEye coords (0.0, 0.0), REye coords (220.0, 165.0), timeStamp: 2017-03-02 11:33:13.183
LEye coords (207.0, 157.0), REye coords (217.0, 164.0), timeStamp: 2017-03-02 11:33:13.217
LEye coords (205.0, 155.0), REye coords (216.0, 162.0), timeStamp: 2017-03-02 11:33:13.261
LEye coords (203.0, 155.0), REye coords (215.0, 161.0), timeStamp: 2017-03-02 11:33:13.295
LEye coords (202.0, 154.0), REye coords (214.0, 159.0), timeStamp: 2017-03-02 11:33:13.328
LEye coords (201.0, 154.0), REye coords (213.0, 158.0), timeStamp: 2017-03-02 11:33:13.363
LEye coords (201.0, 153.0), REye coords (212.0, 156.0), timeStamp: 2017-03-02 11:33:13.407
LEye coords (194.0, 150.0), REye coords (212.0, 156.0), timeStamp: 2017-03-02 11:33:13.440
LEye coords (195.0, 145.0), REye coords (211.0, 156.0), timeStamp: 2017-03-02 11:33:13.484
LEye coords (196.0, 148.0), REye coords (211.0, 155.0), timeStamp: 2017-03-02 11:33:13.518
LEye coords (195.0, 149.0), REye coords (210.0, 151.0), timeStamp: 2017-03-02 11:33:13.553
LEye coords (200.0, 147.0), REye coords (226.0, 137.0), timeStamp: 2017-03-02 11:33:13.586
LEye coords (203.0, 146.0), REye coords (225.0, 133.0), timeStamp: 2017-03-02 11:33:13.631
LEye coords (205.0, 145.0), REye coords (225.0, 131.0), timeStamp: 2017-03-02 11:33:13.665
LEye coords (206.0, 145.0), REye coords (225.0, 133.0), timeStamp: 2017-03-02 11:33:13.699
