LEye coords (279.0, 153.0), REye coords (297.0, 160.0), timeStamp: 2017-03-02 11:33:18.214
LEye coords (278.0, 152.0), REye coords (296.0, 160.0), timeStamp: 2017-03-02 11:33:18.258
LEye coords (277.0, 152.0), REye coords (295.0, 159.0), timeStamp: 2017-03-02 11:33:18.293
LEye coords (276.0, 152.0), REye coords (294.0, 159.0), timeStamp: 2017-03-02 11:33:18.326
LEye coords (275.0, 152.0), REye coords (293.0, 159.0), timeStamp: 2017-03-02 11:33:18.371
LEye coords (275.0, 152.0), REye coords (292.0, 159.0), timeStamp: 2017-03-02 11:33:18.404
LEye coords (274.0, 151.0), REye coords (291.0, 159.0), timeStamp: 2017-03-02 11:33:18.438
LEye coords (273.0, 152.0), REye coords (291.0, 159.0), timeStamp: 2017-03-02 11:33:18.473
LEye coords (272.0, 151.0), REye coords (290.0, 159.0), timeStamp: 2017-03-02 11:33:18.518
LEye coords (272.0, 151.0), REye coords (289.0, 159.0), timeStamp: 2017-03-02 11:33:18.550
LEye coords (271.0, 152.0), REye coords (288.0, 160.0), timeStamp: 2017-03-02 11:33:18.584
LEye coords (269.0, 153.0), REye coords (286.0, 161.0), timeStamp: 2017-03-02 11:33:18.629
LEye coords (267.0, 154.0), REye coords (284.0, 163.0), timeStamp: 2017-03-02 11:33:18.662
LEye coords (265.0, 156.0), REye coords (283.0, 163.0), timeStamp: 2017-03-02 11:33:18.697
LEye coords (264.0, 158.0), REye coords (282.0, 163.0), timeStamp: 2017-03-02 11:33:18.730
LEye coords (262.0, 159.0), REye coords (281.0, 164.0), timeStamp: 2017-03-02 11:33:18.775
LEye coords (260.0, 159.0), REye coords (279.0, 164.0), timeStamp: 2017-03-02 11:33:18.808
LEye coords (258.0, 159.0), REye coords (277.0, 164.0), timeStamp: 2017-03-02 11:33:18.842
LEye coords (257.0, 159.0), REye coords (275.0, 164.0), timeStamp: 2017-03-02 11:33:18.886
LEye coords (255.0, 159.0), REye coords (273.0, 164.0), timeStamp: 2017-03-02 11:33:18.920
LEye coords (253.0, 159.0), REye coords (271.0, 164.0), timeStamp: 2017-03-02 11:33:18.955
LEye coords (252.0, 160.0), REye coords (269.0, 164.0), timeStamp: 2017-03-02 11:33:19.000
LEye coords (250.0, 160.0), REye coords (267.0, 164.0), timeStamp: 2017-03-02 11:33:19.034
LEye coords (249.0, 160.0), REye coords (266.0, 164.0), timeStamp: 2017-03-02 11:33:19.067
LEye coords (247.0, 160.0), REye coords (264.0, 164.0), timeStamp: 2017-03-02 11:33:19.101
LEye coords (246.0, 161.0), REye coords (263.0, 163.0), timeStamp: 2017-03-02 11:33:19.145
LEye coords (244.0, 161.0), REye coords (261.0, 163.0), timeStamp: 2017-03-02 11:33:19.178
