LEye coords (252.0, 165.0), REye coords (266.0, 169.0), timeStamp: 2017-03-02 11:33:20.294
LEye coords (254.0, 165.0), REye coords (267.0, 169.0), timeStamp: 2017-03-02 11:33:20.328
LEye coords (255.0, 166.0), REye coords (268.0, 169.0), timeStamp: 2017-03-02 11:33:20.362
LEye coords (256.0, 167.0), REye coords (269.0, 168.0), timeStamp: 2017-03-02 11:33:20.395
LEye coords (257.0, 167.0), REye coords (269.0, 169.0), timeStamp: 2017-03-02 11:33:20.440
LEye coords (258.0, 167.0), REye coords (269.0, 169.0), timeStamp: 2017-03-02 11:33:20.473
LEye coords (258.0, 168.0), REye coords (274.0, 172.0), timeStamp: 2017-03-02 11:33:20.506
LEye coords (259.0, 168.0), REye coords (272.0, 172.0), timeStamp: 2017-03-02 11:33:20.551
LEye coords (259.0, 167.0), REye coords (272.0, 172.0), timeStamp: 2017-03-02 11:33:20.584
LEye coords (259.0, 167.0), REye coords (271.0, 175.0), timeStamp: 2017-03-02 11:33:20.628
LEye coords (260.0, 167.0), REye coords (272.0, 175.0), timeStamp: 2017-03-02 11:33:20.661
LEye coords (215.0, 131.0), REye coords (233.0, 133.0), timeStamp: 2017-03-02 11:33:20.695
LEye coords (213.0, 126.0), REye coords (233.0, 140.0), timeStamp: 2017-03-02 11:33:20.729
LEye coords (215.0, 127.0), REye coords (232.0, 137.0), timeStamp: 2017-03-02 11:33:20.772
LEye coords (215.0, 129.0), REye coords (233.0, 137.0), timeStamp: 2017-03-02 11:33:20.805
LEye coords (216.0, 129.0), REye coords (233.0, 134.0), timeStamp: 2017-03-02 11:33:20.849
LEye coords (214.0, 126.0), REye coords (233.0, 131.0), timeStamp: 2017-03-02 11:33:20.882
LEye coords (215.0, 129.0), REye coords (231.0, 142.0), timeStamp: 2017-03-02 11:33:20.916
LEye coords (216.0, 129.0), REye coords (230.0, 138.0), timeStamp: 2017-03-02 11:33:20.960
LEye coords (221.0, 130.0), REye coords (234.0, 140.0), timeStamp: 2017-03-02 11:33:20.993
LEye coords (226.0, 130.0), REye coords (239.0, 139.0), timeStamp: 2017-03-02 11:33:21.026
LEye coords (228.0, 131.0), REye coords (242.0, 139.0), timeStamp: 2017-03-02 11:33:21.070
LEye coords (229.0, 131.0), REye coords (244.0, 139.0), timeStamp: 2017-03-02 11:33:21.104
LEye coords (230.0, 131.0), REye coords (245.0, 139.0), timeStamp: 2017-03-02 11:33:21.137
LEye coords (231.0, 131.0), REye coords (247.0, 138.0), timeStamp: 2017-03-02 11:33:21.181
LEye coords (231.0, 131.0), REye coords (248.0, 137.0), timeStamp: 2017-03-02 11:33:21.214
LEye coords (231.0, 131.0), REye coords (249.0, 136.0), timeStamp: 2017-03-02 11:33:21.249
