LEye coords (165.0, 150.0), REye coords (173.0, 163.0), timeStamp: 2017-03-02 11:33:23.987
LEye coords (165.0, 150.0), REye coords (173.0, 162.0), timeStamp: 2017-03-02 11:33:24.031
LEye coords (165.0, 150.0), REye coords (173.0, 163.0), timeStamp: 2017-03-02 11:33:24.065
LEye coords (165.0, 151.0), REye coords (173.0, 163.0), timeStamp: 2017-03-02 11:33:24.099
LEye coords (165.0, 152.0), REye coords (173.0, 163.0), timeStamp: 2017-03-02 11:33:24.144
LEye coords (165.0, 152.0), REye coords (173.0, 163.0), timeStamp: 2017-03-02 11:33:24.178
LEye coords (165.0, 153.0), REye coords (173.0, 163.0), timeStamp: 2017-03-02 11:33:24.212
LEye coords (165.0, 153.0), REye coords (173.0, 163.0), timeStamp: 2017-03-02 11:33:24.246
LEye coords (165.0, 154.0), REye coords (173.0, 164.0), timeStamp: 2017-03-02 11:33:24.289
LEye coords (165.0, 154.0), REye coords (173.0, 164.0), timeStamp: 2017-03-02 11:33:24.324
LEye coords (165.0, 155.0), REye coords (173.0, 165.0), timeStamp: 2017-03-02 11:33:24.358
LEye coords (165.0, 155.0), REye coords (172.0, 167.0), timeStamp: 2017-03-02 11:33:24.401
LEye coords (138.0, 186.0), REye coords (141.0, 173.0), timeStamp: 2017-03-02 11:33:24.434
LEye coords (126.0, 195.0), REye coords (128.0, 190.0), timeStamp: 2017-03-02 11:33:24.477
LEye coords (126.0, 194.0), REye coords (128.0, 186.0), timeStamp: 2017-03-02 11:33:24.512
LEye coords (126.0, 193.0), REye coords (127.0, 184.0), timeStamp: 2017-03-02 11:33:24.546
LEye coords (126.0, 193.0), REye coords (127.0, 185.0), timeStamp: 2017-03-02 11:33:24.580
LEye coords (127.0, 191.0), REye coords (127.0, 187.0), timeStamp: 2017-03-02 11:33:24.625
LEye coords (127.0, 188.0), REye coords (127.0, 181.0), timeStamp: 2017-03-02 11:33:24.658
LEye coords (127.0, 189.0), REye coords (126.0, 185.0), timeStamp: 2017-03-02 11:33:24.692
LEye coords (130.0, 186.0), REye coords (132.0, 186.0), timeStamp: 2017-03-02 11:33:24.726
LEye coords (132.0, 185.0), REye coords (134.0, 185.0), timeStamp: 2017-03-02 11:33:24.770
LEye coords (133.0, 184.0), REye coords (136.0, 185.0), timeStamp: 2017-03-02 11:33:24.803
