LEye coords (209.0, 130.0), REye coords (214.0, 135.0), timeStamp: 2017-03-02 11:35:28.756
LEye coords (217.0, 82.0), REye coords (0.0, 0.0), timeStamp: 2017-03-02 11:35:28.791
LEye coords (216.0, 82.0), REye coords (0.0, 0.0), timeStamp: 2017-03-02 11:35:28.824
LEye coords (216.0, 82.0), REye coords (0.0, 0.0), timeStamp: 2017-03-02 11:35:28.869
LEye coords (215.0, 82.0), REye coords (0.0, 0.0), timeStamp: 2017-03-02 11:35:28.903
LEye coords (214.0, 82.0), REye coords (0.0, 0.0), timeStamp: 2017-03-02 11:35:28.937
LEye coords (214.0, 83.0), REye coords (0.0, 0.0), timeStamp: 2017-03-02 11:35:28.971
LEye coords (213.0, 83.0), REye coords (0.0, 0.0), timeStamp: 2017-03-02 11:35:29.015
LEye coords (212.0, 83.0), REye coords (0.0, 0.0), timeStamp: 2017-03-02 11:35:29.049
LEye coords (222.0, 125.0), REye coords (230.0, 118.0), timeStamp: 2017-03-02 11:35:29.083
LEye coords (220.0, 123.0), REye coords (234.0, 119.0), timeStamp: 2017-03-02 11:35:29.128
LEye coords (220.0, 124.0), REye coords (233.0, 118.0), timeStamp: 2017-03-02 11:35:29.162
LEye coords (221.0, 124.0), REye coords (231.0, 118.0), timeStamp: 2017-03-02 11:35:29.195
LEye coords (221.0, 124.0), REye coords (230.0, 119.0), timeStamp: 2017-03-02 11:35:29.231
LEye coords (221.0, 123.0), REye coords (226.0, 120.0), timeStamp: 2017-03-02 11:35:29.273
LEye coords (222.0, 124.0), REye coords (224.0, 124.0), timeStamp: 2017-03-02 11:35:29.308
LEye coords (221.0, 123.0), REye coords (224.0, 123.0), timeStamp: 2017-03-02 11:35:29.340
LEye coords (216.0, 129.0), REye coords (221.0, 128.0), timeStamp: 2017-03-02 11:35:29.385
LEye coords (214.0, 132.0), REye coords (218.0, 131.0), timeStamp: 2017-03-02 11:35:29.419
LEye coords (213.0, 134.0), REye coords (217.0, 133.0), timeStamp: 2017-03-02 11:35:29.452
LEye coords (213.0, 135.0), REye coords (217.0, 134.0), timeStamp: 2017-03-02 11:35:29.496
LEye coords (212.0, 136.0), REye coords (216.0, 135.0), timeStamp: 2017-03-02 11:35:29.530
LEye coords (212.0, 137.0), REye coords (215.0, 136.0), timeStamp: 2017-03-02 11:35:29.564
LEye coords (211.0, 137.0), REye coords (215.0, 137.0), timeStamp: 2017-03-02 11:35:29.608
LEye coords (211.0, 138.0), REye coords (214.0, 137.0), timeStamp: 2017-03-02 11:35:29.643
LEye coords (211.0, 138.0), REye coords (214.0, 138.0), timeStamp: 2017-03-02 11:35:29.676
LEye coords (211.0, 139.0), REye coords (213.0, 139.0), timeStamp: 2017-03-02 11:35:29.721
LEye coords (211.0, 139.0), REye coords (213.0, 139.0), timeStamp: 2017-03-02 11:35:29.755
