LEye coords (0.0, 0.0), REye coords (282.0, 177.0), timeStamp: 2017-03-02 11:35:33.972
LEye coords (0.0, 0.0), REye coords (284.0, 178.0), timeStamp: 2017-03-02 11:35:34.006
LEye coords (262.0, 170.0), REye coords (286.0, 178.0), timeStamp: 2017-03-02 11:35:34.051
LEye coords (264.0, 170.0), REye coords (287.0, 178.0), timeStamp: 2017-03-02 11:35:34.084
LEye coords (267.0, 170.0), REye coords (289.0, 179.0), timeStamp: 2017-03-02 11:35:34.117
LEye coords (269.0, 170.0), REye coords (290.0, 179.0), timeStamp: 2017-03-02 11:35:34.162
LEye coords (270.0, 171.0), REye coords (290.0, 179.0), timeStamp: 2017-03-02 11:35:34.195
LEye coords (220.0, 180.0), REye coords (233.0, 181.0), timeStamp: 2017-03-02 11:35:34.230
LEye coords (221.0, 186.0), REye coords (229.0, 180.0), timeStamp: 2017-03-02 11:35:34.263
LEye coords (221.0, 185.0), REye coords (228.0, 181.0), timeStamp: 2017-03-02 11:35:34.307
LEye coords (221.0, 186.0), REye coords (227.0, 182.0), timeStamp: 2017-03-02 11:35:34.341
LEye coords (222.0, 185.0), REye coords (226.0, 183.0), timeStamp: 2017-03-02 11:35:34.375
LEye coords (222.0, 185.0), REye coords (227.0, 183.0), timeStamp: 2017-03-02 11:35:34.419
LEye coords (220.0, 185.0), REye coords (226.0, 183.0), timeStamp: 2017-03-02 11:35:34.452
LEye coords (221.0, 184.0), REye coords (226.0, 183.0), timeStamp: 2017-03-02 11:35:34.486
LEye coords (219.0, 184.0), REye coords (226.0, 183.0), timeStamp: 2017-03-02 11:35:34.531
LEye coords (218.0, 183.0), REye coords (226.0, 182.0), timeStamp: 2017-03-02 11:35:34.564
LEye coords (218.0, 182.0), REye coords (226.0, 182.0), timeStamp: 2017-03-02 11:35:34.598
LEye coords (217.0, 181.0), REye coords (226.0, 181.0), timeStamp: 2017-03-02 11:35:34.643
LEye coords (217.0, 181.0), REye coords (226.0, 181.0), timeStamp: 2017-03-02 11:35:34.677
LEye coords (217.0, 180.0), REye coords (226.0, 180.0), timeStamp: 2017-03-02 11:35:34.711
LEye coords (217.0, 180.0), REye coords (227.0, 179.0), timeStamp: 2017-03-02 11:35:34.745
LEye coords (217.0, 180.0), REye coords (226.0, 179.0), timeStamp: 2017-03-02 11:35:34.789
LEye coords (216.0, 179.0), REye coords (227.0, 179.0), timeStamp: 2017-03-02 11:35:34.823
