LEye coords (340.0, 240.0), REye coords (357.0, 230.0), timeStamp: 2017-03-02 11:35:37.853
LEye coords (340.0, 240.0), REye coords (357.0, 230.0), timeStamp: 2017-03-02 11:35:37.898
LEye coords (340.0, 240.0), REye coords (357.0, 230.0), timeStamp: 2017-03-02 11:35:37.931
LEye coords (341.0, 240.0), REye coords (358.0, 230.0), timeStamp: 2017-03-02 11:35:37.966
LEye coords (341.0, 239.0), REye coords (357.0, 229.0), timeStamp: 2017-03-02 11:35:38.010
LEye coords (288.0, 186.0), REye coords (310.0, 183.0), timeStamp: 2017-03-02 11:35:38.044
LEye coords (287.0, 190.0), REye coords (308.0, 178.0), timeStamp: 2017-03-02 11:35:38.078
LEye coords (258.0, 193.0), REye coords (282.0, 179.0), timeStamp: 2017-03-02 11:35:38.112
LEye coords (230.0, 200.0), REye coords (252.0, 188.0), timeStamp: 2017-03-02 11:35:38.156
LEye coords (215.0, 202.0), REye coords (234.0, 193.0), timeStamp: 2017-03-02 11:35:38.190
LEye coords (173.0, 211.0), REye coords (191.0, 211.0), timeStamp: 2017-03-02 11:35:38.224
LEye coords (174.0, 212.0), REye coords (194.0, 199.0), timeStamp: 2017-03-02 11:35:38.269
LEye coords (139.0, 213.0), REye coords (152.0, 201.0), timeStamp: 2017-03-02 11:35:38.303
LEye coords (126.0, 214.0), REye coords (138.0, 203.0), timeStamp: 2017-03-02 11:35:38.336
LEye coords (120.0, 216.0), REye coords (132.0, 202.0), timeStamp: 2017-03-02 11:35:38.380
LEye coords (120.0, 216.0), REye coords (113.0, 200.0), timeStamp: 2017-03-02 11:35:38.413
LEye coords (102.0, 215.0), REye coords (115.0, 207.0), timeStamp: 2017-03-02 11:35:38.446
LEye coords (100.0, 213.0), REye coords (115.0, 205.0), timeStamp: 2017-03-02 11:35:38.490
LEye coords (98.0, 213.0), REye coords (111.0, 203.0), timeStamp: 2017-03-02 11:35:38.523
LEye coords (95.0, 213.0), REye coords (106.0, 202.0), timeStamp: 2017-03-02 11:35:38.556
LEye coords (93.0, 213.0), REye coords (103.0, 201.0), timeStamp: 2017-03-02 11:35:38.601
LEye coords (91.0, 213.0), REye coords (100.0, 199.0), timeStamp: 2017-03-02 11:35:38.634
LEye coords (90.0, 213.0), REye coords (97.0, 198.0), timeStamp: 2017-03-02 11:35:38.667
LEye coords (89.0, 213.0), REye coords (96.0, 198.0), timeStamp: 2017-03-02 11:35:38.710
LEye coords (89.0, 214.0), REye coords (94.0, 197.0), timeStamp: 2017-03-02 11:35:38.744
LEye coords (88.0, 214.0), REye coords (92.0, 197.0), timeStamp: 2017-03-02 11:35:38.787
LEye coords (88.0, 214.0), REye coords (91.0, 197.0), timeStamp: 2017-03-02 11:35:38.821
