LEye coords (301.0, 225.0), REye coords (309.0, 199.0), timeStamp: 2017-03-02 11:37:17.861
LEye coords (302.0, 226.0), REye coords (311.0, 199.0), timeStamp: 2017-03-02 11:37:17.895
LEye coords (303.0, 227.0), REye coords (314.0, 199.0), timeStamp: 2017-03-02 11:37:17.939
LEye coords (304.0, 227.0), REye coords (316.0, 200.0), timeStamp: 2017-03-02 11:37:17.973
LEye coords (305.0, 228.0), REye coords (318.0, 200.0), timeStamp: 2017-03-02 11:37:18.007
LEye coords (306.0, 229.0), REye coords (320.0, 200.0), timeStamp: 2017-03-02 11:37:18.050
LEye coords (307.0, 229.0), REye coords (321.0, 201.0), timeStamp: 2017-03-02 11:37:18.085
LEye coords (268.0, 184.0), REye coords (273.0, 168.0), timeStamp: 2017-03-02 11:37:18.118
LEye coords (270.0, 186.0), REye coords (268.0, 164.0), timeStamp: 2017-03-02 11:37:18.152
LEye coords (268.0, 183.0), REye coords (268.0, 163.0), timeStamp: 2017-03-02 11:37:18.196
LEye coords (290.0, 176.0), REye coords (288.0, 164.0), timeStamp: 2017-03-02 11:37:18.231
LEye coords (309.0, 176.0), REye coords (307.0, 168.0), timeStamp: 2017-03-02 11:37:18.264
LEye coords (363.0, 176.0), REye coords (358.0, 174.0), timeStamp: 2017-03-02 11:37:18.308
LEye coords (360.0, 183.0), REye coords (358.0, 176.0), timeStamp: 2017-03-02 11:37:18.342
LEye coords (360.0, 183.0), REye coords (360.0, 175.0), timeStamp: 2017-03-02 11:37:18.376
LEye coords (361.0, 182.0), REye coords (360.0, 175.0), timeStamp: 2017-03-02 11:37:18.419
LEye coords (361.0, 183.0), REye coords (360.0, 175.0), timeStamp: 2017-03-02 11:37:18.453
LEye coords (359.0, 186.0), REye coords (359.0, 177.0), timeStamp: 2017-03-02 11:37:18.487
LEye coords (358.0, 189.0), REye coords (358.0, 179.0), timeStamp: 2017-03-02 11:37:18.531
LEye coords (357.0, 191.0), REye coords (357.0, 182.0), timeStamp: 2017-03-02 11:37:18.566
LEye coords (355.0, 193.0), REye coords (357.0, 183.0), timeStamp: 2017-03-02 11:37:18.598
LEye coords (354.0, 195.0), REye coords (357.0, 184.0), timeStamp: 2017-03-02 11:37:18.643
LEye coords (354.0, 197.0), REye coords (356.0, 185.0), timeStamp: 2017-03-02 11:37:18.676
LEye coords (352.0, 198.0), REye coords (356.0, 186.0), timeStamp: 2017-03-02 11:37:18.711
LEye coords (351.0, 200.0), REye coords (355.0, 186.0), timeStamp: 2017-03-02 11:37:18.744
