LEye coords (194.0, 179.0), REye coords (170.0, 157.0), timeStamp: 2017-03-02 11:37:21.264
LEye coords (193.0, 179.0), REye coords (171.0, 157.0), timeStamp: 2017-03-02 11:37:21.298
LEye coords (191.0, 178.0), REye coords (173.0, 156.0), timeStamp: 2017-03-02 11:37:21.376
LEye coords (192.0, 179.0), REye coords (172.0, 157.0), timeStamp: 2017-03-02 11:37:21.341
LEye coords (189.0, 177.0), REye coords (174.0, 156.0), timeStamp: 2017-03-02 11:37:21.453
LEye coords (190.0, 178.0), REye coords (174.0, 156.0), timeStamp: 2017-03-02 11:37:21.409
LEye coords (234.0, 192.0), REye coords (253.0, 196.0), timeStamp: 2017-03-02 11:37:54.358
LEye coords (233.0, 193.0), REye coords (251.0, 196.0), timeStamp: 2017-03-02 11:37:54.391
LEye coords (226.0, 182.0), REye coords (243.0, 181.0), timeStamp: 2017-03-02 11:37:54.424
LEye coords (222.0, 177.0), REye coords (239.0, 175.0), timeStamp: 2017-03-02 11:37:54.469
LEye coords (220.0, 174.0), REye coords (236.0, 171.0), timeStamp: 2017-03-02 11:37:54.503
LEye coords (219.0, 172.0), REye coords (235.0, 168.0), timeStamp: 2017-03-02 11:37:54.536
LEye coords (218.0, 171.0), REye coords (234.0, 166.0), timeStamp: 2017-03-02 11:37:54.571
LEye coords (217.0, 170.0), REye coords (233.0, 165.0), timeStamp: 2017-03-02 11:37:54.615
LEye coords (216.0, 170.0), REye coords (232.0, 164.0), timeStamp: 2017-03-02 11:37:54.650
LEye coords (216.0, 169.0), REye coords (231.0, 163.0), timeStamp: 2017-03-02 11:37:54.683
LEye coords (215.0, 169.0), REye coords (230.0, 163.0), timeStamp: 2017-03-02 11:37:54.728
LEye coords (216.0, 173.0), REye coords (230.0, 167.0), timeStamp: 2017-03-02 11:37:54.762
LEye coords (217.0, 177.0), REye coords (230.0, 170.0), timeStamp: 2017-03-02 11:37:54.795
LEye coords (218.0, 180.0), REye coords (231.0, 173.0), timeStamp: 2017-03-02 11:37:54.838
LEye coords (219.0, 183.0), REye coords (230.0, 176.0), timeStamp: 2017-03-02 11:37:54.871
LEye coords (219.0, 186.0), REye coords (230.0, 180.0), timeStamp: 2017-03-02 11:37:54.905
LEye coords (220.0, 189.0), REye coords (230.0, 183.0), timeStamp: 2017-03-02 11:37:54.948
LEye coords (220.0, 192.0), REye coords (229.0, 186.0), timeStamp: 2017-03-02 11:37:54.982
LEye coords (237.0, 239.0), REye coords (240.0, 249.0), timeStamp: 2017-03-02 11:37:55.016
LEye coords (239.0, 244.0), REye coords (238.0, 252.0), timeStamp: 2017-03-02 11:37:55.060
LEye coords (235.0, 244.0), REye coords (237.0, 252.0), timeStamp: 2017-03-02 11:37:55.093
LEye coords (0.0, 0.0), REye coords (237.0, 253.0), timeStamp: 2017-03-02 11:37:55.128
LEye coords (234.0, 242.0), REye coords (237.0, 253.0), timeStamp: 2017-03-02 11:37:55.172
