LEye coords (175.0, 200.0), REye coords (178.0, 207.0), timeStamp: 2017-03-02 11:38:00.788
LEye coords (282.0, 139.0), REye coords (288.0, 143.0), timeStamp: 2017-03-02 11:38:00.832
LEye coords (283.0, 139.0), REye coords (288.0, 143.0), timeStamp: 2017-03-02 11:38:00.866
LEye coords (282.0, 139.0), REye coords (289.0, 142.0), timeStamp: 2017-03-02 11:38:00.900
LEye coords (283.0, 140.0), REye coords (289.0, 141.0), timeStamp: 2017-03-02 11:38:00.944
LEye coords (283.0, 140.0), REye coords (290.0, 141.0), timeStamp: 2017-03-02 11:38:00.978
LEye coords (283.0, 140.0), REye coords (290.0, 140.0), timeStamp: 2017-03-02 11:38:01.012
LEye coords (283.0, 141.0), REye coords (291.0, 140.0), timeStamp: 2017-03-02 11:38:01.056
LEye coords (283.0, 141.0), REye coords (291.0, 140.0), timeStamp: 2017-03-02 11:38:01.089
LEye coords (163.0, 258.0), REye coords (161.0, 262.0), timeStamp: 2017-03-02 11:38:01.123
LEye coords (143.0, 270.0), REye coords (145.0, 273.0), timeStamp: 2017-03-02 11:38:01.168
LEye coords (145.0, 270.0), REye coords (141.0, 276.0), timeStamp: 2017-03-02 11:38:01.202
LEye coords (147.0, 269.0), REye coords (142.0, 276.0), timeStamp: 2017-03-02 11:38:01.234
LEye coords (148.0, 269.0), REye coords (142.0, 277.0), timeStamp: 2017-03-02 11:38:01.268
LEye coords (150.0, 268.0), REye coords (136.0, 281.0), timeStamp: 2017-03-02 11:38:01.313
LEye coords (148.0, 275.0), REye coords (142.0, 277.0), timeStamp: 2017-03-02 11:38:01.346
LEye coords (115.0, 275.0), REye coords (112.0, 279.0), timeStamp: 2017-03-02 11:38:01.390
LEye coords (104.0, 276.0), REye coords (101.0, 280.0), timeStamp: 2017-03-02 11:38:01.423
LEye coords (99.0, 277.0), REye coords (95.0, 281.0), timeStamp: 2017-03-02 11:38:01.457
LEye coords (83.0, 280.0), REye coords (78.0, 284.0), timeStamp: 2017-03-02 11:38:01.501
LEye coords (82.0, 280.0), REye coords (82.0, 285.0), timeStamp: 2017-03-02 11:38:01.534
LEye coords (82.0, 280.0), REye coords (79.0, 286.0), timeStamp: 2017-03-02 11:38:01.568
LEye coords (75.0, 278.0), REye coords (76.0, 283.0), timeStamp: 2017-03-02 11:38:01.602
LEye coords (72.0, 278.0), REye coords (73.0, 281.0), timeStamp: 2017-03-02 11:38:01.646
LEye coords (70.0, 277.0), REye coords (71.0, 280.0), timeStamp: 2017-03-02 11:38:01.680
LEye coords (69.0, 278.0), REye coords (70.0, 279.0), timeStamp: 2017-03-02 11:38:01.723
LEye coords (68.0, 278.0), REye coords (69.0, 278.0), timeStamp: 2017-03-02 11:38:01.758
LEye coords (68.0, 277.0), REye coords (68.0, 278.0), timeStamp: 2017-03-02 11:38:01.791
LEye coords (159.0, 202.0), REye coords (190.0, 216.0), timeStamp: 2017-03-02 11:38:01.835
LEye coords (259.0, 109.0), REye coords (281.0, 126.0), timeStamp: 2017-03-02 11:38:01.869
LEye coords (260.0, 110.0), REye coords (279.0, 126.0), timeStamp: 2017-03-02 11:38:01.902
LEye coords (262.0, 113.0), REye coords (278.0, 128.0), timeStamp: 2017-03-02 11:38:01.936
LEye coords (262.0, 118.0), REye coords (275.0, 129.0), timeStamp: 2017-03-02 11:38:01.980
LEye coords (268.0, 121.0), REye coords (278.0, 128.0), timeStamp: 2017-03-02 11:38:02.014
LEye coords (270.0, 127.0), REye coords (276.0, 135.0), timeStamp: 2017-03-02 11:38:02.047
LEye coords (269.0, 126.0), REye coords (274.0, 134.0), timeStamp: 2017-03-02 11:38:02.092
LEye coords (268.0, 127.0), REye coords (276.0, 134.0), timeStamp: 2017-03-02 11:38:02.127
LEye coords (287.0, 113.0), REye coords (294.0, 122.0), timeStamp: 2017-03-02 11:38:02.160
LEye coords (349.0, 70.0), REye coords (349.0, 85.0), timeStamp: 2017-03-02 11:38:02.205
LEye coords (349.0, 76.0), REye coords (348.0, 90.0), timeStamp: 2017-03-02 11:38:02.238
LEye coords (348.0, 76.0), REye coords (349.0, 90.0), timeStamp: 2017-03-02 11:38:02.272
LEye coords (361.0, 73.0), REye coords (361.0, 86.0), timeStamp: 2017-03-02 11:38:02.306
