LEye coords (156.0, 306.0), REye coords (157.0, 268.0), timeStamp: 2017-03-02 11:38:03.311
LEye coords (156.0, 306.0), REye coords (157.0, 270.0), timeStamp: 2017-03-02 11:38:03.345
LEye coords (156.0, 307.0), REye coords (156.0, 272.0), timeStamp: 2017-03-02 11:38:03.379
LEye coords (156.0, 306.0), REye coords (156.0, 275.0), timeStamp: 2017-03-02 11:38:03.422
LEye coords (155.0, 306.0), REye coords (156.0, 277.0), timeStamp: 2017-03-02 11:38:03.456
LEye coords (155.0, 306.0), REye coords (156.0, 278.0), timeStamp: 2017-03-02 11:38:03.490
LEye coords (155.0, 306.0), REye coords (155.0, 280.0), timeStamp: 2017-03-02 11:38:03.533
LEye coords (155.0, 307.0), REye coords (155.0, 281.0), timeStamp: 2017-03-02 11:38:03.567
LEye coords (155.0, 307.0), REye coords (155.0, 282.0), timeStamp: 2017-03-02 11:38:03.611
LEye coords (142.0, 199.0), REye coords (148.0, 216.0), timeStamp: 2017-03-02 11:38:03.644
LEye coords (142.0, 208.0), REye coords (154.0, 198.0), timeStamp: 2017-03-02 11:38:03.678
LEye coords (141.0, 203.0), REye coords (154.0, 198.0), timeStamp: 2017-03-02 11:38:03.712
LEye coords (141.0, 202.0), REye coords (153.0, 200.0), timeStamp: 2017-03-02 11:38:03.756
LEye coords (141.0, 204.0), REye coords (154.0, 201.0), timeStamp: 2017-03-02 11:38:03.791
LEye coords (143.0, 216.0), REye coords (158.0, 194.0), timeStamp: 2017-03-02 11:38:03.824
LEye coords (143.0, 219.0), REye coords (156.0, 201.0), timeStamp: 2017-03-02 11:38:03.868
LEye coords (144.0, 218.0), REye coords (157.0, 201.0), timeStamp: 2017-03-02 11:38:03.901
LEye coords (144.0, 217.0), REye coords (157.0, 201.0), timeStamp: 2017-03-02 11:38:03.934
