LEye coords (257.0, 154.0), REye coords (272.0, 156.0), timeStamp: 2017-03-02 11:38:08.532
LEye coords (259.0, 131.0), REye coords (274.0, 133.0), timeStamp: 2017-03-02 11:38:08.676
LEye coords (258.0, 133.0), REye coords (272.0, 135.0), timeStamp: 2017-03-02 11:38:08.565
LEye coords (259.0, 132.0), REye coords (273.0, 134.0), timeStamp: 2017-03-02 11:38:08.599
LEye coords (259.0, 131.0), REye coords (273.0, 134.0), timeStamp: 2017-03-02 11:38:08.642
LEye coords (169.0, 119.0), REye coords (172.0, 109.0), timeStamp: 2017-03-02 11:38:59.977
LEye coords (169.0, 120.0), REye coords (172.0, 110.0), timeStamp: 2017-03-02 11:39:00.011
LEye coords (169.0, 121.0), REye coords (171.0, 109.0), timeStamp: 2017-03-02 11:39:00.046
LEye coords (171.0, 121.0), REye coords (171.0, 112.0), timeStamp: 2017-03-02 11:39:00.080
LEye coords (170.0, 119.0), REye coords (173.0, 112.0), timeStamp: 2017-03-02 11:39:00.125
LEye coords (171.0, 121.0), REye coords (174.0, 113.0), timeStamp: 2017-03-02 11:39:00.158
LEye coords (171.0, 121.0), REye coords (176.0, 112.0), timeStamp: 2017-03-02 11:39:00.191
LEye coords (171.0, 122.0), REye coords (177.0, 111.0), timeStamp: 2017-03-02 11:39:00.235
LEye coords (171.0, 122.0), REye coords (178.0, 111.0), timeStamp: 2017-03-02 11:39:00.268
LEye coords (274.0, 168.0), REye coords (279.0, 161.0), timeStamp: 2017-03-02 11:39:00.302
LEye coords (274.0, 172.0), REye coords (278.0, 167.0), timeStamp: 2017-03-02 11:39:00.347
LEye coords (275.0, 172.0), REye coords (276.0, 168.0), timeStamp: 2017-03-02 11:39:00.380
LEye coords (275.0, 173.0), REye coords (276.0, 169.0), timeStamp: 2017-03-02 11:39:00.414
LEye coords (277.0, 173.0), REye coords (276.0, 168.0), timeStamp: 2017-03-02 11:39:00.459
LEye coords (279.0, 180.0), REye coords (278.0, 168.0), timeStamp: 2017-03-02 11:39:00.492
LEye coords (338.0, 178.0), REye coords (332.0, 168.0), timeStamp: 2017-03-02 11:39:00.526
LEye coords (337.0, 180.0), REye coords (335.0, 169.0), timeStamp: 2017-03-02 11:39:00.570
LEye coords (338.0, 180.0), REye coords (330.0, 172.0), timeStamp: 2017-03-02 11:39:00.603
LEye coords (338.0, 181.0), REye coords (332.0, 171.0), timeStamp: 2017-03-02 11:39:00.637
LEye coords (339.0, 186.0), REye coords (334.0, 175.0), timeStamp: 2017-03-02 11:39:00.682
LEye coords (340.0, 185.0), REye coords (336.0, 171.0), timeStamp: 2017-03-02 11:39:00.716
LEye coords (340.0, 185.0), REye coords (336.0, 170.0), timeStamp: 2017-03-02 11:39:00.750
LEye coords (340.0, 186.0), REye coords (336.0, 170.0), timeStamp: 2017-03-02 11:39:00.783
LEye coords (341.0, 186.0), REye coords (335.0, 171.0), timeStamp: 2017-03-02 11:39:00.827
LEye coords (341.0, 185.0), REye coords (335.0, 172.0), timeStamp: 2017-03-02 11:39:00.861
LEye coords (339.0, 186.0), REye coords (333.0, 171.0), timeStamp: 2017-03-02 11:39:00.895
LEye coords (0.0, 0.0), REye coords (328.0, 172.0), timeStamp: 2017-03-02 11:39:00.939
LEye coords (333.0, 185.0), REye coords (324.0, 172.0), timeStamp: 2017-03-02 11:39:00.974
LEye coords (329.0, 185.0), REye coords (320.0, 173.0), timeStamp: 2017-03-02 11:39:01.006
LEye coords (264.0, 183.0), REye coords (265.0, 168.0), timeStamp: 2017-03-02 11:39:01.050
LEye coords (196.0, 159.0), REye coords (198.0, 140.0), timeStamp: 2017-03-02 11:39:01.083
LEye coords (198.0, 163.0), REye coords (198.0, 143.0), timeStamp: 2017-03-02 11:39:01.117
LEye coords (199.0, 164.0), REye coords (198.0, 143.0), timeStamp: 2017-03-02 11:39:01.160
LEye coords (198.0, 164.0), REye coords (198.0, 143.0), timeStamp: 2017-03-02 11:39:01.193
LEye coords (195.0, 157.0), REye coords (198.0, 146.0), timeStamp: 2017-03-02 11:39:01.226
LEye coords (193.0, 165.0), REye coords (193.0, 149.0), timeStamp: 2017-03-02 11:39:01.271
LEye coords (183.0, 168.0), REye coords (180.0, 151.0), timeStamp: 2017-03-02 11:39:01.304
LEye coords (179.0, 171.0), REye coords (175.0, 152.0), timeStamp: 2017-03-02 11:39:01.338
LEye coords (176.0, 170.0), REye coords (172.0, 154.0), timeStamp: 2017-03-02 11:39:01.381
LEye coords (175.0, 170.0), REye coords (170.0, 155.0), timeStamp: 2017-03-02 11:39:01.415
LEye coords (175.0, 169.0), REye coords (169.0, 156.0), timeStamp: 2017-03-02 11:39:01.449
LEye coords (174.0, 169.0), REye coords (168.0, 156.0), timeStamp: 2017-03-02 11:39:01.493
