LEye coords (287.0, 166.0), REye coords (284.0, 175.0), timeStamp: 2017-03-02 11:39:07.823
LEye coords (287.0, 167.0), REye coords (284.0, 175.0), timeStamp: 2017-03-02 11:39:07.856
LEye coords (287.0, 168.0), REye coords (285.0, 175.0), timeStamp: 2017-03-02 11:39:07.889
LEye coords (287.0, 168.0), REye coords (285.0, 175.0), timeStamp: 2017-03-02 11:39:07.934
LEye coords (287.0, 168.0), REye coords (286.0, 175.0), timeStamp: 2017-03-02 11:39:07.968
LEye coords (287.0, 168.0), REye coords (286.0, 175.0), timeStamp: 2017-03-02 11:39:08.002
LEye coords (287.0, 168.0), REye coords (286.0, 176.0), timeStamp: 2017-03-02 11:39:08.046
LEye coords (287.0, 169.0), REye coords (286.0, 176.0), timeStamp: 2017-03-02 11:39:08.080
LEye coords (285.0, 168.0), REye coords (284.0, 176.0), timeStamp: 2017-03-02 11:39:08.114
LEye coords (165.0, 153.0), REye coords (170.0, 136.0), timeStamp: 2017-03-02 11:39:08.148
LEye coords (171.0, 152.0), REye coords (168.0, 134.0), timeStamp: 2017-03-02 11:39:08.192
LEye coords (171.0, 154.0), REye coords (169.0, 136.0), timeStamp: 2017-03-02 11:39:08.226
LEye coords (170.0, 155.0), REye coords (168.0, 137.0), timeStamp: 2017-03-02 11:39:08.258
LEye coords (169.0, 155.0), REye coords (168.0, 137.0), timeStamp: 2017-03-02 11:39:08.303
LEye coords (154.0, 155.0), REye coords (169.0, 136.0), timeStamp: 2017-03-02 11:39:08.336
LEye coords (154.0, 143.0), REye coords (159.0, 135.0), timeStamp: 2017-03-02 11:39:08.369
LEye coords (153.0, 144.0), REye coords (157.0, 138.0), timeStamp: 2017-03-02 11:39:08.413
LEye coords (153.0, 145.0), REye coords (159.0, 135.0), timeStamp: 2017-03-02 11:39:08.447
LEye coords (153.0, 144.0), REye coords (159.0, 132.0), timeStamp: 2017-03-02 11:39:08.490
LEye coords (153.0, 146.0), REye coords (159.0, 131.0), timeStamp: 2017-03-02 11:39:08.524
LEye coords (153.0, 146.0), REye coords (158.0, 131.0), timeStamp: 2017-03-02 11:39:08.558
LEye coords (154.0, 146.0), REye coords (158.0, 130.0), timeStamp: 2017-03-02 11:39:08.592
LEye coords (154.0, 146.0), REye coords (158.0, 130.0), timeStamp: 2017-03-02 11:39:08.637
LEye coords (154.0, 146.0), REye coords (158.0, 131.0), timeStamp: 2017-03-02 11:39:08.671
LEye coords (156.0, 143.0), REye coords (160.0, 128.0), timeStamp: 2017-03-02 11:39:08.705
LEye coords (158.0, 141.0), REye coords (161.0, 126.0), timeStamp: 2017-03-02 11:39:08.748
LEye coords (160.0, 139.0), REye coords (163.0, 125.0), timeStamp: 2017-03-02 11:39:08.781
LEye coords (162.0, 137.0), REye coords (164.0, 123.0), timeStamp: 2017-03-02 11:39:08.815
LEye coords (163.0, 135.0), REye coords (165.0, 122.0), timeStamp: 2017-03-02 11:39:08.858
LEye coords (164.0, 133.0), REye coords (165.0, 121.0), timeStamp: 2017-03-02 11:39:08.893
LEye coords (165.0, 132.0), REye coords (166.0, 120.0), timeStamp: 2017-03-02 11:39:08.927
LEye coords (0.0, 0.0), REye coords (167.0, 118.0), timeStamp: 2017-03-02 11:39:08.971
LEye coords (166.0, 128.0), REye coords (167.0, 115.0), timeStamp: 2017-03-02 11:39:09.005
LEye coords (166.0, 125.0), REye coords (168.0, 114.0), timeStamp: 2017-03-02 11:39:09.038
LEye coords (167.0, 123.0), REye coords (168.0, 112.0), timeStamp: 2017-03-02 11:39:09.082
LEye coords (168.0, 120.0), REye coords (169.0, 110.0), timeStamp: 2017-03-02 11:39:09.116
LEye coords (169.0, 118.0), REye coords (169.0, 109.0), timeStamp: 2017-03-02 11:39:09.150
