LEye coords (302.0, 194.0), REye coords (300.0, 185.0), timeStamp: 2017-03-02 11:39:11.263
LEye coords (302.0, 194.0), REye coords (300.0, 185.0), timeStamp: 2017-03-02 11:39:11.297
LEye coords (302.0, 194.0), REye coords (300.0, 185.0), timeStamp: 2017-03-02 11:39:11.330
LEye coords (302.0, 195.0), REye coords (300.0, 186.0), timeStamp: 2017-03-02 11:39:11.376
LEye coords (302.0, 194.0), REye coords (300.0, 185.0), timeStamp: 2017-03-02 11:39:11.410
LEye coords (302.0, 195.0), REye coords (300.0, 186.0), timeStamp: 2017-03-02 11:39:11.443
LEye coords (302.0, 195.0), REye coords (300.0, 186.0), timeStamp: 2017-03-02 11:39:11.488
LEye coords (300.0, 193.0), REye coords (299.0, 184.0), timeStamp: 2017-03-02 11:39:11.522
LEye coords (259.0, 111.0), REye coords (254.0, 109.0), timeStamp: 2017-03-02 11:39:11.556
LEye coords (262.0, 110.0), REye coords (258.0, 117.0), timeStamp: 2017-03-02 11:39:11.590
LEye coords (262.0, 110.0), REye coords (258.0, 116.0), timeStamp: 2017-03-02 11:39:11.634
LEye coords (262.0, 109.0), REye coords (258.0, 115.0), timeStamp: 2017-03-02 11:39:11.666
LEye coords (263.0, 110.0), REye coords (257.0, 115.0), timeStamp: 2017-03-02 11:39:11.701
LEye coords (264.0, 109.0), REye coords (259.0, 115.0), timeStamp: 2017-03-02 11:39:11.745
LEye coords (266.0, 108.0), REye coords (262.0, 114.0), timeStamp: 2017-03-02 11:39:11.778
LEye coords (268.0, 107.0), REye coords (264.0, 113.0), timeStamp: 2017-03-02 11:39:11.811
LEye coords (277.0, 103.0), REye coords (265.0, 113.0), timeStamp: 2017-03-02 11:39:11.855
LEye coords (277.0, 101.0), REye coords (266.0, 112.0), timeStamp: 2017-03-02 11:39:11.888
LEye coords (277.0, 101.0), REye coords (267.0, 112.0), timeStamp: 2017-03-02 11:39:11.932
LEye coords (277.0, 101.0), REye coords (277.0, 106.0), timeStamp: 2017-03-02 11:39:11.966
LEye coords (277.0, 101.0), REye coords (278.0, 107.0), timeStamp: 2017-03-02 11:39:12.000
LEye coords (277.0, 100.0), REye coords (278.0, 107.0), timeStamp: 2017-03-02 11:39:12.033
LEye coords (278.0, 100.0), REye coords (283.0, 104.0), timeStamp: 2017-03-02 11:39:12.077
