LEye coords (171.0, 110.0), REye coords (171.0, 104.0), timeStamp: 2017-03-02 11:39:09.263
LEye coords (151.0, 138.0), REye coords (151.0, 133.0), timeStamp: 2017-03-02 11:39:09.296
LEye coords (152.0, 135.0), REye coords (151.0, 131.0), timeStamp: 2017-03-02 11:39:09.340
LEye coords (152.0, 133.0), REye coords (152.0, 130.0), timeStamp: 2017-03-02 11:39:09.375
LEye coords (153.0, 130.0), REye coords (152.0, 128.0), timeStamp: 2017-03-02 11:39:09.408
LEye coords (153.0, 128.0), REye coords (153.0, 127.0), timeStamp: 2017-03-02 11:39:09.453
LEye coords (154.0, 125.0), REye coords (153.0, 126.0), timeStamp: 2017-03-02 11:39:09.487
LEye coords (164.0, 171.0), REye coords (154.0, 127.0), timeStamp: 2017-03-02 11:39:09.520
LEye coords (177.0, 263.0), REye coords (179.0, 243.0), timeStamp: 2017-03-02 11:39:09.554
LEye coords (179.0, 262.0), REye coords (179.0, 245.0), timeStamp: 2017-03-02 11:39:09.598
LEye coords (180.0, 262.0), REye coords (178.0, 245.0), timeStamp: 2017-03-02 11:39:09.632
LEye coords (180.0, 261.0), REye coords (178.0, 245.0), timeStamp: 2017-03-02 11:39:09.666
LEye coords (174.0, 233.0), REye coords (178.0, 238.0), timeStamp: 2017-03-02 11:39:09.710
LEye coords (169.0, 175.0), REye coords (175.0, 169.0), timeStamp: 2017-03-02 11:39:09.744
LEye coords (168.0, 175.0), REye coords (171.0, 183.0), timeStamp: 2017-03-02 11:39:09.777
LEye coords (168.0, 174.0), REye coords (170.0, 182.0), timeStamp: 2017-03-02 11:39:09.821
LEye coords (169.0, 174.0), REye coords (170.0, 182.0), timeStamp: 2017-03-02 11:39:09.855
LEye coords (165.0, 178.0), REye coords (169.0, 181.0), timeStamp: 2017-03-02 11:39:09.887
LEye coords (167.0, 174.0), REye coords (169.0, 181.0), timeStamp: 2017-03-02 11:39:09.931
LEye coords (167.0, 178.0), REye coords (168.0, 182.0), timeStamp: 2017-03-02 11:39:09.965
LEye coords (166.0, 176.0), REye coords (168.0, 182.0), timeStamp: 2017-03-02 11:39:09.998
LEye coords (165.0, 188.0), REye coords (167.0, 186.0), timeStamp: 2017-03-02 11:39:10.043
LEye coords (163.0, 195.0), REye coords (166.0, 189.0), timeStamp: 2017-03-02 11:39:10.077
LEye coords (163.0, 201.0), REye coords (166.0, 191.0), timeStamp: 2017-03-02 11:39:10.110
LEye coords (162.0, 206.0), REye coords (165.0, 193.0), timeStamp: 2017-03-02 11:39:10.154
LEye coords (162.0, 209.0), REye coords (165.0, 195.0), timeStamp: 2017-03-02 11:39:10.188
LEye coords (163.0, 213.0), REye coords (165.0, 197.0), timeStamp: 2017-03-02 11:39:10.221
