LEye coords (282.0, 88.0), REye coords (288.0, 90.0), timeStamp: 2017-03-02 11:39:12.189
LEye coords (283.0, 88.0), REye coords (288.0, 90.0), timeStamp: 2017-03-02 11:39:12.222
LEye coords (283.0, 88.0), REye coords (288.0, 89.0), timeStamp: 2017-03-02 11:39:12.266
LEye coords (284.0, 88.0), REye coords (289.0, 90.0), timeStamp: 2017-03-02 11:39:12.299
LEye coords (284.0, 88.0), REye coords (289.0, 90.0), timeStamp: 2017-03-02 11:39:12.332
LEye coords (284.0, 89.0), REye coords (290.0, 90.0), timeStamp: 2017-03-02 11:39:12.376
LEye coords (285.0, 89.0), REye coords (289.0, 90.0), timeStamp: 2017-03-02 11:39:12.411
LEye coords (285.0, 89.0), REye coords (289.0, 90.0), timeStamp: 2017-03-02 11:39:12.445
LEye coords (285.0, 90.0), REye coords (288.0, 91.0), timeStamp: 2017-03-02 11:39:12.478
LEye coords (263.0, 211.0), REye coords (259.0, 194.0), timeStamp: 2017-03-02 11:39:12.522
LEye coords (259.0, 212.0), REye coords (260.0, 195.0), timeStamp: 2017-03-02 11:39:12.556
LEye coords (261.0, 210.0), REye coords (260.0, 192.0), timeStamp: 2017-03-02 11:39:12.589
LEye coords (230.0, 197.0), REye coords (230.0, 178.0), timeStamp: 2017-03-02 11:39:12.633
LEye coords (0.0, 0.0), REye coords (210.0, 169.0), timeStamp: 2017-03-02 11:39:12.666
LEye coords (0.0, 0.0), REye coords (149.0, 149.0), timeStamp: 2017-03-02 11:39:12.700
LEye coords (195.0, 192.0), REye coords (93.0, 161.0), timeStamp: 2017-03-02 11:39:12.744
LEye coords (92.0, 178.0), REye coords (92.0, 160.0), timeStamp: 2017-03-02 11:39:12.778
LEye coords (93.0, 176.0), REye coords (93.0, 161.0), timeStamp: 2017-03-02 11:39:12.812
LEye coords (92.0, 177.0), REye coords (92.0, 162.0), timeStamp: 2017-03-02 11:39:12.857
LEye coords (91.0, 177.0), REye coords (89.0, 167.0), timeStamp: 2017-03-02 11:39:12.891
LEye coords (91.0, 178.0), REye coords (90.0, 161.0), timeStamp: 2017-03-02 11:39:12.924
LEye coords (90.0, 178.0), REye coords (90.0, 162.0), timeStamp: 2017-03-02 11:39:12.968
LEye coords (0.0, 0.0), REye coords (84.0, 167.0), timeStamp: 2017-03-02 11:39:13.002
LEye coords (0.0, 0.0), REye coords (82.0, 169.0), timeStamp: 2017-03-02 11:39:13.035
LEye coords (0.0, 0.0), REye coords (80.0, 171.0), timeStamp: 2017-03-02 11:39:13.080
LEye coords (0.0, 0.0), REye coords (78.0, 171.0), timeStamp: 2017-03-02 11:39:13.114
