LEye coords (55.0, 116.0), REye coords (48.0, 112.0), timeStamp: 2017-03-02 11:39:13.227
LEye coords (54.0, 116.0), REye coords (48.0, 112.0), timeStamp: 2017-03-02 11:39:13.260
LEye coords (53.0, 117.0), REye coords (48.0, 113.0), timeStamp: 2017-03-02 11:39:13.293
LEye coords (52.0, 117.0), REye coords (47.0, 113.0), timeStamp: 2017-03-02 11:39:13.338
LEye coords (108.0, 98.0), REye coords (113.0, 90.0), timeStamp: 2017-03-02 11:39:13.371
LEye coords (153.0, 95.0), REye coords (154.0, 93.0), timeStamp: 2017-03-02 11:39:13.405
LEye coords (151.0, 95.0), REye coords (155.0, 93.0), timeStamp: 2017-03-02 11:39:13.451
LEye coords (152.0, 94.0), REye coords (156.0, 93.0), timeStamp: 2017-03-02 11:39:13.484
LEye coords (152.0, 93.0), REye coords (155.0, 93.0), timeStamp: 2017-03-02 11:39:13.517
LEye coords (152.0, 97.0), REye coords (155.0, 92.0), timeStamp: 2017-03-02 11:39:13.561
LEye coords (150.0, 102.0), REye coords (155.0, 93.0), timeStamp: 2017-03-02 11:39:13.595
LEye coords (151.0, 100.0), REye coords (155.0, 95.0), timeStamp: 2017-03-02 11:39:13.629
LEye coords (152.0, 100.0), REye coords (155.0, 95.0), timeStamp: 2017-03-02 11:39:13.663
LEye coords (154.0, 100.0), REye coords (155.0, 95.0), timeStamp: 2017-03-02 11:39:13.706
LEye coords (154.0, 100.0), REye coords (155.0, 95.0), timeStamp: 2017-03-02 11:39:13.741
LEye coords (154.0, 100.0), REye coords (156.0, 95.0), timeStamp: 2017-03-02 11:39:13.774
LEye coords (155.0, 99.0), REye coords (157.0, 94.0), timeStamp: 2017-03-02 11:39:13.818
LEye coords (157.0, 96.0), REye coords (158.0, 94.0), timeStamp: 2017-03-02 11:39:13.852
LEye coords (158.0, 95.0), REye coords (159.0, 93.0), timeStamp: 2017-03-02 11:39:13.886
LEye coords (159.0, 94.0), REye coords (160.0, 93.0), timeStamp: 2017-03-02 11:39:13.930
LEye coords (160.0, 93.0), REye coords (161.0, 93.0), timeStamp: 2017-03-02 11:39:13.963
LEye coords (160.0, 93.0), REye coords (161.0, 92.0), timeStamp: 2017-03-02 11:39:13.997
LEye coords (161.0, 93.0), REye coords (162.0, 92.0), timeStamp: 2017-03-02 11:39:14.041
