LEye coords (222.0, 187.0), REye coords (234.0, 193.0), timeStamp: 2017-03-02 11:39:50.753
LEye coords (160.0, 82.0), REye coords (169.0, 85.0), timeStamp: 2017-03-02 11:39:50.787
LEye coords (160.0, 82.0), REye coords (169.0, 85.0), timeStamp: 2017-03-02 11:39:50.821
LEye coords (160.0, 82.0), REye coords (169.0, 85.0), timeStamp: 2017-03-02 11:39:50.865
LEye coords (160.0, 82.0), REye coords (169.0, 84.0), timeStamp: 2017-03-02 11:39:50.900
LEye coords (161.0, 82.0), REye coords (169.0, 84.0), timeStamp: 2017-03-02 11:39:50.933
LEye coords (161.0, 82.0), REye coords (169.0, 84.0), timeStamp: 2017-03-02 11:39:50.977
LEye coords (161.0, 82.0), REye coords (169.0, 84.0), timeStamp: 2017-03-02 11:39:51.010
LEye coords (161.0, 82.0), REye coords (170.0, 84.0), timeStamp: 2017-03-02 11:39:51.043
LEye coords (161.0, 82.0), REye coords (170.0, 84.0), timeStamp: 2017-03-02 11:39:51.086
LEye coords (161.0, 82.0), REye coords (170.0, 84.0), timeStamp: 2017-03-02 11:39:51.121
LEye coords (161.0, 82.0), REye coords (169.0, 84.0), timeStamp: 2017-03-02 11:39:51.154
LEye coords (160.0, 82.0), REye coords (146.0, 70.0), timeStamp: 2017-03-02 11:39:51.198
LEye coords (158.0, 81.0), REye coords (142.0, 77.0), timeStamp: 2017-03-02 11:39:51.232
LEye coords (157.0, 81.0), REye coords (144.0, 75.0), timeStamp: 2017-03-02 11:39:51.266
LEye coords (155.0, 80.0), REye coords (145.0, 73.0), timeStamp: 2017-03-02 11:39:51.311
LEye coords (154.0, 80.0), REye coords (146.0, 73.0), timeStamp: 2017-03-02 11:39:51.344
LEye coords (153.0, 80.0), REye coords (146.0, 72.0), timeStamp: 2017-03-02 11:39:51.377
LEye coords (151.0, 79.0), REye coords (146.0, 73.0), timeStamp: 2017-03-02 11:39:51.421
LEye coords (150.0, 79.0), REye coords (146.0, 73.0), timeStamp: 2017-03-02 11:39:51.454
LEye coords (149.0, 79.0), REye coords (146.0, 73.0), timeStamp: 2017-03-02 11:39:51.487
LEye coords (148.0, 78.0), REye coords (0.0, 0.0), timeStamp: 2017-03-02 11:39:51.530
LEye coords (148.0, 77.0), REye coords (147.0, 71.0), timeStamp: 2017-03-02 11:39:51.564
LEye coords (148.0, 76.0), REye coords (148.0, 69.0), timeStamp: 2017-03-02 11:39:51.597
LEye coords (147.0, 75.0), REye coords (148.0, 68.0), timeStamp: 2017-03-02 11:39:51.641
LEye coords (147.0, 73.0), REye coords (149.0, 67.0), timeStamp: 2017-03-02 11:39:51.674
LEye coords (146.0, 72.0), REye coords (0.0, 0.0), timeStamp: 2017-03-02 11:39:51.718
LEye coords (146.0, 71.0), REye coords (155.0, 60.0), timeStamp: 2017-03-02 11:39:51.752
LEye coords (146.0, 70.0), REye coords (156.0, 64.0), timeStamp: 2017-03-02 11:39:51.785
LEye coords (146.0, 70.0), REye coords (157.0, 62.0), timeStamp: 2017-03-02 11:39:51.829
LEye coords (146.0, 69.0), REye coords (158.0, 61.0), timeStamp: 2017-03-02 11:39:51.862
LEye coords (146.0, 68.0), REye coords (0.0, 0.0), timeStamp: 2017-03-02 11:39:51.895
LEye coords (146.0, 68.0), REye coords (0.0, 0.0), timeStamp: 2017-03-02 11:39:51.940
LEye coords (146.0, 67.0), REye coords (0.0, 0.0), timeStamp: 2017-03-02 11:39:51.974
LEye coords (146.0, 67.0), REye coords (0.0, 0.0), timeStamp: 2017-03-02 11:39:52.007
LEye coords (147.0, 67.0), REye coords (158.0, 62.0), timeStamp: 2017-03-02 11:39:52.051
LEye coords (147.0, 67.0), REye coords (158.0, 64.0), timeStamp: 2017-03-02 11:39:52.084
LEye coords (148.0, 67.0), REye coords (159.0, 64.0), timeStamp: 2017-03-02 11:39:52.117
LEye coords (148.0, 68.0), REye coords (159.0, 65.0), timeStamp: 2017-03-02 11:39:52.160
LEye coords (149.0, 68.0), REye coords (159.0, 66.0), timeStamp: 2017-03-02 11:39:52.193
LEye coords (150.0, 69.0), REye coords (159.0, 68.0), timeStamp: 2017-03-02 11:39:52.237
LEye coords (150.0, 70.0), REye coords (158.0, 69.0), timeStamp: 2017-03-02 11:39:52.271
LEye coords (151.0, 70.0), REye coords (158.0, 70.0), timeStamp: 2017-03-02 11:39:52.304
LEye coords (152.0, 71.0), REye coords (158.0, 71.0), timeStamp: 2017-03-02 11:39:52.338
LEye coords (152.0, 72.0), REye coords (158.0, 72.0), timeStamp: 2017-03-02 11:39:52.382
LEye coords (153.0, 73.0), REye coords (158.0, 73.0), timeStamp: 2017-03-02 11:39:52.416
LEye coords (153.0, 74.0), REye coords (158.0, 74.0), timeStamp: 2017-03-02 11:39:52.451
LEye coords (154.0, 75.0), REye coords (158.0, 74.0), timeStamp: 2017-03-02 11:39:52.494
LEye coords (154.0, 76.0), REye coords (158.0, 75.0), timeStamp: 2017-03-02 11:39:52.528
