LEye coords (139.0, 165.0), REye coords (146.0, 156.0), timeStamp: 2017-03-02 11:39:55.604
LEye coords (139.0, 165.0), REye coords (146.0, 155.0), timeStamp: 2017-03-02 11:39:55.638
LEye coords (139.0, 164.0), REye coords (146.0, 155.0), timeStamp: 2017-03-02 11:39:55.672
LEye coords (140.0, 164.0), REye coords (146.0, 154.0), timeStamp: 2017-03-02 11:39:55.716
LEye coords (140.0, 164.0), REye coords (146.0, 153.0), timeStamp: 2017-03-02 11:39:55.750
LEye coords (140.0, 164.0), REye coords (146.0, 153.0), timeStamp: 2017-03-02 11:39:55.784
LEye coords (140.0, 164.0), REye coords (146.0, 154.0), timeStamp: 2017-03-02 11:39:55.818
LEye coords (140.0, 163.0), REye coords (146.0, 154.0), timeStamp: 2017-03-02 11:39:55.862
LEye coords (140.0, 163.0), REye coords (146.0, 153.0), timeStamp: 2017-03-02 11:39:55.895
LEye coords (140.0, 163.0), REye coords (146.0, 153.0), timeStamp: 2017-03-02 11:39:55.929
LEye coords (140.0, 163.0), REye coords (146.0, 153.0), timeStamp: 2017-03-02 11:39:55.973
LEye coords (168.0, 178.0), REye coords (176.0, 166.0), timeStamp: 2017-03-02 11:39:56.006
LEye coords (171.0, 173.0), REye coords (174.0, 179.0), timeStamp: 2017-03-02 11:39:56.041
LEye coords (170.0, 175.0), REye coords (173.0, 182.0), timeStamp: 2017-03-02 11:39:56.086
LEye coords (168.0, 175.0), REye coords (174.0, 179.0), timeStamp: 2017-03-02 11:39:56.121
LEye coords (168.0, 175.0), REye coords (175.0, 178.0), timeStamp: 2017-03-02 11:39:56.154
LEye coords (169.0, 175.0), REye coords (175.0, 177.0), timeStamp: 2017-03-02 11:39:56.187
LEye coords (169.0, 174.0), REye coords (175.0, 176.0), timeStamp: 2017-03-02 11:39:56.230
LEye coords (170.0, 173.0), REye coords (175.0, 175.0), timeStamp: 2017-03-02 11:39:56.265
LEye coords (173.0, 173.0), REye coords (176.0, 175.0), timeStamp: 2017-03-02 11:39:56.307
LEye coords (174.0, 177.0), REye coords (174.0, 173.0), timeStamp: 2017-03-02 11:39:56.341
LEye coords (173.0, 176.0), REye coords (177.0, 176.0), timeStamp: 2017-03-02 11:39:56.375
LEye coords (173.0, 177.0), REye coords (178.0, 180.0), timeStamp: 2017-03-02 11:39:56.409
LEye coords (173.0, 178.0), REye coords (177.0, 180.0), timeStamp: 2017-03-02 11:39:56.453
LEye coords (173.0, 179.0), REye coords (177.0, 180.0), timeStamp: 2017-03-02 11:39:56.487
LEye coords (173.0, 179.0), REye coords (177.0, 180.0), timeStamp: 2017-03-02 11:39:56.521
LEye coords (173.0, 180.0), REye coords (178.0, 180.0), timeStamp: 2017-03-02 11:39:56.566
