LEye coords (261.0, 119.0), REye coords (268.0, 119.0), timeStamp: 2017-03-02 11:39:56.669
LEye coords (261.0, 119.0), REye coords (267.0, 119.0), timeStamp: 2017-03-02 11:39:56.713
LEye coords (260.0, 119.0), REye coords (267.0, 119.0), timeStamp: 2017-03-02 11:39:56.747
LEye coords (260.0, 119.0), REye coords (267.0, 120.0), timeStamp: 2017-03-02 11:39:56.781
LEye coords (260.0, 119.0), REye coords (267.0, 120.0), timeStamp: 2017-03-02 11:39:56.825
LEye coords (260.0, 119.0), REye coords (267.0, 120.0), timeStamp: 2017-03-02 11:39:56.859
LEye coords (260.0, 119.0), REye coords (267.0, 120.0), timeStamp: 2017-03-02 11:39:56.893
LEye coords (260.0, 119.0), REye coords (267.0, 120.0), timeStamp: 2017-03-02 11:39:56.927
LEye coords (260.0, 120.0), REye coords (267.0, 120.0), timeStamp: 2017-03-02 11:39:56.971
LEye coords (203.0, 140.0), REye coords (210.0, 138.0), timeStamp: 2017-03-02 11:39:57.005
LEye coords (205.0, 144.0), REye coords (215.0, 143.0), timeStamp: 2017-03-02 11:39:57.048
LEye coords (203.0, 143.0), REye coords (214.0, 141.0), timeStamp: 2017-03-02 11:39:57.080
LEye coords (203.0, 142.0), REye coords (214.0, 139.0), timeStamp: 2017-03-02 11:39:57.113
LEye coords (204.0, 140.0), REye coords (215.0, 137.0), timeStamp: 2017-03-02 11:39:57.158
LEye coords (226.0, 137.0), REye coords (234.0, 128.0), timeStamp: 2017-03-02 11:39:57.193
LEye coords (225.0, 138.0), REye coords (233.0, 126.0), timeStamp: 2017-03-02 11:39:57.227
LEye coords (225.0, 135.0), REye coords (233.0, 127.0), timeStamp: 2017-03-02 11:39:57.261
LEye coords (224.0, 131.0), REye coords (233.0, 128.0), timeStamp: 2017-03-02 11:39:57.305
LEye coords (225.0, 132.0), REye coords (234.0, 127.0), timeStamp: 2017-03-02 11:39:57.338
LEye coords (225.0, 132.0), REye coords (234.0, 128.0), timeStamp: 2017-03-02 11:39:57.371
