LEye coords (176.0, 170.0), REye coords (182.0, 147.0), timeStamp: 2017-03-02 11:40:40.754
LEye coords (178.0, 169.0), REye coords (183.0, 146.0), timeStamp: 2017-03-02 11:40:40.789
LEye coords (180.0, 168.0), REye coords (185.0, 146.0), timeStamp: 2017-03-02 11:40:40.831
LEye coords (181.0, 168.0), REye coords (186.0, 146.0), timeStamp: 2017-03-02 11:40:40.865
LEye coords (183.0, 167.0), REye coords (187.0, 146.0), timeStamp: 2017-03-02 11:40:40.898
LEye coords (184.0, 166.0), REye coords (188.0, 146.0), timeStamp: 2017-03-02 11:40:40.943
LEye coords (186.0, 166.0), REye coords (189.0, 147.0), timeStamp: 2017-03-02 11:40:40.977
LEye coords (187.0, 165.0), REye coords (190.0, 147.0), timeStamp: 2017-03-02 11:40:41.011
LEye coords (188.0, 164.0), REye coords (190.0, 147.0), timeStamp: 2017-03-02 11:40:41.044
LEye coords (190.0, 164.0), REye coords (190.0, 147.0), timeStamp: 2017-03-02 11:40:41.088
LEye coords (204.0, 163.0), REye coords (0.0, 0.0), timeStamp: 2017-03-02 11:40:41.121
LEye coords (233.0, 158.0), REye coords (266.0, 149.0), timeStamp: 2017-03-02 11:40:41.155
LEye coords (241.0, 154.0), REye coords (0.0, 0.0), timeStamp: 2017-03-02 11:40:41.199
LEye coords (246.0, 153.0), REye coords (266.0, 146.0), timeStamp: 2017-03-02 11:40:41.233
LEye coords (256.0, 153.0), REye coords (261.0, 148.0), timeStamp: 2017-03-02 11:40:41.266
LEye coords (234.0, 150.0), REye coords (257.0, 145.0), timeStamp: 2017-03-02 11:40:41.310
LEye coords (235.0, 148.0), REye coords (254.0, 145.0), timeStamp: 2017-03-02 11:40:41.343
LEye coords (236.0, 147.0), REye coords (240.0, 137.0), timeStamp: 2017-03-02 11:40:41.378
LEye coords (236.0, 147.0), REye coords (241.0, 128.0), timeStamp: 2017-03-02 11:40:41.421
LEye coords (236.0, 147.0), REye coords (239.0, 135.0), timeStamp: 2017-03-02 11:40:41.455
LEye coords (236.0, 146.0), REye coords (239.0, 136.0), timeStamp: 2017-03-02 11:40:41.489
LEye coords (239.0, 145.0), REye coords (239.0, 137.0), timeStamp: 2017-03-02 11:40:41.533
LEye coords (239.0, 145.0), REye coords (239.0, 136.0), timeStamp: 2017-03-02 11:40:41.567
LEye coords (239.0, 145.0), REye coords (240.0, 135.0), timeStamp: 2017-03-02 11:40:41.601
