LEye coords (0.0, 0.0), REye coords (165.0, 140.0), timeStamp: 2017-03-02 11:40:39.832
LEye coords (0.0, 0.0), REye coords (164.0, 140.0), timeStamp: 2017-03-02 11:40:39.865
LEye coords (0.0, 0.0), REye coords (163.0, 140.0), timeStamp: 2017-03-02 11:40:39.897
LEye coords (163.0, 163.0), REye coords (162.0, 140.0), timeStamp: 2017-03-02 11:40:39.941
LEye coords (160.0, 165.0), REye coords (162.0, 141.0), timeStamp: 2017-03-02 11:40:39.974
LEye coords (158.0, 166.0), REye coords (161.0, 141.0), timeStamp: 2017-03-02 11:40:40.009
LEye coords (157.0, 167.0), REye coords (161.0, 142.0), timeStamp: 2017-03-02 11:40:40.053
LEye coords (156.0, 168.0), REye coords (161.0, 142.0), timeStamp: 2017-03-02 11:40:40.087
LEye coords (155.0, 169.0), REye coords (161.0, 142.0), timeStamp: 2017-03-02 11:40:40.121
LEye coords (0.0, 0.0), REye coords (161.0, 141.0), timeStamp: 2017-03-02 11:40:40.165
LEye coords (155.0, 170.0), REye coords (161.0, 141.0), timeStamp: 2017-03-02 11:40:40.198
LEye coords (157.0, 171.0), REye coords (162.0, 142.0), timeStamp: 2017-03-02 11:40:40.230
LEye coords (158.0, 172.0), REye coords (164.0, 143.0), timeStamp: 2017-03-02 11:40:40.274
LEye coords (160.0, 172.0), REye coords (165.0, 144.0), timeStamp: 2017-03-02 11:40:40.308
LEye coords (161.0, 173.0), REye coords (167.0, 145.0), timeStamp: 2017-03-02 11:40:40.342
LEye coords (162.0, 173.0), REye coords (168.0, 146.0), timeStamp: 2017-03-02 11:40:40.387
LEye coords (164.0, 173.0), REye coords (171.0, 146.0), timeStamp: 2017-03-02 11:40:40.420
LEye coords (167.0, 171.0), REye coords (173.0, 145.0), timeStamp: 2017-03-02 11:40:40.454
LEye coords (169.0, 170.0), REye coords (176.0, 144.0), timeStamp: 2017-03-02 11:40:40.498
LEye coords (172.0, 168.0), REye coords (178.0, 144.0), timeStamp: 2017-03-02 11:40:40.532
LEye coords (174.0, 167.0), REye coords (181.0, 143.0), timeStamp: 2017-03-02 11:40:40.565
LEye coords (176.0, 166.0), REye coords (183.0, 143.0), timeStamp: 2017-03-02 11:40:40.610
LEye coords (178.0, 165.0), REye coords (184.0, 142.0), timeStamp: 2017-03-02 11:40:40.644
