LEye coords (216.0, 192.0), REye coords (239.0, 183.0), timeStamp: 2017-03-02 11:40:38.091
LEye coords (168.0, 257.0), REye coords (186.0, 245.0), timeStamp: 2017-03-02 11:40:38.125
LEye coords (168.0, 257.0), REye coords (186.0, 246.0), timeStamp: 2017-03-02 11:40:38.158
LEye coords (168.0, 258.0), REye coords (185.0, 246.0), timeStamp: 2017-03-02 11:40:38.202
LEye coords (168.0, 258.0), REye coords (185.0, 247.0), timeStamp: 2017-03-02 11:40:38.235
LEye coords (169.0, 258.0), REye coords (185.0, 247.0), timeStamp: 2017-03-02 11:40:38.269
LEye coords (168.0, 259.0), REye coords (185.0, 247.0), timeStamp: 2017-03-02 11:40:38.312
LEye coords (168.0, 259.0), REye coords (185.0, 248.0), timeStamp: 2017-03-02 11:40:38.345
LEye coords (168.0, 259.0), REye coords (185.0, 248.0), timeStamp: 2017-03-02 11:40:38.390
LEye coords (168.0, 259.0), REye coords (185.0, 248.0), timeStamp: 2017-03-02 11:40:38.424
LEye coords (168.0, 260.0), REye coords (184.0, 248.0), timeStamp: 2017-03-02 11:40:38.457
LEye coords (167.0, 255.0), REye coords (167.0, 178.0), timeStamp: 2017-03-02 11:40:38.493
LEye coords (166.0, 252.0), REye coords (158.0, 182.0), timeStamp: 2017-03-02 11:40:38.536
LEye coords (165.0, 248.0), REye coords (159.0, 192.0), timeStamp: 2017-03-02 11:40:38.571
LEye coords (117.0, 218.0), REye coords (146.0, 187.0), timeStamp: 2017-03-02 11:40:38.605
LEye coords (118.0, 224.0), REye coords (141.0, 184.0), timeStamp: 2017-03-02 11:40:38.639
LEye coords (118.0, 225.0), REye coords (124.0, 178.0), timeStamp: 2017-03-02 11:40:38.682
LEye coords (117.0, 223.0), REye coords (122.0, 185.0), timeStamp: 2017-03-02 11:40:38.715
LEye coords (118.0, 220.0), REye coords (125.0, 178.0), timeStamp: 2017-03-02 11:40:38.750
LEye coords (119.0, 219.0), REye coords (125.0, 180.0), timeStamp: 2017-03-02 11:40:38.794
LEye coords (119.0, 219.0), REye coords (125.0, 183.0), timeStamp: 2017-03-02 11:40:38.827
LEye coords (119.0, 219.0), REye coords (124.0, 183.0), timeStamp: 2017-03-02 11:40:38.861
