LEye coords (0.0, 0.0), REye coords (122.0, 186.0), timeStamp: 2017-03-02 11:40:38.972
LEye coords (0.0, 0.0), REye coords (156.0, 139.0), timeStamp: 2017-03-02 11:40:39.016
LEye coords (0.0, 0.0), REye coords (155.0, 139.0), timeStamp: 2017-03-02 11:40:39.049
LEye coords (152.0, 166.0), REye coords (155.0, 140.0), timeStamp: 2017-03-02 11:40:39.082
LEye coords (153.0, 167.0), REye coords (154.0, 141.0), timeStamp: 2017-03-02 11:40:39.127
LEye coords (153.0, 168.0), REye coords (154.0, 141.0), timeStamp: 2017-03-02 11:40:39.161
LEye coords (153.0, 168.0), REye coords (154.0, 142.0), timeStamp: 2017-03-02 11:40:39.195
LEye coords (153.0, 169.0), REye coords (154.0, 143.0), timeStamp: 2017-03-02 11:40:39.239
LEye coords (210.0, 152.0), REye coords (222.0, 132.0), timeStamp: 2017-03-02 11:40:39.273
LEye coords (223.0, 145.0), REye coords (0.0, 0.0), timeStamp: 2017-03-02 11:40:39.307
LEye coords (221.0, 144.0), REye coords (0.0, 0.0), timeStamp: 2017-03-02 11:40:39.352
LEye coords (206.0, 148.0), REye coords (184.0, 141.0), timeStamp: 2017-03-02 11:40:39.385
LEye coords (198.0, 152.0), REye coords (183.0, 138.0), timeStamp: 2017-03-02 11:40:39.418
LEye coords (192.0, 153.0), REye coords (182.0, 138.0), timeStamp: 2017-03-02 11:40:39.462
LEye coords (170.0, 160.0), REye coords (181.0, 139.0), timeStamp: 2017-03-02 11:40:39.496
LEye coords (168.0, 158.0), REye coords (181.0, 140.0), timeStamp: 2017-03-02 11:40:39.529
LEye coords (169.0, 159.0), REye coords (181.0, 140.0), timeStamp: 2017-03-02 11:40:39.573
LEye coords (0.0, 0.0), REye coords (176.0, 141.0), timeStamp: 2017-03-02 11:40:39.607
LEye coords (0.0, 0.0), REye coords (173.0, 141.0), timeStamp: 2017-03-02 11:40:39.641
LEye coords (0.0, 0.0), REye coords (170.0, 142.0), timeStamp: 2017-03-02 11:40:39.685
LEye coords (0.0, 0.0), REye coords (169.0, 142.0), timeStamp: 2017-03-02 11:40:39.719
