LEye coords (218.0, 178.0), REye coords (221.0, 166.0), timeStamp: 2017-03-02 11:40:41.712
LEye coords (218.0, 178.0), REye coords (221.0, 165.0), timeStamp: 2017-03-02 11:40:41.756
LEye coords (218.0, 178.0), REye coords (221.0, 165.0), timeStamp: 2017-03-02 11:40:41.789
LEye coords (218.0, 178.0), REye coords (221.0, 165.0), timeStamp: 2017-03-02 11:40:41.824
LEye coords (218.0, 179.0), REye coords (221.0, 165.0), timeStamp: 2017-03-02 11:40:41.867
LEye coords (218.0, 179.0), REye coords (221.0, 165.0), timeStamp: 2017-03-02 11:40:41.901
LEye coords (218.0, 179.0), REye coords (221.0, 165.0), timeStamp: 2017-03-02 11:40:41.935
LEye coords (218.0, 179.0), REye coords (222.0, 166.0), timeStamp: 2017-03-02 11:40:41.978
LEye coords (218.0, 180.0), REye coords (222.0, 166.0), timeStamp: 2017-03-02 11:40:42.011
LEye coords (218.0, 180.0), REye coords (222.0, 166.0), timeStamp: 2017-03-02 11:40:42.045
LEye coords (218.0, 180.0), REye coords (222.0, 166.0), timeStamp: 2017-03-02 11:40:42.090
LEye coords (218.0, 181.0), REye coords (223.0, 168.0), timeStamp: 2017-03-02 11:40:42.123
LEye coords (219.0, 182.0), REye coords (223.0, 170.0), timeStamp: 2017-03-02 11:40:42.157
LEye coords (219.0, 184.0), REye coords (224.0, 172.0), timeStamp: 2017-03-02 11:40:42.192
LEye coords (220.0, 186.0), REye coords (225.0, 174.0), timeStamp: 2017-03-02 11:40:42.236
LEye coords (220.0, 187.0), REye coords (225.0, 175.0), timeStamp: 2017-03-02 11:40:42.270
LEye coords (220.0, 188.0), REye coords (225.0, 177.0), timeStamp: 2017-03-02 11:40:42.305
LEye coords (220.0, 190.0), REye coords (225.0, 180.0), timeStamp: 2017-03-02 11:40:42.348
LEye coords (219.0, 192.0), REye coords (225.0, 183.0), timeStamp: 2017-03-02 11:40:42.382
LEye coords (219.0, 194.0), REye coords (225.0, 187.0), timeStamp: 2017-03-02 11:40:42.416
LEye coords (219.0, 197.0), REye coords (225.0, 190.0), timeStamp: 2017-03-02 11:40:42.460
LEye coords (218.0, 199.0), REye coords (225.0, 193.0), timeStamp: 2017-03-02 11:40:42.493
LEye coords (218.0, 201.0), REye coords (225.0, 196.0), timeStamp: 2017-03-02 11:40:42.527
