LEye coords (178.0, 198.0), REye coords (202.0, 182.0), timeStamp: 2017-03-02 11:40:47.857
LEye coords (178.0, 198.0), REye coords (202.0, 181.0), timeStamp: 2017-03-02 11:40:47.901
LEye coords (178.0, 199.0), REye coords (201.0, 182.0), timeStamp: 2017-03-02 11:40:47.935
LEye coords (178.0, 199.0), REye coords (201.0, 182.0), timeStamp: 2017-03-02 11:40:47.968
LEye coords (178.0, 199.0), REye coords (201.0, 182.0), timeStamp: 2017-03-02 11:40:48.012
LEye coords (178.0, 200.0), REye coords (201.0, 182.0), timeStamp: 2017-03-02 11:40:48.045
LEye coords (179.0, 199.0), REye coords (202.0, 182.0), timeStamp: 2017-03-02 11:40:48.078
LEye coords (227.0, 149.0), REye coords (241.0, 141.0), timeStamp: 2017-03-02 11:40:48.122
LEye coords (223.0, 142.0), REye coords (241.0, 137.0), timeStamp: 2017-03-02 11:40:48.156
LEye coords (224.0, 143.0), REye coords (241.0, 137.0), timeStamp: 2017-03-02 11:40:48.191
LEye coords (225.0, 144.0), REye coords (241.0, 139.0), timeStamp: 2017-03-02 11:40:48.225
LEye coords (239.0, 132.0), REye coords (254.0, 128.0), timeStamp: 2017-03-02 11:40:48.269
LEye coords (291.0, 91.0), REye coords (294.0, 82.0), timeStamp: 2017-03-02 11:40:48.303
LEye coords (292.0, 95.0), REye coords (294.0, 82.0), timeStamp: 2017-03-02 11:40:48.336
LEye coords (290.0, 94.0), REye coords (294.0, 84.0), timeStamp: 2017-03-02 11:40:48.382
LEye coords (290.0, 93.0), REye coords (294.0, 85.0), timeStamp: 2017-03-02 11:40:48.416
LEye coords (291.0, 92.0), REye coords (293.0, 86.0), timeStamp: 2017-03-02 11:40:48.450
LEye coords (292.0, 91.0), REye coords (293.0, 85.0), timeStamp: 2017-03-02 11:40:48.484
LEye coords (292.0, 90.0), REye coords (293.0, 85.0), timeStamp: 2017-03-02 11:40:48.528
LEye coords (293.0, 91.0), REye coords (296.0, 86.0), timeStamp: 2017-03-02 11:40:48.562
LEye coords (298.0, 91.0), REye coords (341.0, 95.0), timeStamp: 2017-03-02 11:40:48.595
LEye coords (302.0, 92.0), REye coords (342.0, 99.0), timeStamp: 2017-03-02 11:40:48.639
LEye coords (306.0, 91.0), REye coords (341.0, 100.0), timeStamp: 2017-03-02 11:40:48.672
LEye coords (308.0, 92.0), REye coords (341.0, 99.0), timeStamp: 2017-03-02 11:40:48.706
LEye coords (310.0, 91.0), REye coords (340.0, 100.0), timeStamp: 2017-03-02 11:40:48.751
