LEye coords (384.0, 112.0), REye coords (392.0, 123.0), timeStamp: 2017-03-02 11:40:46.895
LEye coords (383.0, 113.0), REye coords (392.0, 123.0), timeStamp: 2017-03-02 11:40:46.939
LEye coords (383.0, 112.0), REye coords (392.0, 124.0), timeStamp: 2017-03-02 11:40:46.972
LEye coords (383.0, 113.0), REye coords (392.0, 124.0), timeStamp: 2017-03-02 11:40:47.006
LEye coords (281.0, 163.0), REye coords (306.0, 157.0), timeStamp: 2017-03-02 11:40:47.039
LEye coords (281.0, 168.0), REye coords (303.0, 159.0), timeStamp: 2017-03-02 11:40:47.084
LEye coords (281.0, 172.0), REye coords (303.0, 157.0), timeStamp: 2017-03-02 11:40:47.120
LEye coords (282.0, 172.0), REye coords (302.0, 159.0), timeStamp: 2017-03-02 11:40:47.154
LEye coords (283.0, 170.0), REye coords (301.0, 160.0), timeStamp: 2017-03-02 11:40:47.198
LEye coords (281.0, 165.0), REye coords (297.0, 166.0), timeStamp: 2017-03-02 11:40:47.231
LEye coords (230.0, 199.0), REye coords (256.0, 182.0), timeStamp: 2017-03-02 11:40:47.264
LEye coords (220.0, 202.0), REye coords (241.0, 184.0), timeStamp: 2017-03-02 11:40:47.308
LEye coords (215.0, 203.0), REye coords (237.0, 185.0), timeStamp: 2017-03-02 11:40:47.342
LEye coords (212.0, 203.0), REye coords (234.0, 187.0), timeStamp: 2017-03-02 11:40:47.375
LEye coords (197.0, 195.0), REye coords (226.0, 191.0), timeStamp: 2017-03-02 11:40:47.420
LEye coords (196.0, 197.0), REye coords (223.0, 190.0), timeStamp: 2017-03-02 11:40:47.453
LEye coords (187.0, 202.0), REye coords (213.0, 188.0), timeStamp: 2017-03-02 11:40:47.486
LEye coords (184.0, 202.0), REye coords (210.0, 188.0), timeStamp: 2017-03-02 11:40:47.531
LEye coords (182.0, 204.0), REye coords (208.0, 188.0), timeStamp: 2017-03-02 11:40:47.565
LEye coords (180.0, 203.0), REye coords (207.0, 187.0), timeStamp: 2017-03-02 11:40:47.598
LEye coords (180.0, 203.0), REye coords (205.0, 188.0), timeStamp: 2017-03-02 11:40:47.632
LEye coords (179.0, 203.0), REye coords (204.0, 189.0), timeStamp: 2017-03-02 11:40:47.676
LEye coords (179.0, 204.0), REye coords (203.0, 190.0), timeStamp: 2017-03-02 11:40:47.710
LEye coords (179.0, 204.0), REye coords (203.0, 190.0), timeStamp: 2017-03-02 11:40:47.744
