LEye coords (226.0, 151.0), REye coords (232.0, 126.0), timeStamp: 2017-03-02 11:40:51.119
LEye coords (226.0, 151.0), REye coords (233.0, 126.0), timeStamp: 2017-03-02 11:40:51.153
LEye coords (226.0, 151.0), REye coords (234.0, 125.0), timeStamp: 2017-03-02 11:40:51.187
LEye coords (226.0, 151.0), REye coords (234.0, 126.0), timeStamp: 2017-03-02 11:40:51.232
LEye coords (226.0, 151.0), REye coords (235.0, 126.0), timeStamp: 2017-03-02 11:40:51.265
LEye coords (226.0, 151.0), REye coords (235.0, 126.0), timeStamp: 2017-03-02 11:40:51.299
LEye coords (226.0, 151.0), REye coords (235.0, 126.0), timeStamp: 2017-03-02 11:40:51.343
LEye coords (226.0, 151.0), REye coords (236.0, 126.0), timeStamp: 2017-03-02 11:40:51.375
LEye coords (226.0, 151.0), REye coords (236.0, 127.0), timeStamp: 2017-03-02 11:40:51.409
LEye coords (227.0, 152.0), REye coords (237.0, 127.0), timeStamp: 2017-03-02 11:40:51.453
LEye coords (238.0, 201.0), REye coords (255.0, 187.0), timeStamp: 2017-03-02 11:40:51.486
LEye coords (240.0, 203.0), REye coords (253.0, 196.0), timeStamp: 2017-03-02 11:40:51.520
LEye coords (238.0, 201.0), REye coords (253.0, 194.0), timeStamp: 2017-03-02 11:40:51.564
LEye coords (239.0, 200.0), REye coords (253.0, 194.0), timeStamp: 2017-03-02 11:40:51.597
LEye coords (229.0, 192.0), REye coords (240.0, 182.0), timeStamp: 2017-03-02 11:40:51.630
LEye coords (222.0, 184.0), REye coords (192.0, 126.0), timeStamp: 2017-03-02 11:40:51.674
LEye coords (216.0, 178.0), REye coords (193.0, 126.0), timeStamp: 2017-03-02 11:40:51.708
LEye coords (212.0, 174.0), REye coords (193.0, 130.0), timeStamp: 2017-03-02 11:40:51.742
LEye coords (156.0, 143.0), REye coords (178.0, 127.0), timeStamp: 2017-03-02 11:40:51.786
LEye coords (152.0, 143.0), REye coords (171.0, 126.0), timeStamp: 2017-03-02 11:40:51.820
LEye coords (154.0, 144.0), REye coords (167.0, 126.0), timeStamp: 2017-03-02 11:40:51.853
LEye coords (153.0, 143.0), REye coords (164.0, 125.0), timeStamp: 2017-03-02 11:40:51.897
LEye coords (153.0, 143.0), REye coords (162.0, 125.0), timeStamp: 2017-03-02 11:40:51.931
LEye coords (153.0, 143.0), REye coords (149.0, 119.0), timeStamp: 2017-03-02 11:40:51.964
