LEye coords (206.0, 130.0), REye coords (226.0, 130.0), timeStamp: 2017-03-02 11:40:50.081
LEye coords (207.0, 129.0), REye coords (232.0, 114.0), timeStamp: 2017-03-02 11:40:50.114
LEye coords (207.0, 128.0), REye coords (231.0, 113.0), timeStamp: 2017-03-02 11:40:50.149
LEye coords (207.0, 127.0), REye coords (230.0, 114.0), timeStamp: 2017-03-02 11:40:50.194
LEye coords (207.0, 126.0), REye coords (230.0, 114.0), timeStamp: 2017-03-02 11:40:50.228
LEye coords (208.0, 125.0), REye coords (230.0, 115.0), timeStamp: 2017-03-02 11:40:50.262
LEye coords (207.0, 123.0), REye coords (228.0, 113.0), timeStamp: 2017-03-02 11:40:50.306
LEye coords (169.0, 86.0), REye coords (173.0, 79.0), timeStamp: 2017-03-02 11:40:50.339
LEye coords (164.0, 82.0), REye coords (172.0, 83.0), timeStamp: 2017-03-02 11:40:50.373
LEye coords (164.0, 83.0), REye coords (173.0, 84.0), timeStamp: 2017-03-02 11:40:50.418
LEye coords (164.0, 84.0), REye coords (173.0, 84.0), timeStamp: 2017-03-02 11:40:50.452
LEye coords (165.0, 84.0), REye coords (173.0, 83.0), timeStamp: 2017-03-02 11:40:50.486
LEye coords (135.0, 88.0), REye coords (0.0, 0.0), timeStamp: 2017-03-02 11:40:50.529
LEye coords (134.0, 91.0), REye coords (0.0, 0.0), timeStamp: 2017-03-02 11:40:50.562
LEye coords (134.0, 91.0), REye coords (0.0, 0.0), timeStamp: 2017-03-02 11:40:50.596
LEye coords (135.0, 91.0), REye coords (139.0, 82.0), timeStamp: 2017-03-02 11:40:50.640
LEye coords (135.0, 91.0), REye coords (0.0, 0.0), timeStamp: 2017-03-02 11:40:50.674
LEye coords (137.0, 91.0), REye coords (0.0, 0.0), timeStamp: 2017-03-02 11:40:50.708
LEye coords (136.0, 94.0), REye coords (142.0, 81.0), timeStamp: 2017-03-02 11:40:50.751
LEye coords (140.0, 88.0), REye coords (148.0, 75.0), timeStamp: 2017-03-02 11:40:50.784
LEye coords (142.0, 87.0), REye coords (146.0, 77.0), timeStamp: 2017-03-02 11:40:50.818
LEye coords (143.0, 86.0), REye coords (146.0, 77.0), timeStamp: 2017-03-02 11:40:50.852
LEye coords (144.0, 85.0), REye coords (148.0, 76.0), timeStamp: 2017-03-02 11:40:50.897
LEye coords (144.0, 85.0), REye coords (148.0, 74.0), timeStamp: 2017-03-02 11:40:50.931
LEye coords (144.0, 85.0), REye coords (0.0, 0.0), timeStamp: 2017-03-02 11:40:50.965
LEye coords (144.0, 86.0), REye coords (0.0, 0.0), timeStamp: 2017-03-02 11:40:51.009
