LEye coords (151.0, 229.0), REye coords (126.0, 222.0), timeStamp: 2017-03-02 11:41:27.237
LEye coords (195.0, 160.0), REye coords (162.0, 154.0), timeStamp: 2017-03-02 11:41:27.271
LEye coords (196.0, 161.0), REye coords (162.0, 155.0), timeStamp: 2017-03-02 11:41:27.316
LEye coords (196.0, 162.0), REye coords (162.0, 156.0), timeStamp: 2017-03-02 11:41:27.350
LEye coords (196.0, 163.0), REye coords (162.0, 156.0), timeStamp: 2017-03-02 11:41:27.383
LEye coords (197.0, 163.0), REye coords (163.0, 156.0), timeStamp: 2017-03-02 11:41:27.427
LEye coords (197.0, 164.0), REye coords (163.0, 157.0), timeStamp: 2017-03-02 11:41:27.461
LEye coords (198.0, 165.0), REye coords (163.0, 157.0), timeStamp: 2017-03-02 11:41:27.494
LEye coords (198.0, 166.0), REye coords (163.0, 158.0), timeStamp: 2017-03-02 11:41:27.539
LEye coords (198.0, 167.0), REye coords (164.0, 158.0), timeStamp: 2017-03-02 11:41:27.573
LEye coords (240.0, 172.0), REye coords (198.0, 179.0), timeStamp: 2017-03-02 11:41:27.607
LEye coords (244.0, 183.0), REye coords (213.0, 182.0), timeStamp: 2017-03-02 11:41:27.641
LEye coords (244.0, 183.0), REye coords (214.0, 181.0), timeStamp: 2017-03-02 11:41:27.685
LEye coords (244.0, 183.0), REye coords (213.0, 183.0), timeStamp: 2017-03-02 11:41:27.719
LEye coords (245.0, 182.0), REye coords (213.0, 183.0), timeStamp: 2017-03-02 11:41:27.752
LEye coords (245.0, 182.0), REye coords (207.0, 186.0), timeStamp: 2017-03-02 11:41:27.797
LEye coords (246.0, 183.0), REye coords (209.0, 185.0), timeStamp: 2017-03-02 11:41:27.830
LEye coords (246.0, 184.0), REye coords (210.0, 187.0), timeStamp: 2017-03-02 11:41:27.864
LEye coords (251.0, 192.0), REye coords (210.0, 186.0), timeStamp: 2017-03-02 11:41:27.908
LEye coords (248.0, 189.0), REye coords (210.0, 187.0), timeStamp: 2017-03-02 11:41:27.941
LEye coords (249.0, 189.0), REye coords (210.0, 188.0), timeStamp: 2017-03-02 11:41:27.974
LEye coords (246.0, 191.0), REye coords (210.0, 189.0), timeStamp: 2017-03-02 11:41:28.019
LEye coords (246.0, 193.0), REye coords (211.0, 188.0), timeStamp: 2017-03-02 11:41:28.053
