LEye coords (118.0, 165.0), REye coords (91.0, 169.0), timeStamp: 2017-03-02 11:41:33.377
LEye coords (119.0, 167.0), REye coords (91.0, 169.0), timeStamp: 2017-03-02 11:41:33.421
LEye coords (119.0, 168.0), REye coords (91.0, 171.0), timeStamp: 2017-03-02 11:41:33.454
LEye coords (120.0, 170.0), REye coords (91.0, 172.0), timeStamp: 2017-03-02 11:41:33.498
LEye coords (120.0, 171.0), REye coords (91.0, 173.0), timeStamp: 2017-03-02 11:41:33.531
LEye coords (121.0, 172.0), REye coords (92.0, 173.0), timeStamp: 2017-03-02 11:41:33.564
LEye coords (230.0, 185.0), REye coords (200.0, 191.0), timeStamp: 2017-03-02 11:41:33.608
LEye coords (0.0, 0.0), REye coords (196.0, 194.0), timeStamp: 2017-03-02 11:41:33.643
LEye coords (0.0, 0.0), REye coords (196.0, 194.0), timeStamp: 2017-03-02 11:41:33.676
LEye coords (0.0, 0.0), REye coords (196.0, 194.0), timeStamp: 2017-03-02 11:41:33.720
LEye coords (227.0, 190.0), REye coords (197.0, 192.0), timeStamp: 2017-03-02 11:41:33.753
LEye coords (0.0, 0.0), REye coords (198.0, 190.0), timeStamp: 2017-03-02 11:41:33.786
LEye coords (227.0, 185.0), REye coords (197.0, 191.0), timeStamp: 2017-03-02 11:41:33.829
LEye coords (233.0, 169.0), REye coords (208.0, 166.0), timeStamp: 2017-03-02 11:41:33.863
LEye coords (237.0, 159.0), REye coords (212.0, 159.0), timeStamp: 2017-03-02 11:41:33.896
LEye coords (247.0, 137.0), REye coords (214.0, 153.0), timeStamp: 2017-03-02 11:41:33.940
LEye coords (244.0, 134.0), REye coords (215.0, 151.0), timeStamp: 2017-03-02 11:41:33.973
LEye coords (244.0, 135.0), REye coords (216.0, 148.0), timeStamp: 2017-03-02 11:41:34.017
LEye coords (244.0, 136.0), REye coords (216.0, 147.0), timeStamp: 2017-03-02 11:41:34.050
LEye coords (244.0, 135.0), REye coords (216.0, 146.0), timeStamp: 2017-03-02 11:41:34.084
LEye coords (243.0, 135.0), REye coords (216.0, 146.0), timeStamp: 2017-03-02 11:41:34.119
LEye coords (242.0, 135.0), REye coords (216.0, 144.0), timeStamp: 2017-03-02 11:41:34.163
LEye coords (242.0, 135.0), REye coords (217.0, 139.0), timeStamp: 2017-03-02 11:41:34.195
LEye coords (242.0, 134.0), REye coords (215.0, 143.0), timeStamp: 2017-03-02 11:41:34.229
