LEye coords (165.0, 249.0), REye coords (151.0, 258.0), timeStamp: 2017-03-02 11:41:30.241
LEye coords (166.0, 250.0), REye coords (152.0, 257.0), timeStamp: 2017-03-02 11:41:30.274
LEye coords (166.0, 251.0), REye coords (152.0, 257.0), timeStamp: 2017-03-02 11:41:30.307
LEye coords (166.0, 250.0), REye coords (152.0, 257.0), timeStamp: 2017-03-02 11:41:30.351
LEye coords (167.0, 251.0), REye coords (152.0, 257.0), timeStamp: 2017-03-02 11:41:30.385
LEye coords (167.0, 251.0), REye coords (152.0, 257.0), timeStamp: 2017-03-02 11:41:30.418
LEye coords (168.0, 252.0), REye coords (152.0, 257.0), timeStamp: 2017-03-02 11:41:30.462
LEye coords (168.0, 253.0), REye coords (153.0, 258.0), timeStamp: 2017-03-02 11:41:30.497
LEye coords (169.0, 254.0), REye coords (153.0, 258.0), timeStamp: 2017-03-02 11:41:30.530
LEye coords (169.0, 255.0), REye coords (153.0, 259.0), timeStamp: 2017-03-02 11:41:30.574
LEye coords (205.0, 237.0), REye coords (192.0, 241.0), timeStamp: 2017-03-02 11:41:30.608
LEye coords (202.0, 236.0), REye coords (191.0, 250.0), timeStamp: 2017-03-02 11:41:30.642
LEye coords (203.0, 237.0), REye coords (190.0, 250.0), timeStamp: 2017-03-02 11:41:30.676
LEye coords (203.0, 234.0), REye coords (190.0, 248.0), timeStamp: 2017-03-02 11:41:30.720
LEye coords (204.0, 234.0), REye coords (190.0, 249.0), timeStamp: 2017-03-02 11:41:30.754
LEye coords (203.0, 235.0), REye coords (190.0, 241.0), timeStamp: 2017-03-02 11:41:30.788
LEye coords (204.0, 233.0), REye coords (190.0, 251.0), timeStamp: 2017-03-02 11:41:30.832
LEye coords (204.0, 233.0), REye coords (189.0, 248.0), timeStamp: 2017-03-02 11:41:30.866
LEye coords (203.0, 234.0), REye coords (189.0, 247.0), timeStamp: 2017-03-02 11:41:30.899
LEye coords (203.0, 234.0), REye coords (189.0, 246.0), timeStamp: 2017-03-02 11:41:30.943
LEye coords (203.0, 234.0), REye coords (190.0, 245.0), timeStamp: 2017-03-02 11:41:30.976
LEye coords (203.0, 233.0), REye coords (190.0, 244.0), timeStamp: 2017-03-02 11:41:31.010
LEye coords (203.0, 233.0), REye coords (190.0, 245.0), timeStamp: 2017-03-02 11:41:31.056
