LEye coords (261.0, 229.0), REye coords (232.0, 219.0), timeStamp: 2017-03-02 11:41:32.193
LEye coords (261.0, 228.0), REye coords (234.0, 218.0), timeStamp: 2017-03-02 11:41:32.237
LEye coords (262.0, 226.0), REye coords (236.0, 217.0), timeStamp: 2017-03-02 11:41:32.271
LEye coords (263.0, 226.0), REye coords (237.0, 215.0), timeStamp: 2017-03-02 11:41:32.306
LEye coords (264.0, 226.0), REye coords (239.0, 214.0), timeStamp: 2017-03-02 11:41:32.350
LEye coords (395.0, 220.0), REye coords (240.0, 213.0), timeStamp: 2017-03-02 11:41:32.383
LEye coords (267.0, 222.0), REye coords (241.0, 213.0), timeStamp: 2017-03-02 11:41:32.417
LEye coords (267.0, 219.0), REye coords (242.0, 212.0), timeStamp: 2017-03-02 11:41:32.462
LEye coords (266.0, 217.0), REye coords (243.0, 211.0), timeStamp: 2017-03-02 11:41:32.496
LEye coords (260.0, 210.0), REye coords (242.0, 210.0), timeStamp: 2017-03-02 11:41:32.530
LEye coords (152.0, 136.0), REye coords (140.0, 111.0), timeStamp: 2017-03-02 11:41:32.563
LEye coords (154.0, 138.0), REye coords (0.0, 0.0), timeStamp: 2017-03-02 11:41:32.608
LEye coords (153.0, 138.0), REye coords (0.0, 0.0), timeStamp: 2017-03-02 11:41:32.642
LEye coords (152.0, 139.0), REye coords (0.0, 0.0), timeStamp: 2017-03-02 11:41:32.676
LEye coords (152.0, 139.0), REye coords (0.0, 0.0), timeStamp: 2017-03-02 11:41:32.719
LEye coords (150.0, 138.0), REye coords (131.0, 124.0), timeStamp: 2017-03-02 11:41:32.752
LEye coords (107.0, 137.0), REye coords (107.0, 128.0), timeStamp: 2017-03-02 11:41:32.785
LEye coords (108.0, 134.0), REye coords (99.0, 131.0), timeStamp: 2017-03-02 11:41:32.829
LEye coords (108.0, 134.0), REye coords (94.0, 135.0), timeStamp: 2017-03-02 11:41:32.863
LEye coords (108.0, 136.0), REye coords (80.0, 134.0), timeStamp: 2017-03-02 11:41:32.897
LEye coords (108.0, 136.0), REye coords (81.0, 135.0), timeStamp: 2017-03-02 11:41:32.941
LEye coords (108.0, 137.0), REye coords (80.0, 137.0), timeStamp: 2017-03-02 11:41:32.975
LEye coords (111.0, 137.0), REye coords (87.0, 140.0), timeStamp: 2017-03-02 11:41:33.009
LEye coords (114.0, 138.0), REye coords (89.0, 143.0), timeStamp: 2017-03-02 11:41:33.053
LEye coords (115.0, 139.0), REye coords (91.0, 144.0), timeStamp: 2017-03-02 11:41:33.086
LEye coords (117.0, 140.0), REye coords (92.0, 144.0), timeStamp: 2017-03-02 11:41:33.120
LEye coords (118.0, 141.0), REye coords (93.0, 145.0), timeStamp: 2017-03-02 11:41:33.163
LEye coords (119.0, 142.0), REye coords (93.0, 146.0), timeStamp: 2017-03-02 11:41:33.197
LEye coords (120.0, 142.0), REye coords (94.0, 146.0), timeStamp: 2017-03-02 11:41:33.231
