LEye coords (129.0, 255.0), REye coords (111.0, 242.0), timeStamp: 2017-03-02 11:41:38.339
LEye coords (128.0, 254.0), REye coords (111.0, 242.0), timeStamp: 2017-03-02 11:41:38.382
LEye coords (128.0, 253.0), REye coords (111.0, 242.0), timeStamp: 2017-03-02 11:41:38.416
LEye coords (127.0, 253.0), REye coords (111.0, 242.0), timeStamp: 2017-03-02 11:41:38.451
LEye coords (127.0, 252.0), REye coords (110.0, 243.0), timeStamp: 2017-03-02 11:41:38.484
LEye coords (126.0, 251.0), REye coords (110.0, 243.0), timeStamp: 2017-03-02 11:41:38.529
LEye coords (126.0, 251.0), REye coords (110.0, 245.0), timeStamp: 2017-03-02 11:41:38.562
LEye coords (125.0, 251.0), REye coords (110.0, 246.0), timeStamp: 2017-03-02 11:41:38.596
LEye coords (125.0, 251.0), REye coords (110.0, 246.0), timeStamp: 2017-03-02 11:41:38.640
LEye coords (125.0, 251.0), REye coords (110.0, 246.0), timeStamp: 2017-03-02 11:41:38.674
LEye coords (125.0, 251.0), REye coords (109.0, 247.0), timeStamp: 2017-03-02 11:41:38.707
LEye coords (124.0, 251.0), REye coords (109.0, 248.0), timeStamp: 2017-03-02 11:41:38.751
LEye coords (125.0, 252.0), REye coords (109.0, 249.0), timeStamp: 2017-03-02 11:41:38.784
LEye coords (125.0, 254.0), REye coords (109.0, 250.0), timeStamp: 2017-03-02 11:41:38.818
LEye coords (125.0, 256.0), REye coords (109.0, 250.0), timeStamp: 2017-03-02 11:41:38.861
LEye coords (126.0, 258.0), REye coords (110.0, 251.0), timeStamp: 2017-03-02 11:41:38.895
LEye coords (126.0, 260.0), REye coords (109.0, 253.0), timeStamp: 2017-03-02 11:41:38.929
LEye coords (125.0, 262.0), REye coords (109.0, 255.0), timeStamp: 2017-03-02 11:41:38.975
LEye coords (125.0, 264.0), REye coords (108.0, 257.0), timeStamp: 2017-03-02 11:41:39.009
LEye coords (124.0, 266.0), REye coords (108.0, 259.0), timeStamp: 2017-03-02 11:41:39.042
LEye coords (124.0, 268.0), REye coords (107.0, 261.0), timeStamp: 2017-03-02 11:41:39.086
LEye coords (123.0, 271.0), REye coords (106.0, 262.0), timeStamp: 2017-03-02 11:41:39.120
LEye coords (123.0, 273.0), REye coords (106.0, 264.0), timeStamp: 2017-03-02 11:41:39.154
LEye coords (122.0, 275.0), REye coords (105.0, 267.0), timeStamp: 2017-03-02 11:41:39.198
