LEye coords (199.0, 211.0), REye coords (0.0, 0.0), timeStamp: 2017-03-02 11:41:37.458
LEye coords (200.0, 210.0), REye coords (0.0, 0.0), timeStamp: 2017-03-02 11:41:37.491
LEye coords (201.0, 209.0), REye coords (0.0, 0.0), timeStamp: 2017-03-02 11:41:37.524
LEye coords (202.0, 209.0), REye coords (0.0, 0.0), timeStamp: 2017-03-02 11:41:37.570
LEye coords (202.0, 208.0), REye coords (0.0, 0.0), timeStamp: 2017-03-02 11:41:37.603
LEye coords (203.0, 208.0), REye coords (0.0, 0.0), timeStamp: 2017-03-02 11:41:37.638
LEye coords (203.0, 208.0), REye coords (0.0, 0.0), timeStamp: 2017-03-02 11:41:37.672
LEye coords (204.0, 208.0), REye coords (0.0, 0.0), timeStamp: 2017-03-02 11:41:37.715
LEye coords (204.0, 208.0), REye coords (0.0, 0.0), timeStamp: 2017-03-02 11:41:37.748
LEye coords (205.0, 207.0), REye coords (0.0, 0.0), timeStamp: 2017-03-02 11:41:37.781
LEye coords (206.0, 207.0), REye coords (0.0, 0.0), timeStamp: 2017-03-02 11:41:37.825
LEye coords (206.0, 205.0), REye coords (187.0, 183.0), timeStamp: 2017-03-02 11:41:37.858
LEye coords (206.0, 204.0), REye coords (187.0, 180.0), timeStamp: 2017-03-02 11:41:37.902
LEye coords (205.0, 202.0), REye coords (186.0, 179.0), timeStamp: 2017-03-02 11:41:37.936
LEye coords (205.0, 201.0), REye coords (184.0, 182.0), timeStamp: 2017-03-02 11:41:37.969
LEye coords (204.0, 199.0), REye coords (183.0, 183.0), timeStamp: 2017-03-02 11:41:38.011
LEye coords (203.0, 199.0), REye coords (179.0, 183.0), timeStamp: 2017-03-02 11:41:38.045
LEye coords (202.0, 197.0), REye coords (176.0, 182.0), timeStamp: 2017-03-02 11:41:38.079
LEye coords (200.0, 196.0), REye coords (174.0, 181.0), timeStamp: 2017-03-02 11:41:38.123
LEye coords (199.0, 195.0), REye coords (172.0, 181.0), timeStamp: 2017-03-02 11:41:38.157
LEye coords (198.0, 194.0), REye coords (171.0, 181.0), timeStamp: 2017-03-02 11:41:38.192
LEye coords (197.0, 193.0), REye coords (170.0, 180.0), timeStamp: 2017-03-02 11:41:38.225
