LEye coords (213.0, 235.0), REye coords (208.0, 221.0), timeStamp: 2017-03-02 11:42:15.978
LEye coords (320.0, 175.0), REye coords (313.0, 167.0), timeStamp: 2017-03-02 11:42:16.022
LEye coords (321.0, 176.0), REye coords (313.0, 168.0), timeStamp: 2017-03-02 11:42:16.056
LEye coords (319.0, 178.0), REye coords (311.0, 170.0), timeStamp: 2017-03-02 11:42:16.089
LEye coords (284.0, 212.0), REye coords (270.0, 200.0), timeStamp: 2017-03-02 11:42:16.134
LEye coords (283.0, 217.0), REye coords (271.0, 199.0), timeStamp: 2017-03-02 11:42:16.167
LEye coords (284.0, 220.0), REye coords (272.0, 199.0), timeStamp: 2017-03-02 11:42:16.201
LEye coords (285.0, 221.0), REye coords (272.0, 200.0), timeStamp: 2017-03-02 11:42:16.236
LEye coords (285.0, 220.0), REye coords (272.0, 201.0), timeStamp: 2017-03-02 11:42:16.280
LEye coords (285.0, 219.0), REye coords (272.0, 202.0), timeStamp: 2017-03-02 11:42:16.313
LEye coords (285.0, 219.0), REye coords (272.0, 202.0), timeStamp: 2017-03-02 11:42:16.347
LEye coords (288.0, 214.0), REye coords (275.0, 200.0), timeStamp: 2017-03-02 11:42:16.391
LEye coords (293.0, 210.0), REye coords (325.0, 179.0), timeStamp: 2017-03-02 11:42:16.425
LEye coords (298.0, 208.0), REye coords (327.0, 186.0), timeStamp: 2017-03-02 11:42:16.458
LEye coords (302.0, 206.0), REye coords (330.0, 180.0), timeStamp: 2017-03-02 11:42:16.502
LEye coords (306.0, 204.0), REye coords (330.0, 180.0), timeStamp: 2017-03-02 11:42:16.537
LEye coords (309.0, 203.0), REye coords (330.0, 179.0), timeStamp: 2017-03-02 11:42:16.570
LEye coords (311.0, 200.0), REye coords (330.0, 179.0), timeStamp: 2017-03-02 11:42:16.614
LEye coords (314.0, 199.0), REye coords (330.0, 178.0), timeStamp: 2017-03-02 11:42:16.647
LEye coords (316.0, 197.0), REye coords (329.0, 179.0), timeStamp: 2017-03-02 11:42:16.681
LEye coords (364.0, 193.0), REye coords (0.0, 0.0), timeStamp: 2017-03-02 11:42:16.723
LEye coords (368.0, 195.0), REye coords (0.0, 0.0), timeStamp: 2017-03-02 11:42:16.757
LEye coords (366.0, 199.0), REye coords (333.0, 180.0), timeStamp: 2017-03-02 11:42:16.791
LEye coords (366.0, 197.0), REye coords (0.0, 0.0), timeStamp: 2017-03-02 11:42:16.834
LEye coords (367.0, 199.0), REye coords (336.0, 181.0), timeStamp: 2017-03-02 11:42:16.867
LEye coords (366.0, 199.0), REye coords (353.0, 199.0), timeStamp: 2017-03-02 11:42:16.902
LEye coords (367.0, 198.0), REye coords (356.0, 202.0), timeStamp: 2017-03-02 11:42:16.946
