LEye coords (228.0, 241.0), REye coords (226.0, 217.0), timeStamp: 2017-03-02 11:42:23.130
LEye coords (229.0, 239.0), REye coords (227.0, 214.0), timeStamp: 2017-03-02 11:42:23.164
LEye coords (230.0, 238.0), REye coords (228.0, 212.0), timeStamp: 2017-03-02 11:42:23.198
LEye coords (231.0, 236.0), REye coords (229.0, 211.0), timeStamp: 2017-03-02 11:42:23.232
LEye coords (231.0, 235.0), REye coords (230.0, 209.0), timeStamp: 2017-03-02 11:42:23.276
LEye coords (232.0, 234.0), REye coords (230.0, 208.0), timeStamp: 2017-03-02 11:42:23.310
LEye coords (232.0, 233.0), REye coords (231.0, 207.0), timeStamp: 2017-03-02 11:42:23.343
LEye coords (232.0, 234.0), REye coords (232.0, 206.0), timeStamp: 2017-03-02 11:42:23.388
LEye coords (308.0, 360.0), REye coords (297.0, 329.0), timeStamp: 2017-03-02 11:42:23.422
LEye coords (302.0, 375.0), REye coords (304.0, 331.0), timeStamp: 2017-03-02 11:42:23.456
LEye coords (301.0, 373.0), REye coords (309.0, 330.0), timeStamp: 2017-03-02 11:42:23.490
LEye coords (304.0, 372.0), REye coords (310.0, 331.0), timeStamp: 2017-03-02 11:42:23.533
LEye coords (304.0, 373.0), REye coords (313.0, 337.0), timeStamp: 2017-03-02 11:42:23.567
LEye coords (307.0, 379.0), REye coords (314.0, 342.0), timeStamp: 2017-03-02 11:42:23.601
LEye coords (310.0, 370.0), REye coords (255.0, 350.0), timeStamp: 2017-03-02 11:42:23.644
LEye coords (322.0, 372.0), REye coords (283.0, 352.0), timeStamp: 2017-03-02 11:42:23.678
LEye coords (328.0, 372.0), REye coords (300.0, 353.0), timeStamp: 2017-03-02 11:42:23.712
LEye coords (332.0, 373.0), REye coords (351.0, 358.0), timeStamp: 2017-03-02 11:42:23.755
LEye coords (333.0, 375.0), REye coords (355.0, 364.0), timeStamp: 2017-03-02 11:42:23.788
LEye coords (334.0, 375.0), REye coords (354.0, 363.0), timeStamp: 2017-03-02 11:42:23.831
LEye coords (335.0, 375.0), REye coords (0.0, 0.0), timeStamp: 2017-03-02 11:42:23.865
LEye coords (336.0, 375.0), REye coords (0.0, 0.0), timeStamp: 2017-03-02 11:42:23.899
LEye coords (337.0, 375.0), REye coords (0.0, 0.0), timeStamp: 2017-03-02 11:42:23.943
LEye coords (338.0, 375.0), REye coords (0.0, 0.0), timeStamp: 2017-03-02 11:42:23.977
LEye coords (338.0, 376.0), REye coords (0.0, 0.0), timeStamp: 2017-03-02 11:42:24.010
LEye coords (339.0, 377.0), REye coords (0.0, 0.0), timeStamp: 2017-03-02 11:42:24.055
LEye coords (339.0, 377.0), REye coords (0.0, 0.0), timeStamp: 2017-03-02 11:42:24.090
LEye coords (339.0, 378.0), REye coords (0.0, 0.0), timeStamp: 2017-03-02 11:42:24.124
