LEye coords (0.0, 0.0), REye coords (156.0, 175.0), timeStamp: 2017-03-02 11:44:47.868
LEye coords (0.0, 0.0), REye coords (155.0, 175.0), timeStamp: 2017-03-02 11:44:47.913
LEye coords (0.0, 0.0), REye coords (155.0, 176.0), timeStamp: 2017-03-02 11:44:47.946
LEye coords (0.0, 0.0), REye coords (155.0, 176.0), timeStamp: 2017-03-02 11:44:47.981
LEye coords (0.0, 0.0), REye coords (155.0, 175.0), timeStamp: 2017-03-02 11:44:48.025
LEye coords (0.0, 0.0), REye coords (155.0, 176.0), timeStamp: 2017-03-02 11:44:48.059
LEye coords (171.0, 191.0), REye coords (156.0, 177.0), timeStamp: 2017-03-02 11:44:48.092
LEye coords (183.0, 198.0), REye coords (222.0, 196.0), timeStamp: 2017-03-02 11:44:48.136
LEye coords (218.0, 217.0), REye coords (224.0, 201.0), timeStamp: 2017-03-02 11:44:48.170
LEye coords (220.0, 218.0), REye coords (222.0, 202.0), timeStamp: 2017-03-02 11:44:48.205
LEye coords (220.0, 218.0), REye coords (222.0, 202.0), timeStamp: 2017-03-02 11:44:48.239
LEye coords (220.0, 218.0), REye coords (222.0, 202.0), timeStamp: 2017-03-02 11:44:48.284
LEye coords (219.0, 217.0), REye coords (219.0, 203.0), timeStamp: 2017-03-02 11:44:48.317
LEye coords (220.0, 217.0), REye coords (221.0, 196.0), timeStamp: 2017-03-02 11:44:48.351
LEye coords (226.0, 221.0), REye coords (245.0, 197.0), timeStamp: 2017-03-02 11:44:48.394
LEye coords (231.0, 224.0), REye coords (253.0, 198.0), timeStamp: 2017-03-02 11:44:48.427
LEye coords (0.0, 0.0), REye coords (258.0, 199.0), timeStamp: 2017-03-02 11:44:48.461
LEye coords (0.0, 0.0), REye coords (259.0, 200.0), timeStamp: 2017-03-02 11:44:48.504
LEye coords (0.0, 0.0), REye coords (261.0, 201.0), timeStamp: 2017-03-02 11:44:48.537
LEye coords (0.0, 0.0), REye coords (262.0, 200.0), timeStamp: 2017-03-02 11:44:48.572
LEye coords (0.0, 0.0), REye coords (269.0, 206.0), timeStamp: 2017-03-02 11:44:48.615
LEye coords (0.0, 0.0), REye coords (266.0, 212.0), timeStamp: 2017-03-02 11:44:48.648
LEye coords (0.0, 0.0), REye coords (265.0, 212.0), timeStamp: 2017-03-02 11:44:48.682
