LEye coords (12.0, 71.0), REye coords (23.0, 68.0), timeStamp: 2017-03-02 11:45:45.316
LEye coords (11.0, 72.0), REye coords (23.0, 69.0), timeStamp: 2017-03-02 11:45:45.349
LEye coords (102.0, 84.0), REye coords (115.0, 76.0), timeStamp: 2017-03-02 11:45:45.383
LEye coords (0.0, 0.0), REye coords (237.0, 138.0), timeStamp: 2017-03-02 11:45:45.429
LEye coords (0.0, 0.0), REye coords (245.0, 135.0), timeStamp: 2017-03-02 11:45:45.463
LEye coords (0.0, 0.0), REye coords (248.0, 133.0), timeStamp: 2017-03-02 11:45:45.497
LEye coords (247.0, 127.0), REye coords (248.0, 132.0), timeStamp: 2017-03-02 11:45:45.530
LEye coords (247.0, 128.0), REye coords (254.0, 121.0), timeStamp: 2017-03-02 11:45:45.575
LEye coords (251.0, 130.0), REye coords (267.0, 149.0), timeStamp: 2017-03-02 11:45:45.608
LEye coords (267.0, 154.0), REye coords (299.0, 186.0), timeStamp: 2017-03-02 11:45:45.641
LEye coords (320.0, 224.0), REye coords (311.0, 198.0), timeStamp: 2017-03-02 11:45:45.684
LEye coords (320.0, 224.0), REye coords (317.0, 204.0), timeStamp: 2017-03-02 11:45:45.717
LEye coords (313.0, 225.0), REye coords (316.0, 226.0), timeStamp: 2017-03-02 11:45:45.762
LEye coords (315.0, 223.0), REye coords (336.0, 219.0), timeStamp: 2017-03-02 11:45:45.796
LEye coords (316.0, 222.0), REye coords (337.0, 221.0), timeStamp: 2017-03-02 11:45:45.829
LEye coords (316.0, 222.0), REye coords (340.0, 220.0), timeStamp: 2017-03-02 11:45:45.863
LEye coords (316.0, 220.0), REye coords (341.0, 218.0), timeStamp: 2017-03-02 11:45:45.907
LEye coords (316.0, 220.0), REye coords (342.0, 217.0), timeStamp: 2017-03-02 11:45:45.941
LEye coords (318.0, 218.0), REye coords (346.0, 215.0), timeStamp: 2017-03-02 11:45:45.975
LEye coords (320.0, 217.0), REye coords (349.0, 213.0), timeStamp: 2017-03-02 11:45:46.020
LEye coords (321.0, 216.0), REye coords (351.0, 212.0), timeStamp: 2017-03-02 11:45:46.053
LEye coords (323.0, 214.0), REye coords (353.0, 211.0), timeStamp: 2017-03-02 11:45:46.087
LEye coords (324.0, 213.0), REye coords (355.0, 211.0), timeStamp: 2017-03-02 11:45:46.131
LEye coords (325.0, 213.0), REye coords (356.0, 210.0), timeStamp: 2017-03-02 11:45:46.164
LEye coords (326.0, 212.0), REye coords (357.0, 210.0), timeStamp: 2017-03-02 11:45:46.198
LEye coords (328.0, 212.0), REye coords (358.0, 210.0), timeStamp: 2017-03-02 11:45:46.243
LEye coords (328.0, 212.0), REye coords (358.0, 210.0), timeStamp: 2017-03-02 11:45:46.276
LEye coords (329.0, 212.0), REye coords (359.0, 209.0), timeStamp: 2017-03-02 11:45:46.310
LEye coords (330.0, 212.0), REye coords (360.0, 209.0), timeStamp: 2017-03-02 11:45:46.354
