LEye coords (257.0, 196.0), REye coords (272.0, 182.0), timeStamp: 2017-03-02 11:44:53.309
LEye coords (258.0, 196.0), REye coords (272.0, 182.0), timeStamp: 2017-03-02 11:44:53.352
LEye coords (256.0, 197.0), REye coords (270.0, 182.0), timeStamp: 2017-03-02 11:44:53.240
LEye coords (257.0, 197.0), REye coords (271.0, 182.0), timeStamp: 2017-03-02 11:44:53.274
LEye coords (252.0, 157.0), REye coords (268.0, 171.0), timeStamp: 2017-03-02 11:45:43.021
LEye coords (252.0, 157.0), REye coords (268.0, 172.0), timeStamp: 2017-03-02 11:45:43.055
LEye coords (247.0, 163.0), REye coords (264.0, 181.0), timeStamp: 2017-03-02 11:45:43.089
LEye coords (251.0, 159.0), REye coords (265.0, 178.0), timeStamp: 2017-03-02 11:45:43.132
LEye coords (248.0, 160.0), REye coords (265.0, 177.0), timeStamp: 2017-03-02 11:45:43.165
LEye coords (249.0, 161.0), REye coords (265.0, 176.0), timeStamp: 2017-03-02 11:45:43.208
LEye coords (248.0, 162.0), REye coords (266.0, 176.0), timeStamp: 2017-03-02 11:45:43.242
LEye coords (248.0, 162.0), REye coords (266.0, 175.0), timeStamp: 2017-03-02 11:45:43.277
LEye coords (247.0, 163.0), REye coords (267.0, 175.0), timeStamp: 2017-03-02 11:45:43.311
LEye coords (247.0, 163.0), REye coords (266.0, 176.0), timeStamp: 2017-03-02 11:45:43.354
LEye coords (247.0, 163.0), REye coords (267.0, 176.0), timeStamp: 2017-03-02 11:45:43.388
LEye coords (247.0, 164.0), REye coords (267.0, 175.0), timeStamp: 2017-03-02 11:45:43.421
LEye coords (0.0, 0.0), REye coords (270.0, 178.0), timeStamp: 2017-03-02 11:45:43.466
LEye coords (283.0, 204.0), REye coords (273.0, 181.0), timeStamp: 2017-03-02 11:45:43.500
LEye coords (0.0, 0.0), REye coords (276.0, 183.0), timeStamp: 2017-03-02 11:45:43.533
LEye coords (0.0, 0.0), REye coords (277.0, 186.0), timeStamp: 2017-03-02 11:45:43.577
LEye coords (0.0, 0.0), REye coords (279.0, 188.0), timeStamp: 2017-03-02 11:45:43.611
LEye coords (0.0, 0.0), REye coords (281.0, 190.0), timeStamp: 2017-03-02 11:45:43.644
LEye coords (213.0, 184.0), REye coords (221.0, 188.0), timeStamp: 2017-03-02 11:45:43.688
LEye coords (197.0, 181.0), REye coords (179.0, 170.0), timeStamp: 2017-03-02 11:45:43.723
LEye coords (190.0, 180.0), REye coords (177.0, 170.0), timeStamp: 2017-03-02 11:45:43.756
LEye coords (186.0, 180.0), REye coords (176.0, 169.0), timeStamp: 2017-03-02 11:45:43.800
LEye coords (173.0, 178.0), REye coords (176.0, 173.0), timeStamp: 2017-03-02 11:45:43.833
LEye coords (174.0, 176.0), REye coords (172.0, 173.0), timeStamp: 2017-03-02 11:45:43.866
LEye coords (177.0, 177.0), REye coords (174.0, 171.0), timeStamp: 2017-03-02 11:45:43.911
LEye coords (178.0, 179.0), REye coords (174.0, 173.0), timeStamp: 2017-03-02 11:45:43.943
LEye coords (178.0, 180.0), REye coords (174.0, 176.0), timeStamp: 2017-03-02 11:45:43.977
LEye coords (178.0, 181.0), REye coords (173.0, 175.0), timeStamp: 2017-03-02 11:45:44.021
LEye coords (178.0, 181.0), REye coords (173.0, 176.0), timeStamp: 2017-03-02 11:45:44.055
LEye coords (177.0, 181.0), REye coords (173.0, 176.0), timeStamp: 2017-03-02 11:45:44.088
LEye coords (179.0, 179.0), REye coords (178.0, 173.0), timeStamp: 2017-03-02 11:45:44.132
LEye coords (181.0, 177.0), REye coords (0.0, 0.0), timeStamp: 2017-03-02 11:45:44.165
LEye coords (183.0, 175.0), REye coords (0.0, 0.0), timeStamp: 2017-03-02 11:45:44.199
LEye coords (185.0, 174.0), REye coords (182.0, 171.0), timeStamp: 2017-03-02 11:45:44.242
LEye coords (80.0, 60.0), REye coords (82.0, 65.0), timeStamp: 2017-03-02 11:45:44.276
LEye coords (47.0, 44.0), REye coords (38.0, 51.0), timeStamp: 2017-03-02 11:45:44.310
LEye coords (48.0, 43.0), REye coords (39.0, 50.0), timeStamp: 2017-03-02 11:45:44.353
LEye coords (46.0, 44.0), REye coords (39.0, 50.0), timeStamp: 2017-03-02 11:45:44.387
LEye coords (46.0, 43.0), REye coords (40.0, 51.0), timeStamp: 2017-03-02 11:45:44.420
LEye coords (48.0, 46.0), REye coords (41.0, 50.0), timeStamp: 2017-03-02 11:45:44.463
LEye coords (47.0, 40.0), REye coords (41.0, 50.0), timeStamp: 2017-03-02 11:45:44.497
LEye coords (48.0, 43.0), REye coords (42.0, 52.0), timeStamp: 2017-03-02 11:45:44.530
LEye coords (46.0, 45.0), REye coords (42.0, 53.0), timeStamp: 2017-03-02 11:45:44.575
LEye coords (46.0, 46.0), REye coords (42.0, 53.0), timeStamp: 2017-03-02 11:45:44.609
LEye coords (45.0, 47.0), REye coords (42.0, 53.0), timeStamp: 2017-03-02 11:45:44.643
LEye coords (39.0, 52.0), REye coords (38.0, 57.0), timeStamp: 2017-03-02 11:45:44.686
LEye coords (34.0, 55.0), REye coords (36.0, 59.0), timeStamp: 2017-03-02 11:45:44.720
LEye coords (30.0, 58.0), REye coords (34.0, 61.0), timeStamp: 2017-03-02 11:45:44.753
LEye coords (27.0, 60.0), REye coords (32.0, 63.0), timeStamp: 2017-03-02 11:45:44.797
LEye coords (25.0, 62.0), REye coords (31.0, 64.0), timeStamp: 2017-03-02 11:45:44.831
LEye coords (24.0, 63.0), REye coords (30.0, 65.0), timeStamp: 2017-03-02 11:45:44.865
LEye coords (22.0, 64.0), REye coords (29.0, 66.0), timeStamp: 2017-03-02 11:45:44.909
LEye coords (21.0, 66.0), REye coords (28.0, 67.0), timeStamp: 2017-03-02 11:45:44.945
LEye coords (20.0, 67.0), REye coords (28.0, 68.0), timeStamp: 2017-03-02 11:45:44.978
LEye coords (19.0, 68.0), REye coords (27.0, 68.0), timeStamp: 2017-03-02 11:45:45.023
LEye coords (18.0, 69.0), REye coords (27.0, 69.0), timeStamp: 2017-03-02 11:45:45.057
LEye coords (17.0, 70.0), REye coords (26.0, 70.0), timeStamp: 2017-03-02 11:45:45.091
LEye coords (16.0, 71.0), REye coords (26.0, 70.0), timeStamp: 2017-03-02 11:45:45.125
LEye coords (15.0, 72.0), REye coords (25.0, 71.0), timeStamp: 2017-03-02 11:45:45.169
LEye coords (15.0, 73.0), REye coords (25.0, 71.0), timeStamp: 2017-03-02 11:45:45.203
