LEye coords (206.0, 282.0), REye coords (210.0, 280.0), timeStamp: 2017-03-02 11:45:52.533
LEye coords (206.0, 284.0), REye coords (210.0, 280.0), timeStamp: 2017-03-02 11:45:52.567
LEye coords (206.0, 286.0), REye coords (210.0, 281.0), timeStamp: 2017-03-02 11:45:52.601
LEye coords (206.0, 287.0), REye coords (210.0, 281.0), timeStamp: 2017-03-02 11:45:52.646
LEye coords (205.0, 288.0), REye coords (210.0, 282.0), timeStamp: 2017-03-02 11:45:52.679
LEye coords (205.0, 289.0), REye coords (209.0, 283.0), timeStamp: 2017-03-02 11:45:52.714
LEye coords (206.0, 289.0), REye coords (209.0, 283.0), timeStamp: 2017-03-02 11:45:52.747
LEye coords (224.0, 204.0), REye coords (230.0, 213.0), timeStamp: 2017-03-02 11:45:52.792
LEye coords (223.0, 211.0), REye coords (232.0, 201.0), timeStamp: 2017-03-02 11:45:52.826
LEye coords (222.0, 211.0), REye coords (232.0, 206.0), timeStamp: 2017-03-02 11:45:52.859
LEye coords (222.0, 211.0), REye coords (233.0, 209.0), timeStamp: 2017-03-02 11:45:52.904
LEye coords (222.0, 213.0), REye coords (233.0, 210.0), timeStamp: 2017-03-02 11:45:52.937
LEye coords (225.0, 213.0), REye coords (231.0, 213.0), timeStamp: 2017-03-02 11:45:52.971
LEye coords (272.0, 190.0), REye coords (297.0, 206.0), timeStamp: 2017-03-02 11:45:53.016
LEye coords (300.0, 192.0), REye coords (324.0, 211.0), timeStamp: 2017-03-02 11:45:53.050
LEye coords (309.0, 192.0), REye coords (0.0, 0.0), timeStamp: 2017-03-02 11:45:53.083
LEye coords (314.0, 191.0), REye coords (335.0, 212.0), timeStamp: 2017-03-02 11:45:53.127
LEye coords (329.0, 186.0), REye coords (340.0, 213.0), timeStamp: 2017-03-02 11:45:53.161
LEye coords (246.0, 192.0), REye coords (265.0, 207.0), timeStamp: 2017-03-02 11:45:53.194
LEye coords (251.0, 195.0), REye coords (265.0, 206.0), timeStamp: 2017-03-02 11:45:53.229
LEye coords (253.0, 196.0), REye coords (266.0, 205.0), timeStamp: 2017-03-02 11:45:53.272
LEye coords (251.0, 197.0), REye coords (265.0, 205.0), timeStamp: 2017-03-02 11:45:53.306
LEye coords (241.0, 213.0), REye coords (265.0, 205.0), timeStamp: 2017-03-02 11:45:53.349
LEye coords (271.0, 198.0), REye coords (296.0, 199.0), timeStamp: 2017-03-02 11:45:53.382
LEye coords (295.0, 196.0), REye coords (323.0, 205.0), timeStamp: 2017-03-02 11:45:53.416
