LEye coords (252.0, 149.0), REye coords (257.0, 163.0), timeStamp: 2017-03-02 11:45:58.823
LEye coords (252.0, 149.0), REye coords (257.0, 163.0), timeStamp: 2017-03-02 11:45:58.857
LEye coords (252.0, 149.0), REye coords (257.0, 163.0), timeStamp: 2017-03-02 11:45:58.891
LEye coords (252.0, 149.0), REye coords (257.0, 163.0), timeStamp: 2017-03-02 11:45:58.936
LEye coords (252.0, 150.0), REye coords (257.0, 164.0), timeStamp: 2017-03-02 11:45:58.970
LEye coords (252.0, 151.0), REye coords (257.0, 164.0), timeStamp: 2017-03-02 11:45:59.003
LEye coords (252.0, 152.0), REye coords (257.0, 164.0), timeStamp: 2017-03-02 11:45:59.048
LEye coords (252.0, 152.0), REye coords (258.0, 165.0), timeStamp: 2017-03-02 11:45:59.081
LEye coords (253.0, 152.0), REye coords (258.0, 165.0), timeStamp: 2017-03-02 11:45:59.116
LEye coords (252.0, 153.0), REye coords (258.0, 165.0), timeStamp: 2017-03-02 11:45:59.160
LEye coords (252.0, 153.0), REye coords (258.0, 166.0), timeStamp: 2017-03-02 11:45:59.195
LEye coords (250.0, 154.0), REye coords (214.0, 161.0), timeStamp: 2017-03-02 11:45:59.228
LEye coords (249.0, 154.0), REye coords (231.0, 149.0), timeStamp: 2017-03-02 11:45:59.262
LEye coords (247.0, 154.0), REye coords (230.0, 149.0), timeStamp: 2017-03-02 11:45:59.306
LEye coords (245.0, 154.0), REye coords (230.0, 148.0), timeStamp: 2017-03-02 11:45:59.340
LEye coords (243.0, 154.0), REye coords (230.0, 147.0), timeStamp: 2017-03-02 11:45:59.374
LEye coords (241.0, 154.0), REye coords (230.0, 147.0), timeStamp: 2017-03-02 11:45:59.417
LEye coords (239.0, 154.0), REye coords (230.0, 148.0), timeStamp: 2017-03-02 11:45:59.453
LEye coords (192.0, 152.0), REye coords (225.0, 149.0), timeStamp: 2017-03-02 11:45:59.486
LEye coords (184.0, 151.0), REye coords (220.0, 149.0), timeStamp: 2017-03-02 11:45:59.530
LEye coords (186.0, 150.0), REye coords (217.0, 149.0), timeStamp: 2017-03-02 11:45:59.563
LEye coords (185.0, 150.0), REye coords (213.0, 149.0), timeStamp: 2017-03-02 11:45:59.596
LEye coords (185.0, 152.0), REye coords (191.0, 148.0), timeStamp: 2017-03-02 11:45:59.641
LEye coords (183.0, 153.0), REye coords (178.0, 149.0), timeStamp: 2017-03-02 11:45:59.675
LEye coords (181.0, 154.0), REye coords (171.0, 149.0), timeStamp: 2017-03-02 11:45:59.708
LEye coords (179.0, 154.0), REye coords (169.0, 147.0), timeStamp: 2017-03-02 11:45:59.752
LEye coords (177.0, 155.0), REye coords (169.0, 148.0), timeStamp: 2017-03-02 11:45:59.786
LEye coords (164.0, 159.0), REye coords (168.0, 148.0), timeStamp: 2017-03-02 11:45:59.820
LEye coords (164.0, 160.0), REye coords (168.0, 149.0), timeStamp: 2017-03-02 11:45:59.855
LEye coords (165.0, 159.0), REye coords (168.0, 149.0), timeStamp: 2017-03-02 11:45:59.899
LEye coords (164.0, 158.0), REye coords (167.0, 149.0), timeStamp: 2017-03-02 11:45:59.933
LEye coords (165.0, 157.0), REye coords (167.0, 150.0), timeStamp: 2017-03-02 11:45:59.967
