LEye coords (106.0, 199.0), REye coords (106.0, 192.0), timeStamp: 2017-03-02 11:46:00.113
LEye coords (166.0, 235.0), REye coords (172.0, 215.0), timeStamp: 2017-03-02 11:46:32.173
LEye coords (166.0, 234.0), REye coords (171.0, 234.0), timeStamp: 2017-03-02 11:46:32.207
LEye coords (164.0, 237.0), REye coords (167.0, 237.0), timeStamp: 2017-03-02 11:46:32.241
LEye coords (167.0, 234.0), REye coords (166.0, 240.0), timeStamp: 2017-03-02 11:46:32.274
LEye coords (167.0, 238.0), REye coords (167.0, 240.0), timeStamp: 2017-03-02 11:46:32.317
LEye coords (166.0, 237.0), REye coords (167.0, 240.0), timeStamp: 2017-03-02 11:46:32.351
LEye coords (166.0, 238.0), REye coords (167.0, 241.0), timeStamp: 2017-03-02 11:46:32.394
LEye coords (166.0, 238.0), REye coords (167.0, 241.0), timeStamp: 2017-03-02 11:46:32.427
LEye coords (166.0, 238.0), REye coords (167.0, 241.0), timeStamp: 2017-03-02 11:46:32.460
LEye coords (166.0, 238.0), REye coords (167.0, 241.0), timeStamp: 2017-03-02 11:46:32.504
LEye coords (166.0, 239.0), REye coords (167.0, 242.0), timeStamp: 2017-03-02 11:46:32.538
LEye coords (166.0, 239.0), REye coords (167.0, 242.0), timeStamp: 2017-03-02 11:46:32.572
LEye coords (168.0, 240.0), REye coords (169.0, 243.0), timeStamp: 2017-03-02 11:46:32.617
LEye coords (170.0, 241.0), REye coords (170.0, 243.0), timeStamp: 2017-03-02 11:46:32.653
LEye coords (171.0, 242.0), REye coords (172.0, 244.0), timeStamp: 2017-03-02 11:46:32.686
LEye coords (172.0, 244.0), REye coords (173.0, 245.0), timeStamp: 2017-03-02 11:46:32.720
LEye coords (173.0, 246.0), REye coords (174.0, 246.0), timeStamp: 2017-03-02 11:46:32.765
LEye coords (174.0, 247.0), REye coords (175.0, 247.0), timeStamp: 2017-03-02 11:46:32.799
LEye coords (174.0, 247.0), REye coords (176.0, 248.0), timeStamp: 2017-03-02 11:46:32.832
LEye coords (175.0, 248.0), REye coords (177.0, 249.0), timeStamp: 2017-03-02 11:46:32.876
LEye coords (176.0, 249.0), REye coords (177.0, 251.0), timeStamp: 2017-03-02 11:46:32.909
LEye coords (177.0, 250.0), REye coords (178.0, 252.0), timeStamp: 2017-03-02 11:46:32.944
