LEye coords (253.0, 144.0), REye coords (262.0, 150.0), timeStamp: 2017-02-22 15:11:10.826
LEye coords (253.0, 144.0), REye coords (262.0, 150.0), timeStamp: 2017-02-22 15:11:10.859
LEye coords (253.0, 144.0), REye coords (262.0, 150.0), timeStamp: 2017-02-22 15:11:10.893
LEye coords (253.0, 145.0), REye coords (262.0, 151.0), timeStamp: 2017-02-22 15:11:10.937
LEye coords (253.0, 145.0), REye coords (262.0, 151.0), timeStamp: 2017-02-22 15:11:10.970
LEye coords (253.0, 146.0), REye coords (261.0, 151.0), timeStamp: 2017-02-22 15:11:11.004
LEye coords (253.0, 146.0), REye coords (262.0, 152.0), timeStamp: 2017-02-22 15:11:11.048
LEye coords (253.0, 146.0), REye coords (261.0, 153.0), timeStamp: 2017-02-22 15:11:11.083
LEye coords (253.0, 146.0), REye coords (261.0, 153.0), timeStamp: 2017-02-22 15:11:11.117
LEye coords (170.0, 176.0), REye coords (179.0, 121.0), timeStamp: 2017-02-22 15:11:11.162
LEye coords (169.0, 161.0), REye coords (180.0, 138.0), timeStamp: 2017-02-22 15:11:11.195
LEye coords (169.0, 164.0), REye coords (179.0, 130.0), timeStamp: 2017-02-22 15:11:11.229
LEye coords (169.0, 166.0), REye coords (180.0, 129.0), timeStamp: 2017-02-22 15:11:11.263
LEye coords (170.0, 167.0), REye coords (181.0, 131.0), timeStamp: 2017-02-22 15:11:11.308
LEye coords (172.0, 172.0), REye coords (183.0, 135.0), timeStamp: 2017-02-22 15:11:11.342
LEye coords (173.0, 175.0), REye coords (183.0, 132.0), timeStamp: 2017-02-22 15:11:11.376
LEye coords (176.0, 198.0), REye coords (0.0, 0.0), timeStamp: 2017-02-22 15:11:11.410
LEye coords (178.0, 216.0), REye coords (0.0, 0.0), timeStamp: 2017-02-22 15:11:11.454
LEye coords (179.0, 224.0), REye coords (0.0, 0.0), timeStamp: 2017-02-22 15:11:11.488
LEye coords (180.0, 228.0), REye coords (0.0, 0.0), timeStamp: 2017-02-22 15:11:11.522
LEye coords (180.0, 228.0), REye coords (0.0, 0.0), timeStamp: 2017-02-22 15:11:11.567
LEye coords (180.0, 232.0), REye coords (0.0, 0.0), timeStamp: 2017-02-22 15:11:11.601
LEye coords (180.0, 235.0), REye coords (0.0, 0.0), timeStamp: 2017-02-22 15:11:11.634
LEye coords (194.0, 277.0), REye coords (199.0, 170.0), timeStamp: 2017-02-22 15:11:11.679
LEye coords (193.0, 280.0), REye coords (199.0, 204.0), timeStamp: 2017-02-22 15:11:11.713
LEye coords (193.0, 277.0), REye coords (199.0, 221.0), timeStamp: 2017-02-22 15:11:11.746
LEye coords (192.0, 279.0), REye coords (196.0, 271.0), timeStamp: 2017-02-22 15:11:11.779
LEye coords (191.0, 278.0), REye coords (195.0, 271.0), timeStamp: 2017-02-22 15:11:11.823
LEye coords (192.0, 279.0), REye coords (192.0, 286.0), timeStamp: 2017-02-22 15:11:11.856
LEye coords (192.0, 279.0), REye coords (199.0, 257.0), timeStamp: 2017-02-22 15:11:11.900
LEye coords (192.0, 280.0), REye coords (201.0, 246.0), timeStamp: 2017-02-22 15:11:11.933
LEye coords (192.0, 280.0), REye coords (201.0, 250.0), timeStamp: 2017-02-22 15:11:11.966
LEye coords (192.0, 281.0), REye coords (201.0, 243.0), timeStamp: 2017-02-22 15:11:12.010
LEye coords (191.0, 281.0), REye coords (202.0, 239.0), timeStamp: 2017-02-22 15:11:12.045
LEye coords (192.0, 282.0), REye coords (204.0, 206.0), timeStamp: 2017-02-22 15:11:12.078
LEye coords (192.0, 282.0), REye coords (202.0, 203.0), timeStamp: 2017-02-22 15:11:12.122
LEye coords (191.0, 282.0), REye coords (198.0, 240.0), timeStamp: 2017-02-22 15:11:12.156
LEye coords (192.0, 282.0), REye coords (202.0, 230.0), timeStamp: 2017-02-22 15:11:12.191
LEye coords (192.0, 282.0), REye coords (203.0, 224.0), timeStamp: 2017-02-22 15:11:12.224
LEye coords (192.0, 282.0), REye coords (207.0, 192.0), timeStamp: 2017-02-22 15:11:12.268
LEye coords (192.0, 282.0), REye coords (210.0, 194.0), timeStamp: 2017-02-22 15:11:12.303
LEye coords (192.0, 283.0), REye coords (205.0, 215.0), timeStamp: 2017-02-22 15:11:12.336
LEye coords (192.0, 283.0), REye coords (202.0, 234.0), timeStamp: 2017-02-22 15:11:12.381
LEye coords (191.0, 283.0), REye coords (199.0, 241.0), timeStamp: 2017-02-22 15:11:12.415
LEye coords (191.0, 284.0), REye coords (197.0, 247.0), timeStamp: 2017-02-22 15:11:12.449
LEye coords (190.0, 284.0), REye coords (197.0, 241.0), timeStamp: 2017-02-22 15:11:12.493
LEye coords (190.0, 284.0), REye coords (196.0, 245.0), timeStamp: 2017-02-22 15:11:12.527
LEye coords (190.0, 284.0), REye coords (195.0, 248.0), timeStamp: 2017-02-22 15:11:12.560
LEye coords (190.0, 283.0), REye coords (194.0, 250.0), timeStamp: 2017-02-22 15:11:12.594
LEye coords (190.0, 284.0), REye coords (194.0, 253.0), timeStamp: 2017-02-22 15:11:12.638
LEye coords (190.0, 284.0), REye coords (194.0, 247.0), timeStamp: 2017-02-22 15:11:12.672
LEye coords (190.0, 283.0), REye coords (194.0, 249.0), timeStamp: 2017-02-22 15:11:12.706
LEye coords (190.0, 283.0), REye coords (194.0, 250.0), timeStamp: 2017-02-22 15:11:12.749
LEye coords (189.0, 283.0), REye coords (194.0, 246.0), timeStamp: 2017-02-22 15:11:12.783
LEye coords (189.0, 283.0), REye coords (195.0, 242.0), timeStamp: 2017-02-22 15:11:12.818
LEye coords (189.0, 283.0), REye coords (196.0, 241.0), timeStamp: 2017-02-22 15:11:12.862
LEye coords (189.0, 283.0), REye coords (196.0, 241.0), timeStamp: 2017-02-22 15:11:12.895
LEye coords (189.0, 283.0), REye coords (197.0, 242.0), timeStamp: 2017-02-22 15:11:12.929
LEye coords (189.0, 283.0), REye coords (197.0, 245.0), timeStamp: 2017-02-22 15:11:12.964
LEye coords (189.0, 283.0), REye coords (197.0, 248.0), timeStamp: 2017-02-22 15:11:13.009
LEye coords (189.0, 283.0), REye coords (197.0, 250.0), timeStamp: 2017-02-22 15:11:13.042
LEye coords (190.0, 283.0), REye coords (197.0, 252.0), timeStamp: 2017-02-22 15:11:13.076
LEye coords (190.0, 282.0), REye coords (196.0, 254.0), timeStamp: 2017-02-22 15:11:13.120
LEye coords (190.0, 282.0), REye coords (196.0, 256.0), timeStamp: 2017-02-22 15:11:13.153
LEye coords (190.0, 281.0), REye coords (196.0, 256.0), timeStamp: 2017-02-22 15:11:13.188
LEye coords (190.0, 281.0), REye coords (196.0, 257.0), timeStamp: 2017-02-22 15:11:13.232
