LEye coords (141.0, 184.0), REye coords (147.0, 186.0), timeStamp: 2017-02-22 15:11:28.810
LEye coords (141.0, 184.0), REye coords (147.0, 186.0), timeStamp: 2017-02-22 15:11:28.844
LEye coords (142.0, 184.0), REye coords (147.0, 186.0), timeStamp: 2017-02-22 15:11:28.879
LEye coords (142.0, 185.0), REye coords (147.0, 186.0), timeStamp: 2017-02-22 15:11:28.923
LEye coords (142.0, 185.0), REye coords (146.0, 186.0), timeStamp: 2017-02-22 15:11:28.958
LEye coords (142.0, 185.0), REye coords (146.0, 186.0), timeStamp: 2017-02-22 15:11:28.992
LEye coords (142.0, 185.0), REye coords (146.0, 186.0), timeStamp: 2017-02-22 15:11:29.036
LEye coords (143.0, 185.0), REye coords (146.0, 186.0), timeStamp: 2017-02-22 15:11:29.070
LEye coords (144.0, 185.0), REye coords (148.0, 186.0), timeStamp: 2017-02-22 15:11:29.105
LEye coords (219.0, 185.0), REye coords (232.0, 182.0), timeStamp: 2017-02-22 15:11:29.140
LEye coords (224.0, 179.0), REye coords (230.0, 181.0), timeStamp: 2017-02-22 15:11:29.185
LEye coords (286.0, 175.0), REye coords (294.0, 178.0), timeStamp: 2017-02-22 15:11:29.219
LEye coords (303.0, 173.0), REye coords (319.0, 172.0), timeStamp: 2017-02-22 15:11:29.253
LEye coords (312.0, 172.0), REye coords (331.0, 169.0), timeStamp: 2017-02-22 15:11:29.287
LEye coords (343.0, 130.0), REye coords (363.0, 153.0), timeStamp: 2017-02-22 15:11:29.331
LEye coords (341.0, 128.0), REye coords (331.0, 163.0), timeStamp: 2017-02-22 15:11:29.365
LEye coords (342.0, 129.0), REye coords (348.0, 158.0), timeStamp: 2017-02-22 15:11:29.399
LEye coords (342.0, 128.0), REye coords (352.0, 157.0), timeStamp: 2017-02-22 15:11:29.444
LEye coords (341.0, 127.0), REye coords (355.0, 155.0), timeStamp: 2017-02-22 15:11:29.478
LEye coords (342.0, 126.0), REye coords (357.0, 153.0), timeStamp: 2017-02-22 15:11:29.511
LEye coords (347.0, 130.0), REye coords (363.0, 155.0), timeStamp: 2017-02-22 15:11:29.545
LEye coords (352.0, 134.0), REye coords (368.0, 157.0), timeStamp: 2017-02-22 15:11:29.589
LEye coords (356.0, 137.0), REye coords (372.0, 158.0), timeStamp: 2017-02-22 15:11:29.623
LEye coords (360.0, 138.0), REye coords (397.0, 164.0), timeStamp: 2017-02-22 15:11:29.657
LEye coords (363.0, 140.0), REye coords (394.0, 169.0), timeStamp: 2017-02-22 15:11:29.700
LEye coords (365.0, 141.0), REye coords (393.0, 167.0), timeStamp: 2017-02-22 15:11:29.734
LEye coords (367.0, 142.0), REye coords (393.0, 166.0), timeStamp: 2017-02-22 15:11:29.768
LEye coords (370.0, 142.0), REye coords (393.0, 165.0), timeStamp: 2017-02-22 15:11:29.811
LEye coords (371.0, 142.0), REye coords (393.0, 165.0), timeStamp: 2017-02-22 15:11:29.846
LEye coords (386.0, 138.0), REye coords (394.0, 165.0), timeStamp: 2017-02-22 15:11:29.880
LEye coords (389.0, 147.0), REye coords (393.0, 166.0), timeStamp: 2017-02-22 15:11:29.924
LEye coords (389.0, 147.0), REye coords (394.0, 166.0), timeStamp: 2017-02-22 15:11:29.958
LEye coords (390.0, 145.0), REye coords (394.0, 166.0), timeStamp: 2017-02-22 15:11:29.991
LEye coords (390.0, 147.0), REye coords (395.0, 165.0), timeStamp: 2017-02-22 15:11:30.036
LEye coords (394.0, 148.0), REye coords (396.0, 166.0), timeStamp: 2017-02-22 15:11:30.070
LEye coords (396.0, 153.0), REye coords (397.0, 166.0), timeStamp: 2017-02-22 15:11:30.104
LEye coords (397.0, 156.0), REye coords (398.0, 167.0), timeStamp: 2017-02-22 15:11:30.137
LEye coords (0.0, 0.0), REye coords (399.0, 168.0), timeStamp: 2017-02-22 15:11:30.183
LEye coords (0.0, 0.0), REye coords (401.0, 169.0), timeStamp: 2017-02-22 15:11:30.217
LEye coords (398.0, 160.0), REye coords (402.0, 170.0), timeStamp: 2017-02-22 15:11:30.249
LEye coords (397.0, 163.0), REye coords (403.0, 171.0), timeStamp: 2017-02-22 15:11:30.294
LEye coords (398.0, 165.0), REye coords (404.0, 172.0), timeStamp: 2017-02-22 15:11:30.328
LEye coords (398.0, 167.0), REye coords (405.0, 173.0), timeStamp: 2017-02-22 15:11:30.364
LEye coords (398.0, 170.0), REye coords (406.0, 174.0), timeStamp: 2017-02-22 15:11:30.398
LEye coords (398.0, 171.0), REye coords (406.0, 176.0), timeStamp: 2017-02-22 15:11:30.442
LEye coords (398.0, 173.0), REye coords (407.0, 177.0), timeStamp: 2017-02-22 15:11:30.477
LEye coords (398.0, 175.0), REye coords (409.0, 177.0), timeStamp: 2017-02-22 15:11:30.511
LEye coords (398.0, 176.0), REye coords (410.0, 179.0), timeStamp: 2017-02-22 15:11:30.544
LEye coords (398.0, 177.0), REye coords (411.0, 180.0), timeStamp: 2017-02-22 15:11:30.589
LEye coords (397.0, 179.0), REye coords (411.0, 181.0), timeStamp: 2017-02-22 15:11:30.622
LEye coords (397.0, 180.0), REye coords (411.0, 182.0), timeStamp: 2017-02-22 15:11:30.656
LEye coords (396.0, 182.0), REye coords (411.0, 182.0), timeStamp: 2017-02-22 15:11:30.701
LEye coords (395.0, 183.0), REye coords (412.0, 183.0), timeStamp: 2017-02-22 15:11:30.735
LEye coords (395.0, 184.0), REye coords (412.0, 184.0), timeStamp: 2017-02-22 15:11:30.769
LEye coords (394.0, 186.0), REye coords (412.0, 185.0), timeStamp: 2017-02-22 15:11:30.803
LEye coords (394.0, 187.0), REye coords (412.0, 186.0), timeStamp: 2017-02-22 15:11:30.847
LEye coords (394.0, 189.0), REye coords (411.0, 187.0), timeStamp: 2017-02-22 15:11:30.882
LEye coords (394.0, 190.0), REye coords (411.0, 188.0), timeStamp: 2017-02-22 15:11:30.916
LEye coords (394.0, 191.0), REye coords (411.0, 189.0), timeStamp: 2017-02-22 15:11:30.961
LEye coords (393.0, 191.0), REye coords (410.0, 188.0), timeStamp: 2017-02-22 15:11:30.996
LEye coords (388.0, 194.0), REye coords (410.0, 188.0), timeStamp: 2017-02-22 15:11:31.029
LEye coords (389.0, 191.0), REye coords (409.0, 189.0), timeStamp: 2017-02-22 15:11:31.072
LEye coords (391.0, 192.0), REye coords (408.0, 189.0), timeStamp: 2017-02-22 15:11:31.105
LEye coords (390.0, 192.0), REye coords (407.0, 189.0), timeStamp: 2017-02-22 15:11:31.138
LEye coords (390.0, 193.0), REye coords (406.0, 188.0), timeStamp: 2017-02-22 15:11:31.183
LEye coords (390.0, 192.0), REye coords (405.0, 188.0), timeStamp: 2017-02-22 15:11:31.217
LEye coords (390.0, 192.0), REye coords (404.0, 187.0), timeStamp: 2017-02-22 15:11:31.251
LEye coords (390.0, 192.0), REye coords (403.0, 187.0), timeStamp: 2017-02-22 15:11:31.285
LEye coords (389.0, 192.0), REye coords (402.0, 187.0), timeStamp: 2017-02-22 15:11:31.330
LEye coords (389.0, 192.0), REye coords (401.0, 187.0), timeStamp: 2017-02-22 15:11:31.364
LEye coords (389.0, 193.0), REye coords (400.0, 187.0), timeStamp: 2017-02-22 15:11:31.397
LEye coords (388.0, 193.0), REye coords (399.0, 186.0), timeStamp: 2017-02-22 15:11:31.440
LEye coords (388.0, 193.0), REye coords (399.0, 186.0), timeStamp: 2017-02-22 15:11:31.473
LEye coords (387.0, 193.0), REye coords (398.0, 186.0), timeStamp: 2017-02-22 15:11:31.507
LEye coords (387.0, 193.0), REye coords (398.0, 186.0), timeStamp: 2017-02-22 15:11:31.552
LEye coords (387.0, 193.0), REye coords (397.0, 186.0), timeStamp: 2017-02-22 15:11:31.586
LEye coords (387.0, 193.0), REye coords (396.0, 186.0), timeStamp: 2017-02-22 15:11:31.621
LEye coords (386.0, 193.0), REye coords (396.0, 187.0), timeStamp: 2017-02-22 15:11:31.654
