LEye coords (98.0, 74.0), REye coords (101.0, 65.0), timeStamp: 2017-02-22 15:13:36.868
LEye coords (98.0, 74.0), REye coords (102.0, 65.0), timeStamp: 2017-02-22 15:13:36.902
LEye coords (98.0, 74.0), REye coords (102.0, 66.0), timeStamp: 2017-02-22 15:13:36.936
LEye coords (98.0, 74.0), REye coords (101.0, 66.0), timeStamp: 2017-02-22 15:13:36.981
LEye coords (98.0, 74.0), REye coords (101.0, 66.0), timeStamp: 2017-02-22 15:13:37.015
LEye coords (99.0, 74.0), REye coords (101.0, 66.0), timeStamp: 2017-02-22 15:13:37.048
LEye coords (149.0, 96.0), REye coords (156.0, 85.0), timeStamp: 2017-02-22 15:13:37.092
LEye coords (189.0, 136.0), REye coords (212.0, 109.0), timeStamp: 2017-02-22 15:13:37.126
LEye coords (188.0, 136.0), REye coords (211.0, 111.0), timeStamp: 2017-02-22 15:13:37.159
LEye coords (188.0, 135.0), REye coords (212.0, 111.0), timeStamp: 2017-02-22 15:13:37.194
LEye coords (187.0, 134.0), REye coords (212.0, 111.0), timeStamp: 2017-02-22 15:13:37.238
LEye coords (184.0, 137.0), REye coords (217.0, 114.0), timeStamp: 2017-02-22 15:13:37.271
LEye coords (184.0, 137.0), REye coords (209.0, 101.0), timeStamp: 2017-02-22 15:13:37.314
LEye coords (186.0, 136.0), REye coords (210.0, 102.0), timeStamp: 2017-02-22 15:13:37.347
LEye coords (211.0, 153.0), REye coords (234.0, 116.0), timeStamp: 2017-02-22 15:13:37.382
LEye coords (231.0, 172.0), REye coords (253.0, 143.0), timeStamp: 2017-02-22 15:13:37.426
LEye coords (286.0, 230.0), REye coords (287.0, 234.0), timeStamp: 2017-02-22 15:13:37.459
LEye coords (293.0, 228.0), REye coords (324.0, 178.0), timeStamp: 2017-02-22 15:13:37.493
LEye coords (288.0, 229.0), REye coords (324.0, 171.0), timeStamp: 2017-02-22 15:13:37.527
LEye coords (286.0, 230.0), REye coords (319.0, 186.0), timeStamp: 2017-02-22 15:13:37.572
LEye coords (285.0, 231.0), REye coords (316.0, 196.0), timeStamp: 2017-02-22 15:13:37.605
LEye coords (284.0, 231.0), REye coords (293.0, 235.0), timeStamp: 2017-02-22 15:13:37.639
LEye coords (284.0, 231.0), REye coords (308.0, 203.0), timeStamp: 2017-02-22 15:13:37.683
LEye coords (279.0, 226.0), REye coords (293.0, 196.0), timeStamp: 2017-02-22 15:13:37.717
LEye coords (276.0, 223.0), REye coords (287.0, 196.0), timeStamp: 2017-02-22 15:13:37.751
LEye coords (274.0, 221.0), REye coords (285.0, 195.0), timeStamp: 2017-02-22 15:13:37.795
LEye coords (273.0, 219.0), REye coords (284.0, 194.0), timeStamp: 2017-02-22 15:13:37.829
LEye coords (271.0, 217.0), REye coords (284.0, 193.0), timeStamp: 2017-02-22 15:13:37.862
LEye coords (269.0, 216.0), REye coords (284.0, 193.0), timeStamp: 2017-02-22 15:13:37.907
LEye coords (268.0, 215.0), REye coords (283.0, 193.0), timeStamp: 2017-02-22 15:13:37.941
LEye coords (267.0, 213.0), REye coords (283.0, 193.0), timeStamp: 2017-02-22 15:13:37.975
LEye coords (266.0, 212.0), REye coords (283.0, 192.0), timeStamp: 2017-02-22 15:13:38.009
LEye coords (265.0, 211.0), REye coords (283.0, 193.0), timeStamp: 2017-02-22 15:13:38.054
LEye coords (264.0, 210.0), REye coords (282.0, 192.0), timeStamp: 2017-02-22 15:13:38.088
LEye coords (263.0, 208.0), REye coords (280.0, 189.0), timeStamp: 2017-02-22 15:13:38.123
LEye coords (262.0, 205.0), REye coords (270.0, 124.0), timeStamp: 2017-02-22 15:13:38.156
LEye coords (261.0, 203.0), REye coords (269.0, 126.0), timeStamp: 2017-02-22 15:13:38.201
LEye coords (259.0, 202.0), REye coords (265.0, 139.0), timeStamp: 2017-02-22 15:13:38.235
LEye coords (238.0, 171.0), REye coords (261.0, 137.0), timeStamp: 2017-02-22 15:13:38.269
LEye coords (236.0, 174.0), REye coords (257.0, 147.0), timeStamp: 2017-02-22 15:13:38.314
LEye coords (236.0, 175.0), REye coords (257.0, 143.0), timeStamp: 2017-02-22 15:13:38.348
LEye coords (238.0, 176.0), REye coords (256.0, 141.0), timeStamp: 2017-02-22 15:13:38.382
LEye coords (238.0, 175.0), REye coords (256.0, 141.0), timeStamp: 2017-02-22 15:13:38.415
LEye coords (238.0, 176.0), REye coords (256.0, 139.0), timeStamp: 2017-02-22 15:13:38.459
LEye coords (237.0, 169.0), REye coords (257.0, 138.0), timeStamp: 2017-02-22 15:13:38.493
LEye coords (238.0, 169.0), REye coords (257.0, 137.0), timeStamp: 2017-02-22 15:13:38.527
LEye coords (239.0, 169.0), REye coords (250.0, 131.0), timeStamp: 2017-02-22 15:13:38.571
LEye coords (239.0, 169.0), REye coords (252.0, 125.0), timeStamp: 2017-02-22 15:13:38.605
LEye coords (238.0, 166.0), REye coords (255.0, 129.0), timeStamp: 2017-02-22 15:13:38.639
LEye coords (237.0, 163.0), REye coords (257.0, 130.0), timeStamp: 2017-02-22 15:13:38.683
LEye coords (236.0, 160.0), REye coords (257.0, 130.0), timeStamp: 2017-02-22 15:13:38.718
LEye coords (235.0, 158.0), REye coords (257.0, 130.0), timeStamp: 2017-02-22 15:13:38.751
LEye coords (236.0, 159.0), REye coords (257.0, 129.0), timeStamp: 2017-02-22 15:13:38.796
LEye coords (236.0, 160.0), REye coords (257.0, 129.0), timeStamp: 2017-02-22 15:13:38.830
LEye coords (237.0, 161.0), REye coords (256.0, 135.0), timeStamp: 2017-02-22 15:13:38.864
LEye coords (237.0, 162.0), REye coords (256.0, 136.0), timeStamp: 2017-02-22 15:13:38.897
LEye coords (237.0, 163.0), REye coords (256.0, 139.0), timeStamp: 2017-02-22 15:13:38.942
LEye coords (238.0, 163.0), REye coords (255.0, 143.0), timeStamp: 2017-02-22 15:13:38.976
LEye coords (238.0, 164.0), REye coords (255.0, 146.0), timeStamp: 2017-02-22 15:13:39.010
LEye coords (238.0, 165.0), REye coords (255.0, 148.0), timeStamp: 2017-02-22 15:13:39.054
LEye coords (238.0, 165.0), REye coords (254.0, 150.0), timeStamp: 2017-02-22 15:13:39.088
LEye coords (238.0, 166.0), REye coords (253.0, 153.0), timeStamp: 2017-02-22 15:13:39.122
LEye coords (239.0, 167.0), REye coords (253.0, 152.0), timeStamp: 2017-02-22 15:13:39.166
LEye coords (239.0, 167.0), REye coords (254.0, 153.0), timeStamp: 2017-02-22 15:13:39.200
LEye coords (239.0, 168.0), REye coords (254.0, 155.0), timeStamp: 2017-02-22 15:13:39.235
LEye coords (239.0, 168.0), REye coords (255.0, 156.0), timeStamp: 2017-02-22 15:13:39.269
LEye coords (240.0, 170.0), REye coords (255.0, 157.0), timeStamp: 2017-02-22 15:13:39.313
LEye coords (240.0, 170.0), REye coords (255.0, 158.0), timeStamp: 2017-02-22 15:13:39.347
LEye coords (240.0, 170.0), REye coords (255.0, 160.0), timeStamp: 2017-02-22 15:13:39.380
LEye coords (240.0, 170.0), REye coords (0.0, 0.0), timeStamp: 2017-02-22 15:13:39.424
LEye coords (240.0, 171.0), REye coords (255.0, 162.0), timeStamp: 2017-02-22 15:13:39.458
LEye coords (240.0, 172.0), REye coords (254.0, 163.0), timeStamp: 2017-02-22 15:13:39.492
LEye coords (241.0, 172.0), REye coords (254.0, 164.0), timeStamp: 2017-02-22 15:13:39.535
LEye coords (241.0, 172.0), REye coords (254.0, 165.0), timeStamp: 2017-02-22 15:13:39.568
LEye coords (241.0, 171.0), REye coords (258.0, 110.0), timeStamp: 2017-02-22 15:13:39.602
LEye coords (241.0, 169.0), REye coords (241.0, 130.0), timeStamp: 2017-02-22 15:13:39.647
LEye coords (241.0, 168.0), REye coords (239.0, 133.0), timeStamp: 2017-02-22 15:13:39.681
LEye coords (241.0, 167.0), REye coords (240.0, 134.0), timeStamp: 2017-02-22 15:13:39.714
LEye coords (240.0, 166.0), REye coords (239.0, 134.0), timeStamp: 2017-02-22 15:13:39.758
LEye coords (240.0, 165.0), REye coords (239.0, 133.0), timeStamp: 2017-02-22 15:13:39.792
LEye coords (240.0, 164.0), REye coords (239.0, 135.0), timeStamp: 2017-02-22 15:13:39.826
LEye coords (239.0, 162.0), REye coords (240.0, 131.0), timeStamp: 2017-02-22 15:13:39.859
LEye coords (239.0, 161.0), REye coords (240.0, 131.0), timeStamp: 2017-02-22 15:13:39.904
LEye coords (238.0, 159.0), REye coords (241.0, 129.0), timeStamp: 2017-02-22 15:13:39.936
LEye coords (237.0, 157.0), REye coords (243.0, 127.0), timeStamp: 2017-02-22 15:13:39.970
LEye coords (237.0, 154.0), REye coords (242.0, 125.0), timeStamp: 2017-02-22 15:13:40.013
LEye coords (236.0, 153.0), REye coords (243.0, 123.0), timeStamp: 2017-02-22 15:13:40.047
LEye coords (236.0, 152.0), REye coords (246.0, 113.0), timeStamp: 2017-02-22 15:13:40.082
LEye coords (235.0, 150.0), REye coords (246.0, 106.0), timeStamp: 2017-02-22 15:13:40.126
LEye coords (234.0, 148.0), REye coords (246.0, 110.0), timeStamp: 2017-02-22 15:13:40.159
LEye coords (233.0, 146.0), REye coords (248.0, 111.0), timeStamp: 2017-02-22 15:13:40.194
LEye coords (232.0, 145.0), REye coords (247.0, 112.0), timeStamp: 2017-02-22 15:13:40.238
LEye coords (231.0, 143.0), REye coords (246.0, 111.0), timeStamp: 2017-02-22 15:13:40.272
LEye coords (230.0, 141.0), REye coords (245.0, 111.0), timeStamp: 2017-02-22 15:13:40.305
LEye coords (229.0, 140.0), REye coords (245.0, 111.0), timeStamp: 2017-02-22 15:13:40.349
LEye coords (228.0, 139.0), REye coords (244.0, 111.0), timeStamp: 2017-02-22 15:13:40.383
LEye coords (227.0, 138.0), REye coords (243.0, 110.0), timeStamp: 2017-02-22 15:13:40.416
LEye coords (227.0, 137.0), REye coords (242.0, 110.0), timeStamp: 2017-02-22 15:13:40.460
LEye coords (226.0, 136.0), REye coords (241.0, 110.0), timeStamp: 2017-02-22 15:13:40.494
LEye coords (225.0, 135.0), REye coords (241.0, 110.0), timeStamp: 2017-02-22 15:13:40.527
LEye coords (225.0, 136.0), REye coords (241.0, 111.0), timeStamp: 2017-02-22 15:13:40.572
LEye coords (225.0, 137.0), REye coords (241.0, 111.0), timeStamp: 2017-02-22 15:13:40.606
LEye coords (225.0, 137.0), REye coords (241.0, 111.0), timeStamp: 2017-02-22 15:13:40.640
LEye coords (225.0, 138.0), REye coords (240.0, 111.0), timeStamp: 2017-02-22 15:13:40.674
LEye coords (225.0, 139.0), REye coords (240.0, 110.0), timeStamp: 2017-02-22 15:13:40.753
