LEye coords (175.0, 153.0), REye coords (184.0, 125.0), timeStamp: 2017-02-22 15:13:46.566
LEye coords (175.0, 154.0), REye coords (184.0, 125.0), timeStamp: 2017-02-22 15:13:46.600
LEye coords (175.0, 154.0), REye coords (184.0, 125.0), timeStamp: 2017-02-22 15:13:46.633
LEye coords (175.0, 155.0), REye coords (183.0, 125.0), timeStamp: 2017-02-22 15:13:46.677
LEye coords (174.0, 155.0), REye coords (183.0, 125.0), timeStamp: 2017-02-22 15:13:46.711
LEye coords (174.0, 155.0), REye coords (183.0, 126.0), timeStamp: 2017-02-22 15:13:46.745
LEye coords (174.0, 156.0), REye coords (183.0, 126.0), timeStamp: 2017-02-22 15:13:46.788
LEye coords (174.0, 156.0), REye coords (182.0, 127.0), timeStamp: 2017-02-22 15:13:46.822
LEye coords (174.0, 156.0), REye coords (182.0, 127.0), timeStamp: 2017-02-22 15:13:46.857
LEye coords (174.0, 156.0), REye coords (183.0, 126.0), timeStamp: 2017-02-22 15:13:46.900
LEye coords (247.0, 121.0), REye coords (260.0, 121.0), timeStamp: 2017-02-22 15:13:46.934
LEye coords (244.0, 122.0), REye coords (264.0, 109.0), timeStamp: 2017-02-22 15:13:46.968
LEye coords (246.0, 124.0), REye coords (262.0, 109.0), timeStamp: 2017-02-22 15:13:47.002
LEye coords (247.0, 124.0), REye coords (262.0, 109.0), timeStamp: 2017-02-22 15:13:47.047
LEye coords (244.0, 124.0), REye coords (0.0, 0.0), timeStamp: 2017-02-22 15:13:47.080
LEye coords (231.0, 116.0), REye coords (255.0, 111.0), timeStamp: 2017-02-22 15:13:47.113
LEye coords (229.0, 120.0), REye coords (237.0, 116.0), timeStamp: 2017-02-22 15:13:47.157
LEye coords (230.0, 123.0), REye coords (242.0, 111.0), timeStamp: 2017-02-22 15:13:47.191
LEye coords (222.0, 121.0), REye coords (231.0, 107.0), timeStamp: 2017-02-22 15:13:47.225
LEye coords (219.0, 121.0), REye coords (226.0, 104.0), timeStamp: 2017-02-22 15:13:47.269
LEye coords (216.0, 121.0), REye coords (226.0, 102.0), timeStamp: 2017-02-22 15:13:47.302
LEye coords (215.0, 119.0), REye coords (226.0, 99.0), timeStamp: 2017-02-22 15:13:47.335
LEye coords (214.0, 118.0), REye coords (225.0, 99.0), timeStamp: 2017-02-22 15:13:47.379
LEye coords (213.0, 118.0), REye coords (224.0, 99.0), timeStamp: 2017-02-22 15:13:47.412
LEye coords (212.0, 118.0), REye coords (225.0, 99.0), timeStamp: 2017-02-22 15:13:47.454
LEye coords (211.0, 118.0), REye coords (224.0, 101.0), timeStamp: 2017-02-22 15:13:47.488
LEye coords (209.0, 119.0), REye coords (222.0, 100.0), timeStamp: 2017-02-22 15:13:47.522
LEye coords (207.0, 119.0), REye coords (219.0, 100.0), timeStamp: 2017-02-22 15:13:47.566
LEye coords (205.0, 119.0), REye coords (217.0, 101.0), timeStamp: 2017-02-22 15:13:47.599
LEye coords (204.0, 119.0), REye coords (216.0, 101.0), timeStamp: 2017-02-22 15:13:47.633
LEye coords (202.0, 119.0), REye coords (214.0, 100.0), timeStamp: 2017-02-22 15:13:47.676
LEye coords (201.0, 119.0), REye coords (213.0, 100.0), timeStamp: 2017-02-22 15:13:47.709
LEye coords (201.0, 119.0), REye coords (213.0, 100.0), timeStamp: 2017-02-22 15:13:47.753
LEye coords (200.0, 119.0), REye coords (212.0, 100.0), timeStamp: 2017-02-22 15:13:47.787
LEye coords (199.0, 119.0), REye coords (212.0, 100.0), timeStamp: 2017-02-22 15:13:47.821
LEye coords (199.0, 119.0), REye coords (211.0, 99.0), timeStamp: 2017-02-22 15:13:47.855
LEye coords (198.0, 119.0), REye coords (211.0, 100.0), timeStamp: 2017-02-22 15:13:47.899
LEye coords (198.0, 119.0), REye coords (211.0, 99.0), timeStamp: 2017-02-22 15:13:47.933
LEye coords (198.0, 120.0), REye coords (212.0, 99.0), timeStamp: 2017-02-22 15:13:47.968
LEye coords (198.0, 120.0), REye coords (212.0, 99.0), timeStamp: 2017-02-22 15:13:48.012
LEye coords (198.0, 120.0), REye coords (213.0, 99.0), timeStamp: 2017-02-22 15:13:48.046
LEye coords (199.0, 120.0), REye coords (214.0, 99.0), timeStamp: 2017-02-22 15:13:48.079
LEye coords (199.0, 120.0), REye coords (215.0, 100.0), timeStamp: 2017-02-22 15:13:48.112
LEye coords (199.0, 120.0), REye coords (216.0, 100.0), timeStamp: 2017-02-22 15:13:48.157
LEye coords (200.0, 121.0), REye coords (216.0, 100.0), timeStamp: 2017-02-22 15:13:48.191
LEye coords (200.0, 121.0), REye coords (218.0, 100.0), timeStamp: 2017-02-22 15:13:48.225
LEye coords (201.0, 121.0), REye coords (219.0, 100.0), timeStamp: 2017-02-22 15:13:48.268
LEye coords (201.0, 121.0), REye coords (220.0, 100.0), timeStamp: 2017-02-22 15:13:48.301
LEye coords (202.0, 122.0), REye coords (220.0, 101.0), timeStamp: 2017-02-22 15:13:48.335
LEye coords (202.0, 122.0), REye coords (222.0, 100.0), timeStamp: 2017-02-22 15:13:48.380
LEye coords (203.0, 122.0), REye coords (222.0, 100.0), timeStamp: 2017-02-22 15:13:48.414
LEye coords (204.0, 122.0), REye coords (223.0, 102.0), timeStamp: 2017-02-22 15:13:48.447
LEye coords (204.0, 122.0), REye coords (223.0, 104.0), timeStamp: 2017-02-22 15:13:48.490
LEye coords (205.0, 122.0), REye coords (224.0, 106.0), timeStamp: 2017-02-22 15:13:48.524
LEye coords (205.0, 123.0), REye coords (224.0, 108.0), timeStamp: 2017-02-22 15:13:48.558
LEye coords (206.0, 123.0), REye coords (224.0, 108.0), timeStamp: 2017-02-22 15:13:48.601
LEye coords (206.0, 123.0), REye coords (224.0, 109.0), timeStamp: 2017-02-22 15:13:48.634
LEye coords (206.0, 123.0), REye coords (225.0, 110.0), timeStamp: 2017-02-22 15:13:48.669
LEye coords (206.0, 123.0), REye coords (225.0, 112.0), timeStamp: 2017-02-22 15:13:48.712
LEye coords (206.0, 123.0), REye coords (224.0, 113.0), timeStamp: 2017-02-22 15:13:48.747
LEye coords (206.0, 124.0), REye coords (224.0, 113.0), timeStamp: 2017-02-22 15:13:48.780
LEye coords (206.0, 125.0), REye coords (225.0, 117.0), timeStamp: 2017-02-22 15:13:48.824
LEye coords (205.0, 126.0), REye coords (235.0, 172.0), timeStamp: 2017-02-22 15:13:48.858
LEye coords (205.0, 129.0), REye coords (232.0, 176.0), timeStamp: 2017-02-22 15:13:48.891
LEye coords (205.0, 133.0), REye coords (233.0, 177.0), timeStamp: 2017-02-22 15:13:48.936
LEye coords (205.0, 135.0), REye coords (234.0, 174.0), timeStamp: 2017-02-22 15:13:48.969
LEye coords (205.0, 138.0), REye coords (234.0, 172.0), timeStamp: 2017-02-22 15:13:49.002
LEye coords (204.0, 140.0), REye coords (234.0, 172.0), timeStamp: 2017-02-22 15:13:49.047
LEye coords (204.0, 141.0), REye coords (234.0, 170.0), timeStamp: 2017-02-22 15:13:49.079
LEye coords (204.0, 144.0), REye coords (234.0, 169.0), timeStamp: 2017-02-22 15:13:49.113
LEye coords (204.0, 146.0), REye coords (231.0, 168.0), timeStamp: 2017-02-22 15:13:49.157
LEye coords (205.0, 148.0), REye coords (236.0, 167.0), timeStamp: 2017-02-22 15:13:49.190
LEye coords (205.0, 151.0), REye coords (234.0, 170.0), timeStamp: 2017-02-22 15:13:49.223
LEye coords (205.0, 153.0), REye coords (233.0, 171.0), timeStamp: 2017-02-22 15:13:49.267
LEye coords (206.0, 156.0), REye coords (235.0, 176.0), timeStamp: 2017-02-22 15:13:49.300
LEye coords (219.0, 201.0), REye coords (236.0, 177.0), timeStamp: 2017-02-22 15:13:49.333
LEye coords (218.0, 199.0), REye coords (237.0, 180.0), timeStamp: 2017-02-22 15:13:49.377
LEye coords (218.0, 198.0), REye coords (239.0, 182.0), timeStamp: 2017-02-22 15:13:49.410
LEye coords (218.0, 199.0), REye coords (238.0, 186.0), timeStamp: 2017-02-22 15:13:49.445
LEye coords (217.0, 200.0), REye coords (236.0, 188.0), timeStamp: 2017-02-22 15:13:49.488
LEye coords (217.0, 200.0), REye coords (236.0, 190.0), timeStamp: 2017-02-22 15:13:49.521
LEye coords (217.0, 199.0), REye coords (236.0, 192.0), timeStamp: 2017-02-22 15:13:49.565
LEye coords (216.0, 199.0), REye coords (235.0, 193.0), timeStamp: 2017-02-22 15:13:49.599
LEye coords (216.0, 199.0), REye coords (234.0, 195.0), timeStamp: 2017-02-22 15:13:49.633
LEye coords (217.0, 199.0), REye coords (234.0, 197.0), timeStamp: 2017-02-22 15:13:49.676
LEye coords (217.0, 200.0), REye coords (235.0, 199.0), timeStamp: 2017-02-22 15:13:49.710
LEye coords (217.0, 200.0), REye coords (0.0, 0.0), timeStamp: 2017-02-22 15:13:49.742
LEye coords (217.0, 200.0), REye coords (235.0, 200.0), timeStamp: 2017-02-22 15:13:49.787
LEye coords (217.0, 200.0), REye coords (235.0, 200.0), timeStamp: 2017-02-22 15:13:49.820
LEye coords (218.0, 200.0), REye coords (235.0, 201.0), timeStamp: 2017-02-22 15:13:49.853
LEye coords (218.0, 200.0), REye coords (235.0, 201.0), timeStamp: 2017-02-22 15:13:49.896
LEye coords (218.0, 200.0), REye coords (235.0, 201.0), timeStamp: 2017-02-22 15:13:49.929
LEye coords (218.0, 200.0), REye coords (235.0, 202.0), timeStamp: 2017-02-22 15:13:49.973
LEye coords (218.0, 200.0), REye coords (235.0, 203.0), timeStamp: 2017-02-22 15:13:50.006
LEye coords (219.0, 200.0), REye coords (235.0, 203.0), timeStamp: 2017-02-22 15:13:50.040
LEye coords (219.0, 200.0), REye coords (235.0, 204.0), timeStamp: 2017-02-22 15:13:50.084
LEye coords (219.0, 201.0), REye coords (235.0, 205.0), timeStamp: 2017-02-22 15:13:50.117
LEye coords (232.0, 206.0), REye coords (235.0, 206.0), timeStamp: 2017-02-22 15:13:50.150
LEye coords (230.0, 205.0), REye coords (234.0, 206.0), timeStamp: 2017-02-22 15:13:50.194
LEye coords (228.0, 206.0), REye coords (234.0, 207.0), timeStamp: 2017-02-22 15:13:50.226
LEye coords (228.0, 206.0), REye coords (234.0, 207.0), timeStamp: 2017-02-22 15:13:50.260
LEye coords (228.0, 205.0), REye coords (234.0, 207.0), timeStamp: 2017-02-22 15:13:50.304
LEye coords (227.0, 206.0), REye coords (234.0, 207.0), timeStamp: 2017-02-22 15:13:50.339
LEye coords (226.0, 207.0), REye coords (234.0, 207.0), timeStamp: 2017-02-22 15:13:50.372
LEye coords (227.0, 208.0), REye coords (234.0, 207.0), timeStamp: 2017-02-22 15:13:50.417
LEye coords (226.0, 209.0), REye coords (234.0, 208.0), timeStamp: 2017-02-22 15:13:50.450
LEye coords (226.0, 209.0), REye coords (234.0, 209.0), timeStamp: 2017-02-22 15:13:50.484
LEye coords (226.0, 209.0), REye coords (234.0, 209.0), timeStamp: 2017-02-22 15:13:50.518
LEye coords (225.0, 210.0), REye coords (235.0, 209.0), timeStamp: 2017-02-22 15:13:50.561
LEye coords (225.0, 210.0), REye coords (234.0, 209.0), timeStamp: 2017-02-22 15:13:50.595
LEye coords (225.0, 210.0), REye coords (234.0, 209.0), timeStamp: 2017-02-22 15:13:50.630
LEye coords (225.0, 211.0), REye coords (234.0, 209.0), timeStamp: 2017-02-22 15:13:50.673
LEye coords (225.0, 211.0), REye coords (234.0, 211.0), timeStamp: 2017-02-22 15:13:50.707
LEye coords (225.0, 211.0), REye coords (233.0, 212.0), timeStamp: 2017-02-22 15:13:50.741
LEye coords (224.0, 211.0), REye coords (233.0, 213.0), timeStamp: 2017-02-22 15:13:50.785
LEye coords (224.0, 212.0), REye coords (233.0, 214.0), timeStamp: 2017-02-22 15:13:50.819
LEye coords (224.0, 212.0), REye coords (233.0, 215.0), timeStamp: 2017-02-22 15:13:50.853
LEye coords (224.0, 213.0), REye coords (232.0, 215.0), timeStamp: 2017-02-22 15:13:50.898
LEye coords (224.0, 213.0), REye coords (232.0, 216.0), timeStamp: 2017-02-22 15:13:50.932
LEye coords (224.0, 213.0), REye coords (231.0, 216.0), timeStamp: 2017-02-22 15:13:50.965
LEye coords (224.0, 214.0), REye coords (231.0, 216.0), timeStamp: 2017-02-22 15:13:51.009
LEye coords (224.0, 214.0), REye coords (231.0, 216.0), timeStamp: 2017-02-22 15:13:51.044
LEye coords (224.0, 215.0), REye coords (230.0, 216.0), timeStamp: 2017-02-22 15:13:51.077
LEye coords (223.0, 215.0), REye coords (230.0, 217.0), timeStamp: 2017-02-22 15:13:51.111
LEye coords (224.0, 216.0), REye coords (229.0, 217.0), timeStamp: 2017-02-22 15:13:51.154
LEye coords (224.0, 216.0), REye coords (229.0, 218.0), timeStamp: 2017-02-22 15:13:51.188
LEye coords (223.0, 216.0), REye coords (229.0, 218.0), timeStamp: 2017-02-22 15:13:51.222
LEye coords (223.0, 217.0), REye coords (228.0, 219.0), timeStamp: 2017-02-22 15:13:51.266
LEye coords (223.0, 218.0), REye coords (228.0, 219.0), timeStamp: 2017-02-22 15:13:51.300
