LEye coords (142.0, 191.0), REye coords (152.0, 192.0), timeStamp: 2017-02-22 15:36:25.997
LEye coords (142.0, 191.0), REye coords (152.0, 192.0), timeStamp: 2017-02-22 15:36:26.030
LEye coords (141.0, 191.0), REye coords (152.0, 192.0), timeStamp: 2017-02-22 15:36:26.074
LEye coords (141.0, 191.0), REye coords (152.0, 192.0), timeStamp: 2017-02-22 15:36:26.108
LEye coords (141.0, 191.0), REye coords (153.0, 193.0), timeStamp: 2017-02-22 15:36:26.141
LEye coords (141.0, 191.0), REye coords (153.0, 193.0), timeStamp: 2017-02-22 15:36:26.185
LEye coords (142.0, 191.0), REye coords (153.0, 193.0), timeStamp: 2017-02-22 15:36:26.220
LEye coords (142.0, 191.0), REye coords (153.0, 194.0), timeStamp: 2017-02-22 15:36:26.253
LEye coords (142.0, 191.0), REye coords (153.0, 194.0), timeStamp: 2017-02-22 15:36:26.296
LEye coords (142.0, 191.0), REye coords (153.0, 194.0), timeStamp: 2017-02-22 15:36:26.329
LEye coords (142.0, 191.0), REye coords (154.0, 192.0), timeStamp: 2017-02-22 15:36:26.363
LEye coords (142.0, 190.0), REye coords (154.0, 191.0), timeStamp: 2017-02-22 15:36:26.408
LEye coords (143.0, 189.0), REye coords (155.0, 190.0), timeStamp: 2017-02-22 15:36:26.442
LEye coords (143.0, 188.0), REye coords (156.0, 188.0), timeStamp: 2017-02-22 15:36:26.477
LEye coords (144.0, 187.0), REye coords (156.0, 186.0), timeStamp: 2017-02-22 15:36:26.520
LEye coords (143.0, 185.0), REye coords (130.0, 123.0), timeStamp: 2017-02-22 15:36:26.555
LEye coords (142.0, 183.0), REye coords (131.0, 128.0), timeStamp: 2017-02-22 15:36:26.589
LEye coords (142.0, 180.0), REye coords (128.0, 128.0), timeStamp: 2017-02-22 15:36:26.633
LEye coords (141.0, 178.0), REye coords (128.0, 129.0), timeStamp: 2017-02-22 15:36:26.666
LEye coords (140.0, 175.0), REye coords (130.0, 132.0), timeStamp: 2017-02-22 15:36:26.699
LEye coords (140.0, 173.0), REye coords (131.0, 140.0), timeStamp: 2017-02-22 15:36:26.742
LEye coords (139.0, 170.0), REye coords (133.0, 135.0), timeStamp: 2017-02-22 15:36:26.775
LEye coords (138.0, 168.0), REye coords (134.0, 137.0), timeStamp: 2017-02-22 15:36:26.809
LEye coords (109.0, 139.0), REye coords (125.0, 134.0), timeStamp: 2017-02-22 15:36:26.843
LEye coords (112.0, 145.0), REye coords (120.0, 132.0), timeStamp: 2017-02-22 15:36:26.888
LEye coords (109.0, 143.0), REye coords (116.0, 130.0), timeStamp: 2017-02-22 15:36:26.922
LEye coords (109.0, 143.0), REye coords (114.0, 129.0), timeStamp: 2017-02-22 15:36:26.956
LEye coords (109.0, 143.0), REye coords (112.0, 127.0), timeStamp: 2017-02-22 15:36:27.000
LEye coords (109.0, 146.0), REye coords (111.0, 127.0), timeStamp: 2017-02-22 15:36:27.035
LEye coords (109.0, 147.0), REye coords (110.0, 128.0), timeStamp: 2017-02-22 15:36:27.069
LEye coords (110.0, 136.0), REye coords (110.0, 126.0), timeStamp: 2017-02-22 15:36:27.112
LEye coords (111.0, 132.0), REye coords (110.0, 124.0), timeStamp: 2017-02-22 15:36:27.145
LEye coords (111.0, 129.0), REye coords (110.0, 123.0), timeStamp: 2017-02-22 15:36:27.180
LEye coords (112.0, 128.0), REye coords (110.0, 121.0), timeStamp: 2017-02-22 15:36:27.214
LEye coords (112.0, 128.0), REye coords (109.0, 119.0), timeStamp: 2017-02-22 15:36:27.259
LEye coords (112.0, 128.0), REye coords (109.0, 118.0), timeStamp: 2017-02-22 15:36:27.293
LEye coords (112.0, 128.0), REye coords (109.0, 117.0), timeStamp: 2017-02-22 15:36:27.327
LEye coords (113.0, 127.0), REye coords (108.0, 116.0), timeStamp: 2017-02-22 15:36:27.371
LEye coords (113.0, 127.0), REye coords (108.0, 116.0), timeStamp: 2017-02-22 15:36:27.404
LEye coords (113.0, 127.0), REye coords (108.0, 115.0), timeStamp: 2017-02-22 15:36:27.438
LEye coords (113.0, 127.0), REye coords (108.0, 114.0), timeStamp: 2017-02-22 15:36:27.482
LEye coords (113.0, 127.0), REye coords (109.0, 114.0), timeStamp: 2017-02-22 15:36:27.516
LEye coords (114.0, 127.0), REye coords (109.0, 114.0), timeStamp: 2017-02-22 15:36:27.549
LEye coords (115.0, 127.0), REye coords (110.0, 114.0), timeStamp: 2017-02-22 15:36:27.594
LEye coords (116.0, 127.0), REye coords (110.0, 113.0), timeStamp: 2017-02-22 15:36:27.627
LEye coords (116.0, 126.0), REye coords (111.0, 113.0), timeStamp: 2017-02-22 15:36:27.661
LEye coords (117.0, 126.0), REye coords (111.0, 112.0), timeStamp: 2017-02-22 15:36:27.696
LEye coords (117.0, 126.0), REye coords (112.0, 113.0), timeStamp: 2017-02-22 15:36:27.740
LEye coords (118.0, 126.0), REye coords (113.0, 113.0), timeStamp: 2017-02-22 15:36:27.774
LEye coords (118.0, 126.0), REye coords (114.0, 113.0), timeStamp: 2017-02-22 15:36:27.808
LEye coords (119.0, 126.0), REye coords (115.0, 114.0), timeStamp: 2017-02-22 15:36:27.852
LEye coords (119.0, 126.0), REye coords (116.0, 113.0), timeStamp: 2017-02-22 15:36:27.886
LEye coords (120.0, 126.0), REye coords (117.0, 113.0), timeStamp: 2017-02-22 15:36:27.920
LEye coords (121.0, 126.0), REye coords (117.0, 114.0), timeStamp: 2017-02-22 15:36:27.954
LEye coords (121.0, 127.0), REye coords (118.0, 113.0), timeStamp: 2017-02-22 15:36:27.997
LEye coords (121.0, 127.0), REye coords (118.0, 113.0), timeStamp: 2017-02-22 15:36:28.031
LEye coords (122.0, 126.0), REye coords (118.0, 113.0), timeStamp: 2017-02-22 15:36:28.065
LEye coords (122.0, 127.0), REye coords (119.0, 114.0), timeStamp: 2017-02-22 15:36:28.109
LEye coords (122.0, 127.0), REye coords (119.0, 113.0), timeStamp: 2017-02-22 15:36:28.143
LEye coords (123.0, 127.0), REye coords (120.0, 115.0), timeStamp: 2017-02-22 15:36:28.177
LEye coords (123.0, 127.0), REye coords (121.0, 115.0), timeStamp: 2017-02-22 15:36:28.222
LEye coords (124.0, 127.0), REye coords (121.0, 115.0), timeStamp: 2017-02-22 15:36:28.257
LEye coords (124.0, 127.0), REye coords (122.0, 115.0), timeStamp: 2017-02-22 15:36:28.291
LEye coords (125.0, 127.0), REye coords (122.0, 114.0), timeStamp: 2017-02-22 15:36:28.325
