LEye coords (376.0, 143.0), REye coords (389.0, 140.0), timeStamp: 2017-02-22 15:36:35.327
LEye coords (376.0, 143.0), REye coords (389.0, 140.0), timeStamp: 2017-02-22 15:36:35.361
LEye coords (377.0, 143.0), REye coords (389.0, 140.0), timeStamp: 2017-02-22 15:36:35.393
LEye coords (377.0, 143.0), REye coords (390.0, 140.0), timeStamp: 2017-02-22 15:36:35.437
LEye coords (377.0, 144.0), REye coords (390.0, 140.0), timeStamp: 2017-02-22 15:36:35.470
LEye coords (376.0, 144.0), REye coords (390.0, 140.0), timeStamp: 2017-02-22 15:36:35.504
LEye coords (376.0, 144.0), REye coords (390.0, 140.0), timeStamp: 2017-02-22 15:36:35.548
LEye coords (376.0, 144.0), REye coords (389.0, 140.0), timeStamp: 2017-02-22 15:36:35.581
LEye coords (376.0, 144.0), REye coords (389.0, 140.0), timeStamp: 2017-02-22 15:36:35.616
LEye coords (375.0, 144.0), REye coords (388.0, 140.0), timeStamp: 2017-02-22 15:36:35.660
LEye coords (310.0, 170.0), REye coords (329.0, 137.0), timeStamp: 2017-02-22 15:36:35.694
LEye coords (311.0, 172.0), REye coords (327.0, 140.0), timeStamp: 2017-02-22 15:36:35.727
LEye coords (310.0, 172.0), REye coords (329.0, 142.0), timeStamp: 2017-02-22 15:36:35.772
LEye coords (311.0, 171.0), REye coords (327.0, 142.0), timeStamp: 2017-02-22 15:36:35.807
LEye coords (287.0, 176.0), REye coords (301.0, 149.0), timeStamp: 2017-02-22 15:36:35.840
LEye coords (204.0, 202.0), REye coords (211.0, 192.0), timeStamp: 2017-02-22 15:36:35.874
LEye coords (207.0, 198.0), REye coords (209.0, 199.0), timeStamp: 2017-02-22 15:36:35.918
LEye coords (206.0, 199.0), REye coords (211.0, 195.0), timeStamp: 2017-02-22 15:36:35.951
LEye coords (207.0, 199.0), REye coords (209.0, 195.0), timeStamp: 2017-02-22 15:36:35.985
LEye coords (207.0, 199.0), REye coords (208.0, 197.0), timeStamp: 2017-02-22 15:36:36.030
LEye coords (207.0, 200.0), REye coords (209.0, 196.0), timeStamp: 2017-02-22 15:36:36.063
LEye coords (207.0, 200.0), REye coords (208.0, 197.0), timeStamp: 2017-02-22 15:36:36.096
LEye coords (207.0, 200.0), REye coords (208.0, 196.0), timeStamp: 2017-02-22 15:36:36.140
LEye coords (208.0, 199.0), REye coords (208.0, 197.0), timeStamp: 2017-02-22 15:36:36.174
LEye coords (207.0, 200.0), REye coords (208.0, 197.0), timeStamp: 2017-02-22 15:36:36.208
LEye coords (207.0, 200.0), REye coords (208.0, 197.0), timeStamp: 2017-02-22 15:36:36.252
LEye coords (207.0, 200.0), REye coords (208.0, 197.0), timeStamp: 2017-02-22 15:36:36.286
LEye coords (207.0, 200.0), REye coords (209.0, 196.0), timeStamp: 2017-02-22 15:36:36.321
LEye coords (206.0, 200.0), REye coords (209.0, 197.0), timeStamp: 2017-02-22 15:36:36.365
LEye coords (206.0, 200.0), REye coords (209.0, 196.0), timeStamp: 2017-02-22 15:36:36.398
LEye coords (206.0, 200.0), REye coords (209.0, 196.0), timeStamp: 2017-02-22 15:36:36.432
LEye coords (206.0, 200.0), REye coords (209.0, 197.0), timeStamp: 2017-02-22 15:36:36.476
LEye coords (206.0, 199.0), REye coords (209.0, 196.0), timeStamp: 2017-02-22 15:36:36.510
LEye coords (206.0, 199.0), REye coords (209.0, 196.0), timeStamp: 2017-02-22 15:36:36.544
LEye coords (207.0, 199.0), REye coords (209.0, 196.0), timeStamp: 2017-02-22 15:36:36.577
LEye coords (207.0, 199.0), REye coords (210.0, 196.0), timeStamp: 2017-02-22 15:36:36.621
LEye coords (207.0, 199.0), REye coords (210.0, 195.0), timeStamp: 2017-02-22 15:36:36.655
LEye coords (207.0, 199.0), REye coords (210.0, 196.0), timeStamp: 2017-02-22 15:36:36.689
LEye coords (207.0, 199.0), REye coords (210.0, 196.0), timeStamp: 2017-02-22 15:36:36.733
LEye coords (208.0, 199.0), REye coords (211.0, 196.0), timeStamp: 2017-02-22 15:36:36.766
LEye coords (208.0, 198.0), REye coords (211.0, 195.0), timeStamp: 2017-02-22 15:36:36.809
LEye coords (209.0, 198.0), REye coords (212.0, 194.0), timeStamp: 2017-02-22 15:36:36.843
LEye coords (210.0, 197.0), REye coords (213.0, 194.0), timeStamp: 2017-02-22 15:36:36.878
LEye coords (211.0, 196.0), REye coords (213.0, 194.0), timeStamp: 2017-02-22 15:36:36.911
LEye coords (212.0, 196.0), REye coords (214.0, 194.0), timeStamp: 2017-02-22 15:36:36.956
LEye coords (212.0, 196.0), REye coords (215.0, 193.0), timeStamp: 2017-02-22 15:36:36.990
LEye coords (212.0, 195.0), REye coords (215.0, 193.0), timeStamp: 2017-02-22 15:36:37.023
LEye coords (212.0, 195.0), REye coords (215.0, 192.0), timeStamp: 2017-02-22 15:36:37.066
LEye coords (212.0, 195.0), REye coords (215.0, 192.0), timeStamp: 2017-02-22 15:36:37.100
LEye coords (213.0, 194.0), REye coords (215.0, 191.0), timeStamp: 2017-02-22 15:36:37.133
LEye coords (213.0, 194.0), REye coords (215.0, 191.0), timeStamp: 2017-02-22 15:36:37.179
LEye coords (213.0, 194.0), REye coords (215.0, 190.0), timeStamp: 2017-02-22 15:36:37.213
LEye coords (213.0, 194.0), REye coords (216.0, 190.0), timeStamp: 2017-02-22 15:36:37.247
LEye coords (213.0, 193.0), REye coords (216.0, 190.0), timeStamp: 2017-02-22 15:36:37.281
LEye coords (213.0, 193.0), REye coords (216.0, 190.0), timeStamp: 2017-02-22 15:36:37.325
LEye coords (213.0, 193.0), REye coords (215.0, 190.0), timeStamp: 2017-02-22 15:36:37.359
LEye coords (212.0, 193.0), REye coords (215.0, 190.0), timeStamp: 2017-02-22 15:36:37.392
LEye coords (212.0, 193.0), REye coords (215.0, 189.0), timeStamp: 2017-02-22 15:36:37.435
LEye coords (212.0, 192.0), REye coords (215.0, 189.0), timeStamp: 2017-02-22 15:36:37.468
LEye coords (212.0, 192.0), REye coords (215.0, 188.0), timeStamp: 2017-02-22 15:36:37.503
LEye coords (212.0, 191.0), REye coords (216.0, 188.0), timeStamp: 2017-02-22 15:36:37.548
LEye coords (212.0, 191.0), REye coords (216.0, 187.0), timeStamp: 2017-02-22 15:36:37.582
LEye coords (212.0, 191.0), REye coords (216.0, 187.0), timeStamp: 2017-02-22 15:36:37.616
LEye coords (211.0, 190.0), REye coords (215.0, 186.0), timeStamp: 2017-02-22 15:36:37.650
LEye coords (211.0, 189.0), REye coords (215.0, 185.0), timeStamp: 2017-02-22 15:36:37.694
LEye coords (211.0, 189.0), REye coords (215.0, 184.0), timeStamp: 2017-02-22 15:36:37.728
LEye coords (210.0, 188.0), REye coords (215.0, 183.0), timeStamp: 2017-02-22 15:36:37.762
LEye coords (210.0, 187.0), REye coords (216.0, 182.0), timeStamp: 2017-02-22 15:36:37.807
LEye coords (210.0, 186.0), REye coords (216.0, 180.0), timeStamp: 2017-02-22 15:36:37.840
LEye coords (210.0, 186.0), REye coords (216.0, 180.0), timeStamp: 2017-02-22 15:36:37.874
LEye coords (209.0, 185.0), REye coords (216.0, 179.0), timeStamp: 2017-02-22 15:36:37.918
LEye coords (209.0, 184.0), REye coords (216.0, 178.0), timeStamp: 2017-02-22 15:36:37.952
LEye coords (209.0, 184.0), REye coords (216.0, 177.0), timeStamp: 2017-02-22 15:36:37.985
LEye coords (209.0, 183.0), REye coords (216.0, 176.0), timeStamp: 2017-02-22 15:36:38.029
LEye coords (209.0, 183.0), REye coords (216.0, 175.0), timeStamp: 2017-02-22 15:36:38.064
LEye coords (209.0, 182.0), REye coords (216.0, 174.0), timeStamp: 2017-02-22 15:36:38.097
LEye coords (209.0, 182.0), REye coords (216.0, 173.0), timeStamp: 2017-02-22 15:36:38.140
LEye coords (209.0, 182.0), REye coords (216.0, 172.0), timeStamp: 2017-02-22 15:36:38.173
LEye coords (209.0, 181.0), REye coords (216.0, 171.0), timeStamp: 2017-02-22 15:36:38.207
LEye coords (208.0, 179.0), REye coords (216.0, 170.0), timeStamp: 2017-02-22 15:36:38.251
LEye coords (207.0, 178.0), REye coords (216.0, 169.0), timeStamp: 2017-02-22 15:36:38.285
LEye coords (208.0, 178.0), REye coords (216.0, 169.0), timeStamp: 2017-02-22 15:36:38.319
LEye coords (207.0, 178.0), REye coords (215.0, 168.0), timeStamp: 2017-02-22 15:36:38.354
LEye coords (207.0, 177.0), REye coords (215.0, 168.0), timeStamp: 2017-02-22 15:36:38.399
LEye coords (207.0, 177.0), REye coords (215.0, 167.0), timeStamp: 2017-02-22 15:36:38.432
LEye coords (207.0, 177.0), REye coords (215.0, 167.0), timeStamp: 2017-02-22 15:36:38.465
LEye coords (207.0, 177.0), REye coords (214.0, 167.0), timeStamp: 2017-02-22 15:36:38.509
LEye coords (207.0, 177.0), REye coords (214.0, 167.0), timeStamp: 2017-02-22 15:36:38.544
