LEye coords (182.0, 135.0), REye coords (187.0, 124.0), timeStamp: 2017-02-22 15:36:44.355
LEye coords (182.0, 135.0), REye coords (186.0, 126.0), timeStamp: 2017-02-22 15:36:44.388
LEye coords (182.0, 136.0), REye coords (187.0, 126.0), timeStamp: 2017-02-22 15:36:44.432
LEye coords (182.0, 136.0), REye coords (188.0, 127.0), timeStamp: 2017-02-22 15:36:44.466
LEye coords (182.0, 136.0), REye coords (0.0, 0.0), timeStamp: 2017-02-22 15:36:44.501
LEye coords (182.0, 136.0), REye coords (0.0, 0.0), timeStamp: 2017-02-22 15:36:44.535
LEye coords (182.0, 136.0), REye coords (0.0, 0.0), timeStamp: 2017-02-22 15:36:44.580
LEye coords (182.0, 137.0), REye coords (0.0, 0.0), timeStamp: 2017-02-22 15:36:44.614
LEye coords (182.0, 137.0), REye coords (0.0, 0.0), timeStamp: 2017-02-22 15:36:44.648
LEye coords (182.0, 137.0), REye coords (0.0, 0.0), timeStamp: 2017-02-22 15:36:44.682
LEye coords (181.0, 137.0), REye coords (0.0, 0.0), timeStamp: 2017-02-22 15:36:44.726
LEye coords (182.0, 138.0), REye coords (188.0, 128.0), timeStamp: 2017-02-22 15:36:44.761
LEye coords (184.0, 139.0), REye coords (234.0, 123.0), timeStamp: 2017-02-22 15:36:44.794
LEye coords (187.0, 139.0), REye coords (237.0, 137.0), timeStamp: 2017-02-22 15:36:44.839
LEye coords (189.0, 140.0), REye coords (239.0, 132.0), timeStamp: 2017-02-22 15:36:44.874
LEye coords (191.0, 141.0), REye coords (240.0, 129.0), timeStamp: 2017-02-22 15:36:44.907
LEye coords (194.0, 142.0), REye coords (238.0, 126.0), timeStamp: 2017-02-22 15:36:44.951
LEye coords (196.0, 143.0), REye coords (237.0, 119.0), timeStamp: 2017-02-22 15:36:44.985
LEye coords (281.0, 179.0), REye coords (297.0, 148.0), timeStamp: 2017-02-22 15:36:45.019
LEye coords (283.0, 179.0), REye coords (298.0, 145.0), timeStamp: 2017-02-22 15:36:45.062
LEye coords (280.0, 177.0), REye coords (298.0, 143.0), timeStamp: 2017-02-22 15:36:45.096
LEye coords (280.0, 180.0), REye coords (299.0, 143.0), timeStamp: 2017-02-22 15:36:45.130
LEye coords (279.0, 179.0), REye coords (295.0, 136.0), timeStamp: 2017-02-22 15:36:45.164
LEye coords (279.0, 184.0), REye coords (301.0, 147.0), timeStamp: 2017-02-22 15:36:45.210
LEye coords (280.0, 188.0), REye coords (302.0, 146.0), timeStamp: 2017-02-22 15:36:45.243
LEye coords (279.0, 188.0), REye coords (302.0, 144.0), timeStamp: 2017-02-22 15:36:45.276
LEye coords (279.0, 188.0), REye coords (302.0, 142.0), timeStamp: 2017-02-22 15:36:45.319
LEye coords (278.0, 186.0), REye coords (303.0, 141.0), timeStamp: 2017-02-22 15:36:45.353
LEye coords (278.0, 185.0), REye coords (302.0, 141.0), timeStamp: 2017-02-22 15:36:45.387
LEye coords (279.0, 186.0), REye coords (303.0, 141.0), timeStamp: 2017-02-22 15:36:45.431
LEye coords (279.0, 185.0), REye coords (303.0, 141.0), timeStamp: 2017-02-22 15:36:45.464
LEye coords (280.0, 186.0), REye coords (302.0, 141.0), timeStamp: 2017-02-22 15:36:45.498
LEye coords (279.0, 185.0), REye coords (302.0, 141.0), timeStamp: 2017-02-22 15:36:45.543
LEye coords (279.0, 184.0), REye coords (301.0, 142.0), timeStamp: 2017-02-22 15:36:45.577
LEye coords (279.0, 184.0), REye coords (299.0, 143.0), timeStamp: 2017-02-22 15:36:45.612
LEye coords (278.0, 183.0), REye coords (298.0, 143.0), timeStamp: 2017-02-22 15:36:45.645
LEye coords (278.0, 183.0), REye coords (297.0, 144.0), timeStamp: 2017-02-22 15:36:45.689
LEye coords (278.0, 182.0), REye coords (296.0, 144.0), timeStamp: 2017-02-22 15:36:45.722
LEye coords (278.0, 182.0), REye coords (296.0, 144.0), timeStamp: 2017-02-22 15:36:45.756
LEye coords (278.0, 181.0), REye coords (295.0, 143.0), timeStamp: 2017-02-22 15:36:45.800
LEye coords (278.0, 182.0), REye coords (295.0, 143.0), timeStamp: 2017-02-22 15:36:45.833
LEye coords (279.0, 182.0), REye coords (295.0, 143.0), timeStamp: 2017-02-22 15:36:45.876
LEye coords (279.0, 181.0), REye coords (296.0, 142.0), timeStamp: 2017-02-22 15:36:45.911
LEye coords (279.0, 181.0), REye coords (296.0, 142.0), timeStamp: 2017-02-22 15:36:45.945
LEye coords (279.0, 181.0), REye coords (297.0, 142.0), timeStamp: 2017-02-22 15:36:45.978
LEye coords (279.0, 181.0), REye coords (296.0, 142.0), timeStamp: 2017-02-22 15:36:46.023
LEye coords (279.0, 181.0), REye coords (295.0, 142.0), timeStamp: 2017-02-22 15:36:46.056
LEye coords (279.0, 181.0), REye coords (295.0, 141.0), timeStamp: 2017-02-22 15:36:46.090
LEye coords (279.0, 180.0), REye coords (294.0, 142.0), timeStamp: 2017-02-22 15:36:46.135
LEye coords (278.0, 180.0), REye coords (294.0, 141.0), timeStamp: 2017-02-22 15:36:46.169
LEye coords (278.0, 180.0), REye coords (293.0, 141.0), timeStamp: 2017-02-22 15:36:46.202
LEye coords (279.0, 179.0), REye coords (293.0, 141.0), timeStamp: 2017-02-22 15:36:46.246
LEye coords (279.0, 179.0), REye coords (293.0, 140.0), timeStamp: 2017-02-22 15:36:46.279
LEye coords (279.0, 179.0), REye coords (293.0, 140.0), timeStamp: 2017-02-22 15:36:46.314
LEye coords (279.0, 179.0), REye coords (294.0, 139.0), timeStamp: 2017-02-22 15:36:46.358
LEye coords (279.0, 178.0), REye coords (294.0, 138.0), timeStamp: 2017-02-22 15:36:46.393
LEye coords (280.0, 178.0), REye coords (295.0, 137.0), timeStamp: 2017-02-22 15:36:46.427
LEye coords (280.0, 177.0), REye coords (295.0, 137.0), timeStamp: 2017-02-22 15:36:46.460
LEye coords (280.0, 177.0), REye coords (296.0, 137.0), timeStamp: 2017-02-22 15:36:46.504
LEye coords (280.0, 177.0), REye coords (297.0, 136.0), timeStamp: 2017-02-22 15:36:46.538
LEye coords (280.0, 177.0), REye coords (297.0, 137.0), timeStamp: 2017-02-22 15:36:46.571
LEye coords (280.0, 177.0), REye coords (297.0, 137.0), timeStamp: 2017-02-22 15:36:46.614
LEye coords (280.0, 177.0), REye coords (297.0, 136.0), timeStamp: 2017-02-22 15:36:46.648
LEye coords (281.0, 176.0), REye coords (297.0, 136.0), timeStamp: 2017-02-22 15:36:46.682
LEye coords (281.0, 177.0), REye coords (297.0, 136.0), timeStamp: 2017-02-22 15:36:46.726
LEye coords (281.0, 176.0), REye coords (297.0, 136.0), timeStamp: 2017-02-22 15:36:46.760
LEye coords (281.0, 176.0), REye coords (297.0, 136.0), timeStamp: 2017-02-22 15:36:46.794
LEye coords (281.0, 177.0), REye coords (297.0, 136.0), timeStamp: 2017-02-22 15:36:46.839
LEye coords (281.0, 176.0), REye coords (297.0, 135.0), timeStamp: 2017-02-22 15:36:46.871
LEye coords (281.0, 177.0), REye coords (298.0, 135.0), timeStamp: 2017-02-22 15:36:46.904
LEye coords (280.0, 177.0), REye coords (298.0, 135.0), timeStamp: 2017-02-22 15:36:46.948
LEye coords (280.0, 177.0), REye coords (298.0, 135.0), timeStamp: 2017-02-22 15:36:46.982
