LEye coords (91.0, 165.0), REye coords (0.0, 0.0), timeStamp: 2017-02-22 15:36:52.609
LEye coords (91.0, 165.0), REye coords (0.0, 0.0), timeStamp: 2017-02-22 15:36:52.642
LEye coords (91.0, 166.0), REye coords (0.0, 0.0), timeStamp: 2017-02-22 15:36:52.687
LEye coords (91.0, 166.0), REye coords (0.0, 0.0), timeStamp: 2017-02-22 15:36:52.722
LEye coords (91.0, 166.0), REye coords (0.0, 0.0), timeStamp: 2017-02-22 15:36:52.756
LEye coords (91.0, 165.0), REye coords (82.0, 161.0), timeStamp: 2017-02-22 15:36:52.791
LEye coords (92.0, 165.0), REye coords (84.0, 157.0), timeStamp: 2017-02-22 15:36:52.835
LEye coords (193.0, 163.0), REye coords (189.0, 154.0), timeStamp: 2017-02-22 15:36:52.868
LEye coords (192.0, 162.0), REye coords (188.0, 142.0), timeStamp: 2017-02-22 15:36:52.901
LEye coords (192.0, 164.0), REye coords (189.0, 146.0), timeStamp: 2017-02-22 15:36:52.945
LEye coords (189.0, 158.0), REye coords (189.0, 146.0), timeStamp: 2017-02-22 15:36:52.978
LEye coords (189.0, 159.0), REye coords (189.0, 146.0), timeStamp: 2017-02-22 15:36:53.011
LEye coords (187.0, 147.0), REye coords (195.0, 152.0), timeStamp: 2017-02-22 15:36:53.056
LEye coords (297.0, 164.0), REye coords (312.0, 127.0), timeStamp: 2017-02-22 15:36:53.090
LEye coords (296.0, 164.0), REye coords (312.0, 126.0), timeStamp: 2017-02-22 15:36:53.123
LEye coords (296.0, 164.0), REye coords (0.0, 0.0), timeStamp: 2017-02-22 15:36:53.157
LEye coords (296.0, 164.0), REye coords (313.0, 126.0), timeStamp: 2017-02-22 15:36:53.202
LEye coords (292.0, 164.0), REye coords (312.0, 127.0), timeStamp: 2017-02-22 15:36:53.236
LEye coords (295.0, 165.0), REye coords (305.0, 133.0), timeStamp: 2017-02-22 15:36:53.270
LEye coords (295.0, 165.0), REye coords (309.0, 130.0), timeStamp: 2017-02-22 15:36:53.314
LEye coords (295.0, 167.0), REye coords (309.0, 132.0), timeStamp: 2017-02-22 15:36:53.348
LEye coords (294.0, 166.0), REye coords (307.0, 130.0), timeStamp: 2017-02-22 15:36:53.381
LEye coords (294.0, 167.0), REye coords (307.0, 128.0), timeStamp: 2017-02-22 15:36:53.425
LEye coords (293.0, 165.0), REye coords (307.0, 127.0), timeStamp: 2017-02-22 15:36:53.460
LEye coords (293.0, 164.0), REye coords (307.0, 125.0), timeStamp: 2017-02-22 15:36:53.494
LEye coords (292.0, 164.0), REye coords (306.0, 125.0), timeStamp: 2017-02-22 15:36:53.528
LEye coords (292.0, 164.0), REye coords (306.0, 125.0), timeStamp: 2017-02-22 15:36:53.572
LEye coords (292.0, 164.0), REye coords (306.0, 125.0), timeStamp: 2017-02-22 15:36:53.606
LEye coords (293.0, 164.0), REye coords (307.0, 126.0), timeStamp: 2017-02-22 15:36:53.640
LEye coords (294.0, 165.0), REye coords (308.0, 127.0), timeStamp: 2017-02-22 15:36:53.685
LEye coords (295.0, 165.0), REye coords (309.0, 128.0), timeStamp: 2017-02-22 15:36:53.718
LEye coords (296.0, 165.0), REye coords (311.0, 129.0), timeStamp: 2017-02-22 15:36:53.752
LEye coords (298.0, 165.0), REye coords (312.0, 130.0), timeStamp: 2017-02-22 15:36:53.797
LEye coords (299.0, 165.0), REye coords (312.0, 130.0), timeStamp: 2017-02-22 15:36:53.830
LEye coords (299.0, 166.0), REye coords (312.0, 132.0), timeStamp: 2017-02-22 15:36:53.864
LEye coords (299.0, 166.0), REye coords (312.0, 134.0), timeStamp: 2017-02-22 15:36:53.898
LEye coords (298.0, 167.0), REye coords (312.0, 136.0), timeStamp: 2017-02-22 15:36:53.943
LEye coords (0.0, 0.0), REye coords (311.0, 138.0), timeStamp: 2017-02-22 15:36:53.977
LEye coords (0.0, 0.0), REye coords (311.0, 140.0), timeStamp: 2017-02-22 15:36:54.011
LEye coords (0.0, 0.0), REye coords (311.0, 141.0), timeStamp: 2017-02-22 15:36:54.056
LEye coords (0.0, 0.0), REye coords (310.0, 143.0), timeStamp: 2017-02-22 15:36:54.090
LEye coords (0.0, 0.0), REye coords (310.0, 145.0), timeStamp: 2017-02-22 15:36:54.124
LEye coords (0.0, 0.0), REye coords (309.0, 147.0), timeStamp: 2017-02-22 15:36:54.159
LEye coords (0.0, 0.0), REye coords (310.0, 147.0), timeStamp: 2017-02-22 15:36:54.203
LEye coords (0.0, 0.0), REye coords (310.0, 149.0), timeStamp: 2017-02-22 15:36:54.237
LEye coords (0.0, 0.0), REye coords (310.0, 151.0), timeStamp: 2017-02-22 15:36:54.271
LEye coords (299.0, 168.0), REye coords (311.0, 153.0), timeStamp: 2017-02-22 15:36:54.305
LEye coords (299.0, 169.0), REye coords (311.0, 155.0), timeStamp: 2017-02-22 15:36:54.349
LEye coords (299.0, 170.0), REye coords (312.0, 157.0), timeStamp: 2017-02-22 15:36:54.382
LEye coords (300.0, 171.0), REye coords (312.0, 159.0), timeStamp: 2017-02-22 15:36:54.426
LEye coords (300.0, 172.0), REye coords (313.0, 161.0), timeStamp: 2017-02-22 15:36:54.460
LEye coords (301.0, 173.0), REye coords (312.0, 163.0), timeStamp: 2017-02-22 15:36:54.495
LEye coords (301.0, 174.0), REye coords (312.0, 165.0), timeStamp: 2017-02-22 15:36:54.528
LEye coords (302.0, 175.0), REye coords (312.0, 167.0), timeStamp: 2017-02-22 15:36:54.571
LEye coords (302.0, 176.0), REye coords (311.0, 168.0), timeStamp: 2017-02-22 15:36:54.606
LEye coords (303.0, 177.0), REye coords (311.0, 170.0), timeStamp: 2017-02-22 15:36:54.640
LEye coords (303.0, 178.0), REye coords (311.0, 172.0), timeStamp: 2017-02-22 15:36:54.685
LEye coords (303.0, 178.0), REye coords (311.0, 173.0), timeStamp: 2017-02-22 15:36:54.719
LEye coords (304.0, 179.0), REye coords (311.0, 174.0), timeStamp: 2017-02-22 15:36:54.753
LEye coords (304.0, 179.0), REye coords (311.0, 175.0), timeStamp: 2017-02-22 15:36:54.786
LEye coords (304.0, 180.0), REye coords (311.0, 176.0), timeStamp: 2017-02-22 15:36:54.830
LEye coords (304.0, 180.0), REye coords (312.0, 177.0), timeStamp: 2017-02-22 15:36:54.864
LEye coords (304.0, 181.0), REye coords (312.0, 177.0), timeStamp: 2017-02-22 15:36:54.908
LEye coords (304.0, 182.0), REye coords (312.0, 178.0), timeStamp: 2017-02-22 15:36:54.943
LEye coords (304.0, 183.0), REye coords (312.0, 178.0), timeStamp: 2017-02-22 15:36:54.977
LEye coords (304.0, 183.0), REye coords (311.0, 179.0), timeStamp: 2017-02-22 15:36:55.010
LEye coords (304.0, 183.0), REye coords (311.0, 180.0), timeStamp: 2017-02-22 15:36:55.054
LEye coords (304.0, 184.0), REye coords (311.0, 180.0), timeStamp: 2017-02-22 15:36:55.088
LEye coords (305.0, 184.0), REye coords (311.0, 180.0), timeStamp: 2017-02-22 15:36:55.121
LEye coords (305.0, 184.0), REye coords (311.0, 181.0), timeStamp: 2017-02-22 15:36:55.164
LEye coords (305.0, 184.0), REye coords (310.0, 181.0), timeStamp: 2017-02-22 15:36:55.198
LEye coords (305.0, 184.0), REye coords (310.0, 181.0), timeStamp: 2017-02-22 15:36:55.231
LEye coords (305.0, 184.0), REye coords (310.0, 181.0), timeStamp: 2017-02-22 15:36:55.277
