LEye coords (220.0, 206.0), REye coords (223.0, 194.0), timeStamp: 2017-02-22 15:45:22.835
LEye coords (220.0, 205.0), REye coords (223.0, 193.0), timeStamp: 2017-02-22 15:45:22.868
LEye coords (220.0, 205.0), REye coords (223.0, 193.0), timeStamp: 2017-02-22 15:45:22.912
LEye coords (221.0, 205.0), REye coords (223.0, 192.0), timeStamp: 2017-02-22 15:45:22.946
LEye coords (221.0, 205.0), REye coords (223.0, 192.0), timeStamp: 2017-02-22 15:45:22.980
LEye coords (221.0, 205.0), REye coords (223.0, 191.0), timeStamp: 2017-02-22 15:45:23.024
LEye coords (221.0, 205.0), REye coords (223.0, 191.0), timeStamp: 2017-02-22 15:45:23.058
LEye coords (222.0, 205.0), REye coords (223.0, 191.0), timeStamp: 2017-02-22 15:45:23.091
LEye coords (222.0, 205.0), REye coords (223.0, 191.0), timeStamp: 2017-02-22 15:45:23.136
LEye coords (222.0, 205.0), REye coords (223.0, 191.0), timeStamp: 2017-02-22 15:45:23.169
LEye coords (223.0, 204.0), REye coords (223.0, 189.0), timeStamp: 2017-02-22 15:45:23.203
LEye coords (223.0, 202.0), REye coords (224.0, 187.0), timeStamp: 2017-02-22 15:45:23.247
LEye coords (224.0, 200.0), REye coords (224.0, 185.0), timeStamp: 2017-02-22 15:45:23.280
LEye coords (224.0, 198.0), REye coords (225.0, 182.0), timeStamp: 2017-02-22 15:45:23.313
LEye coords (225.0, 196.0), REye coords (226.0, 180.0), timeStamp: 2017-02-22 15:45:23.358
LEye coords (225.0, 194.0), REye coords (236.0, 131.0), timeStamp: 2017-02-22 15:45:23.392
LEye coords (311.0, 137.0), REye coords (323.0, 130.0), timeStamp: 2017-02-22 15:45:23.426
LEye coords (307.0, 141.0), REye coords (314.0, 131.0), timeStamp: 2017-02-22 15:45:23.459
LEye coords (307.0, 135.0), REye coords (317.0, 131.0), timeStamp: 2017-02-22 15:45:23.504
LEye coords (307.0, 135.0), REye coords (318.0, 131.0), timeStamp: 2017-02-22 15:45:23.538
LEye coords (307.0, 135.0), REye coords (324.0, 128.0), timeStamp: 2017-02-22 15:45:23.572
LEye coords (308.0, 135.0), REye coords (324.0, 128.0), timeStamp: 2017-02-22 15:45:23.615
LEye coords (306.0, 131.0), REye coords (323.0, 131.0), timeStamp: 2017-02-22 15:45:23.649
LEye coords (304.0, 123.0), REye coords (324.0, 126.0), timeStamp: 2017-02-22 15:45:23.683
LEye coords (305.0, 119.0), REye coords (323.0, 123.0), timeStamp: 2017-02-22 15:45:23.728
LEye coords (305.0, 119.0), REye coords (324.0, 121.0), timeStamp: 2017-02-22 15:45:23.762
LEye coords (306.0, 119.0), REye coords (324.0, 119.0), timeStamp: 2017-02-22 15:45:23.794
LEye coords (306.0, 118.0), REye coords (324.0, 117.0), timeStamp: 2017-02-22 15:45:23.838
LEye coords (304.0, 115.0), REye coords (323.0, 115.0), timeStamp: 2017-02-22 15:45:23.873
LEye coords (303.0, 114.0), REye coords (322.0, 112.0), timeStamp: 2017-02-22 15:45:23.907
LEye coords (302.0, 112.0), REye coords (321.0, 111.0), timeStamp: 2017-02-22 15:45:23.951
LEye coords (301.0, 111.0), REye coords (321.0, 109.0), timeStamp: 2017-02-22 15:45:23.984
LEye coords (300.0, 110.0), REye coords (320.0, 108.0), timeStamp: 2017-02-22 15:45:24.018
LEye coords (300.0, 109.0), REye coords (319.0, 107.0), timeStamp: 2017-02-22 15:45:24.062
LEye coords (299.0, 108.0), REye coords (319.0, 106.0), timeStamp: 2017-02-22 15:45:24.095
LEye coords (299.0, 108.0), REye coords (318.0, 105.0), timeStamp: 2017-02-22 15:45:24.130
LEye coords (298.0, 107.0), REye coords (318.0, 105.0), timeStamp: 2017-02-22 15:45:24.164
LEye coords (298.0, 107.0), REye coords (318.0, 105.0), timeStamp: 2017-02-22 15:45:24.208
LEye coords (298.0, 106.0), REye coords (317.0, 104.0), timeStamp: 2017-02-22 15:45:24.242
LEye coords (298.0, 106.0), REye coords (317.0, 104.0), timeStamp: 2017-02-22 15:45:24.276
LEye coords (298.0, 106.0), REye coords (317.0, 103.0), timeStamp: 2017-02-22 15:45:24.319
LEye coords (297.0, 106.0), REye coords (317.0, 103.0), timeStamp: 2017-02-22 15:45:24.354
LEye coords (297.0, 106.0), REye coords (316.0, 103.0), timeStamp: 2017-02-22 15:45:24.387
LEye coords (297.0, 106.0), REye coords (316.0, 102.0), timeStamp: 2017-02-22 15:45:24.422
LEye coords (297.0, 105.0), REye coords (316.0, 101.0), timeStamp: 2017-02-22 15:45:24.465
LEye coords (297.0, 105.0), REye coords (315.0, 101.0), timeStamp: 2017-02-22 15:45:24.499
LEye coords (296.0, 105.0), REye coords (315.0, 101.0), timeStamp: 2017-02-22 15:45:24.543
LEye coords (297.0, 105.0), REye coords (315.0, 101.0), timeStamp: 2017-02-22 15:45:24.577
LEye coords (297.0, 104.0), REye coords (316.0, 101.0), timeStamp: 2017-02-22 15:45:24.611
LEye coords (297.0, 104.0), REye coords (316.0, 101.0), timeStamp: 2017-02-22 15:45:24.644
LEye coords (298.0, 104.0), REye coords (317.0, 101.0), timeStamp: 2017-02-22 15:45:24.688
LEye coords (298.0, 104.0), REye coords (317.0, 102.0), timeStamp: 2017-02-22 15:45:24.722
LEye coords (299.0, 104.0), REye coords (318.0, 102.0), timeStamp: 2017-02-22 15:45:24.757
LEye coords (299.0, 104.0), REye coords (319.0, 102.0), timeStamp: 2017-02-22 15:45:24.801
LEye coords (299.0, 103.0), REye coords (319.0, 102.0), timeStamp: 2017-02-22 15:45:24.834
