LEye coords (281.0, 253.0), REye coords (288.0, 245.0), timeStamp: 2017-02-22 15:37:03.938
LEye coords (197.0, 182.0), REye coords (215.0, 160.0), timeStamp: 2017-02-22 15:45:20.911
LEye coords (192.0, 175.0), REye coords (209.0, 153.0), timeStamp: 2017-02-22 15:45:20.945
LEye coords (189.0, 170.0), REye coords (204.0, 150.0), timeStamp: 2017-02-22 15:45:20.989
LEye coords (186.0, 168.0), REye coords (201.0, 147.0), timeStamp: 2017-02-22 15:45:21.023
LEye coords (185.0, 166.0), REye coords (199.0, 146.0), timeStamp: 2017-02-22 15:45:21.057
LEye coords (183.0, 164.0), REye coords (197.0, 144.0), timeStamp: 2017-02-22 15:45:21.091
LEye coords (182.0, 163.0), REye coords (195.0, 143.0), timeStamp: 2017-02-22 15:45:21.134
LEye coords (181.0, 161.0), REye coords (194.0, 143.0), timeStamp: 2017-02-22 15:45:21.168
LEye coords (180.0, 160.0), REye coords (193.0, 142.0), timeStamp: 2017-02-22 15:45:21.212
LEye coords (179.0, 160.0), REye coords (192.0, 142.0), timeStamp: 2017-02-22 15:45:21.246
LEye coords (179.0, 159.0), REye coords (191.0, 142.0), timeStamp: 2017-02-22 15:45:21.280
LEye coords (260.0, 144.0), REye coords (294.0, 150.0), timeStamp: 2017-02-22 15:45:21.314
LEye coords (329.0, 172.0), REye coords (342.0, 181.0), timeStamp: 2017-02-22 15:45:21.359
LEye coords (329.0, 179.0), REye coords (344.0, 183.0), timeStamp: 2017-02-22 15:45:21.392
LEye coords (330.0, 182.0), REye coords (342.0, 187.0), timeStamp: 2017-02-22 15:45:21.426
LEye coords (330.0, 184.0), REye coords (341.0, 187.0), timeStamp: 2017-02-22 15:45:21.471
LEye coords (323.0, 192.0), REye coords (338.0, 179.0), timeStamp: 2017-02-22 15:45:21.504
LEye coords (227.0, 194.0), REye coords (234.0, 189.0), timeStamp: 2017-02-22 15:45:21.538
LEye coords (226.0, 192.0), REye coords (236.0, 189.0), timeStamp: 2017-02-22 15:45:21.572
LEye coords (227.0, 193.0), REye coords (236.0, 188.0), timeStamp: 2017-02-22 15:45:21.615
LEye coords (227.0, 194.0), REye coords (237.0, 188.0), timeStamp: 2017-02-22 15:45:21.649
LEye coords (229.0, 197.0), REye coords (236.0, 190.0), timeStamp: 2017-02-22 15:45:21.693
LEye coords (225.0, 201.0), REye coords (230.0, 196.0), timeStamp: 2017-02-22 15:45:21.727
LEye coords (226.0, 199.0), REye coords (234.0, 195.0), timeStamp: 2017-02-22 15:45:21.760
LEye coords (227.0, 199.0), REye coords (235.0, 195.0), timeStamp: 2017-02-22 15:45:21.794
LEye coords (226.0, 198.0), REye coords (236.0, 194.0), timeStamp: 2017-02-22 15:45:21.838
LEye coords (226.0, 198.0), REye coords (237.0, 194.0), timeStamp: 2017-02-22 15:45:21.871
LEye coords (224.0, 202.0), REye coords (233.0, 197.0), timeStamp: 2017-02-22 15:45:21.905
LEye coords (222.0, 204.0), REye coords (231.0, 199.0), timeStamp: 2017-02-22 15:45:21.949
LEye coords (220.0, 206.0), REye coords (229.0, 201.0), timeStamp: 2017-02-22 15:45:21.983
LEye coords (219.0, 208.0), REye coords (228.0, 202.0), timeStamp: 2017-02-22 15:45:22.016
LEye coords (218.0, 210.0), REye coords (227.0, 204.0), timeStamp: 2017-02-22 15:45:22.061
LEye coords (218.0, 211.0), REye coords (226.0, 204.0), timeStamp: 2017-02-22 15:45:22.096
LEye coords (218.0, 211.0), REye coords (226.0, 205.0), timeStamp: 2017-02-22 15:45:22.129
LEye coords (217.0, 212.0), REye coords (225.0, 205.0), timeStamp: 2017-02-22 15:45:22.174
LEye coords (217.0, 212.0), REye coords (225.0, 205.0), timeStamp: 2017-02-22 15:45:22.208
LEye coords (217.0, 211.0), REye coords (225.0, 204.0), timeStamp: 2017-02-22 15:45:22.241
LEye coords (217.0, 211.0), REye coords (224.0, 204.0), timeStamp: 2017-02-22 15:45:22.275
LEye coords (217.0, 210.0), REye coords (224.0, 203.0), timeStamp: 2017-02-22 15:45:22.319
LEye coords (217.0, 210.0), REye coords (224.0, 202.0), timeStamp: 2017-02-22 15:45:22.352
LEye coords (217.0, 209.0), REye coords (224.0, 201.0), timeStamp: 2017-02-22 15:45:22.396
LEye coords (217.0, 209.0), REye coords (224.0, 201.0), timeStamp: 2017-02-22 15:45:22.430
LEye coords (217.0, 209.0), REye coords (224.0, 200.0), timeStamp: 2017-02-22 15:45:22.464
LEye coords (217.0, 208.0), REye coords (224.0, 199.0), timeStamp: 2017-02-22 15:45:22.498
LEye coords (217.0, 208.0), REye coords (224.0, 199.0), timeStamp: 2017-02-22 15:45:22.541
LEye coords (217.0, 208.0), REye coords (223.0, 198.0), timeStamp: 2017-02-22 15:45:22.575
LEye coords (217.0, 208.0), REye coords (223.0, 198.0), timeStamp: 2017-02-22 15:45:22.610
LEye coords (218.0, 208.0), REye coords (222.0, 198.0), timeStamp: 2017-02-22 15:45:22.654
LEye coords (218.0, 208.0), REye coords (222.0, 197.0), timeStamp: 2017-02-22 15:45:22.688
LEye coords (218.0, 207.0), REye coords (223.0, 196.0), timeStamp: 2017-02-22 15:45:22.722
LEye coords (219.0, 206.0), REye coords (223.0, 195.0), timeStamp: 2017-02-22 15:45:22.801
