LEye coords (300.0, 103.0), REye coords (320.0, 102.0), timeStamp: 2017-02-22 15:45:24.913
LEye coords (301.0, 104.0), REye coords (321.0, 102.0), timeStamp: 2017-02-22 15:45:24.946
LEye coords (301.0, 104.0), REye coords (321.0, 102.0), timeStamp: 2017-02-22 15:45:24.980
LEye coords (301.0, 104.0), REye coords (322.0, 102.0), timeStamp: 2017-02-22 15:45:25.014
LEye coords (302.0, 104.0), REye coords (322.0, 102.0), timeStamp: 2017-02-22 15:45:25.058
LEye coords (302.0, 104.0), REye coords (323.0, 102.0), timeStamp: 2017-02-22 15:45:25.092
LEye coords (302.0, 104.0), REye coords (323.0, 102.0), timeStamp: 2017-02-22 15:45:25.135
LEye coords (302.0, 104.0), REye coords (323.0, 102.0), timeStamp: 2017-02-22 15:45:25.169
LEye coords (303.0, 104.0), REye coords (324.0, 102.0), timeStamp: 2017-02-22 15:45:25.203
LEye coords (200.0, 206.0), REye coords (204.0, 153.0), timeStamp: 2017-02-22 15:45:25.237
LEye coords (162.0, 248.0), REye coords (173.0, 240.0), timeStamp: 2017-02-22 15:45:25.282
LEye coords (164.0, 250.0), REye coords (173.0, 239.0), timeStamp: 2017-02-22 15:45:25.316
LEye coords (164.0, 251.0), REye coords (175.0, 239.0), timeStamp: 2017-02-22 15:45:25.350
LEye coords (163.0, 250.0), REye coords (174.0, 238.0), timeStamp: 2017-02-22 15:45:25.394
LEye coords (164.0, 249.0), REye coords (176.0, 238.0), timeStamp: 2017-02-22 15:45:25.428
LEye coords (167.0, 251.0), REye coords (169.0, 238.0), timeStamp: 2017-02-22 15:45:25.461
LEye coords (164.0, 250.0), REye coords (167.0, 237.0), timeStamp: 2017-02-22 15:45:25.505
LEye coords (156.0, 253.0), REye coords (160.0, 240.0), timeStamp: 2017-02-22 15:45:25.540
LEye coords (151.0, 253.0), REye coords (157.0, 244.0), timeStamp: 2017-02-22 15:45:25.574
LEye coords (149.0, 254.0), REye coords (154.0, 246.0), timeStamp: 2017-02-22 15:45:25.607
LEye coords (146.0, 254.0), REye coords (153.0, 247.0), timeStamp: 2017-02-22 15:45:25.652
LEye coords (144.0, 254.0), REye coords (151.0, 247.0), timeStamp: 2017-02-22 15:45:25.685
LEye coords (142.0, 253.0), REye coords (150.0, 248.0), timeStamp: 2017-02-22 15:45:25.719
LEye coords (140.0, 254.0), REye coords (148.0, 249.0), timeStamp: 2017-02-22 15:45:25.764
LEye coords (138.0, 255.0), REye coords (146.0, 249.0), timeStamp: 2017-02-22 15:45:25.798
LEye coords (136.0, 255.0), REye coords (145.0, 249.0), timeStamp: 2017-02-22 15:45:25.832
LEye coords (134.0, 256.0), REye coords (144.0, 250.0), timeStamp: 2017-02-22 15:45:25.866
LEye coords (133.0, 256.0), REye coords (143.0, 251.0), timeStamp: 2017-02-22 15:45:25.909
LEye coords (132.0, 256.0), REye coords (142.0, 251.0), timeStamp: 2017-02-22 15:45:25.942
LEye coords (131.0, 256.0), REye coords (141.0, 251.0), timeStamp: 2017-02-22 15:45:25.985
LEye coords (130.0, 256.0), REye coords (140.0, 251.0), timeStamp: 2017-02-22 15:45:26.018
LEye coords (130.0, 257.0), REye coords (140.0, 252.0), timeStamp: 2017-02-22 15:45:26.053
LEye coords (130.0, 258.0), REye coords (140.0, 253.0), timeStamp: 2017-02-22 15:45:26.096
LEye coords (129.0, 258.0), REye coords (139.0, 254.0), timeStamp: 2017-02-22 15:45:26.131
LEye coords (129.0, 258.0), REye coords (139.0, 255.0), timeStamp: 2017-02-22 15:45:26.164
LEye coords (129.0, 259.0), REye coords (139.0, 256.0), timeStamp: 2017-02-22 15:45:26.208
LEye coords (128.0, 259.0), REye coords (138.0, 256.0), timeStamp: 2017-02-22 15:45:26.242
LEye coords (128.0, 260.0), REye coords (138.0, 258.0), timeStamp: 2017-02-22 15:45:26.275
LEye coords (127.0, 260.0), REye coords (137.0, 259.0), timeStamp: 2017-02-22 15:45:26.320
LEye coords (126.0, 261.0), REye coords (137.0, 260.0), timeStamp: 2017-02-22 15:45:26.354
LEye coords (126.0, 261.0), REye coords (137.0, 261.0), timeStamp: 2017-02-22 15:45:26.386
LEye coords (126.0, 261.0), REye coords (136.0, 261.0), timeStamp: 2017-02-22 15:45:26.431
LEye coords (126.0, 262.0), REye coords (136.0, 262.0), timeStamp: 2017-02-22 15:45:26.464
LEye coords (126.0, 261.0), REye coords (136.0, 263.0), timeStamp: 2017-02-22 15:45:26.498
LEye coords (125.0, 262.0), REye coords (135.0, 264.0), timeStamp: 2017-02-22 15:45:26.541
LEye coords (126.0, 262.0), REye coords (135.0, 264.0), timeStamp: 2017-02-22 15:45:26.574
LEye coords (126.0, 262.0), REye coords (135.0, 264.0), timeStamp: 2017-02-22 15:45:26.608
LEye coords (126.0, 262.0), REye coords (135.0, 265.0), timeStamp: 2017-02-22 15:45:26.651
LEye coords (127.0, 263.0), REye coords (135.0, 265.0), timeStamp: 2017-02-22 15:45:26.684
LEye coords (127.0, 263.0), REye coords (136.0, 266.0), timeStamp: 2017-02-22 15:45:26.718
LEye coords (127.0, 263.0), REye coords (136.0, 266.0), timeStamp: 2017-02-22 15:45:26.763
LEye coords (127.0, 263.0), REye coords (135.0, 267.0), timeStamp: 2017-02-22 15:45:26.796
LEye coords (127.0, 264.0), REye coords (136.0, 267.0), timeStamp: 2017-02-22 15:45:26.831
LEye coords (127.0, 264.0), REye coords (136.0, 267.0), timeStamp: 2017-02-22 15:45:26.865
LEye coords (127.0, 264.0), REye coords (136.0, 267.0), timeStamp: 2017-02-22 15:45:26.908
LEye coords (127.0, 264.0), REye coords (136.0, 267.0), timeStamp: 2017-02-22 15:45:26.942
LEye coords (127.0, 264.0), REye coords (136.0, 267.0), timeStamp: 2017-02-22 15:45:26.986
LEye coords (127.0, 264.0), REye coords (136.0, 267.0), timeStamp: 2017-02-22 15:45:27.019
LEye coords (127.0, 265.0), REye coords (136.0, 267.0), timeStamp: 2017-02-22 15:45:27.053
LEye coords (127.0, 265.0), REye coords (136.0, 267.0), timeStamp: 2017-02-22 15:45:27.097
LEye coords (127.0, 266.0), REye coords (136.0, 267.0), timeStamp: 2017-02-22 15:45:27.131
LEye coords (127.0, 265.0), REye coords (136.0, 267.0), timeStamp: 2017-02-22 15:45:27.165
LEye coords (127.0, 266.0), REye coords (135.0, 267.0), timeStamp: 2017-02-22 15:45:27.200
LEye coords (127.0, 266.0), REye coords (136.0, 267.0), timeStamp: 2017-02-22 15:45:27.245
LEye coords (127.0, 266.0), REye coords (136.0, 267.0), timeStamp: 2017-02-22 15:45:27.278
LEye coords (127.0, 266.0), REye coords (136.0, 267.0), timeStamp: 2017-02-22 15:45:27.313
LEye coords (127.0, 267.0), REye coords (136.0, 267.0), timeStamp: 2017-02-22 15:45:27.347
