LEye coords (127.0, 268.0), REye coords (136.0, 266.0), timeStamp: 2017-02-22 15:45:27.459
LEye coords (127.0, 268.0), REye coords (136.0, 266.0), timeStamp: 2017-02-22 15:45:27.503
LEye coords (127.0, 269.0), REye coords (137.0, 266.0), timeStamp: 2017-02-22 15:45:27.537
LEye coords (127.0, 269.0), REye coords (137.0, 266.0), timeStamp: 2017-02-22 15:45:27.572
LEye coords (127.0, 270.0), REye coords (137.0, 266.0), timeStamp: 2017-02-22 15:45:27.615
LEye coords (127.0, 270.0), REye coords (137.0, 266.0), timeStamp: 2017-02-22 15:45:27.649
LEye coords (127.0, 270.0), REye coords (137.0, 266.0), timeStamp: 2017-02-22 15:45:27.683
LEye coords (127.0, 269.0), REye coords (137.0, 267.0), timeStamp: 2017-02-22 15:45:27.716
LEye coords (127.0, 269.0), REye coords (137.0, 267.0), timeStamp: 2017-02-22 15:45:27.762
LEye coords (128.0, 267.0), REye coords (138.0, 264.0), timeStamp: 2017-02-22 15:45:27.796
LEye coords (227.0, 168.0), REye coords (248.0, 164.0), timeStamp: 2017-02-22 15:45:27.830
LEye coords (228.0, 169.0), REye coords (252.0, 167.0), timeStamp: 2017-02-22 15:45:27.873
LEye coords (228.0, 172.0), REye coords (253.0, 168.0), timeStamp: 2017-02-22 15:45:27.907
LEye coords (235.0, 170.0), REye coords (265.0, 163.0), timeStamp: 2017-02-22 15:45:27.941
LEye coords (283.0, 174.0), REye coords (304.0, 171.0), timeStamp: 2017-02-22 15:45:27.984
LEye coords (416.0, 189.0), REye coords (422.0, 197.0), timeStamp: 2017-02-22 15:45:28.018
LEye coords (415.0, 180.0), REye coords (421.0, 199.0), timeStamp: 2017-02-22 15:45:28.053
LEye coords (416.0, 179.0), REye coords (422.0, 195.0), timeStamp: 2017-02-22 15:45:28.087
LEye coords (416.0, 180.0), REye coords (0.0, 0.0), timeStamp: 2017-02-22 15:45:28.131
LEye coords (416.0, 181.0), REye coords (422.0, 193.0), timeStamp: 2017-02-22 15:45:28.164
LEye coords (416.0, 182.0), REye coords (422.0, 194.0), timeStamp: 2017-02-22 15:45:28.198
LEye coords (416.0, 183.0), REye coords (422.0, 194.0), timeStamp: 2017-02-22 15:45:28.242
LEye coords (415.0, 184.0), REye coords (422.0, 194.0), timeStamp: 2017-02-22 15:45:28.277
LEye coords (415.0, 185.0), REye coords (422.0, 194.0), timeStamp: 2017-02-22 15:45:28.311
LEye coords (417.0, 185.0), REye coords (424.0, 194.0), timeStamp: 2017-02-22 15:45:28.355
LEye coords (420.0, 186.0), REye coords (427.0, 194.0), timeStamp: 2017-02-22 15:45:28.389
LEye coords (422.0, 187.0), REye coords (429.0, 195.0), timeStamp: 2017-02-22 15:45:28.423
LEye coords (424.0, 188.0), REye coords (430.0, 195.0), timeStamp: 2017-02-22 15:45:28.456
LEye coords (426.0, 188.0), REye coords (431.0, 195.0), timeStamp: 2017-02-22 15:45:28.500
LEye coords (428.0, 189.0), REye coords (432.0, 196.0), timeStamp: 2017-02-22 15:45:28.533
LEye coords (429.0, 190.0), REye coords (433.0, 197.0), timeStamp: 2017-02-22 15:45:28.577
LEye coords (430.0, 190.0), REye coords (434.0, 197.0), timeStamp: 2017-02-22 15:45:28.612
LEye coords (431.0, 191.0), REye coords (435.0, 197.0), timeStamp: 2017-02-22 15:45:28.645
LEye coords (432.0, 191.0), REye coords (435.0, 197.0), timeStamp: 2017-02-22 15:45:28.678
LEye coords (432.0, 192.0), REye coords (436.0, 198.0), timeStamp: 2017-02-22 15:45:28.723
LEye coords (433.0, 193.0), REye coords (436.0, 198.0), timeStamp: 2017-02-22 15:45:28.757
LEye coords (433.0, 193.0), REye coords (436.0, 198.0), timeStamp: 2017-02-22 15:45:28.791
LEye coords (434.0, 194.0), REye coords (436.0, 198.0), timeStamp: 2017-02-22 15:45:28.834
LEye coords (434.0, 195.0), REye coords (436.0, 198.0), timeStamp: 2017-02-22 15:45:28.869
LEye coords (434.0, 197.0), REye coords (437.0, 199.0), timeStamp: 2017-02-22 15:45:28.903
LEye coords (435.0, 197.0), REye coords (437.0, 199.0), timeStamp: 2017-02-22 15:45:28.948
LEye coords (436.0, 198.0), REye coords (438.0, 200.0), timeStamp: 2017-02-22 15:45:28.982
LEye coords (436.0, 199.0), REye coords (438.0, 200.0), timeStamp: 2017-02-22 15:45:29.017
LEye coords (437.0, 200.0), REye coords (438.0, 200.0), timeStamp: 2017-02-22 15:45:29.050
LEye coords (437.0, 201.0), REye coords (438.0, 201.0), timeStamp: 2017-02-22 15:45:29.094
LEye coords (437.0, 202.0), REye coords (438.0, 201.0), timeStamp: 2017-02-22 15:45:29.127
LEye coords (437.0, 202.0), REye coords (438.0, 201.0), timeStamp: 2017-02-22 15:45:29.161
LEye coords (438.0, 203.0), REye coords (438.0, 201.0), timeStamp: 2017-02-22 15:45:29.204
LEye coords (438.0, 203.0), REye coords (438.0, 202.0), timeStamp: 2017-02-22 15:45:29.239
LEye coords (439.0, 204.0), REye coords (439.0, 203.0), timeStamp: 2017-02-22 15:45:29.273
LEye coords (439.0, 204.0), REye coords (439.0, 203.0), timeStamp: 2017-02-22 15:45:29.317
LEye coords (440.0, 204.0), REye coords (439.0, 204.0), timeStamp: 2017-02-22 15:45:29.351
LEye coords (440.0, 204.0), REye coords (439.0, 204.0), timeStamp: 2017-02-22 15:45:29.385
LEye coords (441.0, 205.0), REye coords (439.0, 205.0), timeStamp: 2017-02-22 15:45:29.419
LEye coords (441.0, 205.0), REye coords (440.0, 205.0), timeStamp: 2017-02-22 15:45:29.463
LEye coords (442.0, 206.0), REye coords (440.0, 205.0), timeStamp: 2017-02-22 15:45:29.497
LEye coords (442.0, 206.0), REye coords (441.0, 205.0), timeStamp: 2017-02-22 15:45:29.532
LEye coords (443.0, 206.0), REye coords (441.0, 206.0), timeStamp: 2017-02-22 15:45:29.575
LEye coords (443.0, 206.0), REye coords (441.0, 206.0), timeStamp: 2017-02-22 15:45:29.609
LEye coords (443.0, 207.0), REye coords (442.0, 206.0), timeStamp: 2017-02-22 15:45:29.643
