LEye coords (138.0, 176.0), REye coords (183.0, 173.0), timeStamp: 2017-02-22 15:45:37.600
LEye coords (137.0, 176.0), REye coords (183.0, 172.0), timeStamp: 2017-02-22 15:45:37.643
LEye coords (136.0, 175.0), REye coords (184.0, 172.0), timeStamp: 2017-02-22 15:45:37.678
LEye coords (134.0, 175.0), REye coords (184.0, 172.0), timeStamp: 2017-02-22 15:45:37.712
LEye coords (134.0, 175.0), REye coords (184.0, 172.0), timeStamp: 2017-02-22 15:45:37.747
LEye coords (133.0, 175.0), REye coords (185.0, 172.0), timeStamp: 2017-02-22 15:45:37.790
LEye coords (134.0, 175.0), REye coords (186.0, 172.0), timeStamp: 2017-02-22 15:45:37.825
LEye coords (281.0, 226.0), REye coords (297.0, 219.0), timeStamp: 2017-02-22 15:45:37.859
LEye coords (285.0, 225.0), REye coords (287.0, 217.0), timeStamp: 2017-02-22 15:45:37.903
LEye coords (257.0, 224.0), REye coords (258.0, 216.0), timeStamp: 2017-02-22 15:45:37.937
LEye coords (229.0, 220.0), REye coords (229.0, 213.0), timeStamp: 2017-02-22 15:45:37.971
LEye coords (216.0, 218.0), REye coords (215.0, 210.0), timeStamp: 2017-02-22 15:45:38.015
LEye coords (173.0, 210.0), REye coords (177.0, 207.0), timeStamp: 2017-02-22 15:45:38.048
LEye coords (168.0, 207.0), REye coords (174.0, 197.0), timeStamp: 2017-02-22 15:45:38.083
LEye coords (168.0, 205.0), REye coords (176.0, 198.0), timeStamp: 2017-02-22 15:45:38.117
LEye coords (166.0, 200.0), REye coords (176.0, 198.0), timeStamp: 2017-02-22 15:45:38.161
LEye coords (165.0, 199.0), REye coords (178.0, 198.0), timeStamp: 2017-02-22 15:45:38.195
LEye coords (164.0, 197.0), REye coords (180.0, 195.0), timeStamp: 2017-02-22 15:45:38.228
LEye coords (163.0, 196.0), REye coords (182.0, 195.0), timeStamp: 2017-02-22 15:45:38.273
LEye coords (161.0, 196.0), REye coords (179.0, 194.0), timeStamp: 2017-02-22 15:45:38.306
LEye coords (160.0, 196.0), REye coords (177.0, 194.0), timeStamp: 2017-02-22 15:45:38.339
LEye coords (159.0, 195.0), REye coords (175.0, 193.0), timeStamp: 2017-02-22 15:45:38.382
LEye coords (158.0, 195.0), REye coords (173.0, 191.0), timeStamp: 2017-02-22 15:45:38.416
LEye coords (158.0, 195.0), REye coords (172.0, 191.0), timeStamp: 2017-02-22 15:45:38.450
LEye coords (157.0, 195.0), REye coords (171.0, 190.0), timeStamp: 2017-02-22 15:45:38.494
LEye coords (156.0, 194.0), REye coords (170.0, 189.0), timeStamp: 2017-02-22 15:45:38.527
LEye coords (156.0, 194.0), REye coords (169.0, 188.0), timeStamp: 2017-02-22 15:45:38.561
LEye coords (156.0, 194.0), REye coords (169.0, 185.0), timeStamp: 2017-02-22 15:45:38.605
LEye coords (156.0, 194.0), REye coords (169.0, 185.0), timeStamp: 2017-02-22 15:45:38.639
LEye coords (157.0, 193.0), REye coords (169.0, 184.0), timeStamp: 2017-02-22 15:45:38.674
LEye coords (157.0, 193.0), REye coords (169.0, 183.0), timeStamp: 2017-02-22 15:45:38.708
LEye coords (157.0, 192.0), REye coords (169.0, 182.0), timeStamp: 2017-02-22 15:45:38.752
LEye coords (157.0, 192.0), REye coords (169.0, 181.0), timeStamp: 2017-02-22 15:45:38.787
LEye coords (157.0, 191.0), REye coords (169.0, 180.0), timeStamp: 2017-02-22 15:45:38.819
LEye coords (157.0, 191.0), REye coords (169.0, 179.0), timeStamp: 2017-02-22 15:45:38.865
LEye coords (156.0, 191.0), REye coords (168.0, 178.0), timeStamp: 2017-02-22 15:45:38.898
LEye coords (156.0, 190.0), REye coords (168.0, 178.0), timeStamp: 2017-02-22 15:45:38.932
LEye coords (156.0, 190.0), REye coords (167.0, 177.0), timeStamp: 2017-02-22 15:45:38.977
LEye coords (155.0, 190.0), REye coords (167.0, 176.0), timeStamp: 2017-02-22 15:45:39.010
LEye coords (155.0, 190.0), REye coords (166.0, 176.0), timeStamp: 2017-02-22 15:45:39.044
LEye coords (155.0, 190.0), REye coords (165.0, 175.0), timeStamp: 2017-02-22 15:45:39.088
LEye coords (155.0, 190.0), REye coords (165.0, 174.0), timeStamp: 2017-02-22 15:45:39.121
LEye coords (154.0, 190.0), REye coords (165.0, 173.0), timeStamp: 2017-02-22 15:45:39.154
LEye coords (154.0, 190.0), REye coords (165.0, 173.0), timeStamp: 2017-02-22 15:45:39.200
LEye coords (154.0, 189.0), REye coords (165.0, 172.0), timeStamp: 2017-02-22 15:45:39.234
LEye coords (154.0, 189.0), REye coords (164.0, 171.0), timeStamp: 2017-02-22 15:45:39.267
LEye coords (154.0, 189.0), REye coords (165.0, 172.0), timeStamp: 2017-02-22 15:45:39.302
LEye coords (153.0, 189.0), REye coords (165.0, 173.0), timeStamp: 2017-02-22 15:45:39.346
LEye coords (153.0, 189.0), REye coords (165.0, 173.0), timeStamp: 2017-02-22 15:45:39.381
LEye coords (153.0, 189.0), REye coords (165.0, 174.0), timeStamp: 2017-02-22 15:45:39.414
LEye coords (153.0, 190.0), REye coords (165.0, 175.0), timeStamp: 2017-02-22 15:45:39.459
LEye coords (153.0, 189.0), REye coords (166.0, 175.0), timeStamp: 2017-02-22 15:45:39.491
LEye coords (153.0, 189.0), REye coords (165.0, 176.0), timeStamp: 2017-02-22 15:45:39.524
LEye coords (153.0, 189.0), REye coords (166.0, 176.0), timeStamp: 2017-02-22 15:45:39.567
LEye coords (153.0, 189.0), REye coords (166.0, 176.0), timeStamp: 2017-02-22 15:45:39.601
LEye coords (153.0, 189.0), REye coords (166.0, 177.0), timeStamp: 2017-02-22 15:45:39.635
LEye coords (154.0, 190.0), REye coords (167.0, 179.0), timeStamp: 2017-02-22 15:45:39.679
