LEye coords (341.0, 200.0), REye coords (360.0, 194.0), timeStamp: 2017-02-22 15:45:45.301
LEye coords (341.0, 200.0), REye coords (360.0, 195.0), timeStamp: 2017-02-22 15:45:45.334
LEye coords (341.0, 201.0), REye coords (359.0, 195.0), timeStamp: 2017-02-22 15:45:45.378
LEye coords (341.0, 201.0), REye coords (360.0, 195.0), timeStamp: 2017-02-22 15:45:45.412
LEye coords (340.0, 201.0), REye coords (360.0, 195.0), timeStamp: 2017-02-22 15:45:45.446
LEye coords (341.0, 201.0), REye coords (360.0, 195.0), timeStamp: 2017-02-22 15:45:45.490
LEye coords (341.0, 202.0), REye coords (360.0, 195.0), timeStamp: 2017-02-22 15:45:45.523
LEye coords (341.0, 202.0), REye coords (360.0, 195.0), timeStamp: 2017-02-22 15:45:45.556
LEye coords (338.0, 201.0), REye coords (359.0, 193.0), timeStamp: 2017-02-22 15:45:45.600
LEye coords (245.0, 165.0), REye coords (266.0, 140.0), timeStamp: 2017-02-22 15:45:45.634
LEye coords (244.0, 156.0), REye coords (270.0, 133.0), timeStamp: 2017-02-22 15:45:45.668
LEye coords (246.0, 161.0), REye coords (268.0, 134.0), timeStamp: 2017-02-22 15:45:45.712
LEye coords (245.0, 162.0), REye coords (267.0, 136.0), timeStamp: 2017-02-22 15:45:45.746
LEye coords (232.0, 152.0), REye coords (255.0, 126.0), timeStamp: 2017-02-22 15:45:45.779
LEye coords (194.0, 121.0), REye coords (210.0, 96.0), timeStamp: 2017-02-22 15:45:45.823
LEye coords (192.0, 118.0), REye coords (215.0, 97.0), timeStamp: 2017-02-22 15:45:45.856
LEye coords (194.0, 118.0), REye coords (213.0, 98.0), timeStamp: 2017-02-22 15:45:45.889
LEye coords (194.0, 117.0), REye coords (212.0, 98.0), timeStamp: 2017-02-22 15:45:45.933
LEye coords (194.0, 117.0), REye coords (213.0, 100.0), timeStamp: 2017-02-22 15:45:45.966
LEye coords (195.0, 112.0), REye coords (214.0, 96.0), timeStamp: 2017-02-22 15:45:45.999
LEye coords (196.0, 109.0), REye coords (215.0, 94.0), timeStamp: 2017-02-22 15:45:46.042
LEye coords (196.0, 107.0), REye coords (216.0, 93.0), timeStamp: 2017-02-22 15:45:46.077
LEye coords (197.0, 105.0), REye coords (216.0, 91.0), timeStamp: 2017-02-22 15:45:46.110
LEye coords (197.0, 103.0), REye coords (217.0, 91.0), timeStamp: 2017-02-22 15:45:46.153
LEye coords (197.0, 102.0), REye coords (217.0, 90.0), timeStamp: 2017-02-22 15:45:46.186
LEye coords (198.0, 101.0), REye coords (217.0, 90.0), timeStamp: 2017-02-22 15:45:46.229
LEye coords (197.0, 100.0), REye coords (216.0, 89.0), timeStamp: 2017-02-22 15:45:46.262
LEye coords (196.0, 98.0), REye coords (215.0, 87.0), timeStamp: 2017-02-22 15:45:46.296
LEye coords (195.0, 97.0), REye coords (214.0, 86.0), timeStamp: 2017-02-22 15:45:46.339
LEye coords (195.0, 96.0), REye coords (213.0, 85.0), timeStamp: 2017-02-22 15:45:46.372
LEye coords (195.0, 95.0), REye coords (212.0, 84.0), timeStamp: 2017-02-22 15:45:46.415
LEye coords (194.0, 94.0), REye coords (212.0, 84.0), timeStamp: 2017-02-22 15:45:46.450
LEye coords (194.0, 94.0), REye coords (211.0, 83.0), timeStamp: 2017-02-22 15:45:46.484
LEye coords (194.0, 93.0), REye coords (210.0, 83.0), timeStamp: 2017-02-22 15:45:46.527
LEye coords (193.0, 93.0), REye coords (210.0, 82.0), timeStamp: 2017-02-22 15:45:46.561
LEye coords (193.0, 92.0), REye coords (209.0, 82.0), timeStamp: 2017-02-22 15:45:46.595
LEye coords (193.0, 92.0), REye coords (209.0, 82.0), timeStamp: 2017-02-22 15:45:46.628
LEye coords (193.0, 91.0), REye coords (208.0, 81.0), timeStamp: 2017-02-22 15:45:46.672
LEye coords (193.0, 91.0), REye coords (208.0, 80.0), timeStamp: 2017-02-22 15:45:46.705
LEye coords (193.0, 90.0), REye coords (207.0, 80.0), timeStamp: 2017-02-22 15:45:46.749
LEye coords (192.0, 90.0), REye coords (206.0, 79.0), timeStamp: 2017-02-22 15:45:46.782
LEye coords (192.0, 90.0), REye coords (206.0, 79.0), timeStamp: 2017-02-22 15:45:46.817
LEye coords (192.0, 90.0), REye coords (205.0, 79.0), timeStamp: 2017-02-22 15:45:46.850
LEye coords (192.0, 90.0), REye coords (205.0, 79.0), timeStamp: 2017-02-22 15:45:46.894
LEye coords (192.0, 90.0), REye coords (204.0, 79.0), timeStamp: 2017-02-22 15:45:46.928
LEye coords (191.0, 90.0), REye coords (204.0, 79.0), timeStamp: 2017-02-22 15:45:46.971
LEye coords (191.0, 91.0), REye coords (203.0, 79.0), timeStamp: 2017-02-22 15:45:47.004
LEye coords (191.0, 91.0), REye coords (203.0, 78.0), timeStamp: 2017-02-22 15:45:47.039
LEye coords (191.0, 91.0), REye coords (203.0, 79.0), timeStamp: 2017-02-22 15:45:47.072
LEye coords (191.0, 92.0), REye coords (203.0, 79.0), timeStamp: 2017-02-22 15:45:47.116
LEye coords (191.0, 92.0), REye coords (203.0, 79.0), timeStamp: 2017-02-22 15:45:47.149
LEye coords (191.0, 93.0), REye coords (203.0, 79.0), timeStamp: 2017-02-22 15:45:47.183
LEye coords (191.0, 93.0), REye coords (203.0, 80.0), timeStamp: 2017-02-22 15:45:47.228
LEye coords (191.0, 93.0), REye coords (203.0, 80.0), timeStamp: 2017-02-22 15:45:47.262
LEye coords (191.0, 93.0), REye coords (203.0, 81.0), timeStamp: 2017-02-22 15:45:47.295
LEye coords (191.0, 94.0), REye coords (203.0, 81.0), timeStamp: 2017-02-22 15:45:47.338
LEye coords (191.0, 94.0), REye coords (203.0, 81.0), timeStamp: 2017-02-22 15:45:47.372
LEye coords (191.0, 94.0), REye coords (203.0, 82.0), timeStamp: 2017-02-22 15:45:47.406
LEye coords (191.0, 94.0), REye coords (203.0, 82.0), timeStamp: 2017-02-22 15:45:47.450
LEye coords (191.0, 94.0), REye coords (203.0, 82.0), timeStamp: 2017-02-22 15:45:47.484
LEye coords (191.0, 94.0), REye coords (203.0, 82.0), timeStamp: 2017-02-22 15:45:47.518
LEye coords (191.0, 95.0), REye coords (203.0, 83.0), timeStamp: 2017-02-22 15:45:47.562
