LEye coords (178.0, 196.0), REye coords (0.0, 0.0), timeStamp: 2017-02-22 15:45:52.553
LEye coords (178.0, 195.0), REye coords (0.0, 0.0), timeStamp: 2017-02-22 15:45:52.588
LEye coords (178.0, 196.0), REye coords (0.0, 0.0), timeStamp: 2017-02-22 15:45:52.632
LEye coords (178.0, 196.0), REye coords (0.0, 0.0), timeStamp: 2017-02-22 15:45:52.667
LEye coords (178.0, 196.0), REye coords (160.0, 158.0), timeStamp: 2017-02-22 15:45:52.701
LEye coords (178.0, 197.0), REye coords (196.0, 194.0), timeStamp: 2017-02-22 15:45:52.746
LEye coords (178.0, 198.0), REye coords (200.0, 189.0), timeStamp: 2017-02-22 15:45:52.778
LEye coords (178.0, 198.0), REye coords (200.0, 192.0), timeStamp: 2017-02-22 15:45:52.811
LEye coords (178.0, 199.0), REye coords (199.0, 191.0), timeStamp: 2017-02-22 15:45:52.855
LEye coords (178.0, 199.0), REye coords (199.0, 193.0), timeStamp: 2017-02-22 15:45:52.889
LEye coords (179.0, 199.0), REye coords (200.0, 193.0), timeStamp: 2017-02-22 15:45:52.922
LEye coords (181.0, 199.0), REye coords (204.0, 194.0), timeStamp: 2017-02-22 15:45:52.966
LEye coords (183.0, 199.0), REye coords (206.0, 193.0), timeStamp: 2017-02-22 15:45:53.000
LEye coords (184.0, 198.0), REye coords (208.0, 192.0), timeStamp: 2017-02-22 15:45:53.033
LEye coords (183.0, 197.0), REye coords (204.0, 191.0), timeStamp: 2017-02-22 15:45:53.076
LEye coords (181.0, 196.0), REye coords (200.0, 188.0), timeStamp: 2017-02-22 15:45:53.110
LEye coords (180.0, 194.0), REye coords (197.0, 186.0), timeStamp: 2017-02-22 15:45:53.144
LEye coords (178.0, 193.0), REye coords (194.0, 184.0), timeStamp: 2017-02-22 15:45:53.187
LEye coords (177.0, 192.0), REye coords (192.0, 183.0), timeStamp: 2017-02-22 15:45:53.221
LEye coords (175.0, 191.0), REye coords (189.0, 182.0), timeStamp: 2017-02-22 15:45:53.254
LEye coords (173.0, 189.0), REye coords (147.0, 146.0), timeStamp: 2017-02-22 15:45:53.299
LEye coords (171.0, 188.0), REye coords (146.0, 145.0), timeStamp: 2017-02-22 15:45:53.333
LEye coords (169.0, 187.0), REye coords (151.0, 156.0), timeStamp: 2017-02-22 15:45:53.367
LEye coords (167.0, 186.0), REye coords (149.0, 152.0), timeStamp: 2017-02-22 15:45:53.410
LEye coords (165.0, 185.0), REye coords (150.0, 155.0), timeStamp: 2017-02-22 15:45:53.444
LEye coords (163.0, 184.0), REye coords (151.0, 155.0), timeStamp: 2017-02-22 15:45:53.478
LEye coords (161.0, 183.0), REye coords (152.0, 155.0), timeStamp: 2017-02-22 15:45:53.523
LEye coords (141.0, 182.0), REye coords (152.0, 155.0), timeStamp: 2017-02-22 15:45:53.556
LEye coords (137.0, 181.0), REye coords (0.0, 0.0), timeStamp: 2017-02-22 15:45:53.589
LEye coords (138.0, 181.0), REye coords (0.0, 0.0), timeStamp: 2017-02-22 15:45:53.624
LEye coords (137.0, 182.0), REye coords (0.0, 0.0), timeStamp: 2017-02-22 15:45:53.668
LEye coords (137.0, 181.0), REye coords (0.0, 0.0), timeStamp: 2017-02-22 15:45:53.702
LEye coords (137.0, 179.0), REye coords (0.0, 0.0), timeStamp: 2017-02-22 15:45:53.738
LEye coords (137.0, 179.0), REye coords (0.0, 0.0), timeStamp: 2017-02-22 15:45:53.771
LEye coords (138.0, 179.0), REye coords (0.0, 0.0), timeStamp: 2017-02-22 15:45:53.817
LEye coords (138.0, 179.0), REye coords (0.0, 0.0), timeStamp: 2017-02-22 15:45:53.852
LEye coords (138.0, 180.0), REye coords (0.0, 0.0), timeStamp: 2017-02-22 15:45:53.886
LEye coords (138.0, 180.0), REye coords (0.0, 0.0), timeStamp: 2017-02-22 15:45:53.920
LEye coords (138.0, 180.0), REye coords (0.0, 0.0), timeStamp: 2017-02-22 15:45:53.965
LEye coords (138.0, 180.0), REye coords (0.0, 0.0), timeStamp: 2017-02-22 15:45:53.999
LEye coords (138.0, 180.0), REye coords (0.0, 0.0), timeStamp: 2017-02-22 15:45:54.033
LEye coords (138.0, 180.0), REye coords (0.0, 0.0), timeStamp: 2017-02-22 15:45:54.076
LEye coords (138.0, 180.0), REye coords (0.0, 0.0), timeStamp: 2017-02-22 15:45:54.110
LEye coords (138.0, 180.0), REye coords (152.0, 158.0), timeStamp: 2017-02-22 15:45:54.144
LEye coords (139.0, 180.0), REye coords (153.0, 160.0), timeStamp: 2017-02-22 15:45:54.187
LEye coords (139.0, 179.0), REye coords (154.0, 160.0), timeStamp: 2017-02-22 15:45:54.220
LEye coords (140.0, 179.0), REye coords (156.0, 160.0), timeStamp: 2017-02-22 15:45:54.255
LEye coords (141.0, 179.0), REye coords (0.0, 0.0), timeStamp: 2017-02-22 15:45:54.298
LEye coords (141.0, 179.0), REye coords (157.0, 160.0), timeStamp: 2017-02-22 15:45:54.332
LEye coords (142.0, 179.0), REye coords (158.0, 161.0), timeStamp: 2017-02-22 15:45:54.364
LEye coords (142.0, 179.0), REye coords (158.0, 161.0), timeStamp: 2017-02-22 15:45:54.408
LEye coords (142.0, 179.0), REye coords (158.0, 161.0), timeStamp: 2017-02-22 15:45:54.442
LEye coords (142.0, 179.0), REye coords (159.0, 161.0), timeStamp: 2017-02-22 15:45:54.475
LEye coords (143.0, 179.0), REye coords (159.0, 162.0), timeStamp: 2017-02-22 15:45:54.519
LEye coords (143.0, 180.0), REye coords (159.0, 162.0), timeStamp: 2017-02-22 15:45:54.553
LEye coords (143.0, 180.0), REye coords (159.0, 162.0), timeStamp: 2017-02-22 15:45:54.587
LEye coords (142.0, 179.0), REye coords (159.0, 163.0), timeStamp: 2017-02-22 15:45:54.631
LEye coords (142.0, 180.0), REye coords (0.0, 0.0), timeStamp: 2017-02-22 15:45:54.664
LEye coords (142.0, 179.0), REye coords (0.0, 0.0), timeStamp: 2017-02-22 15:45:54.697
LEye coords (142.0, 179.0), REye coords (0.0, 0.0), timeStamp: 2017-02-22 15:45:54.740
LEye coords (142.0, 179.0), REye coords (0.0, 0.0), timeStamp: 2017-02-22 15:45:54.774
LEye coords (143.0, 180.0), REye coords (160.0, 163.0), timeStamp: 2017-02-22 15:45:54.817
LEye coords (144.0, 180.0), REye coords (159.0, 163.0), timeStamp: 2017-02-22 15:45:54.852
LEye coords (144.0, 180.0), REye coords (160.0, 164.0), timeStamp: 2017-02-22 15:45:54.887
LEye coords (145.0, 180.0), REye coords (160.0, 165.0), timeStamp: 2017-02-22 15:45:54.920
LEye coords (146.0, 180.0), REye coords (160.0, 166.0), timeStamp: 2017-02-22 15:45:54.964
LEye coords (146.0, 181.0), REye coords (160.0, 166.0), timeStamp: 2017-02-22 15:45:54.997
LEye coords (147.0, 181.0), REye coords (160.0, 166.0), timeStamp: 2017-02-22 15:45:55.030
LEye coords (148.0, 181.0), REye coords (160.0, 166.0), timeStamp: 2017-02-22 15:45:55.075
LEye coords (149.0, 181.0), REye coords (160.0, 165.0), timeStamp: 2017-02-22 15:45:55.108
LEye coords (149.0, 181.0), REye coords (160.0, 165.0), timeStamp: 2017-02-22 15:45:55.141
LEye coords (150.0, 182.0), REye coords (160.0, 165.0), timeStamp: 2017-02-22 15:45:55.185
LEye coords (151.0, 182.0), REye coords (160.0, 166.0), timeStamp: 2017-02-22 15:45:55.218
LEye coords (152.0, 182.0), REye coords (160.0, 166.0), timeStamp: 2017-02-22 15:45:55.263
LEye coords (152.0, 183.0), REye coords (159.0, 167.0), timeStamp: 2017-02-22 15:45:55.295
LEye coords (153.0, 183.0), REye coords (159.0, 168.0), timeStamp: 2017-02-22 15:45:55.328
LEye coords (153.0, 183.0), REye coords (159.0, 168.0), timeStamp: 2017-02-22 15:45:55.371
LEye coords (154.0, 183.0), REye coords (160.0, 169.0), timeStamp: 2017-02-22 15:45:55.404
LEye coords (154.0, 183.0), REye coords (160.0, 169.0), timeStamp: 2017-02-22 15:45:55.438
LEye coords (154.0, 183.0), REye coords (160.0, 169.0), timeStamp: 2017-02-22 15:45:55.483
LEye coords (155.0, 183.0), REye coords (160.0, 170.0), timeStamp: 2017-02-22 15:45:55.516
LEye coords (155.0, 183.0), REye coords (161.0, 171.0), timeStamp: 2017-02-22 15:45:55.549
LEye coords (155.0, 183.0), REye coords (161.0, 171.0), timeStamp: 2017-02-22 15:45:55.594
LEye coords (155.0, 183.0), REye coords (161.0, 171.0), timeStamp: 2017-02-22 15:45:55.627
LEye coords (155.0, 184.0), REye coords (161.0, 171.0), timeStamp: 2017-02-22 15:45:55.661
LEye coords (155.0, 184.0), REye coords (160.0, 169.0), timeStamp: 2017-02-22 15:45:55.704
LEye coords (155.0, 183.0), REye coords (160.0, 169.0), timeStamp: 2017-02-22 15:45:55.737
LEye coords (155.0, 183.0), REye coords (161.0, 169.0), timeStamp: 2017-02-22 15:45:55.817
