LEye coords (291.0, 228.0), REye coords (297.0, 234.0), timeStamp: 2017-02-22 16:00:32.341
LEye coords (291.0, 228.0), REye coords (297.0, 234.0), timeStamp: 2017-02-22 16:00:32.373
LEye coords (291.0, 228.0), REye coords (297.0, 235.0), timeStamp: 2017-02-22 16:00:32.407
LEye coords (292.0, 228.0), REye coords (297.0, 235.0), timeStamp: 2017-02-22 16:00:32.442
LEye coords (292.0, 229.0), REye coords (297.0, 235.0), timeStamp: 2017-02-22 16:00:32.486
LEye coords (292.0, 229.0), REye coords (297.0, 236.0), timeStamp: 2017-02-22 16:00:32.519
LEye coords (292.0, 229.0), REye coords (297.0, 236.0), timeStamp: 2017-02-22 16:00:32.563
LEye coords (278.0, 183.0), REye coords (272.0, 182.0), timeStamp: 2017-02-22 16:00:32.597
LEye coords (279.0, 186.0), REye coords (275.0, 188.0), timeStamp: 2017-02-22 16:00:32.631
LEye coords (278.0, 185.0), REye coords (275.0, 189.0), timeStamp: 2017-02-22 16:00:32.664
LEye coords (278.0, 185.0), REye coords (274.0, 191.0), timeStamp: 2017-02-22 16:00:32.708
LEye coords (277.0, 184.0), REye coords (277.0, 183.0), timeStamp: 2017-02-22 16:00:32.742
LEye coords (277.0, 185.0), REye coords (274.0, 198.0), timeStamp: 2017-02-22 16:00:32.776
LEye coords (276.0, 186.0), REye coords (274.0, 188.0), timeStamp: 2017-02-22 16:00:32.822
LEye coords (276.0, 186.0), REye coords (275.0, 192.0), timeStamp: 2017-02-22 16:00:32.856
LEye coords (216.0, 188.0), REye coords (259.0, 191.0), timeStamp: 2017-02-22 16:00:32.891
LEye coords (138.0, 191.0), REye coords (228.0, 191.0), timeStamp: 2017-02-22 16:00:32.925
LEye coords (139.0, 190.0), REye coords (139.0, 188.0), timeStamp: 2017-02-22 16:00:32.968
LEye coords (138.0, 192.0), REye coords (134.0, 191.0), timeStamp: 2017-02-22 16:00:33.003
LEye coords (138.0, 192.0), REye coords (134.0, 191.0), timeStamp: 2017-02-22 16:00:33.036
LEye coords (137.0, 193.0), REye coords (132.0, 193.0), timeStamp: 2017-02-22 16:00:33.080
LEye coords (140.0, 195.0), REye coords (131.0, 193.0), timeStamp: 2017-02-22 16:00:33.115
LEye coords (138.0, 196.0), REye coords (132.0, 193.0), timeStamp: 2017-02-22 16:00:33.148
LEye coords (137.0, 196.0), REye coords (132.0, 192.0), timeStamp: 2017-02-22 16:00:33.192
LEye coords (136.0, 193.0), REye coords (132.0, 192.0), timeStamp: 2017-02-22 16:00:33.226
LEye coords (135.0, 192.0), REye coords (132.0, 191.0), timeStamp: 2017-02-22 16:00:33.260
LEye coords (135.0, 192.0), REye coords (133.0, 191.0), timeStamp: 2017-02-22 16:00:33.294
LEye coords (136.0, 192.0), REye coords (134.0, 191.0), timeStamp: 2017-02-22 16:00:33.338
LEye coords (136.0, 192.0), REye coords (134.0, 191.0), timeStamp: 2017-02-22 16:00:33.374
LEye coords (137.0, 193.0), REye coords (134.0, 191.0), timeStamp: 2017-02-22 16:00:33.407
LEye coords (137.0, 193.0), REye coords (134.0, 192.0), timeStamp: 2017-02-22 16:00:33.442
LEye coords (137.0, 194.0), REye coords (134.0, 192.0), timeStamp: 2017-02-22 16:00:33.486
LEye coords (137.0, 193.0), REye coords (134.0, 192.0), timeStamp: 2017-02-22 16:00:33.520
LEye coords (137.0, 193.0), REye coords (134.0, 193.0), timeStamp: 2017-02-22 16:00:33.553
LEye coords (137.0, 193.0), REye coords (134.0, 194.0), timeStamp: 2017-02-22 16:00:33.599
LEye coords (138.0, 193.0), REye coords (133.0, 194.0), timeStamp: 2017-02-22 16:00:33.633
LEye coords (138.0, 193.0), REye coords (134.0, 194.0), timeStamp: 2017-02-22 16:00:33.666
LEye coords (138.0, 193.0), REye coords (134.0, 195.0), timeStamp: 2017-02-22 16:00:33.711
LEye coords (138.0, 193.0), REye coords (134.0, 195.0), timeStamp: 2017-02-22 16:00:33.744
LEye coords (138.0, 193.0), REye coords (134.0, 195.0), timeStamp: 2017-02-22 16:00:33.778
LEye coords (138.0, 193.0), REye coords (134.0, 196.0), timeStamp: 2017-02-22 16:00:33.812
LEye coords (138.0, 193.0), REye coords (134.0, 196.0), timeStamp: 2017-02-22 16:00:33.858
LEye coords (138.0, 193.0), REye coords (134.0, 196.0), timeStamp: 2017-02-22 16:00:33.893
LEye coords (138.0, 193.0), REye coords (134.0, 196.0), timeStamp: 2017-02-22 16:00:33.926
LEye coords (138.0, 193.0), REye coords (134.0, 197.0), timeStamp: 2017-02-22 16:00:33.970
LEye coords (139.0, 193.0), REye coords (135.0, 197.0), timeStamp: 2017-02-22 16:00:34.003
LEye coords (139.0, 193.0), REye coords (136.0, 198.0), timeStamp: 2017-02-22 16:00:34.036
LEye coords (140.0, 193.0), REye coords (136.0, 198.0), timeStamp: 2017-02-22 16:00:34.080
LEye coords (140.0, 193.0), REye coords (137.0, 199.0), timeStamp: 2017-02-22 16:00:34.114
LEye coords (140.0, 194.0), REye coords (137.0, 199.0), timeStamp: 2017-02-22 16:00:34.148
LEye coords (140.0, 194.0), REye coords (137.0, 199.0), timeStamp: 2017-02-22 16:00:34.183
LEye coords (141.0, 194.0), REye coords (138.0, 199.0), timeStamp: 2017-02-22 16:00:34.227
LEye coords (141.0, 194.0), REye coords (138.0, 199.0), timeStamp: 2017-02-22 16:00:34.261
LEye coords (142.0, 194.0), REye coords (139.0, 200.0), timeStamp: 2017-02-22 16:00:34.294
LEye coords (142.0, 194.0), REye coords (139.0, 199.0), timeStamp: 2017-02-22 16:00:34.338
LEye coords (142.0, 195.0), REye coords (139.0, 200.0), timeStamp: 2017-02-22 16:00:34.373
LEye coords (143.0, 195.0), REye coords (140.0, 200.0), timeStamp: 2017-02-22 16:00:34.407
LEye coords (143.0, 195.0), REye coords (141.0, 200.0), timeStamp: 2017-02-22 16:00:34.441
LEye coords (144.0, 196.0), REye coords (141.0, 199.0), timeStamp: 2017-02-22 16:00:34.486
LEye coords (144.0, 196.0), REye coords (141.0, 199.0), timeStamp: 2017-02-22 16:00:34.520
LEye coords (144.0, 197.0), REye coords (141.0, 200.0), timeStamp: 2017-02-22 16:00:34.554
