LEye coords (145.0, 247.0), REye coords (146.0, 264.0), timeStamp: 2017-02-22 16:00:37.920
LEye coords (145.0, 247.0), REye coords (147.0, 264.0), timeStamp: 2017-02-22 16:00:37.965
LEye coords (145.0, 247.0), REye coords (146.0, 264.0), timeStamp: 2017-02-22 16:00:37.998
LEye coords (145.0, 247.0), REye coords (147.0, 264.0), timeStamp: 2017-02-22 16:00:38.032
LEye coords (145.0, 247.0), REye coords (146.0, 264.0), timeStamp: 2017-02-22 16:00:38.077
LEye coords (145.0, 247.0), REye coords (146.0, 265.0), timeStamp: 2017-02-22 16:00:38.111
LEye coords (146.0, 246.0), REye coords (146.0, 265.0), timeStamp: 2017-02-22 16:00:38.146
LEye coords (146.0, 246.0), REye coords (146.0, 265.0), timeStamp: 2017-02-22 16:00:38.180
LEye coords (146.0, 246.0), REye coords (146.0, 265.0), timeStamp: 2017-02-22 16:00:38.225
LEye coords (302.0, 194.0), REye coords (287.0, 213.0), timeStamp: 2017-02-22 16:00:38.259
LEye coords (301.0, 194.0), REye coords (289.0, 206.0), timeStamp: 2017-02-22 16:00:38.294
LEye coords (299.0, 195.0), REye coords (290.0, 210.0), timeStamp: 2017-02-22 16:00:38.328
LEye coords (298.0, 194.0), REye coords (291.0, 208.0), timeStamp: 2017-02-22 16:00:38.373
LEye coords (298.0, 195.0), REye coords (291.0, 207.0), timeStamp: 2017-02-22 16:00:38.407
LEye coords (294.0, 196.0), REye coords (293.0, 202.0), timeStamp: 2017-02-22 16:00:38.440
LEye coords (298.0, 192.0), REye coords (292.0, 204.0), timeStamp: 2017-02-22 16:00:38.485
LEye coords (296.0, 192.0), REye coords (292.0, 204.0), timeStamp: 2017-02-22 16:00:38.519
LEye coords (306.0, 190.0), REye coords (302.0, 204.0), timeStamp: 2017-02-22 16:00:38.552
LEye coords (310.0, 190.0), REye coords (312.0, 196.0), timeStamp: 2017-02-22 16:00:38.596
LEye coords (314.0, 188.0), REye coords (317.0, 192.0), timeStamp: 2017-02-22 16:00:38.630
LEye coords (317.0, 186.0), REye coords (322.0, 189.0), timeStamp: 2017-02-22 16:00:38.663
LEye coords (318.0, 187.0), REye coords (325.0, 187.0), timeStamp: 2017-02-22 16:00:38.697
LEye coords (320.0, 186.0), REye coords (327.0, 186.0), timeStamp: 2017-02-22 16:00:38.742
LEye coords (321.0, 186.0), REye coords (329.0, 185.0), timeStamp: 2017-02-22 16:00:38.776
LEye coords (322.0, 186.0), REye coords (330.0, 184.0), timeStamp: 2017-02-22 16:00:38.809
LEye coords (322.0, 186.0), REye coords (331.0, 183.0), timeStamp: 2017-02-22 16:00:38.854
LEye coords (323.0, 185.0), REye coords (331.0, 185.0), timeStamp: 2017-02-22 16:00:38.887
LEye coords (324.0, 185.0), REye coords (332.0, 185.0), timeStamp: 2017-02-22 16:00:38.920
LEye coords (324.0, 185.0), REye coords (344.0, 179.0), timeStamp: 2017-02-22 16:00:38.966
LEye coords (324.0, 185.0), REye coords (335.0, 199.0), timeStamp: 2017-02-22 16:00:38.999
LEye coords (324.0, 185.0), REye coords (332.0, 200.0), timeStamp: 2017-02-22 16:00:39.032
LEye coords (325.0, 185.0), REye coords (336.0, 192.0), timeStamp: 2017-02-22 16:00:39.077
LEye coords (325.0, 185.0), REye coords (334.0, 194.0), timeStamp: 2017-02-22 16:00:39.111
LEye coords (326.0, 185.0), REye coords (333.0, 195.0), timeStamp: 2017-02-22 16:00:39.144
LEye coords (326.0, 186.0), REye coords (332.0, 196.0), timeStamp: 2017-02-22 16:00:39.188
LEye coords (327.0, 186.0), REye coords (332.0, 197.0), timeStamp: 2017-02-22 16:00:39.222
LEye coords (328.0, 186.0), REye coords (332.0, 198.0), timeStamp: 2017-02-22 16:00:39.256
LEye coords (329.0, 186.0), REye coords (332.0, 198.0), timeStamp: 2017-02-22 16:00:39.290
LEye coords (331.0, 186.0), REye coords (331.0, 199.0), timeStamp: 2017-02-22 16:00:39.334
LEye coords (331.0, 187.0), REye coords (331.0, 200.0), timeStamp: 2017-02-22 16:00:39.368
LEye coords (332.0, 187.0), REye coords (331.0, 200.0), timeStamp: 2017-02-22 16:00:39.402
LEye coords (332.0, 188.0), REye coords (331.0, 200.0), timeStamp: 2017-02-22 16:00:39.445
LEye coords (333.0, 188.0), REye coords (331.0, 201.0), timeStamp: 2017-02-22 16:00:39.479
LEye coords (334.0, 188.0), REye coords (331.0, 201.0), timeStamp: 2017-02-22 16:00:39.514
LEye coords (334.0, 188.0), REye coords (331.0, 201.0), timeStamp: 2017-02-22 16:00:39.558
LEye coords (335.0, 189.0), REye coords (331.0, 202.0), timeStamp: 2017-02-22 16:00:39.591
LEye coords (335.0, 189.0), REye coords (330.0, 203.0), timeStamp: 2017-02-22 16:00:39.626
LEye coords (336.0, 189.0), REye coords (330.0, 203.0), timeStamp: 2017-02-22 16:00:39.660
LEye coords (336.0, 190.0), REye coords (330.0, 203.0), timeStamp: 2017-02-22 16:00:39.705
LEye coords (337.0, 190.0), REye coords (330.0, 204.0), timeStamp: 2017-02-22 16:00:39.739
LEye coords (337.0, 191.0), REye coords (330.0, 204.0), timeStamp: 2017-02-22 16:00:39.772
LEye coords (338.0, 191.0), REye coords (329.0, 205.0), timeStamp: 2017-02-22 16:00:39.816
LEye coords (338.0, 191.0), REye coords (329.0, 205.0), timeStamp: 2017-02-22 16:00:39.849
LEye coords (338.0, 191.0), REye coords (329.0, 206.0), timeStamp: 2017-02-22 16:00:39.882
