LEye coords (292.0, 199.0), REye coords (291.0, 196.0), timeStamp: 2017-02-22 16:04:32.981
LEye coords (292.0, 199.0), REye coords (290.0, 197.0), timeStamp: 2017-02-22 16:04:33.014
LEye coords (292.0, 200.0), REye coords (290.0, 198.0), timeStamp: 2017-02-22 16:04:33.060
LEye coords (292.0, 200.0), REye coords (289.0, 199.0), timeStamp: 2017-02-22 16:04:33.093
LEye coords (292.0, 201.0), REye coords (289.0, 201.0), timeStamp: 2017-02-22 16:04:33.128
LEye coords (292.0, 201.0), REye coords (289.0, 201.0), timeStamp: 2017-02-22 16:04:33.161
LEye coords (292.0, 202.0), REye coords (289.0, 202.0), timeStamp: 2017-02-22 16:04:33.205
LEye coords (292.0, 202.0), REye coords (288.0, 203.0), timeStamp: 2017-02-22 16:04:33.239
LEye coords (292.0, 202.0), REye coords (288.0, 205.0), timeStamp: 2017-02-22 16:04:33.273
LEye coords (292.0, 203.0), REye coords (288.0, 206.0), timeStamp: 2017-02-22 16:04:33.317
LEye coords (292.0, 203.0), REye coords (287.0, 207.0), timeStamp: 2017-02-22 16:04:33.351
LEye coords (291.0, 204.0), REye coords (287.0, 207.0), timeStamp: 2017-02-22 16:04:33.385
LEye coords (372.0, 171.0), REye coords (376.0, 163.0), timeStamp: 2017-02-22 16:04:33.429
LEye coords (365.0, 159.0), REye coords (376.0, 165.0), timeStamp: 2017-02-22 16:04:33.464
LEye coords (365.0, 158.0), REye coords (372.0, 165.0), timeStamp: 2017-02-22 16:04:33.499
LEye coords (367.0, 157.0), REye coords (370.0, 167.0), timeStamp: 2017-02-22 16:04:33.533
LEye coords (367.0, 156.0), REye coords (372.0, 164.0), timeStamp: 2017-02-22 16:04:33.578
LEye coords (370.0, 154.0), REye coords (375.0, 156.0), timeStamp: 2017-02-22 16:04:33.612
LEye coords (372.0, 155.0), REye coords (377.0, 160.0), timeStamp: 2017-02-22 16:04:33.645
LEye coords (371.0, 158.0), REye coords (377.0, 156.0), timeStamp: 2017-02-22 16:04:33.689
LEye coords (387.0, 145.0), REye coords (392.0, 147.0), timeStamp: 2017-02-22 16:04:33.723
LEye coords (395.0, 138.0), REye coords (399.0, 144.0), timeStamp: 2017-02-22 16:04:33.757
LEye coords (399.0, 135.0), REye coords (403.0, 142.0), timeStamp: 2017-02-22 16:04:33.791
LEye coords (403.0, 133.0), REye coords (407.0, 138.0), timeStamp: 2017-02-22 16:04:33.836
LEye coords (405.0, 133.0), REye coords (409.0, 136.0), timeStamp: 2017-02-22 16:04:33.870
LEye coords (406.0, 134.0), REye coords (409.0, 137.0), timeStamp: 2017-02-22 16:04:33.903
LEye coords (407.0, 136.0), REye coords (409.0, 138.0), timeStamp: 2017-02-22 16:04:33.947
LEye coords (408.0, 137.0), REye coords (409.0, 139.0), timeStamp: 2017-02-22 16:04:33.981
LEye coords (409.0, 137.0), REye coords (409.0, 140.0), timeStamp: 2017-02-22 16:04:34.015
LEye coords (409.0, 138.0), REye coords (409.0, 140.0), timeStamp: 2017-02-22 16:04:34.059
LEye coords (410.0, 139.0), REye coords (409.0, 141.0), timeStamp: 2017-02-22 16:04:34.091
LEye coords (410.0, 140.0), REye coords (409.0, 142.0), timeStamp: 2017-02-22 16:04:34.125
LEye coords (411.0, 141.0), REye coords (409.0, 142.0), timeStamp: 2017-02-22 16:04:34.171
LEye coords (357.0, 167.0), REye coords (355.0, 173.0), timeStamp: 2017-02-22 16:04:34.204
LEye coords (364.0, 167.0), REye coords (358.0, 165.0), timeStamp: 2017-02-22 16:04:34.239
LEye coords (362.0, 165.0), REye coords (358.0, 164.0), timeStamp: 2017-02-22 16:04:34.273
LEye coords (361.0, 166.0), REye coords (358.0, 166.0), timeStamp: 2017-02-22 16:04:34.316
LEye coords (360.0, 167.0), REye coords (357.0, 169.0), timeStamp: 2017-02-22 16:04:34.349
LEye coords (359.0, 164.0), REye coords (355.0, 174.0), timeStamp: 2017-02-22 16:04:34.384
LEye coords (359.0, 170.0), REye coords (351.0, 176.0), timeStamp: 2017-02-22 16:04:34.428
LEye coords (358.0, 169.0), REye coords (351.0, 173.0), timeStamp: 2017-02-22 16:04:34.461
LEye coords (358.0, 170.0), REye coords (351.0, 172.0), timeStamp: 2017-02-22 16:04:34.495
LEye coords (358.0, 170.0), REye coords (352.0, 171.0), timeStamp: 2017-02-22 16:04:34.540
LEye coords (358.0, 169.0), REye coords (353.0, 172.0), timeStamp: 2017-02-22 16:04:34.573
LEye coords (358.0, 170.0), REye coords (353.0, 173.0), timeStamp: 2017-02-22 16:04:34.607
LEye coords (363.0, 171.0), REye coords (358.0, 174.0), timeStamp: 2017-02-22 16:04:34.651
LEye coords (366.0, 172.0), REye coords (360.0, 176.0), timeStamp: 2017-02-22 16:04:34.686
LEye coords (368.0, 173.0), REye coords (363.0, 177.0), timeStamp: 2017-02-22 16:04:34.720
LEye coords (370.0, 174.0), REye coords (365.0, 177.0), timeStamp: 2017-02-22 16:04:34.754
LEye coords (372.0, 175.0), REye coords (368.0, 177.0), timeStamp: 2017-02-22 16:04:34.798
LEye coords (373.0, 176.0), REye coords (370.0, 177.0), timeStamp: 2017-02-22 16:04:34.832
LEye coords (374.0, 176.0), REye coords (371.0, 177.0), timeStamp: 2017-02-22 16:04:34.866
LEye coords (376.0, 176.0), REye coords (372.0, 177.0), timeStamp: 2017-02-22 16:04:34.910
LEye coords (377.0, 177.0), REye coords (374.0, 177.0), timeStamp: 2017-02-22 16:04:34.945
LEye coords (378.0, 177.0), REye coords (375.0, 177.0), timeStamp: 2017-02-22 16:04:34.980
LEye coords (379.0, 178.0), REye coords (376.0, 177.0), timeStamp: 2017-02-22 16:04:35.014
LEye coords (379.0, 178.0), REye coords (377.0, 177.0), timeStamp: 2017-02-22 16:04:35.058
LEye coords (380.0, 179.0), REye coords (378.0, 177.0), timeStamp: 2017-02-22 16:04:35.092
LEye coords (381.0, 179.0), REye coords (378.0, 178.0), timeStamp: 2017-02-22 16:04:35.126
LEye coords (233.0, 172.0), REye coords (229.0, 172.0), timeStamp: 2017-02-22 16:04:35.204
