LEye coords (234.0, 145.0), REye coords (227.0, 147.0), timeStamp: 2017-02-22 16:04:35.238
LEye coords (234.0, 145.0), REye coords (226.0, 147.0), timeStamp: 2017-02-22 16:04:35.271
LEye coords (235.0, 146.0), REye coords (225.0, 147.0), timeStamp: 2017-02-22 16:04:35.314
LEye coords (233.0, 145.0), REye coords (220.0, 148.0), timeStamp: 2017-02-22 16:04:35.349
LEye coords (233.0, 150.0), REye coords (224.0, 146.0), timeStamp: 2017-02-22 16:04:35.383
LEye coords (232.0, 146.0), REye coords (226.0, 147.0), timeStamp: 2017-02-22 16:04:35.428
LEye coords (233.0, 146.0), REye coords (225.0, 149.0), timeStamp: 2017-02-22 16:04:35.460
LEye coords (233.0, 145.0), REye coords (224.0, 147.0), timeStamp: 2017-02-22 16:04:35.495
LEye coords (318.0, 168.0), REye coords (301.0, 170.0), timeStamp: 2017-02-22 16:04:35.539
LEye coords (344.0, 175.0), REye coords (346.0, 178.0), timeStamp: 2017-02-22 16:04:35.573
LEye coords (344.0, 176.0), REye coords (345.0, 177.0), timeStamp: 2017-02-22 16:04:35.607
LEye coords (343.0, 177.0), REye coords (342.0, 180.0), timeStamp: 2017-02-22 16:04:35.641
LEye coords (343.0, 176.0), REye coords (343.0, 180.0), timeStamp: 2017-02-22 16:04:35.685
LEye coords (346.0, 170.0), REye coords (346.0, 171.0), timeStamp: 2017-02-22 16:04:35.720
LEye coords (349.0, 170.0), REye coords (360.0, 154.0), timeStamp: 2017-02-22 16:04:35.753
LEye coords (363.0, 178.0), REye coords (375.0, 162.0), timeStamp: 2017-02-22 16:04:35.796
LEye coords (370.0, 179.0), REye coords (380.0, 164.0), timeStamp: 2017-02-22 16:04:35.830
LEye coords (373.0, 180.0), REye coords (383.0, 166.0), timeStamp: 2017-02-22 16:04:35.863
LEye coords (374.0, 181.0), REye coords (385.0, 167.0), timeStamp: 2017-02-22 16:04:35.907
LEye coords (375.0, 181.0), REye coords (386.0, 168.0), timeStamp: 2017-02-22 16:04:35.941
LEye coords (376.0, 181.0), REye coords (388.0, 168.0), timeStamp: 2017-02-22 16:04:35.975
LEye coords (377.0, 182.0), REye coords (388.0, 169.0), timeStamp: 2017-02-22 16:04:36.018
LEye coords (377.0, 182.0), REye coords (390.0, 167.0), timeStamp: 2017-02-22 16:04:36.053
LEye coords (378.0, 182.0), REye coords (392.0, 166.0), timeStamp: 2017-02-22 16:04:36.087
LEye coords (379.0, 182.0), REye coords (392.0, 166.0), timeStamp: 2017-02-22 16:04:36.131
LEye coords (380.0, 182.0), REye coords (391.0, 166.0), timeStamp: 2017-02-22 16:04:36.166
LEye coords (380.0, 182.0), REye coords (391.0, 167.0), timeStamp: 2017-02-22 16:04:36.200
LEye coords (381.0, 182.0), REye coords (390.0, 168.0), timeStamp: 2017-02-22 16:04:36.234
LEye coords (381.0, 182.0), REye coords (390.0, 168.0), timeStamp: 2017-02-22 16:04:36.279
LEye coords (382.0, 182.0), REye coords (390.0, 168.0), timeStamp: 2017-02-22 16:04:36.312
LEye coords (382.0, 182.0), REye coords (390.0, 168.0), timeStamp: 2017-02-22 16:04:36.345
LEye coords (383.0, 182.0), REye coords (390.0, 168.0), timeStamp: 2017-02-22 16:04:36.390
LEye coords (383.0, 182.0), REye coords (390.0, 168.0), timeStamp: 2017-02-22 16:04:36.424
LEye coords (383.0, 183.0), REye coords (389.0, 169.0), timeStamp: 2017-02-22 16:04:36.458
LEye coords (384.0, 183.0), REye coords (388.0, 170.0), timeStamp: 2017-02-22 16:04:36.502
LEye coords (384.0, 183.0), REye coords (388.0, 170.0), timeStamp: 2017-02-22 16:04:36.536
LEye coords (385.0, 183.0), REye coords (387.0, 171.0), timeStamp: 2017-02-22 16:04:36.571
LEye coords (385.0, 184.0), REye coords (387.0, 172.0), timeStamp: 2017-02-22 16:04:36.605
LEye coords (385.0, 184.0), REye coords (386.0, 173.0), timeStamp: 2017-02-22 16:04:36.650
LEye coords (385.0, 184.0), REye coords (386.0, 174.0), timeStamp: 2017-02-22 16:04:36.683
LEye coords (385.0, 185.0), REye coords (386.0, 175.0), timeStamp: 2017-02-22 16:04:36.717
LEye coords (385.0, 185.0), REye coords (386.0, 175.0), timeStamp: 2017-02-22 16:04:36.761
LEye coords (386.0, 186.0), REye coords (387.0, 176.0), timeStamp: 2017-02-22 16:04:36.795
LEye coords (385.0, 186.0), REye coords (387.0, 176.0), timeStamp: 2017-02-22 16:04:36.829
LEye coords (385.0, 186.0), REye coords (387.0, 177.0), timeStamp: 2017-02-22 16:04:36.863
LEye coords (385.0, 187.0), REye coords (387.0, 177.0), timeStamp: 2017-02-22 16:04:36.908
LEye coords (385.0, 187.0), REye coords (387.0, 178.0), timeStamp: 2017-02-22 16:04:36.941
LEye coords (385.0, 188.0), REye coords (387.0, 179.0), timeStamp: 2017-02-22 16:04:36.974
LEye coords (384.0, 188.0), REye coords (387.0, 179.0), timeStamp: 2017-02-22 16:04:37.018
LEye coords (384.0, 188.0), REye coords (387.0, 180.0), timeStamp: 2017-02-22 16:04:37.052
LEye coords (384.0, 189.0), REye coords (387.0, 181.0), timeStamp: 2017-02-22 16:04:37.087
LEye coords (308.0, 191.0), REye coords (305.0, 193.0), timeStamp: 2017-02-22 16:04:37.167
