LEye coords (198.0, 205.0), REye coords (197.0, 194.0), timeStamp: 2017-02-22 16:04:41.607
LEye coords (198.0, 205.0), REye coords (197.0, 194.0), timeStamp: 2017-02-22 16:04:41.640
LEye coords (197.0, 205.0), REye coords (196.0, 195.0), timeStamp: 2017-02-22 16:04:41.683
LEye coords (198.0, 204.0), REye coords (196.0, 195.0), timeStamp: 2017-02-22 16:04:41.718
LEye coords (198.0, 204.0), REye coords (196.0, 196.0), timeStamp: 2017-02-22 16:04:41.752
LEye coords (197.0, 204.0), REye coords (196.0, 195.0), timeStamp: 2017-02-22 16:04:41.785
LEye coords (197.0, 204.0), REye coords (196.0, 195.0), timeStamp: 2017-02-22 16:04:41.830
LEye coords (197.0, 204.0), REye coords (196.0, 195.0), timeStamp: 2017-02-22 16:04:41.863
LEye coords (197.0, 204.0), REye coords (196.0, 195.0), timeStamp: 2017-02-22 16:04:41.898
LEye coords (197.0, 204.0), REye coords (196.0, 195.0), timeStamp: 2017-02-22 16:04:41.941
LEye coords (174.0, 145.0), REye coords (158.0, 103.0), timeStamp: 2017-02-22 16:04:41.975
LEye coords (174.0, 149.0), REye coords (162.0, 99.0), timeStamp: 2017-02-22 16:04:42.009
LEye coords (171.0, 144.0), REye coords (162.0, 98.0), timeStamp: 2017-02-22 16:04:42.053
LEye coords (169.0, 140.0), REye coords (161.0, 98.0), timeStamp: 2017-02-22 16:04:42.087
LEye coords (176.0, 136.0), REye coords (171.0, 97.0), timeStamp: 2017-02-22 16:04:42.121
LEye coords (197.0, 126.0), REye coords (198.0, 99.0), timeStamp: 2017-02-22 16:04:42.155
LEye coords (196.0, 122.0), REye coords (205.0, 100.0), timeStamp: 2017-02-22 16:04:42.199
LEye coords (196.0, 121.0), REye coords (206.0, 102.0), timeStamp: 2017-02-22 16:04:42.233
LEye coords (196.0, 123.0), REye coords (207.0, 101.0), timeStamp: 2017-02-22 16:04:42.276
LEye coords (197.0, 122.0), REye coords (207.0, 101.0), timeStamp: 2017-02-22 16:04:42.310
LEye coords (195.0, 122.0), REye coords (205.0, 102.0), timeStamp: 2017-02-22 16:04:42.343
LEye coords (197.0, 124.0), REye coords (206.0, 102.0), timeStamp: 2017-02-22 16:04:42.378
LEye coords (197.0, 124.0), REye coords (206.0, 102.0), timeStamp: 2017-02-22 16:04:42.421
LEye coords (197.0, 124.0), REye coords (206.0, 102.0), timeStamp: 2017-02-22 16:04:42.455
LEye coords (197.0, 125.0), REye coords (206.0, 102.0), timeStamp: 2017-02-22 16:04:42.489
LEye coords (197.0, 124.0), REye coords (206.0, 102.0), timeStamp: 2017-02-22 16:04:42.533
LEye coords (197.0, 125.0), REye coords (206.0, 103.0), timeStamp: 2017-02-22 16:04:42.566
LEye coords (196.0, 125.0), REye coords (206.0, 103.0), timeStamp: 2017-02-22 16:04:42.600
LEye coords (196.0, 124.0), REye coords (205.0, 103.0), timeStamp: 2017-02-22 16:04:42.646
LEye coords (196.0, 124.0), REye coords (205.0, 103.0), timeStamp: 2017-02-22 16:04:42.681
LEye coords (196.0, 124.0), REye coords (205.0, 102.0), timeStamp: 2017-02-22 16:04:42.713
LEye coords (196.0, 124.0), REye coords (205.0, 103.0), timeStamp: 2017-02-22 16:04:42.757
LEye coords (197.0, 124.0), REye coords (205.0, 103.0), timeStamp: 2017-02-22 16:04:42.790
LEye coords (196.0, 124.0), REye coords (204.0, 104.0), timeStamp: 2017-02-22 16:04:42.824
LEye coords (197.0, 124.0), REye coords (204.0, 103.0), timeStamp: 2017-02-22 16:04:42.868
LEye coords (197.0, 124.0), REye coords (204.0, 103.0), timeStamp: 2017-02-22 16:04:42.901
LEye coords (197.0, 124.0), REye coords (204.0, 104.0), timeStamp: 2017-02-22 16:04:42.935
LEye coords (197.0, 124.0), REye coords (205.0, 104.0), timeStamp: 2017-02-22 16:04:42.969
LEye coords (197.0, 124.0), REye coords (205.0, 103.0), timeStamp: 2017-02-22 16:04:43.013
LEye coords (197.0, 124.0), REye coords (205.0, 103.0), timeStamp: 2017-02-22 16:04:43.047
LEye coords (197.0, 124.0), REye coords (205.0, 104.0), timeStamp: 2017-02-22 16:04:43.080
LEye coords (197.0, 124.0), REye coords (204.0, 104.0), timeStamp: 2017-02-22 16:04:43.125
LEye coords (197.0, 124.0), REye coords (205.0, 104.0), timeStamp: 2017-02-22 16:04:43.160
LEye coords (197.0, 124.0), REye coords (205.0, 105.0), timeStamp: 2017-02-22 16:04:43.193
LEye coords (197.0, 124.0), REye coords (205.0, 106.0), timeStamp: 2017-02-22 16:04:43.238
LEye coords (197.0, 124.0), REye coords (205.0, 105.0), timeStamp: 2017-02-22 16:04:43.271
LEye coords (197.0, 124.0), REye coords (206.0, 106.0), timeStamp: 2017-02-22 16:04:43.304
LEye coords (196.0, 124.0), REye coords (206.0, 106.0), timeStamp: 2017-02-22 16:04:43.348
LEye coords (196.0, 124.0), REye coords (206.0, 106.0), timeStamp: 2017-02-22 16:04:43.381
LEye coords (196.0, 124.0), REye coords (206.0, 105.0), timeStamp: 2017-02-22 16:04:43.414
LEye coords (196.0, 124.0), REye coords (206.0, 105.0), timeStamp: 2017-02-22 16:04:43.458
LEye coords (196.0, 124.0), REye coords (206.0, 104.0), timeStamp: 2017-02-22 16:04:43.492
LEye coords (196.0, 125.0), REye coords (206.0, 104.0), timeStamp: 2017-02-22 16:04:43.525
LEye coords (196.0, 125.0), REye coords (206.0, 104.0), timeStamp: 2017-02-22 16:04:43.570
LEye coords (196.0, 125.0), REye coords (206.0, 104.0), timeStamp: 2017-02-22 16:04:43.605
LEye coords (196.0, 125.0), REye coords (205.0, 104.0), timeStamp: 2017-02-22 16:04:43.638
LEye coords (196.0, 125.0), REye coords (205.0, 104.0), timeStamp: 2017-02-22 16:04:43.683
LEye coords (196.0, 126.0), REye coords (205.0, 104.0), timeStamp: 2017-02-22 16:04:43.716
LEye coords (196.0, 126.0), REye coords (205.0, 104.0), timeStamp: 2017-02-22 16:04:43.750
LEye coords (195.0, 126.0), REye coords (205.0, 104.0), timeStamp: 2017-02-22 16:04:43.784
LEye coords (195.0, 126.0), REye coords (205.0, 104.0), timeStamp: 2017-02-22 16:04:43.828
LEye coords (195.0, 126.0), REye coords (205.0, 104.0), timeStamp: 2017-02-22 16:04:43.862
LEye coords (195.0, 126.0), REye coords (204.0, 104.0), timeStamp: 2017-02-22 16:04:43.895
LEye coords (195.0, 126.0), REye coords (204.0, 104.0), timeStamp: 2017-02-22 16:04:43.939
LEye coords (195.0, 126.0), REye coords (204.0, 104.0), timeStamp: 2017-02-22 16:04:43.972
LEye coords (195.0, 126.0), REye coords (203.0, 104.0), timeStamp: 2017-02-22 16:04:44.006
