LEye coords (187.0, 135.0), REye coords (196.0, 142.0), timeStamp: 2017-02-22 16:06:06.734
LEye coords (187.0, 135.0), REye coords (196.0, 143.0), timeStamp: 2017-02-22 16:06:06.778
LEye coords (186.0, 135.0), REye coords (196.0, 144.0), timeStamp: 2017-02-22 16:06:06.812
LEye coords (187.0, 136.0), REye coords (196.0, 143.0), timeStamp: 2017-02-22 16:06:06.846
LEye coords (187.0, 136.0), REye coords (196.0, 144.0), timeStamp: 2017-02-22 16:06:06.890
LEye coords (186.0, 136.0), REye coords (196.0, 144.0), timeStamp: 2017-02-22 16:06:06.923
LEye coords (186.0, 136.0), REye coords (197.0, 145.0), timeStamp: 2017-02-22 16:06:06.957
LEye coords (186.0, 137.0), REye coords (197.0, 146.0), timeStamp: 2017-02-22 16:06:07.001
LEye coords (317.0, 137.0), REye coords (324.0, 151.0), timeStamp: 2017-02-22 16:06:07.034
LEye coords (354.0, 173.0), REye coords (359.0, 183.0), timeStamp: 2017-02-22 16:06:07.068
LEye coords (353.0, 174.0), REye coords (358.0, 187.0), timeStamp: 2017-02-22 16:06:07.112
LEye coords (353.0, 175.0), REye coords (360.0, 186.0), timeStamp: 2017-02-22 16:06:07.145
LEye coords (353.0, 176.0), REye coords (359.0, 187.0), timeStamp: 2017-02-22 16:06:07.178
LEye coords (350.0, 180.0), REye coords (356.0, 190.0), timeStamp: 2017-02-22 16:06:07.223
LEye coords (352.0, 181.0), REye coords (356.0, 179.0), timeStamp: 2017-02-22 16:06:07.258
LEye coords (352.0, 181.0), REye coords (361.0, 175.0), timeStamp: 2017-02-22 16:06:07.292
LEye coords (351.0, 180.0), REye coords (360.0, 178.0), timeStamp: 2017-02-22 16:06:07.335
LEye coords (348.0, 182.0), REye coords (359.0, 181.0), timeStamp: 2017-02-22 16:06:07.368
LEye coords (347.0, 182.0), REye coords (360.0, 181.0), timeStamp: 2017-02-22 16:06:07.401
LEye coords (347.0, 182.0), REye coords (361.0, 180.0), timeStamp: 2017-02-22 16:06:07.446
LEye coords (349.0, 184.0), REye coords (363.0, 180.0), timeStamp: 2017-02-22 16:06:07.479
LEye coords (350.0, 184.0), REye coords (365.0, 180.0), timeStamp: 2017-02-22 16:06:07.513
LEye coords (350.0, 185.0), REye coords (367.0, 180.0), timeStamp: 2017-02-22 16:06:07.557
LEye coords (351.0, 185.0), REye coords (368.0, 181.0), timeStamp: 2017-02-22 16:06:07.592
LEye coords (352.0, 186.0), REye coords (368.0, 182.0), timeStamp: 2017-02-22 16:06:07.625
LEye coords (353.0, 187.0), REye coords (369.0, 183.0), timeStamp: 2017-02-22 16:06:07.658
LEye coords (354.0, 188.0), REye coords (370.0, 183.0), timeStamp: 2017-02-22 16:06:07.703
LEye coords (355.0, 189.0), REye coords (370.0, 183.0), timeStamp: 2017-02-22 16:06:07.736
LEye coords (355.0, 191.0), REye coords (371.0, 184.0), timeStamp: 2017-02-22 16:06:07.769
LEye coords (356.0, 192.0), REye coords (371.0, 185.0), timeStamp: 2017-02-22 16:06:07.813
LEye coords (356.0, 193.0), REye coords (372.0, 185.0), timeStamp: 2017-02-22 16:06:07.847
LEye coords (356.0, 193.0), REye coords (373.0, 185.0), timeStamp: 2017-02-22 16:06:07.892
LEye coords (357.0, 194.0), REye coords (373.0, 186.0), timeStamp: 2017-02-22 16:06:07.926
LEye coords (357.0, 195.0), REye coords (373.0, 186.0), timeStamp: 2017-02-22 16:06:07.959
LEye coords (358.0, 195.0), REye coords (373.0, 188.0), timeStamp: 2017-02-22 16:06:07.993
LEye coords (358.0, 196.0), REye coords (373.0, 188.0), timeStamp: 2017-02-22 16:06:08.037
LEye coords (359.0, 197.0), REye coords (374.0, 189.0), timeStamp: 2017-02-22 16:06:08.070
LEye coords (359.0, 198.0), REye coords (373.0, 190.0), timeStamp: 2017-02-22 16:06:08.105
LEye coords (359.0, 198.0), REye coords (374.0, 191.0), timeStamp: 2017-02-22 16:06:08.149
LEye coords (360.0, 199.0), REye coords (374.0, 191.0), timeStamp: 2017-02-22 16:06:08.183
LEye coords (361.0, 200.0), REye coords (374.0, 192.0), timeStamp: 2017-02-22 16:06:08.215
LEye coords (361.0, 200.0), REye coords (374.0, 193.0), timeStamp: 2017-02-22 16:06:08.259
LEye coords (361.0, 201.0), REye coords (373.0, 195.0), timeStamp: 2017-02-22 16:06:08.294
LEye coords (362.0, 201.0), REye coords (372.0, 196.0), timeStamp: 2017-02-22 16:06:08.328
LEye coords (362.0, 202.0), REye coords (371.0, 197.0), timeStamp: 2017-02-22 16:06:08.372
LEye coords (362.0, 203.0), REye coords (370.0, 198.0), timeStamp: 2017-02-22 16:06:08.406
LEye coords (362.0, 203.0), REye coords (369.0, 199.0), timeStamp: 2017-02-22 16:06:08.438
