LEye coords (194.0, 302.0), REye coords (193.0, 305.0), timeStamp: 2017-02-22 16:06:11.700
LEye coords (194.0, 302.0), REye coords (193.0, 305.0), timeStamp: 2017-02-22 16:06:11.734
LEye coords (194.0, 302.0), REye coords (193.0, 306.0), timeStamp: 2017-02-22 16:06:11.767
LEye coords (194.0, 303.0), REye coords (193.0, 306.0), timeStamp: 2017-02-22 16:06:11.813
LEye coords (194.0, 303.0), REye coords (193.0, 307.0), timeStamp: 2017-02-22 16:06:11.846
LEye coords (194.0, 304.0), REye coords (193.0, 307.0), timeStamp: 2017-02-22 16:06:11.880
LEye coords (194.0, 304.0), REye coords (193.0, 307.0), timeStamp: 2017-02-22 16:06:11.924
LEye coords (194.0, 304.0), REye coords (193.0, 307.0), timeStamp: 2017-02-22 16:06:11.957
LEye coords (194.0, 304.0), REye coords (193.0, 307.0), timeStamp: 2017-02-22 16:06:11.990
LEye coords (194.0, 304.0), REye coords (193.0, 307.0), timeStamp: 2017-02-22 16:06:12.036
LEye coords (194.0, 303.0), REye coords (193.0, 307.0), timeStamp: 2017-02-22 16:06:12.070
LEye coords (202.0, 169.0), REye coords (209.0, 168.0), timeStamp: 2017-02-22 16:06:12.103
LEye coords (199.0, 159.0), REye coords (211.0, 160.0), timeStamp: 2017-02-22 16:06:12.148
LEye coords (200.0, 154.0), REye coords (213.0, 156.0), timeStamp: 2017-02-22 16:06:12.181
LEye coords (201.0, 153.0), REye coords (213.0, 156.0), timeStamp: 2017-02-22 16:06:12.216
LEye coords (201.0, 153.0), REye coords (212.0, 157.0), timeStamp: 2017-02-22 16:06:12.250
LEye coords (204.0, 154.0), REye coords (214.0, 160.0), timeStamp: 2017-02-22 16:06:12.293
LEye coords (266.0, 206.0), REye coords (268.0, 228.0), timeStamp: 2017-02-22 16:06:12.327
LEye coords (265.0, 201.0), REye coords (268.0, 227.0), timeStamp: 2017-02-22 16:06:12.361
LEye coords (264.0, 202.0), REye coords (268.0, 228.0), timeStamp: 2017-02-22 16:06:12.405
LEye coords (264.0, 202.0), REye coords (268.0, 226.0), timeStamp: 2017-02-22 16:06:12.438
LEye coords (265.0, 198.0), REye coords (267.0, 227.0), timeStamp: 2017-02-22 16:06:12.471
LEye coords (249.0, 231.0), REye coords (254.0, 220.0), timeStamp: 2017-02-22 16:06:12.515
LEye coords (250.0, 224.0), REye coords (253.0, 222.0), timeStamp: 2017-02-22 16:06:12.549
LEye coords (250.0, 215.0), REye coords (0.0, 0.0), timeStamp: 2017-02-22 16:06:12.583
LEye coords (250.0, 211.0), REye coords (254.0, 220.0), timeStamp: 2017-02-22 16:06:12.628
LEye coords (249.0, 215.0), REye coords (254.0, 221.0), timeStamp: 2017-02-22 16:06:12.662
LEye coords (249.0, 220.0), REye coords (254.0, 221.0), timeStamp: 2017-02-22 16:06:12.697
LEye coords (249.0, 222.0), REye coords (253.0, 220.0), timeStamp: 2017-02-22 16:06:12.730
LEye coords (248.0, 223.0), REye coords (254.0, 218.0), timeStamp: 2017-02-22 16:06:12.776
LEye coords (248.0, 224.0), REye coords (254.0, 219.0), timeStamp: 2017-02-22 16:06:12.810
LEye coords (249.0, 221.0), REye coords (254.0, 219.0), timeStamp: 2017-02-22 16:06:12.845
LEye coords (248.0, 224.0), REye coords (254.0, 219.0), timeStamp: 2017-02-22 16:06:12.878
LEye coords (248.0, 226.0), REye coords (254.0, 220.0), timeStamp: 2017-02-22 16:06:12.921
LEye coords (248.0, 228.0), REye coords (255.0, 220.0), timeStamp: 2017-02-22 16:06:12.954
LEye coords (247.0, 230.0), REye coords (255.0, 220.0), timeStamp: 2017-02-22 16:06:12.989
LEye coords (247.0, 232.0), REye coords (255.0, 220.0), timeStamp: 2017-02-22 16:06:13.032
LEye coords (247.0, 234.0), REye coords (255.0, 220.0), timeStamp: 2017-02-22 16:06:13.066
LEye coords (247.0, 235.0), REye coords (256.0, 220.0), timeStamp: 2017-02-22 16:06:13.100
LEye coords (247.0, 236.0), REye coords (256.0, 220.0), timeStamp: 2017-02-22 16:06:13.144
LEye coords (247.0, 237.0), REye coords (256.0, 220.0), timeStamp: 2017-02-22 16:06:13.177
LEye coords (247.0, 237.0), REye coords (256.0, 220.0), timeStamp: 2017-02-22 16:06:13.211
LEye coords (247.0, 237.0), REye coords (256.0, 219.0), timeStamp: 2017-02-22 16:06:13.256
LEye coords (247.0, 237.0), REye coords (256.0, 219.0), timeStamp: 2017-02-22 16:06:13.290
