LEye coords (284.0, 180.0), REye coords (306.0, 169.0), timeStamp: 2017-02-22 16:10:14.820
LEye coords (284.0, 180.0), REye coords (306.0, 169.0), timeStamp: 2017-02-22 16:10:14.864
LEye coords (284.0, 180.0), REye coords (306.0, 168.0), timeStamp: 2017-02-22 16:10:14.896
LEye coords (284.0, 181.0), REye coords (306.0, 168.0), timeStamp: 2017-02-22 16:10:14.931
LEye coords (284.0, 181.0), REye coords (306.0, 168.0), timeStamp: 2017-02-22 16:10:14.975
LEye coords (284.0, 181.0), REye coords (307.0, 168.0), timeStamp: 2017-02-22 16:10:15.009
LEye coords (284.0, 181.0), REye coords (307.0, 167.0), timeStamp: 2017-02-22 16:10:15.042
LEye coords (284.0, 181.0), REye coords (307.0, 167.0), timeStamp: 2017-02-22 16:10:15.086
LEye coords (286.0, 239.0), REye coords (303.0, 228.0), timeStamp: 2017-02-22 16:10:15.119
LEye coords (287.0, 238.0), REye coords (305.0, 240.0), timeStamp: 2017-02-22 16:10:15.153
LEye coords (288.0, 240.0), REye coords (304.0, 238.0), timeStamp: 2017-02-22 16:10:15.198
LEye coords (288.0, 241.0), REye coords (304.0, 238.0), timeStamp: 2017-02-22 16:10:15.231
LEye coords (288.0, 241.0), REye coords (304.0, 238.0), timeStamp: 2017-02-22 16:10:15.264
LEye coords (288.0, 247.0), REye coords (307.0, 238.0), timeStamp: 2017-02-22 16:10:15.308
LEye coords (366.0, 267.0), REye coords (369.0, 263.0), timeStamp: 2017-02-22 16:10:15.342
LEye coords (361.0, 270.0), REye coords (368.0, 264.0), timeStamp: 2017-02-22 16:10:15.376
LEye coords (361.0, 271.0), REye coords (368.0, 263.0), timeStamp: 2017-02-22 16:10:15.420
LEye coords (360.0, 272.0), REye coords (369.0, 264.0), timeStamp: 2017-02-22 16:10:15.453
LEye coords (356.0, 269.0), REye coords (371.0, 263.0), timeStamp: 2017-02-22 16:10:15.486
LEye coords (359.0, 272.0), REye coords (369.0, 267.0), timeStamp: 2017-02-22 16:10:15.530
LEye coords (359.0, 272.0), REye coords (367.0, 268.0), timeStamp: 2017-02-22 16:10:15.564
LEye coords (354.0, 273.0), REye coords (365.0, 270.0), timeStamp: 2017-02-22 16:10:15.598
LEye coords (352.0, 274.0), REye coords (362.0, 271.0), timeStamp: 2017-02-22 16:10:15.641
LEye coords (350.0, 275.0), REye coords (361.0, 271.0), timeStamp: 2017-02-22 16:10:15.675
LEye coords (349.0, 276.0), REye coords (360.0, 272.0), timeStamp: 2017-02-22 16:10:15.709
LEye coords (349.0, 276.0), REye coords (360.0, 273.0), timeStamp: 2017-02-22 16:10:15.753
LEye coords (349.0, 277.0), REye coords (359.0, 274.0), timeStamp: 2017-02-22 16:10:15.787
LEye coords (349.0, 277.0), REye coords (360.0, 274.0), timeStamp: 2017-02-22 16:10:15.821
LEye coords (350.0, 278.0), REye coords (361.0, 274.0), timeStamp: 2017-02-22 16:10:15.855
LEye coords (350.0, 278.0), REye coords (361.0, 274.0), timeStamp: 2017-02-22 16:10:15.898
LEye coords (350.0, 278.0), REye coords (361.0, 275.0), timeStamp: 2017-02-22 16:10:15.932
LEye coords (351.0, 278.0), REye coords (362.0, 275.0), timeStamp: 2017-02-22 16:10:15.966
LEye coords (351.0, 279.0), REye coords (362.0, 275.0), timeStamp: 2017-02-22 16:10:16.011
LEye coords (351.0, 279.0), REye coords (363.0, 275.0), timeStamp: 2017-02-22 16:10:16.046
LEye coords (351.0, 279.0), REye coords (363.0, 276.0), timeStamp: 2017-02-22 16:10:16.080
LEye coords (351.0, 279.0), REye coords (363.0, 276.0), timeStamp: 2017-02-22 16:10:16.115
LEye coords (351.0, 280.0), REye coords (364.0, 276.0), timeStamp: 2017-02-22 16:10:16.159
LEye coords (350.0, 280.0), REye coords (364.0, 276.0), timeStamp: 2017-02-22 16:10:16.194
LEye coords (350.0, 280.0), REye coords (364.0, 277.0), timeStamp: 2017-02-22 16:10:16.228
LEye coords (350.0, 281.0), REye coords (364.0, 277.0), timeStamp: 2017-02-22 16:10:16.261
LEye coords (350.0, 281.0), REye coords (364.0, 277.0), timeStamp: 2017-02-22 16:10:16.305
LEye coords (350.0, 281.0), REye coords (364.0, 278.0), timeStamp: 2017-02-22 16:10:16.339
LEye coords (350.0, 281.0), REye coords (364.0, 278.0), timeStamp: 2017-02-22 16:10:16.374
LEye coords (350.0, 282.0), REye coords (364.0, 278.0), timeStamp: 2017-02-22 16:10:16.417
LEye coords (350.0, 282.0), REye coords (364.0, 279.0), timeStamp: 2017-02-22 16:10:16.451
LEye coords (350.0, 282.0), REye coords (364.0, 279.0), timeStamp: 2017-02-22 16:10:16.485
LEye coords (350.0, 283.0), REye coords (364.0, 279.0), timeStamp: 2017-02-22 16:10:16.529
LEye coords (350.0, 283.0), REye coords (364.0, 279.0), timeStamp: 2017-02-22 16:10:16.563
LEye coords (349.0, 283.0), REye coords (364.0, 279.0), timeStamp: 2017-02-22 16:10:16.597
LEye coords (349.0, 283.0), REye coords (364.0, 280.0), timeStamp: 2017-02-22 16:10:16.641
LEye coords (349.0, 283.0), REye coords (364.0, 280.0), timeStamp: 2017-02-22 16:10:16.675
LEye coords (349.0, 283.0), REye coords (363.0, 280.0), timeStamp: 2017-02-22 16:10:16.709
LEye coords (349.0, 283.0), REye coords (363.0, 281.0), timeStamp: 2017-02-22 16:10:16.742
LEye coords (348.0, 283.0), REye coords (363.0, 281.0), timeStamp: 2017-02-22 16:10:16.787
LEye coords (348.0, 284.0), REye coords (362.0, 281.0), timeStamp: 2017-02-22 16:10:16.854
