LEye coords (186.0, 240.0), REye coords (205.0, 237.0), timeStamp: 2017-02-22 16:10:41.026
LEye coords (186.0, 240.0), REye coords (206.0, 236.0), timeStamp: 2017-02-22 16:10:41.059
LEye coords (187.0, 237.0), REye coords (209.0, 236.0), timeStamp: 2017-02-22 16:10:41.103
LEye coords (186.0, 238.0), REye coords (204.0, 232.0), timeStamp: 2017-02-22 16:10:41.136
LEye coords (188.0, 239.0), REye coords (206.0, 233.0), timeStamp: 2017-02-22 16:10:41.170
LEye coords (187.0, 239.0), REye coords (207.0, 236.0), timeStamp: 2017-02-22 16:10:41.215
LEye coords (201.0, 227.0), REye coords (224.0, 224.0), timeStamp: 2017-02-22 16:10:41.248
LEye coords (248.0, 183.0), REye coords (281.0, 144.0), timeStamp: 2017-02-22 16:10:41.280
LEye coords (244.0, 192.0), REye coords (284.0, 143.0), timeStamp: 2017-02-22 16:10:41.325
LEye coords (244.0, 190.0), REye coords (282.0, 142.0), timeStamp: 2017-02-22 16:10:41.359
LEye coords (244.0, 190.0), REye coords (282.0, 144.0), timeStamp: 2017-02-22 16:10:41.393
LEye coords (245.0, 189.0), REye coords (280.0, 151.0), timeStamp: 2017-02-22 16:10:41.436
LEye coords (245.0, 188.0), REye coords (280.0, 150.0), timeStamp: 2017-02-22 16:10:41.469
LEye coords (302.0, 163.0), REye coords (337.0, 143.0), timeStamp: 2017-02-22 16:10:41.503
LEye coords (297.0, 161.0), REye coords (338.0, 145.0), timeStamp: 2017-02-22 16:10:41.546
LEye coords (298.0, 158.0), REye coords (338.0, 143.0), timeStamp: 2017-02-22 16:10:41.580
LEye coords (297.0, 154.0), REye coords (336.0, 144.0), timeStamp: 2017-02-22 16:10:41.623
LEye coords (297.0, 155.0), REye coords (336.0, 144.0), timeStamp: 2017-02-22 16:10:41.656
LEye coords (316.0, 166.0), REye coords (345.0, 155.0), timeStamp: 2017-02-22 16:10:41.688
LEye coords (329.0, 189.0), REye coords (366.0, 163.0), timeStamp: 2017-02-22 16:10:41.733
LEye coords (334.0, 182.0), REye coords (364.0, 163.0), timeStamp: 2017-02-22 16:10:41.766
LEye coords (334.0, 180.0), REye coords (364.0, 162.0), timeStamp: 2017-02-22 16:10:41.800
LEye coords (335.0, 178.0), REye coords (363.0, 163.0), timeStamp: 2017-02-22 16:10:41.843
LEye coords (338.0, 177.0), REye coords (365.0, 164.0), timeStamp: 2017-02-22 16:10:41.876
LEye coords (339.0, 176.0), REye coords (365.0, 165.0), timeStamp: 2017-02-22 16:10:41.910
LEye coords (340.0, 176.0), REye coords (366.0, 165.0), timeStamp: 2017-02-22 16:10:41.953
LEye coords (340.0, 177.0), REye coords (366.0, 166.0), timeStamp: 2017-02-22 16:10:41.987
LEye coords (346.0, 176.0), REye coords (366.0, 166.0), timeStamp: 2017-02-22 16:10:42.031
LEye coords (342.0, 181.0), REye coords (366.0, 166.0), timeStamp: 2017-02-22 16:10:42.063
LEye coords (344.0, 181.0), REye coords (366.0, 166.0), timeStamp: 2017-02-22 16:10:42.097
LEye coords (345.0, 181.0), REye coords (366.0, 167.0), timeStamp: 2017-02-22 16:10:42.141
LEye coords (344.0, 181.0), REye coords (366.0, 168.0), timeStamp: 2017-02-22 16:10:42.176
LEye coords (345.0, 181.0), REye coords (367.0, 168.0), timeStamp: 2017-02-22 16:10:42.209
LEye coords (345.0, 181.0), REye coords (367.0, 168.0), timeStamp: 2017-02-22 16:10:42.252
LEye coords (345.0, 181.0), REye coords (367.0, 168.0), timeStamp: 2017-02-22 16:10:42.284
LEye coords (345.0, 181.0), REye coords (367.0, 168.0), timeStamp: 2017-02-22 16:10:42.318
LEye coords (345.0, 182.0), REye coords (367.0, 168.0), timeStamp: 2017-02-22 16:10:42.361
LEye coords (345.0, 183.0), REye coords (367.0, 169.0), timeStamp: 2017-02-22 16:10:42.396
LEye coords (345.0, 183.0), REye coords (366.0, 169.0), timeStamp: 2017-02-22 16:10:42.430
LEye coords (253.0, 167.0), REye coords (270.0, 128.0), timeStamp: 2017-02-22 16:10:42.474
LEye coords (245.0, 164.0), REye coords (270.0, 116.0), timeStamp: 2017-02-22 16:10:42.507
LEye coords (247.0, 168.0), REye coords (271.0, 121.0), timeStamp: 2017-02-22 16:10:42.540
LEye coords (247.0, 169.0), REye coords (273.0, 122.0), timeStamp: 2017-02-22 16:10:42.583
LEye coords (247.0, 169.0), REye coords (272.0, 121.0), timeStamp: 2017-02-22 16:10:42.615
LEye coords (250.0, 173.0), REye coords (266.0, 121.0), timeStamp: 2017-02-22 16:10:42.650
LEye coords (247.0, 171.0), REye coords (269.0, 121.0), timeStamp: 2017-02-22 16:10:42.695
LEye coords (246.0, 174.0), REye coords (270.0, 121.0), timeStamp: 2017-02-22 16:10:42.729
LEye coords (254.0, 173.0), REye coords (282.0, 130.0), timeStamp: 2017-02-22 16:10:42.762
