LEye coords (230.0, 167.0), REye coords (248.0, 135.0), timeStamp: 2017-02-22 16:11:33.097
LEye coords (230.0, 168.0), REye coords (248.0, 135.0), timeStamp: 2017-02-22 16:11:33.141
LEye coords (230.0, 170.0), REye coords (248.0, 136.0), timeStamp: 2017-02-22 16:11:33.175
LEye coords (230.0, 171.0), REye coords (248.0, 134.0), timeStamp: 2017-02-22 16:11:33.209
LEye coords (230.0, 171.0), REye coords (249.0, 135.0), timeStamp: 2017-02-22 16:11:33.253
LEye coords (230.0, 172.0), REye coords (249.0, 136.0), timeStamp: 2017-02-22 16:11:33.286
LEye coords (229.0, 171.0), REye coords (248.0, 135.0), timeStamp: 2017-02-22 16:11:33.321
LEye coords (229.0, 172.0), REye coords (248.0, 136.0), timeStamp: 2017-02-22 16:11:33.354
LEye coords (229.0, 173.0), REye coords (247.0, 139.0), timeStamp: 2017-02-22 16:11:33.400
LEye coords (226.0, 172.0), REye coords (244.0, 138.0), timeStamp: 2017-02-22 16:11:33.434
LEye coords (73.0, 172.0), REye coords (79.0, 142.0), timeStamp: 2017-02-22 16:11:33.467
LEye coords (72.0, 170.0), REye coords (71.0, 141.0), timeStamp: 2017-02-22 16:11:33.510
LEye coords (73.0, 172.0), REye coords (72.0, 139.0), timeStamp: 2017-02-22 16:11:33.544
LEye coords (73.0, 173.0), REye coords (74.0, 138.0), timeStamp: 2017-02-22 16:11:33.578
LEye coords (73.0, 172.0), REye coords (72.0, 139.0), timeStamp: 2017-02-22 16:11:33.621
LEye coords (76.0, 172.0), REye coords (74.0, 138.0), timeStamp: 2017-02-22 16:11:33.655
LEye coords (73.0, 168.0), REye coords (67.0, 139.0), timeStamp: 2017-02-22 16:11:33.689
LEye coords (73.0, 173.0), REye coords (70.0, 137.0), timeStamp: 2017-02-22 16:11:33.732
LEye coords (74.0, 174.0), REye coords (72.0, 136.0), timeStamp: 2017-02-22 16:11:33.766
LEye coords (75.0, 173.0), REye coords (72.0, 138.0), timeStamp: 2017-02-22 16:11:33.800
LEye coords (75.0, 173.0), REye coords (72.0, 139.0), timeStamp: 2017-02-22 16:11:33.844
LEye coords (0.0, 0.0), REye coords (71.0, 140.0), timeStamp: 2017-02-22 16:11:33.877
LEye coords (0.0, 0.0), REye coords (70.0, 141.0), timeStamp: 2017-02-22 16:11:33.911
LEye coords (0.0, 0.0), REye coords (70.0, 140.0), timeStamp: 2017-02-22 16:11:33.955
LEye coords (0.0, 0.0), REye coords (69.0, 140.0), timeStamp: 2017-02-22 16:11:33.989
LEye coords (0.0, 0.0), REye coords (68.0, 141.0), timeStamp: 2017-02-22 16:11:34.022
LEye coords (0.0, 0.0), REye coords (68.0, 141.0), timeStamp: 2017-02-22 16:11:34.066
LEye coords (0.0, 0.0), REye coords (67.0, 142.0), timeStamp: 2017-02-22 16:11:34.100
LEye coords (0.0, 0.0), REye coords (67.0, 143.0), timeStamp: 2017-02-22 16:11:34.133
LEye coords (0.0, 0.0), REye coords (66.0, 144.0), timeStamp: 2017-02-22 16:11:34.177
LEye coords (0.0, 0.0), REye coords (65.0, 144.0), timeStamp: 2017-02-22 16:11:34.212
LEye coords (0.0, 0.0), REye coords (66.0, 145.0), timeStamp: 2017-02-22 16:11:34.246
LEye coords (0.0, 0.0), REye coords (66.0, 146.0), timeStamp: 2017-02-22 16:11:34.280
LEye coords (0.0, 0.0), REye coords (67.0, 146.0), timeStamp: 2017-02-22 16:11:34.325
LEye coords (0.0, 0.0), REye coords (67.0, 147.0), timeStamp: 2017-02-22 16:11:34.358
LEye coords (0.0, 0.0), REye coords (67.0, 148.0), timeStamp: 2017-02-22 16:11:34.393
LEye coords (0.0, 0.0), REye coords (68.0, 149.0), timeStamp: 2017-02-22 16:11:34.438
LEye coords (0.0, 0.0), REye coords (68.0, 150.0), timeStamp: 2017-02-22 16:11:34.471
LEye coords (0.0, 0.0), REye coords (68.0, 151.0), timeStamp: 2017-02-22 16:11:34.506
LEye coords (0.0, 0.0), REye coords (69.0, 151.0), timeStamp: 2017-02-22 16:11:34.539
LEye coords (0.0, 0.0), REye coords (69.0, 152.0), timeStamp: 2017-02-22 16:11:34.582
LEye coords (0.0, 0.0), REye coords (69.0, 152.0), timeStamp: 2017-02-22 16:11:34.617
LEye coords (0.0, 0.0), REye coords (69.0, 153.0), timeStamp: 2017-02-22 16:11:34.651
LEye coords (0.0, 0.0), REye coords (69.0, 153.0), timeStamp: 2017-02-22 16:11:34.694
LEye coords (0.0, 0.0), REye coords (69.0, 154.0), timeStamp: 2017-02-22 16:11:34.728
LEye coords (0.0, 0.0), REye coords (69.0, 154.0), timeStamp: 2017-02-22 16:11:34.762
LEye coords (0.0, 0.0), REye coords (70.0, 155.0), timeStamp: 2017-02-22 16:11:34.807
LEye coords (0.0, 0.0), REye coords (70.0, 155.0), timeStamp: 2017-02-22 16:11:34.840
LEye coords (0.0, 0.0), REye coords (70.0, 156.0), timeStamp: 2017-02-22 16:11:34.875
LEye coords (0.0, 0.0), REye coords (70.0, 156.0), timeStamp: 2017-02-22 16:11:34.920
LEye coords (0.0, 0.0), REye coords (70.0, 156.0), timeStamp: 2017-02-22 16:11:34.954
LEye coords (0.0, 0.0), REye coords (71.0, 156.0), timeStamp: 2017-02-22 16:11:34.988
LEye coords (0.0, 0.0), REye coords (71.0, 156.0), timeStamp: 2017-02-22 16:11:35.021
LEye coords (0.0, 0.0), REye coords (71.0, 156.0), timeStamp: 2017-02-22 16:11:35.066
