LEye coords (244.0, 182.0), REye coords (272.0, 125.0), timeStamp: 2017-02-22 16:11:39.352
LEye coords (243.0, 182.0), REye coords (272.0, 125.0), timeStamp: 2017-02-22 16:11:39.397
LEye coords (243.0, 182.0), REye coords (272.0, 124.0), timeStamp: 2017-02-22 16:11:39.430
LEye coords (243.0, 181.0), REye coords (272.0, 124.0), timeStamp: 2017-02-22 16:11:39.464
LEye coords (243.0, 181.0), REye coords (271.0, 123.0), timeStamp: 2017-02-22 16:11:39.508
LEye coords (243.0, 181.0), REye coords (271.0, 122.0), timeStamp: 2017-02-22 16:11:39.542
LEye coords (243.0, 181.0), REye coords (271.0, 122.0), timeStamp: 2017-02-22 16:11:39.576
LEye coords (243.0, 181.0), REye coords (270.0, 124.0), timeStamp: 2017-02-22 16:11:39.609
LEye coords (283.0, 198.0), REye coords (295.0, 195.0), timeStamp: 2017-02-22 16:11:39.654
LEye coords (351.0, 227.0), REye coords (362.0, 219.0), timeStamp: 2017-02-22 16:11:39.687
LEye coords (351.0, 229.0), REye coords (0.0, 0.0), timeStamp: 2017-02-22 16:11:39.722
LEye coords (351.0, 229.0), REye coords (359.0, 223.0), timeStamp: 2017-02-22 16:11:39.767
LEye coords (351.0, 229.0), REye coords (359.0, 225.0), timeStamp: 2017-02-22 16:11:39.800
LEye coords (348.0, 227.0), REye coords (359.0, 226.0), timeStamp: 2017-02-22 16:11:39.834
LEye coords (349.0, 230.0), REye coords (356.0, 230.0), timeStamp: 2017-02-22 16:11:39.878
LEye coords (349.0, 227.0), REye coords (357.0, 231.0), timeStamp: 2017-02-22 16:11:39.911
LEye coords (350.0, 226.0), REye coords (357.0, 230.0), timeStamp: 2017-02-22 16:11:39.945
LEye coords (349.0, 226.0), REye coords (359.0, 227.0), timeStamp: 2017-02-22 16:11:39.989
LEye coords (348.0, 226.0), REye coords (360.0, 226.0), timeStamp: 2017-02-22 16:11:40.024
LEye coords (348.0, 226.0), REye coords (361.0, 225.0), timeStamp: 2017-02-22 16:11:40.057
LEye coords (348.0, 226.0), REye coords (364.0, 222.0), timeStamp: 2017-02-22 16:11:40.101
LEye coords (348.0, 225.0), REye coords (365.0, 221.0), timeStamp: 2017-02-22 16:11:40.135
LEye coords (349.0, 224.0), REye coords (366.0, 219.0), timeStamp: 2017-02-22 16:11:40.169
LEye coords (349.0, 224.0), REye coords (366.0, 219.0), timeStamp: 2017-02-22 16:11:40.202
LEye coords (349.0, 223.0), REye coords (366.0, 219.0), timeStamp: 2017-02-22 16:11:40.247
LEye coords (349.0, 223.0), REye coords (367.0, 219.0), timeStamp: 2017-02-22 16:11:40.280
LEye coords (349.0, 223.0), REye coords (367.0, 219.0), timeStamp: 2017-02-22 16:11:40.313
LEye coords (350.0, 223.0), REye coords (368.0, 218.0), timeStamp: 2017-02-22 16:11:40.358
LEye coords (350.0, 223.0), REye coords (368.0, 219.0), timeStamp: 2017-02-22 16:11:40.392
LEye coords (350.0, 222.0), REye coords (368.0, 219.0), timeStamp: 2017-02-22 16:11:40.425
LEye coords (350.0, 222.0), REye coords (368.0, 219.0), timeStamp: 2017-02-22 16:11:40.469
LEye coords (350.0, 222.0), REye coords (369.0, 219.0), timeStamp: 2017-02-22 16:11:40.504
LEye coords (350.0, 222.0), REye coords (369.0, 219.0), timeStamp: 2017-02-22 16:11:40.537
LEye coords (350.0, 222.0), REye coords (368.0, 220.0), timeStamp: 2017-02-22 16:11:40.581
LEye coords (350.0, 222.0), REye coords (368.0, 220.0), timeStamp: 2017-02-22 16:11:40.616
LEye coords (350.0, 222.0), REye coords (368.0, 220.0), timeStamp: 2017-02-22 16:11:40.650
LEye coords (350.0, 222.0), REye coords (368.0, 221.0), timeStamp: 2017-02-22 16:11:40.685
LEye coords (350.0, 222.0), REye coords (368.0, 221.0), timeStamp: 2017-02-22 16:11:40.729
LEye coords (351.0, 222.0), REye coords (368.0, 222.0), timeStamp: 2017-02-22 16:11:40.765
LEye coords (351.0, 222.0), REye coords (367.0, 222.0), timeStamp: 2017-02-22 16:11:40.798
LEye coords (351.0, 222.0), REye coords (367.0, 223.0), timeStamp: 2017-02-22 16:11:40.832
LEye coords (351.0, 222.0), REye coords (367.0, 223.0), timeStamp: 2017-02-22 16:11:40.877
LEye coords (351.0, 223.0), REye coords (367.0, 224.0), timeStamp: 2017-02-22 16:11:40.910
LEye coords (351.0, 223.0), REye coords (366.0, 224.0), timeStamp: 2017-02-22 16:11:40.945
LEye coords (351.0, 223.0), REye coords (366.0, 225.0), timeStamp: 2017-02-22 16:11:40.980
LEye coords (350.0, 224.0), REye coords (366.0, 225.0), timeStamp: 2017-02-22 16:11:41.024
LEye coords (350.0, 224.0), REye coords (366.0, 226.0), timeStamp: 2017-02-22 16:11:41.058
LEye coords (350.0, 224.0), REye coords (365.0, 226.0), timeStamp: 2017-02-22 16:11:41.091
LEye coords (350.0, 224.0), REye coords (365.0, 227.0), timeStamp: 2017-02-22 16:11:41.136
LEye coords (350.0, 224.0), REye coords (365.0, 227.0), timeStamp: 2017-02-22 16:11:41.171
LEye coords (350.0, 224.0), REye coords (365.0, 227.0), timeStamp: 2017-02-22 16:11:41.204
LEye coords (350.0, 224.0), REye coords (364.0, 228.0), timeStamp: 2017-02-22 16:11:41.238
LEye coords (350.0, 224.0), REye coords (364.0, 228.0), timeStamp: 2017-02-22 16:11:41.282
LEye coords (350.0, 225.0), REye coords (364.0, 229.0), timeStamp: 2017-02-22 16:11:41.316
LEye coords (351.0, 225.0), REye coords (364.0, 229.0), timeStamp: 2017-02-22 16:11:41.350
LEye coords (351.0, 225.0), REye coords (364.0, 229.0), timeStamp: 2017-02-22 16:11:41.394
LEye coords (350.0, 224.0), REye coords (363.0, 227.0), timeStamp: 2017-02-22 16:11:41.428
