LEye coords (183.0, 331.0), REye coords (197.0, 345.0), timeStamp: 2017-02-22 16:12:05.748
LEye coords (152.0, 199.0), REye coords (165.0, 155.0), timeStamp: 2017-02-22 16:13:15.618
LEye coords (151.0, 198.0), REye coords (165.0, 156.0), timeStamp: 2017-02-22 16:13:15.663
LEye coords (151.0, 198.0), REye coords (165.0, 156.0), timeStamp: 2017-02-22 16:13:15.696
LEye coords (151.0, 197.0), REye coords (164.0, 156.0), timeStamp: 2017-02-22 16:13:15.730
LEye coords (150.0, 197.0), REye coords (164.0, 157.0), timeStamp: 2017-02-22 16:13:15.774
LEye coords (150.0, 197.0), REye coords (164.0, 158.0), timeStamp: 2017-02-22 16:13:15.807
LEye coords (150.0, 197.0), REye coords (164.0, 158.0), timeStamp: 2017-02-22 16:13:15.841
LEye coords (150.0, 197.0), REye coords (163.0, 159.0), timeStamp: 2017-02-22 16:13:15.885
LEye coords (150.0, 197.0), REye coords (163.0, 158.0), timeStamp: 2017-02-22 16:13:15.919
LEye coords (150.0, 197.0), REye coords (163.0, 158.0), timeStamp: 2017-02-22 16:13:15.952
LEye coords (150.0, 197.0), REye coords (163.0, 158.0), timeStamp: 2017-02-22 16:13:15.996
LEye coords (150.0, 197.0), REye coords (163.0, 158.0), timeStamp: 2017-02-22 16:13:16.031
LEye coords (150.0, 198.0), REye coords (164.0, 158.0), timeStamp: 2017-02-22 16:13:16.065
LEye coords (151.0, 199.0), REye coords (163.0, 158.0), timeStamp: 2017-02-22 16:13:16.099
LEye coords (150.0, 197.0), REye coords (163.0, 157.0), timeStamp: 2017-02-22 16:13:16.144
LEye coords (149.0, 195.0), REye coords (162.0, 157.0), timeStamp: 2017-02-22 16:13:16.178
LEye coords (149.0, 193.0), REye coords (162.0, 156.0), timeStamp: 2017-02-22 16:13:16.212
LEye coords (148.0, 191.0), REye coords (161.0, 157.0), timeStamp: 2017-02-22 16:13:16.245
LEye coords (148.0, 189.0), REye coords (161.0, 157.0), timeStamp: 2017-02-22 16:13:16.291
LEye coords (147.0, 187.0), REye coords (160.0, 157.0), timeStamp: 2017-02-22 16:13:16.324
LEye coords (147.0, 185.0), REye coords (159.0, 157.0), timeStamp: 2017-02-22 16:13:16.358
LEye coords (146.0, 183.0), REye coords (158.0, 157.0), timeStamp: 2017-02-22 16:13:16.402
LEye coords (146.0, 182.0), REye coords (158.0, 157.0), timeStamp: 2017-02-22 16:13:16.436
LEye coords (146.0, 180.0), REye coords (157.0, 157.0), timeStamp: 2017-02-22 16:13:16.471
LEye coords (146.0, 180.0), REye coords (157.0, 155.0), timeStamp: 2017-02-22 16:13:16.505
LEye coords (145.0, 179.0), REye coords (156.0, 154.0), timeStamp: 2017-02-22 16:13:16.548
LEye coords (146.0, 180.0), REye coords (155.0, 153.0), timeStamp: 2017-02-22 16:13:16.581
LEye coords (146.0, 180.0), REye coords (155.0, 152.0), timeStamp: 2017-02-22 16:13:16.616
LEye coords (145.0, 180.0), REye coords (154.0, 154.0), timeStamp: 2017-02-22 16:13:16.659
LEye coords (145.0, 179.0), REye coords (154.0, 152.0), timeStamp: 2017-02-22 16:13:16.694
LEye coords (145.0, 181.0), REye coords (154.0, 151.0), timeStamp: 2017-02-22 16:13:16.728
LEye coords (145.0, 182.0), REye coords (153.0, 153.0), timeStamp: 2017-02-22 16:13:16.773
LEye coords (145.0, 183.0), REye coords (153.0, 155.0), timeStamp: 2017-02-22 16:13:16.807
LEye coords (145.0, 184.0), REye coords (152.0, 157.0), timeStamp: 2017-02-22 16:13:16.842
LEye coords (145.0, 185.0), REye coords (152.0, 157.0), timeStamp: 2017-02-22 16:13:16.876
LEye coords (145.0, 184.0), REye coords (152.0, 157.0), timeStamp: 2017-02-22 16:13:16.922
LEye coords (145.0, 185.0), REye coords (152.0, 159.0), timeStamp: 2017-02-22 16:13:16.956
LEye coords (144.0, 185.0), REye coords (152.0, 159.0), timeStamp: 2017-02-22 16:13:16.989
LEye coords (144.0, 186.0), REye coords (152.0, 161.0), timeStamp: 2017-02-22 16:13:17.024
LEye coords (144.0, 187.0), REye coords (152.0, 162.0), timeStamp: 2017-02-22 16:13:17.067
LEye coords (144.0, 188.0), REye coords (152.0, 162.0), timeStamp: 2017-02-22 16:13:17.101
LEye coords (144.0, 188.0), REye coords (152.0, 161.0), timeStamp: 2017-02-22 16:13:17.134
LEye coords (144.0, 188.0), REye coords (152.0, 162.0), timeStamp: 2017-02-22 16:13:17.179
LEye coords (144.0, 189.0), REye coords (152.0, 164.0), timeStamp: 2017-02-22 16:13:17.213
LEye coords (143.0, 189.0), REye coords (152.0, 166.0), timeStamp: 2017-02-22 16:13:17.246
LEye coords (143.0, 190.0), REye coords (152.0, 165.0), timeStamp: 2017-02-22 16:13:17.292
LEye coords (142.0, 190.0), REye coords (152.0, 166.0), timeStamp: 2017-02-22 16:13:17.325
LEye coords (142.0, 191.0), REye coords (152.0, 168.0), timeStamp: 2017-02-22 16:13:17.359
LEye coords (142.0, 191.0), REye coords (152.0, 170.0), timeStamp: 2017-02-22 16:13:17.403
LEye coords (141.0, 191.0), REye coords (152.0, 173.0), timeStamp: 2017-02-22 16:13:17.439
LEye coords (141.0, 191.0), REye coords (152.0, 174.0), timeStamp: 2017-02-22 16:13:17.472
LEye coords (141.0, 192.0), REye coords (152.0, 175.0), timeStamp: 2017-02-22 16:13:17.506
LEye coords (141.0, 191.0), REye coords (153.0, 177.0), timeStamp: 2017-02-22 16:13:17.551
LEye coords (141.0, 191.0), REye coords (153.0, 178.0), timeStamp: 2017-02-22 16:13:17.584
LEye coords (141.0, 191.0), REye coords (153.0, 178.0), timeStamp: 2017-02-22 16:13:17.618
LEye coords (141.0, 191.0), REye coords (153.0, 178.0), timeStamp: 2017-02-22 16:13:17.661
LEye coords (141.0, 191.0), REye coords (153.0, 179.0), timeStamp: 2017-02-22 16:13:17.695
LEye coords (141.0, 192.0), REye coords (153.0, 181.0), timeStamp: 2017-02-22 16:13:17.728
LEye coords (142.0, 193.0), REye coords (153.0, 182.0), timeStamp: 2017-02-22 16:13:17.772
LEye coords (143.0, 195.0), REye coords (153.0, 183.0), timeStamp: 2017-02-22 16:13:17.805
LEye coords (143.0, 197.0), REye coords (153.0, 184.0), timeStamp: 2017-02-22 16:13:17.838
LEye coords (144.0, 198.0), REye coords (153.0, 186.0), timeStamp: 2017-02-22 16:13:17.881
LEye coords (144.0, 199.0), REye coords (153.0, 187.0), timeStamp: 2017-02-22 16:13:17.915
LEye coords (145.0, 201.0), REye coords (153.0, 188.0), timeStamp: 2017-02-22 16:13:17.949
LEye coords (146.0, 202.0), REye coords (153.0, 188.0), timeStamp: 2017-02-22 16:13:17.994
