LEye coords (165.0, 280.0), REye coords (150.0, 302.0), timeStamp: 2017-03-05 10:56:28.894
LEye coords (164.0, 280.0), REye coords (150.0, 302.0), timeStamp: 2017-03-05 10:56:28.928
LEye coords (164.0, 280.0), REye coords (150.0, 302.0), timeStamp: 2017-03-05 10:56:28.961
LEye coords (163.0, 280.0), REye coords (150.0, 302.0), timeStamp: 2017-03-05 10:56:29.005
LEye coords (163.0, 280.0), REye coords (149.0, 302.0), timeStamp: 2017-03-05 10:56:29.038
LEye coords (162.0, 279.0), REye coords (149.0, 302.0), timeStamp: 2017-03-05 10:56:29.071
LEye coords (162.0, 279.0), REye coords (149.0, 302.0), timeStamp: 2017-03-05 10:56:29.116
LEye coords (161.0, 279.0), REye coords (149.0, 301.0), timeStamp: 2017-03-05 10:56:29.149
LEye coords (161.0, 279.0), REye coords (149.0, 301.0), timeStamp: 2017-03-05 10:56:29.182
LEye coords (160.0, 279.0), REye coords (149.0, 300.0), timeStamp: 2017-03-05 10:56:29.226
LEye coords (174.0, 204.0), REye coords (154.0, 224.0), timeStamp: 2017-03-05 10:56:29.259
LEye coords (173.0, 202.0), REye coords (160.0, 216.0), timeStamp: 2017-03-05 10:56:29.293
LEye coords (172.0, 201.0), REye coords (157.0, 218.0), timeStamp: 2017-03-05 10:56:29.337
LEye coords (174.0, 202.0), REye coords (158.0, 217.0), timeStamp: 2017-03-05 10:56:29.371
LEye coords (174.0, 202.0), REye coords (157.0, 217.0), timeStamp: 2017-03-05 10:56:29.404
LEye coords (176.0, 199.0), REye coords (158.0, 220.0), timeStamp: 2017-03-05 10:56:29.448
LEye coords (146.0, 194.0), REye coords (0.0, 0.0), timeStamp: 2017-03-05 10:56:29.481
LEye coords (147.0, 193.0), REye coords (0.0, 0.0), timeStamp: 2017-03-05 10:56:29.515
LEye coords (147.0, 192.0), REye coords (134.0, 230.0), timeStamp: 2017-03-05 10:56:29.559
LEye coords (147.0, 192.0), REye coords (0.0, 0.0), timeStamp: 2017-03-05 10:56:29.592
LEye coords (148.0, 192.0), REye coords (0.0, 0.0), timeStamp: 2017-03-05 10:56:29.625
LEye coords (146.0, 193.0), REye coords (134.0, 224.0), timeStamp: 2017-03-05 10:56:29.669
LEye coords (142.0, 194.0), REye coords (124.0, 219.0), timeStamp: 2017-03-05 10:56:29.703
LEye coords (139.0, 195.0), REye coords (119.0, 217.0), timeStamp: 2017-03-05 10:56:29.736
LEye coords (136.0, 195.0), REye coords (116.0, 216.0), timeStamp: 2017-03-05 10:56:29.779
LEye coords (134.0, 196.0), REye coords (114.0, 215.0), timeStamp: 2017-03-05 10:56:29.813
LEye coords (132.0, 196.0), REye coords (112.0, 216.0), timeStamp: 2017-03-05 10:56:29.847
LEye coords (131.0, 197.0), REye coords (110.0, 216.0), timeStamp: 2017-03-05 10:56:29.891
LEye coords (129.0, 198.0), REye coords (102.0, 216.0), timeStamp: 2017-03-05 10:56:29.925
LEye coords (118.0, 205.0), REye coords (103.0, 219.0), timeStamp: 2017-03-05 10:56:29.960
LEye coords (114.0, 203.0), REye coords (102.0, 219.0), timeStamp: 2017-03-05 10:56:30.005
LEye coords (115.0, 204.0), REye coords (101.0, 220.0), timeStamp: 2017-03-05 10:56:30.037
LEye coords (115.0, 205.0), REye coords (102.0, 220.0), timeStamp: 2017-03-05 10:56:30.070
LEye coords (115.0, 204.0), REye coords (102.0, 219.0), timeStamp: 2017-03-05 10:56:30.113
