LEye coords (130.0, 233.0), REye coords (0.0, 0.0), timeStamp: 2017-03-05 10:56:39.734
LEye coords (130.0, 233.0), REye coords (0.0, 0.0), timeStamp: 2017-03-05 10:56:39.767
LEye coords (130.0, 233.0), REye coords (0.0, 0.0), timeStamp: 2017-03-05 10:56:39.812
LEye coords (130.0, 233.0), REye coords (0.0, 0.0), timeStamp: 2017-03-05 10:56:39.846
LEye coords (130.0, 233.0), REye coords (0.0, 0.0), timeStamp: 2017-03-05 10:56:39.879
LEye coords (130.0, 233.0), REye coords (0.0, 0.0), timeStamp: 2017-03-05 10:56:39.923
LEye coords (251.0, 192.0), REye coords (0.0, 0.0), timeStamp: 2017-03-05 10:56:39.957
LEye coords (255.0, 198.0), REye coords (170.0, 226.0), timeStamp: 2017-03-05 10:56:39.991
LEye coords (254.0, 200.0), REye coords (243.0, 212.0), timeStamp: 2017-03-05 10:56:40.024
LEye coords (254.0, 200.0), REye coords (241.0, 214.0), timeStamp: 2017-03-05 10:56:40.069
LEye coords (254.0, 200.0), REye coords (243.0, 213.0), timeStamp: 2017-03-05 10:56:40.103
LEye coords (0.0, 0.0), REye coords (0.0, 0.0), timeStamp: 2017-03-05 10:56:40.136
LEye coords (220.0, 205.0), REye coords (232.0, 211.0), timeStamp: 2017-03-05 10:56:40.179
LEye coords (159.0, 210.0), REye coords (209.0, 215.0), timeStamp: 2017-03-05 10:56:40.213
LEye coords (158.0, 211.0), REye coords (142.0, 221.0), timeStamp: 2017-03-05 10:56:40.247
LEye coords (158.0, 211.0), REye coords (143.0, 221.0), timeStamp: 2017-03-05 10:56:40.291
LEye coords (158.0, 212.0), REye coords (142.0, 222.0), timeStamp: 2017-03-05 10:56:40.325
LEye coords (155.0, 211.0), REye coords (143.0, 221.0), timeStamp: 2017-03-05 10:56:40.368
LEye coords (156.0, 215.0), REye coords (143.0, 223.0), timeStamp: 2017-03-05 10:56:40.401
LEye coords (157.0, 213.0), REye coords (143.0, 223.0), timeStamp: 2017-03-05 10:56:40.434
LEye coords (157.0, 213.0), REye coords (144.0, 223.0), timeStamp: 2017-03-05 10:56:40.478
LEye coords (156.0, 212.0), REye coords (143.0, 224.0), timeStamp: 2017-03-05 10:56:40.512
LEye coords (157.0, 211.0), REye coords (144.0, 224.0), timeStamp: 2017-03-05 10:56:40.545
LEye coords (157.0, 211.0), REye coords (143.0, 224.0), timeStamp: 2017-03-05 10:56:40.589
LEye coords (156.0, 212.0), REye coords (0.0, 0.0), timeStamp: 2017-03-05 10:56:40.623
LEye coords (155.0, 213.0), REye coords (0.0, 0.0), timeStamp: 2017-03-05 10:56:40.656
LEye coords (155.0, 214.0), REye coords (0.0, 0.0), timeStamp: 2017-03-05 10:56:40.699
LEye coords (154.0, 214.0), REye coords (0.0, 0.0), timeStamp: 2017-03-05 10:56:40.734
LEye coords (154.0, 215.0), REye coords (0.0, 0.0), timeStamp: 2017-03-05 10:56:40.768
