LEye coords (152.0, 192.0), REye coords (0.0, 0.0), timeStamp: 2017-03-05 10:56:40.914
LEye coords (151.0, 192.0), REye coords (0.0, 0.0), timeStamp: 2017-03-05 10:56:40.957
LEye coords (151.0, 193.0), REye coords (0.0, 0.0), timeStamp: 2017-03-05 10:56:40.991
LEye coords (150.0, 193.0), REye coords (0.0, 0.0), timeStamp: 2017-03-05 10:56:41.024
LEye coords (150.0, 193.0), REye coords (0.0, 0.0), timeStamp: 2017-03-05 10:56:41.068
LEye coords (149.0, 193.0), REye coords (0.0, 0.0), timeStamp: 2017-03-05 10:56:41.102
LEye coords (149.0, 194.0), REye coords (0.0, 0.0), timeStamp: 2017-03-05 10:56:41.135
LEye coords (211.0, 183.0), REye coords (211.0, 185.0), timeStamp: 2017-03-05 10:56:41.179
LEye coords (206.0, 182.0), REye coords (206.0, 185.0), timeStamp: 2017-03-05 10:56:41.213
LEye coords (218.0, 183.0), REye coords (218.0, 186.0), timeStamp: 2017-03-05 10:56:41.247
LEye coords (260.0, 182.0), REye coords (262.0, 186.0), timeStamp: 2017-03-05 10:56:41.291
LEye coords (282.0, 182.0), REye coords (283.0, 186.0), timeStamp: 2017-03-05 10:56:41.325
LEye coords (347.0, 184.0), REye coords (350.0, 184.0), timeStamp: 2017-03-05 10:56:41.359
LEye coords (344.0, 180.0), REye coords (349.0, 181.0), timeStamp: 2017-03-05 10:56:41.403
LEye coords (346.0, 180.0), REye coords (348.0, 183.0), timeStamp: 2017-03-05 10:56:41.437
LEye coords (347.0, 180.0), REye coords (347.0, 183.0), timeStamp: 2017-03-05 10:56:41.471
LEye coords (348.0, 181.0), REye coords (347.0, 184.0), timeStamp: 2017-03-05 10:56:41.515
LEye coords (350.0, 182.0), REye coords (347.0, 186.0), timeStamp: 2017-03-05 10:56:41.549
LEye coords (351.0, 182.0), REye coords (347.0, 187.0), timeStamp: 2017-03-05 10:56:41.583
LEye coords (352.0, 182.0), REye coords (347.0, 188.0), timeStamp: 2017-03-05 10:56:41.617
LEye coords (353.0, 182.0), REye coords (348.0, 188.0), timeStamp: 2017-03-05 10:56:41.660
LEye coords (401.0, 177.0), REye coords (392.0, 181.0), timeStamp: 2017-03-05 10:56:41.694
LEye coords (394.0, 179.0), REye coords (386.0, 178.0), timeStamp: 2017-03-05 10:56:41.728
LEye coords (396.0, 180.0), REye coords (385.0, 180.0), timeStamp: 2017-03-05 10:56:41.773
LEye coords (397.0, 178.0), REye coords (387.0, 180.0), timeStamp: 2017-03-05 10:56:41.807
LEye coords (398.0, 179.0), REye coords (386.0, 180.0), timeStamp: 2017-03-05 10:56:41.839
LEye coords (398.0, 180.0), REye coords (387.0, 179.0), timeStamp: 2017-03-05 10:56:41.883
LEye coords (399.0, 180.0), REye coords (388.0, 178.0), timeStamp: 2017-03-05 10:56:41.916
LEye coords (400.0, 180.0), REye coords (388.0, 178.0), timeStamp: 2017-03-05 10:56:41.951
LEye coords (400.0, 180.0), REye coords (388.0, 178.0), timeStamp: 2017-03-05 10:56:41.995
LEye coords (401.0, 180.0), REye coords (389.0, 178.0), timeStamp: 2017-03-05 10:56:42.029
LEye coords (401.0, 180.0), REye coords (389.0, 178.0), timeStamp: 2017-03-05 10:56:42.062
LEye coords (401.0, 180.0), REye coords (389.0, 179.0), timeStamp: 2017-03-05 10:56:42.106
LEye coords (402.0, 181.0), REye coords (390.0, 179.0), timeStamp: 2017-03-05 10:56:42.139
LEye coords (406.0, 182.0), REye coords (390.0, 179.0), timeStamp: 2017-03-05 10:56:42.172
LEye coords (407.0, 182.0), REye coords (390.0, 179.0), timeStamp: 2017-03-05 10:56:42.217
LEye coords (407.0, 181.0), REye coords (390.0, 179.0), timeStamp: 2017-03-05 10:56:42.250
