LEye coords (191.0, 93.0), REye coords (179.0, 78.0), timeStamp: 2017-03-05 10:56:44.248
LEye coords (191.0, 94.0), REye coords (179.0, 78.0), timeStamp: 2017-03-05 10:56:44.282
LEye coords (191.0, 95.0), REye coords (178.0, 78.0), timeStamp: 2017-03-05 10:56:44.326
LEye coords (192.0, 95.0), REye coords (178.0, 78.0), timeStamp: 2017-03-05 10:56:44.361
LEye coords (192.0, 95.0), REye coords (178.0, 78.0), timeStamp: 2017-03-05 10:56:44.394
LEye coords (192.0, 96.0), REye coords (178.0, 78.0), timeStamp: 2017-03-05 10:56:44.428
LEye coords (192.0, 96.0), REye coords (178.0, 78.0), timeStamp: 2017-03-05 10:56:44.472
LEye coords (217.0, 185.0), REye coords (210.0, 177.0), timeStamp: 2017-03-05 10:56:44.506
LEye coords (216.0, 183.0), REye coords (209.0, 178.0), timeStamp: 2017-03-05 10:56:44.539
LEye coords (217.0, 184.0), REye coords (210.0, 181.0), timeStamp: 2017-03-05 10:56:44.583
LEye coords (217.0, 185.0), REye coords (209.0, 181.0), timeStamp: 2017-03-05 10:56:44.615
LEye coords (243.0, 194.0), REye coords (232.0, 191.0), timeStamp: 2017-03-05 10:56:44.659
LEye coords (313.0, 224.0), REye coords (304.0, 235.0), timeStamp: 2017-03-05 10:56:44.692
LEye coords (314.0, 222.0), REye coords (301.0, 229.0), timeStamp: 2017-03-05 10:56:44.726
LEye coords (314.0, 224.0), REye coords (302.0, 232.0), timeStamp: 2017-03-05 10:56:44.770
LEye coords (313.0, 225.0), REye coords (301.0, 233.0), timeStamp: 2017-03-05 10:56:44.803
LEye coords (312.0, 225.0), REye coords (302.0, 233.0), timeStamp: 2017-03-05 10:56:44.837
LEye coords (312.0, 224.0), REye coords (303.0, 233.0), timeStamp: 2017-03-05 10:56:44.881
LEye coords (311.0, 224.0), REye coords (303.0, 233.0), timeStamp: 2017-03-05 10:56:44.915
LEye coords (311.0, 224.0), REye coords (302.0, 234.0), timeStamp: 2017-03-05 10:56:44.949
LEye coords (311.0, 224.0), REye coords (302.0, 235.0), timeStamp: 2017-03-05 10:56:44.993
LEye coords (311.0, 224.0), REye coords (302.0, 235.0), timeStamp: 2017-03-05 10:56:45.027
LEye coords (311.0, 225.0), REye coords (302.0, 234.0), timeStamp: 2017-03-05 10:56:45.060
LEye coords (311.0, 225.0), REye coords (302.0, 234.0), timeStamp: 2017-03-05 10:56:45.103
LEye coords (310.0, 224.0), REye coords (301.0, 233.0), timeStamp: 2017-03-05 10:56:45.137
LEye coords (311.0, 224.0), REye coords (302.0, 233.0), timeStamp: 2017-03-05 10:56:45.170
LEye coords (312.0, 224.0), REye coords (302.0, 233.0), timeStamp: 2017-03-05 10:56:45.216
LEye coords (312.0, 223.0), REye coords (302.0, 232.0), timeStamp: 2017-03-05 10:56:45.250
LEye coords (312.0, 223.0), REye coords (303.0, 232.0), timeStamp: 2017-03-05 10:56:45.285
LEye coords (313.0, 222.0), REye coords (303.0, 232.0), timeStamp: 2017-03-05 10:56:45.319
LEye coords (313.0, 222.0), REye coords (303.0, 231.0), timeStamp: 2017-03-05 10:56:45.364
