LEye coords (251.0, 73.0), REye coords (234.0, 75.0), timeStamp: 2017-03-05 10:56:48.136
LEye coords (251.0, 74.0), REye coords (234.0, 76.0), timeStamp: 2017-03-05 10:56:48.169
LEye coords (251.0, 74.0), REye coords (234.0, 76.0), timeStamp: 2017-03-05 10:56:48.212
LEye coords (252.0, 75.0), REye coords (234.0, 77.0), timeStamp: 2017-03-05 10:56:48.246
LEye coords (252.0, 75.0), REye coords (234.0, 78.0), timeStamp: 2017-03-05 10:56:48.280
LEye coords (252.0, 76.0), REye coords (234.0, 78.0), timeStamp: 2017-03-05 10:56:48.323
LEye coords (252.0, 76.0), REye coords (234.0, 79.0), timeStamp: 2017-03-05 10:56:48.358
LEye coords (252.0, 77.0), REye coords (234.0, 79.0), timeStamp: 2017-03-05 10:56:48.391
LEye coords (252.0, 79.0), REye coords (235.0, 81.0), timeStamp: 2017-03-05 10:56:48.435
LEye coords (240.0, 190.0), REye coords (228.0, 196.0), timeStamp: 2017-03-05 10:56:48.470
LEye coords (238.0, 186.0), REye coords (230.0, 198.0), timeStamp: 2017-03-05 10:56:48.504
LEye coords (237.0, 188.0), REye coords (230.0, 197.0), timeStamp: 2017-03-05 10:56:48.537
LEye coords (237.0, 188.0), REye coords (233.0, 197.0), timeStamp: 2017-03-05 10:56:48.582
LEye coords (248.0, 185.0), REye coords (242.0, 192.0), timeStamp: 2017-03-05 10:56:48.615
LEye coords (278.0, 178.0), REye coords (273.0, 175.0), timeStamp: 2017-03-05 10:56:48.648
LEye coords (279.0, 176.0), REye coords (272.0, 175.0), timeStamp: 2017-03-05 10:56:48.692
LEye coords (280.0, 177.0), REye coords (270.0, 177.0), timeStamp: 2017-03-05 10:56:48.725
LEye coords (279.0, 177.0), REye coords (271.0, 178.0), timeStamp: 2017-03-05 10:56:48.759
LEye coords (280.0, 176.0), REye coords (271.0, 179.0), timeStamp: 2017-03-05 10:56:48.802
LEye coords (280.0, 176.0), REye coords (270.0, 180.0), timeStamp: 2017-03-05 10:56:48.835
LEye coords (281.0, 175.0), REye coords (270.0, 181.0), timeStamp: 2017-03-05 10:56:48.879
LEye coords (281.0, 175.0), REye coords (270.0, 181.0), timeStamp: 2017-03-05 10:56:48.912
LEye coords (280.0, 175.0), REye coords (271.0, 182.0), timeStamp: 2017-03-05 10:56:48.946
LEye coords (224.0, 171.0), REye coords (214.0, 172.0), timeStamp: 2017-03-05 10:56:48.991
LEye coords (225.0, 164.0), REye coords (222.0, 160.0), timeStamp: 2017-03-05 10:56:49.024
LEye coords (226.0, 167.0), REye coords (223.0, 162.0), timeStamp: 2017-03-05 10:56:49.058
LEye coords (226.0, 168.0), REye coords (224.0, 162.0), timeStamp: 2017-03-05 10:56:49.102
LEye coords (226.0, 169.0), REye coords (223.0, 163.0), timeStamp: 2017-03-05 10:56:49.136
LEye coords (227.0, 168.0), REye coords (222.0, 164.0), timeStamp: 2017-03-05 10:56:49.169
LEye coords (227.0, 168.0), REye coords (219.0, 166.0), timeStamp: 2017-03-05 10:56:49.212
LEye coords (227.0, 168.0), REye coords (220.0, 168.0), timeStamp: 2017-03-05 10:56:49.245
LEye coords (227.0, 168.0), REye coords (220.0, 169.0), timeStamp: 2017-03-05 10:56:49.278
LEye coords (227.0, 168.0), REye coords (220.0, 169.0), timeStamp: 2017-03-05 10:56:49.322
LEye coords (228.0, 168.0), REye coords (220.0, 170.0), timeStamp: 2017-03-05 10:56:49.356
LEye coords (228.0, 169.0), REye coords (220.0, 170.0), timeStamp: 2017-03-05 10:56:49.390
LEye coords (227.0, 170.0), REye coords (220.0, 171.0), timeStamp: 2017-03-05 10:56:49.433
LEye coords (227.0, 170.0), REye coords (219.0, 171.0), timeStamp: 2017-03-05 10:56:49.466
LEye coords (227.0, 170.0), REye coords (220.0, 171.0), timeStamp: 2017-03-05 10:56:49.501
LEye coords (227.0, 171.0), REye coords (220.0, 171.0), timeStamp: 2017-03-05 10:56:49.545
LEye coords (227.0, 171.0), REye coords (221.0, 172.0), timeStamp: 2017-03-05 10:56:49.578
LEye coords (227.0, 171.0), REye coords (221.0, 173.0), timeStamp: 2017-03-05 10:56:49.612
LEye coords (227.0, 171.0), REye coords (220.0, 173.0), timeStamp: 2017-03-05 10:56:49.655
LEye coords (227.0, 171.0), REye coords (221.0, 173.0), timeStamp: 2017-03-05 10:56:49.689
LEye coords (227.0, 171.0), REye coords (221.0, 174.0), timeStamp: 2017-03-05 10:56:49.722
LEye coords (227.0, 170.0), REye coords (221.0, 174.0), timeStamp: 2017-03-05 10:56:49.766
