LEye coords (218.0, 239.0), REye coords (214.0, 238.0), timeStamp: 2017-03-05 11:00:03.736
LEye coords (219.0, 239.0), REye coords (215.0, 238.0), timeStamp: 2017-03-05 11:00:03.769
LEye coords (220.0, 239.0), REye coords (216.0, 237.0), timeStamp: 2017-03-05 11:00:03.813
LEye coords (221.0, 239.0), REye coords (217.0, 237.0), timeStamp: 2017-03-05 11:00:03.848
LEye coords (221.0, 239.0), REye coords (218.0, 237.0), timeStamp: 2017-03-05 11:00:03.882
LEye coords (222.0, 239.0), REye coords (218.0, 238.0), timeStamp: 2017-03-05 11:00:03.925
LEye coords (222.0, 239.0), REye coords (219.0, 238.0), timeStamp: 2017-03-05 11:00:03.960
LEye coords (261.0, 155.0), REye coords (256.0, 168.0), timeStamp: 2017-03-05 11:00:03.993
LEye coords (268.0, 159.0), REye coords (262.0, 153.0), timeStamp: 2017-03-05 11:00:04.037
LEye coords (267.0, 159.0), REye coords (263.0, 153.0), timeStamp: 2017-03-05 11:00:04.070
LEye coords (267.0, 158.0), REye coords (263.0, 154.0), timeStamp: 2017-03-05 11:00:04.105
LEye coords (267.0, 157.0), REye coords (263.0, 154.0), timeStamp: 2017-03-05 11:00:04.139
LEye coords (198.0, 167.0), REye coords (190.0, 170.0), timeStamp: 2017-03-05 11:00:04.183
LEye coords (182.0, 169.0), REye coords (168.0, 172.0), timeStamp: 2017-03-05 11:00:04.217
LEye coords (183.0, 171.0), REye coords (169.0, 173.0), timeStamp: 2017-03-05 11:00:04.250
LEye coords (183.0, 172.0), REye coords (169.0, 172.0), timeStamp: 2017-03-05 11:00:04.294
LEye coords (183.0, 173.0), REye coords (168.0, 173.0), timeStamp: 2017-03-05 11:00:04.328
LEye coords (182.0, 178.0), REye coords (169.0, 171.0), timeStamp: 2017-03-05 11:00:04.361
LEye coords (183.0, 172.0), REye coords (165.0, 171.0), timeStamp: 2017-03-05 11:00:04.405
LEye coords (183.0, 172.0), REye coords (166.0, 171.0), timeStamp: 2017-03-05 11:00:04.438
LEye coords (175.0, 175.0), REye coords (155.0, 174.0), timeStamp: 2017-03-05 11:00:04.472
LEye coords (171.0, 177.0), REye coords (149.0, 174.0), timeStamp: 2017-03-05 11:00:04.517
LEye coords (169.0, 178.0), REye coords (145.0, 174.0), timeStamp: 2017-03-05 11:00:04.551
LEye coords (167.0, 179.0), REye coords (143.0, 175.0), timeStamp: 2017-03-05 11:00:04.584
LEye coords (165.0, 179.0), REye coords (140.0, 174.0), timeStamp: 2017-03-05 11:00:04.627
LEye coords (164.0, 179.0), REye coords (139.0, 174.0), timeStamp: 2017-03-05 11:00:04.661
LEye coords (163.0, 178.0), REye coords (138.0, 175.0), timeStamp: 2017-03-05 11:00:04.694
LEye coords (162.0, 178.0), REye coords (137.0, 175.0), timeStamp: 2017-03-05 11:00:04.738
LEye coords (162.0, 178.0), REye coords (136.0, 174.0), timeStamp: 2017-03-05 11:00:04.772
LEye coords (161.0, 177.0), REye coords (135.0, 175.0), timeStamp: 2017-03-05 11:00:04.806
LEye coords (160.0, 177.0), REye coords (135.0, 175.0), timeStamp: 2017-03-05 11:00:04.850
LEye coords (160.0, 177.0), REye coords (134.0, 175.0), timeStamp: 2017-03-05 11:00:04.882
LEye coords (160.0, 177.0), REye coords (134.0, 175.0), timeStamp: 2017-03-05 11:00:04.917
LEye coords (160.0, 177.0), REye coords (133.0, 175.0), timeStamp: 2017-03-05 11:00:04.960
LEye coords (159.0, 177.0), REye coords (133.0, 175.0), timeStamp: 2017-03-05 11:00:04.993
LEye coords (159.0, 177.0), REye coords (133.0, 175.0), timeStamp: 2017-03-05 11:00:05.028
LEye coords (159.0, 177.0), REye coords (133.0, 175.0), timeStamp: 2017-03-05 11:00:05.072
LEye coords (159.0, 178.0), REye coords (133.0, 175.0), timeStamp: 2017-03-05 11:00:05.106
LEye coords (158.0, 178.0), REye coords (133.0, 175.0), timeStamp: 2017-03-05 11:00:05.139
LEye coords (158.0, 178.0), REye coords (133.0, 175.0), timeStamp: 2017-03-05 11:00:05.183
LEye coords (157.0, 178.0), REye coords (132.0, 175.0), timeStamp: 2017-03-05 11:00:05.217
LEye coords (157.0, 179.0), REye coords (131.0, 176.0), timeStamp: 2017-03-05 11:00:05.250
LEye coords (157.0, 179.0), REye coords (131.0, 175.0), timeStamp: 2017-03-05 11:00:05.293
LEye coords (156.0, 178.0), REye coords (132.0, 176.0), timeStamp: 2017-03-05 11:00:05.326
LEye coords (156.0, 178.0), REye coords (132.0, 175.0), timeStamp: 2017-03-05 11:00:05.360
LEye coords (156.0, 178.0), REye coords (132.0, 175.0), timeStamp: 2017-03-05 11:00:05.405
LEye coords (156.0, 177.0), REye coords (132.0, 175.0), timeStamp: 2017-03-05 11:00:05.438
LEye coords (156.0, 177.0), REye coords (132.0, 175.0), timeStamp: 2017-03-05 11:00:05.472
