LEye coords (257.0, 92.0), REye coords (262.0, 70.0), timeStamp: 2017-03-05 11:00:19.318
LEye coords (257.0, 92.0), REye coords (263.0, 70.0), timeStamp: 2017-03-05 11:00:19.351
LEye coords (258.0, 92.0), REye coords (263.0, 70.0), timeStamp: 2017-03-05 11:00:19.395
LEye coords (258.0, 91.0), REye coords (263.0, 69.0), timeStamp: 2017-03-05 11:00:19.429
LEye coords (259.0, 91.0), REye coords (264.0, 69.0), timeStamp: 2017-03-05 11:00:19.463
LEye coords (259.0, 91.0), REye coords (264.0, 69.0), timeStamp: 2017-03-05 11:00:19.507
LEye coords (0.0, 0.0), REye coords (264.0, 69.0), timeStamp: 2017-03-05 11:00:19.542
LEye coords (204.0, 166.0), REye coords (185.0, 161.0), timeStamp: 2017-03-05 11:00:19.575
LEye coords (196.0, 172.0), REye coords (184.0, 170.0), timeStamp: 2017-03-05 11:00:19.609
LEye coords (196.0, 172.0), REye coords (185.0, 169.0), timeStamp: 2017-03-05 11:00:19.653
LEye coords (196.0, 172.0), REye coords (186.0, 169.0), timeStamp: 2017-03-05 11:00:19.687
LEye coords (197.0, 172.0), REye coords (186.0, 169.0), timeStamp: 2017-03-05 11:00:19.720
LEye coords (196.0, 172.0), REye coords (183.0, 172.0), timeStamp: 2017-03-05 11:00:19.763
LEye coords (221.0, 174.0), REye coords (217.0, 172.0), timeStamp: 2017-03-05 11:00:19.796
LEye coords (259.0, 170.0), REye coords (257.0, 163.0), timeStamp: 2017-03-05 11:00:19.840
LEye coords (271.0, 169.0), REye coords (270.0, 161.0), timeStamp: 2017-03-05 11:00:19.873
LEye coords (278.0, 168.0), REye coords (278.0, 161.0), timeStamp: 2017-03-05 11:00:19.906
LEye coords (296.0, 168.0), REye coords (294.0, 163.0), timeStamp: 2017-03-05 11:00:19.951
LEye coords (295.0, 166.0), REye coords (298.0, 162.0), timeStamp: 2017-03-05 11:00:19.985
LEye coords (297.0, 167.0), REye coords (297.0, 161.0), timeStamp: 2017-03-05 11:00:20.019
LEye coords (297.0, 167.0), REye coords (296.0, 161.0), timeStamp: 2017-03-05 11:00:20.052
LEye coords (300.0, 170.0), REye coords (298.0, 164.0), timeStamp: 2017-03-05 11:00:20.096
LEye coords (302.0, 173.0), REye coords (300.0, 166.0), timeStamp: 2017-03-05 11:00:20.128
LEye coords (303.0, 174.0), REye coords (301.0, 167.0), timeStamp: 2017-03-05 11:00:20.172
