LEye coords (215.0, 203.0), REye coords (208.0, 206.0), timeStamp: 2017-03-05 11:01:02.729
LEye coords (215.0, 202.0), REye coords (208.0, 205.0), timeStamp: 2017-03-05 11:01:02.762
LEye coords (215.0, 203.0), REye coords (208.0, 206.0), timeStamp: 2017-03-05 11:01:02.806
LEye coords (215.0, 203.0), REye coords (208.0, 206.0), timeStamp: 2017-03-05 11:01:02.839
LEye coords (215.0, 203.0), REye coords (208.0, 206.0), timeStamp: 2017-03-05 11:01:02.884
LEye coords (215.0, 203.0), REye coords (208.0, 206.0), timeStamp: 2017-03-05 11:01:02.918
LEye coords (215.0, 204.0), REye coords (209.0, 206.0), timeStamp: 2017-03-05 11:01:02.951
LEye coords (215.0, 204.0), REye coords (209.0, 206.0), timeStamp: 2017-03-05 11:01:02.984
LEye coords (215.0, 204.0), REye coords (209.0, 207.0), timeStamp: 2017-03-05 11:01:03.029
LEye coords (215.0, 204.0), REye coords (209.0, 207.0), timeStamp: 2017-03-05 11:01:03.063
LEye coords (325.0, 149.0), REye coords (328.0, 143.0), timeStamp: 2017-03-05 11:01:03.097
LEye coords (323.0, 147.0), REye coords (321.0, 145.0), timeStamp: 2017-03-05 11:01:03.141
LEye coords (323.0, 147.0), REye coords (322.0, 146.0), timeStamp: 2017-03-05 11:01:03.175
LEye coords (323.0, 148.0), REye coords (323.0, 145.0), timeStamp: 2017-03-05 11:01:03.209
LEye coords (323.0, 149.0), REye coords (323.0, 145.0), timeStamp: 2017-03-05 11:01:03.253
LEye coords (325.0, 149.0), REye coords (323.0, 145.0), timeStamp: 2017-03-05 11:01:03.287
LEye coords (317.0, 152.0), REye coords (318.0, 147.0), timeStamp: 2017-03-05 11:01:03.320
LEye coords (306.0, 157.0), REye coords (305.0, 150.0), timeStamp: 2017-03-05 11:01:03.365
LEye coords (304.0, 159.0), REye coords (301.0, 152.0), timeStamp: 2017-03-05 11:01:03.398
LEye coords (302.0, 160.0), REye coords (300.0, 152.0), timeStamp: 2017-03-05 11:01:03.431
LEye coords (301.0, 160.0), REye coords (299.0, 152.0), timeStamp: 2017-03-05 11:01:03.475
LEye coords (300.0, 161.0), REye coords (298.0, 152.0), timeStamp: 2017-03-05 11:01:03.509
LEye coords (300.0, 161.0), REye coords (298.0, 152.0), timeStamp: 2017-03-05 11:01:03.542
LEye coords (300.0, 161.0), REye coords (298.0, 152.0), timeStamp: 2017-03-05 11:01:03.586
LEye coords (300.0, 161.0), REye coords (298.0, 152.0), timeStamp: 2017-03-05 11:01:03.620
LEye coords (300.0, 161.0), REye coords (297.0, 152.0), timeStamp: 2017-03-05 11:01:03.653
LEye coords (300.0, 161.0), REye coords (298.0, 152.0), timeStamp: 2017-03-05 11:01:03.698
