LEye coords (340.0, 216.0), REye coords (332.0, 229.0), timeStamp: 2017-03-05 11:01:15.167
LEye coords (339.0, 216.0), REye coords (332.0, 229.0), timeStamp: 2017-03-05 11:01:15.201
LEye coords (339.0, 216.0), REye coords (331.0, 229.0), timeStamp: 2017-03-05 11:01:15.245
LEye coords (339.0, 216.0), REye coords (331.0, 229.0), timeStamp: 2017-03-05 11:01:15.279
LEye coords (339.0, 216.0), REye coords (330.0, 228.0), timeStamp: 2017-03-05 11:01:15.312
LEye coords (339.0, 216.0), REye coords (330.0, 229.0), timeStamp: 2017-03-05 11:01:15.356
LEye coords (339.0, 217.0), REye coords (330.0, 228.0), timeStamp: 2017-03-05 11:01:15.390
LEye coords (339.0, 217.0), REye coords (329.0, 228.0), timeStamp: 2017-03-05 11:01:15.423
LEye coords (286.0, 189.0), REye coords (287.0, 198.0), timeStamp: 2017-03-05 11:01:15.467
LEye coords (284.0, 194.0), REye coords (287.0, 195.0), timeStamp: 2017-03-05 11:01:15.501
LEye coords (285.0, 193.0), REye coords (286.0, 195.0), timeStamp: 2017-03-05 11:01:15.534
LEye coords (286.0, 194.0), REye coords (287.0, 196.0), timeStamp: 2017-03-05 11:01:15.577
LEye coords (296.0, 197.0), REye coords (297.0, 197.0), timeStamp: 2017-03-05 11:01:15.610
LEye coords (392.0, 220.0), REye coords (386.0, 219.0), timeStamp: 2017-03-05 11:01:15.644
LEye coords (395.0, 220.0), REye coords (387.0, 223.0), timeStamp: 2017-03-05 11:01:15.688
LEye coords (394.0, 219.0), REye coords (388.0, 223.0), timeStamp: 2017-03-05 11:01:15.722
LEye coords (394.0, 218.0), REye coords (387.0, 222.0), timeStamp: 2017-03-05 11:01:15.755
LEye coords (392.0, 219.0), REye coords (387.0, 222.0), timeStamp: 2017-03-05 11:01:15.800
LEye coords (393.0, 219.0), REye coords (385.0, 224.0), timeStamp: 2017-03-05 11:01:15.834
LEye coords (390.0, 221.0), REye coords (388.0, 222.0), timeStamp: 2017-03-05 11:01:15.868
LEye coords (391.0, 222.0), REye coords (387.0, 222.0), timeStamp: 2017-03-05 11:01:15.912
LEye coords (392.0, 221.0), REye coords (387.0, 222.0), timeStamp: 2017-03-05 11:01:15.946
LEye coords (392.0, 221.0), REye coords (388.0, 224.0), timeStamp: 2017-03-05 11:01:15.978
LEye coords (392.0, 221.0), REye coords (388.0, 225.0), timeStamp: 2017-03-05 11:01:16.023
LEye coords (392.0, 221.0), REye coords (388.0, 225.0), timeStamp: 2017-03-05 11:01:16.056
LEye coords (392.0, 221.0), REye coords (387.0, 226.0), timeStamp: 2017-03-05 11:01:16.090
LEye coords (394.0, 223.0), REye coords (0.0, 0.0), timeStamp: 2017-03-05 11:01:16.133
LEye coords (395.0, 224.0), REye coords (0.0, 0.0), timeStamp: 2017-03-05 11:01:16.167
LEye coords (397.0, 225.0), REye coords (0.0, 0.0), timeStamp: 2017-03-05 11:01:16.199
LEye coords (398.0, 226.0), REye coords (0.0, 0.0), timeStamp: 2017-03-05 11:01:16.244
LEye coords (398.0, 227.0), REye coords (0.0, 0.0), timeStamp: 2017-03-05 11:01:16.277
