LEye coords (289.0, 305.0), REye coords (0.0, 0.0), timeStamp: 2017-03-05 11:01:16.387
LEye coords (290.0, 305.0), REye coords (0.0, 0.0), timeStamp: 2017-03-05 11:01:16.420
LEye coords (290.0, 306.0), REye coords (0.0, 0.0), timeStamp: 2017-03-05 11:01:16.464
LEye coords (291.0, 307.0), REye coords (0.0, 0.0), timeStamp: 2017-03-05 11:01:16.498
LEye coords (291.0, 308.0), REye coords (0.0, 0.0), timeStamp: 2017-03-05 11:01:16.531
LEye coords (292.0, 308.0), REye coords (0.0, 0.0), timeStamp: 2017-03-05 11:01:16.576
LEye coords (292.0, 309.0), REye coords (0.0, 0.0), timeStamp: 2017-03-05 11:01:16.611
LEye coords (210.0, 362.0), REye coords (203.0, 375.0), timeStamp: 2017-03-05 11:01:16.645
LEye coords (197.0, 400.0), REye coords (192.0, 400.0), timeStamp: 2017-03-05 11:01:16.679
LEye coords (198.0, 401.0), REye coords (192.0, 400.0), timeStamp: 2017-03-05 11:01:16.724
LEye coords (198.0, 399.0), REye coords (193.0, 400.0), timeStamp: 2017-03-05 11:01:16.757
LEye coords (197.0, 401.0), REye coords (193.0, 400.0), timeStamp: 2017-03-05 11:01:16.790
LEye coords (256.0, 443.0), REye coords (254.0, 443.0), timeStamp: 2017-03-05 11:01:16.834
LEye coords (253.0, 440.0), REye coords (251.0, 448.0), timeStamp: 2017-03-05 11:01:16.868
LEye coords (252.0, 442.0), REye coords (252.0, 447.0), timeStamp: 2017-03-05 11:01:16.901
LEye coords (0.0, 0.0), REye coords (252.0, 447.0), timeStamp: 2017-03-05 11:01:16.944
LEye coords (252.0, 441.0), REye coords (252.0, 446.0), timeStamp: 2017-03-05 11:01:16.977
LEye coords (251.0, 439.0), REye coords (253.0, 448.0), timeStamp: 2017-03-05 11:01:17.021
LEye coords (279.0, 428.0), REye coords (279.0, 430.0), timeStamp: 2017-03-05 11:01:17.055
LEye coords (283.0, 441.0), REye coords (280.0, 428.0), timeStamp: 2017-03-05 11:01:17.089
LEye coords (282.0, 436.0), REye coords (279.0, 430.0), timeStamp: 2017-03-05 11:01:17.132
LEye coords (282.0, 435.0), REye coords (278.0, 431.0), timeStamp: 2017-03-05 11:01:17.166
LEye coords (281.0, 432.0), REye coords (278.0, 432.0), timeStamp: 2017-03-05 11:01:17.199
LEye coords (280.0, 431.0), REye coords (278.0, 433.0), timeStamp: 2017-03-05 11:01:17.243
LEye coords (281.0, 430.0), REye coords (278.0, 432.0), timeStamp: 2017-03-05 11:01:17.276
LEye coords (281.0, 428.0), REye coords (278.0, 433.0), timeStamp: 2017-03-05 11:01:17.310
LEye coords (281.0, 427.0), REye coords (278.0, 432.0), timeStamp: 2017-03-05 11:01:17.354
LEye coords (281.0, 427.0), REye coords (278.0, 432.0), timeStamp: 2017-03-05 11:01:17.388
LEye coords (281.0, 426.0), REye coords (278.0, 433.0), timeStamp: 2017-03-05 11:01:17.422
LEye coords (281.0, 425.0), REye coords (278.0, 433.0), timeStamp: 2017-03-05 11:01:17.456
LEye coords (280.0, 425.0), REye coords (278.0, 433.0), timeStamp: 2017-03-05 11:01:17.499
LEye coords (280.0, 425.0), REye coords (278.0, 433.0), timeStamp: 2017-03-05 11:01:17.532
LEye coords (280.0, 425.0), REye coords (278.0, 432.0), timeStamp: 2017-03-05 11:01:17.575
LEye coords (280.0, 425.0), REye coords (277.0, 433.0), timeStamp: 2017-03-05 11:01:17.610
LEye coords (279.0, 426.0), REye coords (277.0, 433.0), timeStamp: 2017-03-05 11:01:17.644
LEye coords (279.0, 426.0), REye coords (277.0, 432.0), timeStamp: 2017-03-05 11:01:17.678
LEye coords (279.0, 427.0), REye coords (277.0, 432.0), timeStamp: 2017-03-05 11:01:17.722
