LEye coords (152.0, 180.0), REye coords (149.0, 160.0), timeStamp: 2017-03-05 11:01:22.267
LEye coords (201.0, 140.0), REye coords (207.0, 142.0), timeStamp: 2017-03-05 11:02:14.046
LEye coords (201.0, 139.0), REye coords (207.0, 139.0), timeStamp: 2017-03-05 11:02:14.090
LEye coords (200.0, 140.0), REye coords (207.0, 140.0), timeStamp: 2017-03-05 11:02:14.124
LEye coords (200.0, 140.0), REye coords (207.0, 140.0), timeStamp: 2017-03-05 11:02:14.158
LEye coords (200.0, 140.0), REye coords (206.0, 140.0), timeStamp: 2017-03-05 11:02:14.203
LEye coords (200.0, 139.0), REye coords (206.0, 140.0), timeStamp: 2017-03-05 11:02:14.237
LEye coords (200.0, 140.0), REye coords (205.0, 141.0), timeStamp: 2017-03-05 11:02:14.271
LEye coords (199.0, 139.0), REye coords (205.0, 141.0), timeStamp: 2017-03-05 11:02:14.304
LEye coords (199.0, 139.0), REye coords (204.0, 141.0), timeStamp: 2017-03-05 11:02:14.348
LEye coords (199.0, 139.0), REye coords (204.0, 142.0), timeStamp: 2017-03-05 11:02:14.382
LEye coords (199.0, 139.0), REye coords (204.0, 142.0), timeStamp: 2017-03-05 11:02:14.415
LEye coords (199.0, 138.0), REye coords (204.0, 141.0), timeStamp: 2017-03-05 11:02:14.460
LEye coords (177.0, 110.0), REye coords (178.0, 108.0), timeStamp: 2017-03-05 11:02:14.494
LEye coords (178.0, 111.0), REye coords (179.0, 108.0), timeStamp: 2017-03-05 11:02:14.529
LEye coords (177.0, 109.0), REye coords (178.0, 110.0), timeStamp: 2017-03-05 11:02:14.563
LEye coords (178.0, 110.0), REye coords (179.0, 109.0), timeStamp: 2017-03-05 11:02:14.606
LEye coords (180.0, 111.0), REye coords (181.0, 109.0), timeStamp: 2017-03-05 11:02:14.640
LEye coords (341.0, 98.0), REye coords (321.0, 95.0), timeStamp: 2017-03-05 11:02:14.674
LEye coords (336.0, 98.0), REye coords (325.0, 101.0), timeStamp: 2017-03-05 11:02:14.719
LEye coords (337.0, 98.0), REye coords (325.0, 101.0), timeStamp: 2017-03-05 11:02:14.753
LEye coords (336.0, 98.0), REye coords (324.0, 101.0), timeStamp: 2017-03-05 11:02:14.786
LEye coords (336.0, 99.0), REye coords (324.0, 101.0), timeStamp: 2017-03-05 11:02:14.829
LEye coords (334.0, 101.0), REye coords (324.0, 103.0), timeStamp: 2017-03-05 11:02:14.862
LEye coords (337.0, 102.0), REye coords (323.0, 104.0), timeStamp: 2017-03-05 11:02:14.906
LEye coords (336.0, 102.0), REye coords (322.0, 105.0), timeStamp: 2017-03-05 11:02:14.939
LEye coords (336.0, 103.0), REye coords (323.0, 105.0), timeStamp: 2017-03-05 11:02:14.972
LEye coords (336.0, 103.0), REye coords (323.0, 104.0), timeStamp: 2017-03-05 11:02:15.016
LEye coords (335.0, 104.0), REye coords (323.0, 104.0), timeStamp: 2017-03-05 11:02:15.050
LEye coords (335.0, 103.0), REye coords (324.0, 104.0), timeStamp: 2017-03-05 11:02:15.083
LEye coords (332.0, 104.0), REye coords (321.0, 104.0), timeStamp: 2017-03-05 11:02:15.126
LEye coords (329.0, 103.0), REye coords (320.0, 104.0), timeStamp: 2017-03-05 11:02:15.161
LEye coords (327.0, 104.0), REye coords (318.0, 104.0), timeStamp: 2017-03-05 11:02:15.194
LEye coords (325.0, 104.0), REye coords (317.0, 104.0), timeStamp: 2017-03-05 11:02:15.237
LEye coords (324.0, 104.0), REye coords (316.0, 104.0), timeStamp: 2017-03-05 11:02:15.272
LEye coords (322.0, 104.0), REye coords (315.0, 104.0), timeStamp: 2017-03-05 11:02:15.305
LEye coords (321.0, 104.0), REye coords (314.0, 104.0), timeStamp: 2017-03-05 11:02:15.350
LEye coords (320.0, 104.0), REye coords (313.0, 104.0), timeStamp: 2017-03-05 11:02:15.384
LEye coords (319.0, 104.0), REye coords (312.0, 104.0), timeStamp: 2017-03-05 11:02:15.416
LEye coords (318.0, 105.0), REye coords (311.0, 105.0), timeStamp: 2017-03-05 11:02:15.462
LEye coords (317.0, 105.0), REye coords (310.0, 105.0), timeStamp: 2017-03-05 11:02:15.496
LEye coords (316.0, 106.0), REye coords (310.0, 106.0), timeStamp: 2017-03-05 11:02:15.529
LEye coords (315.0, 106.0), REye coords (309.0, 106.0), timeStamp: 2017-03-05 11:02:15.564
