LEye coords (146.0, 158.0), REye coords (152.0, 146.0), timeStamp: 2017-03-05 11:02:22.010
LEye coords (146.0, 157.0), REye coords (152.0, 146.0), timeStamp: 2017-03-05 11:02:22.043
LEye coords (146.0, 157.0), REye coords (153.0, 146.0), timeStamp: 2017-03-05 11:02:22.077
LEye coords (147.0, 157.0), REye coords (153.0, 146.0), timeStamp: 2017-03-05 11:02:22.121
LEye coords (147.0, 157.0), REye coords (154.0, 147.0), timeStamp: 2017-03-05 11:02:22.155
LEye coords (148.0, 157.0), REye coords (154.0, 147.0), timeStamp: 2017-03-05 11:02:22.188
LEye coords (148.0, 157.0), REye coords (155.0, 147.0), timeStamp: 2017-03-05 11:02:22.233
LEye coords (148.0, 156.0), REye coords (155.0, 148.0), timeStamp: 2017-03-05 11:02:22.266
LEye coords (148.0, 156.0), REye coords (154.0, 148.0), timeStamp: 2017-03-05 11:02:22.299
LEye coords (148.0, 157.0), REye coords (154.0, 148.0), timeStamp: 2017-03-05 11:02:22.344
LEye coords (149.0, 157.0), REye coords (155.0, 149.0), timeStamp: 2017-03-05 11:02:22.378
LEye coords (231.0, 182.0), REye coords (238.0, 184.0), timeStamp: 2017-03-05 11:02:22.412
LEye coords (232.0, 183.0), REye coords (238.0, 180.0), timeStamp: 2017-03-05 11:02:22.446
LEye coords (231.0, 183.0), REye coords (237.0, 181.0), timeStamp: 2017-03-05 11:02:22.491
LEye coords (231.0, 182.0), REye coords (237.0, 181.0), timeStamp: 2017-03-05 11:02:22.524
LEye coords (230.0, 183.0), REye coords (237.0, 180.0), timeStamp: 2017-03-05 11:02:22.558
LEye coords (299.0, 149.0), REye coords (307.0, 156.0), timeStamp: 2017-03-05 11:02:22.602
LEye coords (386.0, 104.0), REye coords (391.0, 107.0), timeStamp: 2017-03-05 11:02:22.634
LEye coords (386.0, 108.0), REye coords (390.0, 106.0), timeStamp: 2017-03-05 11:02:22.677
LEye coords (386.0, 109.0), REye coords (390.0, 107.0), timeStamp: 2017-03-05 11:02:22.711
LEye coords (386.0, 109.0), REye coords (391.0, 107.0), timeStamp: 2017-03-05 11:02:22.744
LEye coords (387.0, 110.0), REye coords (0.0, 0.0), timeStamp: 2017-03-05 11:02:22.788
LEye coords (386.0, 109.0), REye coords (391.0, 107.0), timeStamp: 2017-03-05 11:02:22.822
LEye coords (388.0, 109.0), REye coords (389.0, 105.0), timeStamp: 2017-03-05 11:02:22.856
LEye coords (388.0, 107.0), REye coords (390.0, 105.0), timeStamp: 2017-03-05 11:02:22.899
LEye coords (388.0, 108.0), REye coords (390.0, 104.0), timeStamp: 2017-03-05 11:02:22.933
LEye coords (389.0, 109.0), REye coords (389.0, 105.0), timeStamp: 2017-03-05 11:02:22.967
LEye coords (389.0, 109.0), REye coords (388.0, 106.0), timeStamp: 2017-03-05 11:02:23.010
LEye coords (392.0, 111.0), REye coords (392.0, 109.0), timeStamp: 2017-03-05 11:02:23.044
LEye coords (395.0, 112.0), REye coords (395.0, 110.0), timeStamp: 2017-03-05 11:02:23.078
LEye coords (398.0, 113.0), REye coords (397.0, 111.0), timeStamp: 2017-03-05 11:02:23.122
LEye coords (400.0, 114.0), REye coords (398.0, 112.0), timeStamp: 2017-03-05 11:02:23.156
LEye coords (323.0, 112.0), REye coords (325.0, 117.0), timeStamp: 2017-03-05 11:02:23.189
LEye coords (325.0, 110.0), REye coords (327.0, 109.0), timeStamp: 2017-03-05 11:02:23.233
LEye coords (325.0, 111.0), REye coords (326.0, 110.0), timeStamp: 2017-03-05 11:02:23.268
LEye coords (325.0, 112.0), REye coords (326.0, 109.0), timeStamp: 2017-03-05 11:02:23.302
LEye coords (324.0, 111.0), REye coords (326.0, 109.0), timeStamp: 2017-03-05 11:02:23.335
LEye coords (322.0, 110.0), REye coords (325.0, 112.0), timeStamp: 2017-03-05 11:02:23.378
LEye coords (323.0, 109.0), REye coords (325.0, 111.0), timeStamp: 2017-03-05 11:02:23.411
LEye coords (322.0, 109.0), REye coords (326.0, 111.0), timeStamp: 2017-03-05 11:02:23.456
LEye coords (321.0, 110.0), REye coords (327.0, 111.0), timeStamp: 2017-03-05 11:02:23.488
LEye coords (320.0, 111.0), REye coords (328.0, 110.0), timeStamp: 2017-03-05 11:02:23.522
LEye coords (320.0, 112.0), REye coords (328.0, 109.0), timeStamp: 2017-03-05 11:02:23.566
LEye coords (319.0, 109.0), REye coords (0.0, 0.0), timeStamp: 2017-03-05 11:02:23.599
LEye coords (318.0, 108.0), REye coords (327.0, 107.0), timeStamp: 2017-03-05 11:02:23.633
LEye coords (317.0, 106.0), REye coords (327.0, 105.0), timeStamp: 2017-03-05 11:02:23.677
LEye coords (317.0, 105.0), REye coords (328.0, 103.0), timeStamp: 2017-03-05 11:02:23.710
LEye coords (317.0, 104.0), REye coords (328.0, 101.0), timeStamp: 2017-03-05 11:02:23.743
LEye coords (316.0, 103.0), REye coords (328.0, 101.0), timeStamp: 2017-03-05 11:02:23.787
LEye coords (316.0, 102.0), REye coords (328.0, 99.0), timeStamp: 2017-03-05 11:02:23.821
