LEye coords (237.0, 225.0), REye coords (229.0, 239.0), timeStamp: 2017-03-05 11:03:15.491
LEye coords (237.0, 225.0), REye coords (230.0, 238.0), timeStamp: 2017-03-05 11:03:15.524
LEye coords (237.0, 224.0), REye coords (230.0, 237.0), timeStamp: 2017-03-05 11:03:15.558
LEye coords (236.0, 225.0), REye coords (230.0, 236.0), timeStamp: 2017-03-05 11:03:15.601
LEye coords (236.0, 225.0), REye coords (231.0, 236.0), timeStamp: 2017-03-05 11:03:15.635
LEye coords (235.0, 224.0), REye coords (231.0, 236.0), timeStamp: 2017-03-05 11:03:15.669
LEye coords (235.0, 224.0), REye coords (232.0, 236.0), timeStamp: 2017-03-05 11:03:15.715
LEye coords (236.0, 221.0), REye coords (244.0, 186.0), timeStamp: 2017-03-05 11:03:15.748
LEye coords (248.0, 140.0), REye coords (247.0, 144.0), timeStamp: 2017-03-05 11:03:15.783
LEye coords (244.0, 140.0), REye coords (248.0, 145.0), timeStamp: 2017-03-05 11:03:15.816
LEye coords (243.0, 137.0), REye coords (248.0, 145.0), timeStamp: 2017-03-05 11:03:15.862
LEye coords (244.0, 139.0), REye coords (249.0, 144.0), timeStamp: 2017-03-05 11:03:15.895
LEye coords (244.0, 139.0), REye coords (249.0, 144.0), timeStamp: 2017-03-05 11:03:15.928
LEye coords (243.0, 145.0), REye coords (246.0, 143.0), timeStamp: 2017-03-05 11:03:15.972
LEye coords (253.0, 115.0), REye coords (254.0, 130.0), timeStamp: 2017-03-05 11:03:16.006
LEye coords (253.0, 111.0), REye coords (255.0, 124.0), timeStamp: 2017-03-05 11:03:16.040
LEye coords (254.0, 110.0), REye coords (255.0, 123.0), timeStamp: 2017-03-05 11:03:16.084
LEye coords (255.0, 109.0), REye coords (256.0, 120.0), timeStamp: 2017-03-05 11:03:16.118
LEye coords (255.0, 109.0), REye coords (256.0, 119.0), timeStamp: 2017-03-05 11:03:16.152
LEye coords (255.0, 109.0), REye coords (257.0, 117.0), timeStamp: 2017-03-05 11:03:16.195
LEye coords (256.0, 109.0), REye coords (257.0, 116.0), timeStamp: 2017-03-05 11:03:16.230
LEye coords (256.0, 108.0), REye coords (257.0, 116.0), timeStamp: 2017-03-05 11:03:16.263
LEye coords (259.0, 110.0), REye coords (259.0, 118.0), timeStamp: 2017-03-05 11:03:16.297
LEye coords (261.0, 112.0), REye coords (261.0, 120.0), timeStamp: 2017-03-05 11:03:16.341
LEye coords (263.0, 114.0), REye coords (262.0, 121.0), timeStamp: 2017-03-05 11:03:16.374
