LEye coords (336.0, 172.0), REye coords (339.0, 181.0), timeStamp: 2017-03-05 11:03:18.860
LEye coords (203.0, 269.0), REye coords (205.0, 282.0), timeStamp: 2017-03-05 11:03:18.894
LEye coords (204.0, 270.0), REye coords (205.0, 283.0), timeStamp: 2017-03-05 11:03:18.927
LEye coords (204.0, 270.0), REye coords (205.0, 283.0), timeStamp: 2017-03-05 11:03:18.962
LEye coords (205.0, 271.0), REye coords (206.0, 284.0), timeStamp: 2017-03-05 11:03:19.006
LEye coords (205.0, 271.0), REye coords (206.0, 285.0), timeStamp: 2017-03-05 11:03:19.039
LEye coords (205.0, 271.0), REye coords (206.0, 286.0), timeStamp: 2017-03-05 11:03:19.083
LEye coords (173.0, 271.0), REye coords (176.0, 297.0), timeStamp: 2017-03-05 11:03:19.116
LEye coords (172.0, 277.0), REye coords (178.0, 290.0), timeStamp: 2017-03-05 11:03:19.150
LEye coords (173.0, 274.0), REye coords (177.0, 296.0), timeStamp: 2017-03-05 11:03:19.194
LEye coords (172.0, 273.0), REye coords (176.0, 297.0), timeStamp: 2017-03-05 11:03:19.227
LEye coords (172.0, 274.0), REye coords (177.0, 297.0), timeStamp: 2017-03-05 11:03:19.260
LEye coords (149.0, 281.0), REye coords (152.0, 304.0), timeStamp: 2017-03-05 11:03:19.305
LEye coords (98.0, 299.0), REye coords (98.0, 330.0), timeStamp: 2017-03-05 11:03:19.338
LEye coords (98.0, 298.0), REye coords (98.0, 324.0), timeStamp: 2017-03-05 11:03:19.371
LEye coords (97.0, 298.0), REye coords (99.0, 323.0), timeStamp: 2017-03-05 11:03:19.414
LEye coords (97.0, 297.0), REye coords (99.0, 322.0), timeStamp: 2017-03-05 11:03:19.447
LEye coords (96.0, 295.0), REye coords (99.0, 315.0), timeStamp: 2017-03-05 11:03:19.480
LEye coords (96.0, 294.0), REye coords (98.0, 313.0), timeStamp: 2017-03-05 11:03:19.524
LEye coords (96.0, 295.0), REye coords (97.0, 319.0), timeStamp: 2017-03-05 11:03:19.558
LEye coords (97.0, 293.0), REye coords (97.0, 320.0), timeStamp: 2017-03-05 11:03:19.591
LEye coords (97.0, 293.0), REye coords (97.0, 319.0), timeStamp: 2017-03-05 11:03:19.636
LEye coords (101.0, 294.0), REye coords (100.0, 320.0), timeStamp: 2017-03-05 11:03:19.669
LEye coords (103.0, 294.0), REye coords (102.0, 320.0), timeStamp: 2017-03-05 11:03:19.703
LEye coords (105.0, 294.0), REye coords (104.0, 320.0), timeStamp: 2017-03-05 11:03:19.748
