LEye coords (176.0, 316.0), REye coords (157.0, 327.0), timeStamp: 2017-03-05 11:04:34.100
LEye coords (175.0, 315.0), REye coords (157.0, 327.0), timeStamp: 2017-03-05 11:04:34.134
LEye coords (176.0, 315.0), REye coords (157.0, 326.0), timeStamp: 2017-03-05 11:04:34.168
LEye coords (176.0, 315.0), REye coords (157.0, 326.0), timeStamp: 2017-03-05 11:04:34.213
LEye coords (176.0, 316.0), REye coords (157.0, 326.0), timeStamp: 2017-03-05 11:04:34.246
LEye coords (166.0, 215.0), REye coords (158.0, 206.0), timeStamp: 2017-03-05 11:04:34.279
LEye coords (166.0, 213.0), REye coords (160.0, 197.0), timeStamp: 2017-03-05 11:04:34.323
LEye coords (168.0, 216.0), REye coords (160.0, 197.0), timeStamp: 2017-03-05 11:04:34.356
LEye coords (168.0, 216.0), REye coords (160.0, 200.0), timeStamp: 2017-03-05 11:04:34.390
LEye coords (169.0, 218.0), REye coords (159.0, 200.0), timeStamp: 2017-03-05 11:04:34.434
LEye coords (171.0, 216.0), REye coords (160.0, 203.0), timeStamp: 2017-03-05 11:04:34.468
LEye coords (171.0, 220.0), REye coords (160.0, 205.0), timeStamp: 2017-03-05 11:04:34.501
LEye coords (153.0, 219.0), REye coords (142.0, 205.0), timeStamp: 2017-03-05 11:04:34.544
LEye coords (147.0, 221.0), REye coords (136.0, 204.0), timeStamp: 2017-03-05 11:04:34.577
LEye coords (144.0, 220.0), REye coords (133.0, 202.0), timeStamp: 2017-03-05 11:04:34.611
LEye coords (142.0, 220.0), REye coords (131.0, 203.0), timeStamp: 2017-03-05 11:04:34.655
LEye coords (141.0, 219.0), REye coords (130.0, 202.0), timeStamp: 2017-03-05 11:04:34.688
LEye coords (140.0, 220.0), REye coords (130.0, 203.0), timeStamp: 2017-03-05 11:04:34.722
LEye coords (143.0, 222.0), REye coords (132.0, 204.0), timeStamp: 2017-03-05 11:04:34.767
LEye coords (145.0, 224.0), REye coords (133.0, 206.0), timeStamp: 2017-03-05 11:04:34.801
LEye coords (146.0, 226.0), REye coords (135.0, 206.0), timeStamp: 2017-03-05 11:04:34.833
LEye coords (147.0, 226.0), REye coords (136.0, 208.0), timeStamp: 2017-03-05 11:04:34.878
LEye coords (149.0, 227.0), REye coords (137.0, 208.0), timeStamp: 2017-03-05 11:04:34.910
LEye coords (149.0, 227.0), REye coords (138.0, 208.0), timeStamp: 2017-03-05 11:04:34.944
LEye coords (150.0, 227.0), REye coords (138.0, 209.0), timeStamp: 2017-03-05 11:04:34.988
