LEye coords (203.0, 173.0), REye coords (188.0, 158.0), timeStamp: 2017-03-05 11:04:35.134
LEye coords (204.0, 173.0), REye coords (188.0, 158.0), timeStamp: 2017-03-05 11:04:35.167
LEye coords (205.0, 173.0), REye coords (189.0, 159.0), timeStamp: 2017-03-05 11:04:35.211
LEye coords (205.0, 174.0), REye coords (190.0, 159.0), timeStamp: 2017-03-05 11:04:35.245
LEye coords (206.0, 174.0), REye coords (190.0, 160.0), timeStamp: 2017-03-05 11:04:35.279
LEye coords (206.0, 175.0), REye coords (191.0, 160.0), timeStamp: 2017-03-05 11:04:35.322
LEye coords (207.0, 176.0), REye coords (192.0, 160.0), timeStamp: 2017-03-05 11:04:35.356
LEye coords (208.0, 176.0), REye coords (193.0, 161.0), timeStamp: 2017-03-05 11:04:35.390
LEye coords (306.0, 183.0), REye coords (289.0, 168.0), timeStamp: 2017-03-05 11:04:35.434
LEye coords (340.0, 176.0), REye coords (304.0, 180.0), timeStamp: 2017-03-05 11:04:35.468
LEye coords (339.0, 179.0), REye coords (311.0, 174.0), timeStamp: 2017-03-05 11:04:35.500
LEye coords (338.0, 180.0), REye coords (312.0, 171.0), timeStamp: 2017-03-05 11:04:35.544
LEye coords (337.0, 181.0), REye coords (313.0, 170.0), timeStamp: 2017-03-05 11:04:35.577
LEye coords (363.0, 208.0), REye coords (340.0, 196.0), timeStamp: 2017-03-05 11:04:35.620
LEye coords (360.0, 211.0), REye coords (345.0, 200.0), timeStamp: 2017-03-05 11:04:35.654
LEye coords (358.0, 212.0), REye coords (343.0, 200.0), timeStamp: 2017-03-05 11:04:35.687
LEye coords (357.0, 212.0), REye coords (344.0, 200.0), timeStamp: 2017-03-05 11:04:35.730
LEye coords (358.0, 213.0), REye coords (345.0, 200.0), timeStamp: 2017-03-05 11:04:35.764
LEye coords (358.0, 214.0), REye coords (346.0, 200.0), timeStamp: 2017-03-05 11:04:35.797
LEye coords (358.0, 213.0), REye coords (347.0, 199.0), timeStamp: 2017-03-05 11:04:35.840
LEye coords (357.0, 213.0), REye coords (347.0, 198.0), timeStamp: 2017-03-05 11:04:35.874
LEye coords (357.0, 214.0), REye coords (348.0, 198.0), timeStamp: 2017-03-05 11:04:35.908
LEye coords (357.0, 214.0), REye coords (348.0, 198.0), timeStamp: 2017-03-05 11:04:35.952
LEye coords (288.0, 190.0), REye coords (277.0, 173.0), timeStamp: 2017-03-05 11:04:35.985
LEye coords (179.0, 151.0), REye coords (173.0, 128.0), timeStamp: 2017-03-05 11:04:36.019
LEye coords (176.0, 150.0), REye coords (172.0, 130.0), timeStamp: 2017-03-05 11:04:36.063
LEye coords (175.0, 150.0), REye coords (173.0, 128.0), timeStamp: 2017-03-05 11:04:36.096
LEye coords (175.0, 150.0), REye coords (175.0, 126.0), timeStamp: 2017-03-05 11:04:36.130
LEye coords (176.0, 148.0), REye coords (178.0, 124.0), timeStamp: 2017-03-05 11:04:36.175
LEye coords (177.0, 154.0), REye coords (180.0, 126.0), timeStamp: 2017-03-05 11:04:36.209
LEye coords (177.0, 154.0), REye coords (179.0, 126.0), timeStamp: 2017-03-05 11:04:36.242
LEye coords (177.0, 153.0), REye coords (178.0, 126.0), timeStamp: 2017-03-05 11:04:36.285
LEye coords (181.0, 154.0), REye coords (181.0, 129.0), timeStamp: 2017-03-05 11:04:36.319
LEye coords (182.0, 155.0), REye coords (181.0, 130.0), timeStamp: 2017-03-05 11:04:36.353
LEye coords (183.0, 156.0), REye coords (182.0, 133.0), timeStamp: 2017-03-05 11:04:36.397
LEye coords (184.0, 156.0), REye coords (182.0, 134.0), timeStamp: 2017-03-05 11:04:36.432
LEye coords (185.0, 157.0), REye coords (182.0, 135.0), timeStamp: 2017-03-05 11:04:36.465
LEye coords (185.0, 157.0), REye coords (182.0, 136.0), timeStamp: 2017-03-05 11:04:36.508
LEye coords (186.0, 157.0), REye coords (182.0, 137.0), timeStamp: 2017-03-05 11:04:36.542
LEye coords (186.0, 157.0), REye coords (183.0, 137.0), timeStamp: 2017-03-05 11:04:36.576
LEye coords (186.0, 157.0), REye coords (183.0, 138.0), timeStamp: 2017-03-05 11:04:36.610
LEye coords (187.0, 157.0), REye coords (183.0, 138.0), timeStamp: 2017-03-05 11:04:36.655
LEye coords (187.0, 158.0), REye coords (183.0, 139.0), timeStamp: 2017-03-05 11:04:36.689
LEye coords (187.0, 158.0), REye coords (183.0, 139.0), timeStamp: 2017-03-05 11:04:36.724
LEye coords (188.0, 158.0), REye coords (183.0, 139.0), timeStamp: 2017-03-05 11:04:36.767
LEye coords (188.0, 158.0), REye coords (183.0, 140.0), timeStamp: 2017-03-05 11:04:36.801
LEye coords (188.0, 158.0), REye coords (183.0, 140.0), timeStamp: 2017-03-05 11:04:36.834
