LEye coords (188.0, 159.0), REye coords (183.0, 141.0), timeStamp: 2017-03-05 11:04:36.946
LEye coords (188.0, 159.0), REye coords (183.0, 141.0), timeStamp: 2017-03-05 11:04:36.990
LEye coords (188.0, 159.0), REye coords (183.0, 141.0), timeStamp: 2017-03-05 11:04:37.023
LEye coords (189.0, 159.0), REye coords (183.0, 142.0), timeStamp: 2017-03-05 11:04:37.057
LEye coords (189.0, 159.0), REye coords (183.0, 142.0), timeStamp: 2017-03-05 11:04:37.101
LEye coords (189.0, 159.0), REye coords (183.0, 142.0), timeStamp: 2017-03-05 11:04:37.134
LEye coords (189.0, 159.0), REye coords (183.0, 142.0), timeStamp: 2017-03-05 11:04:37.167
LEye coords (189.0, 159.0), REye coords (184.0, 142.0), timeStamp: 2017-03-05 11:04:37.211
LEye coords (190.0, 159.0), REye coords (184.0, 142.0), timeStamp: 2017-03-05 11:04:37.246
LEye coords (217.0, 204.0), REye coords (201.0, 191.0), timeStamp: 2017-03-05 11:04:37.279
LEye coords (226.0, 227.0), REye coords (210.0, 216.0), timeStamp: 2017-03-05 11:04:37.313
LEye coords (226.0, 227.0), REye coords (211.0, 216.0), timeStamp: 2017-03-05 11:04:37.357
LEye coords (226.0, 228.0), REye coords (211.0, 217.0), timeStamp: 2017-03-05 11:04:37.391
LEye coords (227.0, 229.0), REye coords (211.0, 218.0), timeStamp: 2017-03-05 11:04:37.425
LEye coords (221.0, 230.0), REye coords (209.0, 222.0), timeStamp: 2017-03-05 11:04:37.469
LEye coords (221.0, 229.0), REye coords (211.0, 221.0), timeStamp: 2017-03-05 11:04:37.503
LEye coords (223.0, 228.0), REye coords (210.0, 220.0), timeStamp: 2017-03-05 11:04:37.537
LEye coords (236.0, 231.0), REye coords (224.0, 219.0), timeStamp: 2017-03-05 11:04:37.581
LEye coords (243.0, 231.0), REye coords (229.0, 220.0), timeStamp: 2017-03-05 11:04:37.614
LEye coords (248.0, 232.0), REye coords (233.0, 221.0), timeStamp: 2017-03-05 11:04:37.648
LEye coords (252.0, 232.0), REye coords (236.0, 222.0), timeStamp: 2017-03-05 11:04:37.692
LEye coords (254.0, 233.0), REye coords (238.0, 223.0), timeStamp: 2017-03-05 11:04:37.725
LEye coords (256.0, 234.0), REye coords (240.0, 225.0), timeStamp: 2017-03-05 11:04:37.759
LEye coords (258.0, 233.0), REye coords (241.0, 226.0), timeStamp: 2017-03-05 11:04:37.803
LEye coords (260.0, 233.0), REye coords (242.0, 226.0), timeStamp: 2017-03-05 11:04:37.837
LEye coords (263.0, 234.0), REye coords (245.0, 228.0), timeStamp: 2017-03-05 11:04:37.870
