LEye coords (366.0, 140.0), REye coords (358.0, 135.0), timeStamp: 2017-03-05 11:05:48.374
LEye coords (362.0, 140.0), REye coords (356.0, 135.0), timeStamp: 2017-03-05 11:05:48.418
LEye coords (362.0, 140.0), REye coords (356.0, 136.0), timeStamp: 2017-03-05 11:05:48.452
LEye coords (365.0, 145.0), REye coords (352.0, 142.0), timeStamp: 2017-03-05 11:05:48.485
LEye coords (367.0, 142.0), REye coords (355.0, 140.0), timeStamp: 2017-03-05 11:05:48.529
LEye coords (367.0, 144.0), REye coords (353.0, 143.0), timeStamp: 2017-03-05 11:05:48.562
LEye coords (315.0, 174.0), REye coords (305.0, 175.0), timeStamp: 2017-03-05 11:05:48.605
LEye coords (288.0, 192.0), REye coords (280.0, 193.0), timeStamp: 2017-03-05 11:05:48.639
LEye coords (213.0, 236.0), REye coords (207.0, 251.0), timeStamp: 2017-03-05 11:05:48.673
LEye coords (214.0, 234.0), REye coords (205.0, 247.0), timeStamp: 2017-03-05 11:05:48.707
LEye coords (214.0, 235.0), REye coords (207.0, 241.0), timeStamp: 2017-03-05 11:05:48.751
LEye coords (214.0, 235.0), REye coords (207.0, 237.0), timeStamp: 2017-03-05 11:05:48.785
LEye coords (214.0, 236.0), REye coords (207.0, 237.0), timeStamp: 2017-03-05 11:05:48.818
LEye coords (214.0, 237.0), REye coords (207.0, 238.0), timeStamp: 2017-03-05 11:05:48.861
LEye coords (213.0, 238.0), REye coords (207.0, 238.0), timeStamp: 2017-03-05 11:05:48.895
LEye coords (138.0, 203.0), REye coords (131.0, 182.0), timeStamp: 2017-03-05 11:05:48.938
LEye coords (135.0, 198.0), REye coords (131.0, 183.0), timeStamp: 2017-03-05 11:05:48.971
LEye coords (134.0, 199.0), REye coords (130.0, 183.0), timeStamp: 2017-03-05 11:05:49.006
LEye coords (134.0, 200.0), REye coords (130.0, 183.0), timeStamp: 2017-03-05 11:05:49.040
LEye coords (132.0, 200.0), REye coords (129.0, 183.0), timeStamp: 2017-03-05 11:05:49.085
LEye coords (83.0, 198.0), REye coords (81.0, 182.0), timeStamp: 2017-03-05 11:05:49.118
LEye coords (84.0, 200.0), REye coords (82.0, 185.0), timeStamp: 2017-03-05 11:05:49.151
LEye coords (84.0, 200.0), REye coords (80.0, 189.0), timeStamp: 2017-03-05 11:05:49.195
LEye coords (84.0, 202.0), REye coords (81.0, 189.0), timeStamp: 2017-03-05 11:05:49.229
LEye coords (83.0, 203.0), REye coords (80.0, 188.0), timeStamp: 2017-03-05 11:05:49.262
LEye coords (83.0, 205.0), REye coords (81.0, 191.0), timeStamp: 2017-03-05 11:05:49.307
LEye coords (83.0, 207.0), REye coords (81.0, 187.0), timeStamp: 2017-03-05 11:05:49.340
LEye coords (82.0, 208.0), REye coords (80.0, 190.0), timeStamp: 2017-03-05 11:05:49.373
LEye coords (82.0, 209.0), REye coords (79.0, 191.0), timeStamp: 2017-03-05 11:05:49.417
