LEye coords (221.0, 206.0), REye coords (213.0, 192.0), timeStamp: 2017-03-05 11:05:51.780
LEye coords (221.0, 205.0), REye coords (213.0, 193.0), timeStamp: 2017-03-05 11:05:51.823
LEye coords (215.0, 195.0), REye coords (213.0, 193.0), timeStamp: 2017-03-05 11:05:51.856
LEye coords (219.0, 193.0), REye coords (213.0, 193.0), timeStamp: 2017-03-05 11:05:51.890
LEye coords (218.0, 192.0), REye coords (213.0, 193.0), timeStamp: 2017-03-05 11:05:51.935
LEye coords (218.0, 193.0), REye coords (214.0, 193.0), timeStamp: 2017-03-05 11:05:51.968
LEye coords (218.0, 192.0), REye coords (214.0, 193.0), timeStamp: 2017-03-05 11:05:52.001
LEye coords (218.0, 192.0), REye coords (214.0, 193.0), timeStamp: 2017-03-05 11:05:52.046
LEye coords (218.0, 193.0), REye coords (214.0, 193.0), timeStamp: 2017-03-05 11:05:52.081
LEye coords (218.0, 193.0), REye coords (215.0, 194.0), timeStamp: 2017-03-05 11:05:52.114
LEye coords (218.0, 193.0), REye coords (215.0, 193.0), timeStamp: 2017-03-05 11:05:52.159
LEye coords (218.0, 193.0), REye coords (215.0, 194.0), timeStamp: 2017-03-05 11:05:52.194
LEye coords (219.0, 192.0), REye coords (216.0, 193.0), timeStamp: 2017-03-05 11:05:52.228
LEye coords (220.0, 192.0), REye coords (217.0, 192.0), timeStamp: 2017-03-05 11:05:52.261
LEye coords (220.0, 192.0), REye coords (218.0, 192.0), timeStamp: 2017-03-05 11:05:52.306
LEye coords (221.0, 191.0), REye coords (219.0, 192.0), timeStamp: 2017-03-05 11:05:52.339
LEye coords (222.0, 191.0), REye coords (220.0, 192.0), timeStamp: 2017-03-05 11:05:52.373
LEye coords (222.0, 190.0), REye coords (220.0, 192.0), timeStamp: 2017-03-05 11:05:52.417
LEye coords (223.0, 190.0), REye coords (221.0, 191.0), timeStamp: 2017-03-05 11:05:52.451
LEye coords (223.0, 190.0), REye coords (222.0, 191.0), timeStamp: 2017-03-05 11:05:52.485
LEye coords (223.0, 190.0), REye coords (223.0, 191.0), timeStamp: 2017-03-05 11:05:52.518
LEye coords (224.0, 189.0), REye coords (224.0, 190.0), timeStamp: 2017-03-05 11:05:52.562
LEye coords (224.0, 189.0), REye coords (225.0, 190.0), timeStamp: 2017-03-05 11:05:52.595
