LEye coords (442.0, 280.0), REye coords (447.0, 266.0), timeStamp: 2017-03-05 11:06:31.982
LEye coords (444.0, 284.0), REye coords (443.0, 273.0), timeStamp: 2017-03-05 11:06:32.017
LEye coords (441.0, 279.0), REye coords (444.0, 272.0), timeStamp: 2017-03-05 11:06:32.050
LEye coords (439.0, 278.0), REye coords (445.0, 273.0), timeStamp: 2017-03-05 11:06:32.084
LEye coords (432.0, 271.0), REye coords (439.0, 266.0), timeStamp: 2017-03-05 11:06:32.128
LEye coords (400.0, 239.0), REye coords (299.0, 148.0), timeStamp: 2017-03-05 11:06:32.161
LEye coords (307.0, 155.0), REye coords (296.0, 143.0), timeStamp: 2017-03-05 11:06:32.195
LEye coords (304.0, 153.0), REye coords (299.0, 144.0), timeStamp: 2017-03-05 11:06:32.239
LEye coords (304.0, 154.0), REye coords (301.0, 143.0), timeStamp: 2017-03-05 11:06:32.272
LEye coords (306.0, 155.0), REye coords (302.0, 143.0), timeStamp: 2017-03-05 11:06:32.306
LEye coords (306.0, 156.0), REye coords (302.0, 141.0), timeStamp: 2017-03-05 11:06:32.350
LEye coords (252.0, 183.0), REye coords (248.0, 180.0), timeStamp: 2017-03-05 11:06:32.384
LEye coords (255.0, 188.0), REye coords (249.0, 180.0), timeStamp: 2017-03-05 11:06:32.418
LEye coords (254.0, 188.0), REye coords (251.0, 181.0), timeStamp: 2017-03-05 11:06:32.462
LEye coords (253.0, 187.0), REye coords (251.0, 182.0), timeStamp: 2017-03-05 11:06:32.495
LEye coords (253.0, 187.0), REye coords (253.0, 180.0), timeStamp: 2017-03-05 11:06:32.530
LEye coords (255.0, 189.0), REye coords (255.0, 181.0), timeStamp: 2017-03-05 11:06:32.574
LEye coords (250.0, 191.0), REye coords (254.0, 182.0), timeStamp: 2017-03-05 11:06:32.607
LEye coords (251.0, 189.0), REye coords (254.0, 183.0), timeStamp: 2017-03-05 11:06:32.642
LEye coords (252.0, 188.0), REye coords (254.0, 182.0), timeStamp: 2017-03-05 11:06:32.676
LEye coords (252.0, 189.0), REye coords (254.0, 184.0), timeStamp: 2017-03-05 11:06:32.719
LEye coords (252.0, 188.0), REye coords (254.0, 185.0), timeStamp: 2017-03-05 11:06:32.753
LEye coords (187.0, 186.0), REye coords (191.0, 196.0), timeStamp: 2017-03-05 11:06:32.787
LEye coords (132.0, 187.0), REye coords (138.0, 199.0), timeStamp: 2017-03-05 11:06:32.832
LEye coords (134.0, 190.0), REye coords (140.0, 199.0), timeStamp: 2017-03-05 11:06:32.865
LEye coords (136.0, 190.0), REye coords (141.0, 200.0), timeStamp: 2017-03-05 11:06:32.898
LEye coords (137.0, 191.0), REye coords (141.0, 201.0), timeStamp: 2017-03-05 11:06:32.942
LEye coords (139.0, 195.0), REye coords (143.0, 202.0), timeStamp: 2017-03-05 11:06:32.976
LEye coords (138.0, 191.0), REye coords (142.0, 204.0), timeStamp: 2017-03-05 11:06:33.009
LEye coords (139.0, 192.0), REye coords (141.0, 205.0), timeStamp: 2017-03-05 11:06:33.053
LEye coords (139.0, 193.0), REye coords (141.0, 205.0), timeStamp: 2017-03-05 11:06:33.087
LEye coords (139.0, 192.0), REye coords (141.0, 205.0), timeStamp: 2017-03-05 11:06:33.121
LEye coords (138.0, 192.0), REye coords (142.0, 205.0), timeStamp: 2017-03-05 11:06:33.166
LEye coords (141.0, 193.0), REye coords (144.0, 206.0), timeStamp: 2017-03-05 11:06:33.200
LEye coords (144.0, 194.0), REye coords (146.0, 207.0), timeStamp: 2017-03-05 11:06:33.233
LEye coords (145.0, 194.0), REye coords (148.0, 208.0), timeStamp: 2017-03-05 11:06:33.278
LEye coords (147.0, 194.0), REye coords (149.0, 209.0), timeStamp: 2017-03-05 11:06:33.311
