LEye coords (121.0, 195.0), REye coords (124.0, 200.0), timeStamp: 2017-03-05 11:06:39.417
LEye coords (121.0, 195.0), REye coords (124.0, 199.0), timeStamp: 2017-03-05 11:06:39.450
LEye coords (120.0, 196.0), REye coords (123.0, 199.0), timeStamp: 2017-03-05 11:06:39.494
LEye coords (120.0, 196.0), REye coords (123.0, 199.0), timeStamp: 2017-03-05 11:06:39.528
LEye coords (121.0, 197.0), REye coords (123.0, 200.0), timeStamp: 2017-03-05 11:06:39.561
LEye coords (121.0, 196.0), REye coords (122.0, 201.0), timeStamp: 2017-03-05 11:06:39.604
LEye coords (202.0, 189.0), REye coords (199.0, 190.0), timeStamp: 2017-03-05 11:06:39.638
LEye coords (208.0, 186.0), REye coords (205.0, 190.0), timeStamp: 2017-03-05 11:06:39.672
LEye coords (207.0, 187.0), REye coords (206.0, 191.0), timeStamp: 2017-03-05 11:06:39.717
LEye coords (207.0, 188.0), REye coords (206.0, 190.0), timeStamp: 2017-03-05 11:06:39.752
LEye coords (207.0, 188.0), REye coords (205.0, 190.0), timeStamp: 2017-03-05 11:06:39.786
LEye coords (171.0, 201.0), REye coords (171.0, 208.0), timeStamp: 2017-03-05 11:06:39.819
LEye coords (166.0, 199.0), REye coords (167.0, 205.0), timeStamp: 2017-03-05 11:06:39.863
LEye coords (168.0, 199.0), REye coords (167.0, 205.0), timeStamp: 2017-03-05 11:06:39.897
LEye coords (168.0, 200.0), REye coords (168.0, 205.0), timeStamp: 2017-03-05 11:06:39.930
LEye coords (167.0, 201.0), REye coords (168.0, 205.0), timeStamp: 2017-03-05 11:06:39.975
LEye coords (167.0, 201.0), REye coords (168.0, 205.0), timeStamp: 2017-03-05 11:06:40.009
LEye coords (168.0, 200.0), REye coords (168.0, 205.0), timeStamp: 2017-03-05 11:06:40.043
LEye coords (168.0, 200.0), REye coords (168.0, 205.0), timeStamp: 2017-03-05 11:06:40.086
LEye coords (168.0, 200.0), REye coords (168.0, 206.0), timeStamp: 2017-03-05 11:06:40.120
LEye coords (168.0, 199.0), REye coords (168.0, 206.0), timeStamp: 2017-03-05 11:06:40.153
LEye coords (168.0, 199.0), REye coords (168.0, 206.0), timeStamp: 2017-03-05 11:06:40.198
LEye coords (169.0, 198.0), REye coords (168.0, 206.0), timeStamp: 2017-03-05 11:06:40.231
LEye coords (169.0, 198.0), REye coords (168.0, 206.0), timeStamp: 2017-03-05 11:06:40.265
