LEye coords (261.0, 45.0), REye coords (223.0, 56.0), timeStamp: 2017-03-05 11:06:42.714
LEye coords (261.0, 45.0), REye coords (223.0, 55.0), timeStamp: 2017-03-05 11:06:42.747
LEye coords (260.0, 45.0), REye coords (223.0, 56.0), timeStamp: 2017-03-05 11:06:42.781
LEye coords (260.0, 45.0), REye coords (223.0, 55.0), timeStamp: 2017-03-05 11:06:42.825
LEye coords (260.0, 45.0), REye coords (224.0, 55.0), timeStamp: 2017-03-05 11:06:42.858
LEye coords (240.0, 128.0), REye coords (217.0, 120.0), timeStamp: 2017-03-05 11:06:42.892
LEye coords (234.0, 185.0), REye coords (229.0, 185.0), timeStamp: 2017-03-05 11:06:42.936
LEye coords (234.0, 184.0), REye coords (228.0, 188.0), timeStamp: 2017-03-05 11:06:42.970
LEye coords (234.0, 184.0), REye coords (227.0, 189.0), timeStamp: 2017-03-05 11:06:43.003
LEye coords (235.0, 183.0), REye coords (228.0, 187.0), timeStamp: 2017-03-05 11:06:43.048
LEye coords (245.0, 203.0), REye coords (240.0, 214.0), timeStamp: 2017-03-05 11:06:43.083
LEye coords (246.0, 215.0), REye coords (243.0, 229.0), timeStamp: 2017-03-05 11:06:43.115
LEye coords (245.0, 215.0), REye coords (243.0, 228.0), timeStamp: 2017-03-05 11:06:43.149
LEye coords (244.0, 215.0), REye coords (245.0, 226.0), timeStamp: 2017-03-05 11:06:43.193
LEye coords (245.0, 216.0), REye coords (246.0, 224.0), timeStamp: 2017-03-05 11:06:43.227
LEye coords (245.0, 215.0), REye coords (247.0, 223.0), timeStamp: 2017-03-05 11:06:43.261
LEye coords (244.0, 214.0), REye coords (248.0, 222.0), timeStamp: 2017-03-05 11:06:43.306
LEye coords (245.0, 214.0), REye coords (249.0, 221.0), timeStamp: 2017-03-05 11:06:43.340
LEye coords (247.0, 214.0), REye coords (252.0, 221.0), timeStamp: 2017-03-05 11:06:43.373
LEye coords (249.0, 214.0), REye coords (254.0, 220.0), timeStamp: 2017-03-05 11:06:43.417
LEye coords (251.0, 213.0), REye coords (256.0, 219.0), timeStamp: 2017-03-05 11:06:43.452
LEye coords (252.0, 213.0), REye coords (257.0, 219.0), timeStamp: 2017-03-05 11:06:43.485
LEye coords (253.0, 212.0), REye coords (258.0, 219.0), timeStamp: 2017-03-05 11:06:43.520
LEye coords (254.0, 212.0), REye coords (259.0, 219.0), timeStamp: 2017-03-05 11:06:43.563
