LEye coords (62.0, 209.0), REye coords (62.0, 241.0), timeStamp: 2017-03-05 11:06:44.894
LEye coords (61.0, 208.0), REye coords (61.0, 241.0), timeStamp: 2017-03-05 11:06:44.928
LEye coords (61.0, 208.0), REye coords (61.0, 242.0), timeStamp: 2017-03-05 11:06:44.973
LEye coords (61.0, 207.0), REye coords (60.0, 242.0), timeStamp: 2017-03-05 11:06:45.006
LEye coords (60.0, 207.0), REye coords (59.0, 242.0), timeStamp: 2017-03-05 11:06:45.040
LEye coords (61.0, 206.0), REye coords (60.0, 241.0), timeStamp: 2017-03-05 11:06:45.074
LEye coords (195.0, 136.0), REye coords (192.0, 147.0), timeStamp: 2017-03-05 11:06:45.117
LEye coords (199.0, 142.0), REye coords (192.0, 143.0), timeStamp: 2017-03-05 11:06:45.150
LEye coords (200.0, 143.0), REye coords (189.0, 147.0), timeStamp: 2017-03-05 11:06:45.194
LEye coords (215.0, 130.0), REye coords (206.0, 133.0), timeStamp: 2017-03-05 11:06:45.228
LEye coords (224.0, 122.0), REye coords (213.0, 126.0), timeStamp: 2017-03-05 11:06:45.262
LEye coords (248.0, 105.0), REye coords (233.0, 109.0), timeStamp: 2017-03-05 11:06:45.305
LEye coords (246.0, 104.0), REye coords (235.0, 111.0), timeStamp: 2017-03-05 11:06:45.338
LEye coords (250.0, 105.0), REye coords (233.0, 112.0), timeStamp: 2017-03-05 11:06:45.370
LEye coords (289.0, 112.0), REye coords (275.0, 120.0), timeStamp: 2017-03-05 11:06:45.415
LEye coords (309.0, 116.0), REye coords (295.0, 125.0), timeStamp: 2017-03-05 11:06:45.449
LEye coords (364.0, 128.0), REye coords (353.0, 138.0), timeStamp: 2017-03-05 11:06:45.482
LEye coords (367.0, 130.0), REye coords (355.0, 137.0), timeStamp: 2017-03-05 11:06:45.526
LEye coords (366.0, 133.0), REye coords (354.0, 139.0), timeStamp: 2017-03-05 11:06:45.560
LEye coords (365.0, 131.0), REye coords (354.0, 139.0), timeStamp: 2017-03-05 11:06:45.593
LEye coords (365.0, 131.0), REye coords (354.0, 138.0), timeStamp: 2017-03-05 11:06:45.637
LEye coords (364.0, 133.0), REye coords (352.0, 142.0), timeStamp: 2017-03-05 11:06:45.670
LEye coords (362.0, 136.0), REye coords (351.0, 144.0), timeStamp: 2017-03-05 11:06:45.704
