LEye coords (360.0, 141.0), REye coords (348.0, 147.0), timeStamp: 2017-03-05 11:06:45.815
LEye coords (270.0, 213.0), REye coords (261.0, 222.0), timeStamp: 2017-03-05 11:06:45.860
LEye coords (270.0, 215.0), REye coords (261.0, 223.0), timeStamp: 2017-03-05 11:06:45.894
LEye coords (269.0, 216.0), REye coords (261.0, 224.0), timeStamp: 2017-03-05 11:06:45.927
LEye coords (269.0, 217.0), REye coords (260.0, 224.0), timeStamp: 2017-03-05 11:06:45.971
LEye coords (269.0, 219.0), REye coords (260.0, 225.0), timeStamp: 2017-03-05 11:06:46.005
LEye coords (268.0, 220.0), REye coords (260.0, 225.0), timeStamp: 2017-03-05 11:06:46.038
LEye coords (194.0, 332.0), REye coords (191.0, 348.0), timeStamp: 2017-03-05 11:06:46.081
LEye coords (194.0, 338.0), REye coords (189.0, 355.0), timeStamp: 2017-03-05 11:06:46.115
LEye coords (194.0, 339.0), REye coords (188.0, 358.0), timeStamp: 2017-03-05 11:06:46.148
LEye coords (194.0, 341.0), REye coords (188.0, 358.0), timeStamp: 2017-03-05 11:06:46.192
LEye coords (194.0, 342.0), REye coords (189.0, 357.0), timeStamp: 2017-03-05 11:06:46.225
LEye coords (194.0, 341.0), REye coords (192.0, 350.0), timeStamp: 2017-03-05 11:06:46.258
LEye coords (188.0, 355.0), REye coords (187.0, 373.0), timeStamp: 2017-03-05 11:06:46.302
LEye coords (188.0, 352.0), REye coords (187.0, 372.0), timeStamp: 2017-03-05 11:06:46.336
LEye coords (188.0, 355.0), REye coords (188.0, 372.0), timeStamp: 2017-03-05 11:06:46.369
LEye coords (187.0, 355.0), REye coords (188.0, 370.0), timeStamp: 2017-03-05 11:06:46.414
LEye coords (187.0, 355.0), REye coords (188.0, 371.0), timeStamp: 2017-03-05 11:06:46.448
LEye coords (187.0, 355.0), REye coords (188.0, 371.0), timeStamp: 2017-03-05 11:06:46.482
LEye coords (187.0, 355.0), REye coords (189.0, 371.0), timeStamp: 2017-03-05 11:06:46.525
LEye coords (187.0, 354.0), REye coords (189.0, 370.0), timeStamp: 2017-03-05 11:06:46.559
LEye coords (187.0, 353.0), REye coords (189.0, 370.0), timeStamp: 2017-03-05 11:06:46.592
LEye coords (187.0, 353.0), REye coords (188.0, 370.0), timeStamp: 2017-03-05 11:06:46.636
LEye coords (186.0, 352.0), REye coords (188.0, 370.0), timeStamp: 2017-03-05 11:06:46.670
LEye coords (186.0, 352.0), REye coords (188.0, 369.0), timeStamp: 2017-03-05 11:06:46.705
LEye coords (186.0, 351.0), REye coords (188.0, 370.0), timeStamp: 2017-03-05 11:06:46.739
LEye coords (186.0, 350.0), REye coords (188.0, 370.0), timeStamp: 2017-03-05 11:06:46.784
LEye coords (186.0, 350.0), REye coords (188.0, 370.0), timeStamp: 2017-03-05 11:06:46.818
LEye coords (186.0, 349.0), REye coords (188.0, 370.0), timeStamp: 2017-03-05 11:06:46.851
