LEye coords (210.0, 159.0), REye coords (201.0, 160.0), timeStamp: 2017-03-05 11:07:22.716
LEye coords (207.0, 159.0), REye coords (198.0, 160.0), timeStamp: 2017-03-05 11:07:22.750
LEye coords (205.0, 160.0), REye coords (196.0, 160.0), timeStamp: 2017-03-05 11:07:22.794
LEye coords (203.0, 160.0), REye coords (194.0, 159.0), timeStamp: 2017-03-05 11:07:22.828
LEye coords (200.0, 160.0), REye coords (191.0, 160.0), timeStamp: 2017-03-05 11:07:22.862
LEye coords (199.0, 161.0), REye coords (189.0, 160.0), timeStamp: 2017-03-05 11:07:22.907
LEye coords (197.0, 161.0), REye coords (187.0, 160.0), timeStamp: 2017-03-05 11:07:22.941
LEye coords (195.0, 162.0), REye coords (186.0, 160.0), timeStamp: 2017-03-05 11:07:22.975
LEye coords (194.0, 162.0), REye coords (184.0, 161.0), timeStamp: 2017-03-05 11:07:23.019
LEye coords (194.0, 163.0), REye coords (185.0, 161.0), timeStamp: 2017-03-05 11:07:23.052
LEye coords (311.0, 193.0), REye coords (0.0, 0.0), timeStamp: 2017-03-05 11:07:23.086
LEye coords (313.0, 191.0), REye coords (0.0, 0.0), timeStamp: 2017-03-05 11:07:23.130
LEye coords (312.0, 193.0), REye coords (0.0, 0.0), timeStamp: 2017-03-05 11:07:23.164
LEye coords (312.0, 192.0), REye coords (0.0, 0.0), timeStamp: 2017-03-05 11:07:23.198
LEye coords (312.0, 192.0), REye coords (0.0, 0.0), timeStamp: 2017-03-05 11:07:23.232
LEye coords (315.0, 192.0), REye coords (0.0, 0.0), timeStamp: 2017-03-05 11:07:23.277
LEye coords (316.0, 193.0), REye coords (0.0, 0.0), timeStamp: 2017-03-05 11:07:23.310
LEye coords (317.0, 194.0), REye coords (0.0, 0.0), timeStamp: 2017-03-05 11:07:23.344
LEye coords (318.0, 195.0), REye coords (0.0, 0.0), timeStamp: 2017-03-05 11:07:23.387
LEye coords (318.0, 195.0), REye coords (319.0, 194.0), timeStamp: 2017-03-05 11:07:23.421
LEye coords (385.0, 220.0), REye coords (378.0, 216.0), timeStamp: 2017-03-05 11:07:23.455
LEye coords (382.0, 220.0), REye coords (378.0, 217.0), timeStamp: 2017-03-05 11:07:23.499
LEye coords (384.0, 220.0), REye coords (377.0, 218.0), timeStamp: 2017-03-05 11:07:23.532
