LEye coords (294.0, 198.0), REye coords (306.0, 200.0), timeStamp: 2017-02-23 17:44:08.920
LEye coords (293.0, 197.0), REye coords (304.0, 199.0), timeStamp: 2017-02-23 17:44:08.965
LEye coords (292.0, 196.0), REye coords (303.0, 198.0), timeStamp: 2017-02-23 17:44:08.998
LEye coords (290.0, 196.0), REye coords (301.0, 198.0), timeStamp: 2017-02-23 17:44:09.033
LEye coords (289.0, 195.0), REye coords (300.0, 198.0), timeStamp: 2017-02-23 17:44:09.076
LEye coords (288.0, 194.0), REye coords (299.0, 197.0), timeStamp: 2017-02-23 17:44:09.111
LEye coords (287.0, 194.0), REye coords (298.0, 197.0), timeStamp: 2017-02-23 17:44:09.146
LEye coords (286.0, 193.0), REye coords (297.0, 197.0), timeStamp: 2017-02-23 17:44:09.190
LEye coords (285.0, 193.0), REye coords (296.0, 197.0), timeStamp: 2017-02-23 17:44:09.223
LEye coords (284.0, 192.0), REye coords (295.0, 198.0), timeStamp: 2017-02-23 17:44:09.257
LEye coords (283.0, 192.0), REye coords (295.0, 198.0), timeStamp: 2017-02-23 17:44:09.292
LEye coords (283.0, 191.0), REye coords (0.0, 0.0), timeStamp: 2017-02-23 17:44:09.337
LEye coords (284.0, 191.0), REye coords (295.0, 197.0), timeStamp: 2017-02-23 17:44:09.371
LEye coords (284.0, 190.0), REye coords (296.0, 197.0), timeStamp: 2017-02-23 17:44:09.405
LEye coords (285.0, 189.0), REye coords (296.0, 197.0), timeStamp: 2017-02-23 17:44:09.449
LEye coords (286.0, 188.0), REye coords (297.0, 197.0), timeStamp: 2017-02-23 17:44:09.483
LEye coords (287.0, 188.0), REye coords (297.0, 196.0), timeStamp: 2017-02-23 17:44:09.516
LEye coords (287.0, 187.0), REye coords (298.0, 195.0), timeStamp: 2017-02-23 17:44:09.550
LEye coords (288.0, 186.0), REye coords (299.0, 194.0), timeStamp: 2017-02-23 17:44:09.593
LEye coords (289.0, 185.0), REye coords (300.0, 193.0), timeStamp: 2017-02-23 17:44:09.628
LEye coords (290.0, 184.0), REye coords (301.0, 192.0), timeStamp: 2017-02-23 17:44:09.662
LEye coords (291.0, 184.0), REye coords (302.0, 191.0), timeStamp: 2017-02-23 17:44:09.705
LEye coords (293.0, 183.0), REye coords (303.0, 190.0), timeStamp: 2017-02-23 17:44:09.739
LEye coords (294.0, 183.0), REye coords (304.0, 190.0), timeStamp: 2017-02-23 17:44:09.773
LEye coords (295.0, 182.0), REye coords (305.0, 189.0), timeStamp: 2017-02-23 17:44:09.817
LEye coords (296.0, 182.0), REye coords (306.0, 189.0), timeStamp: 2017-02-23 17:44:09.851
LEye coords (297.0, 181.0), REye coords (308.0, 188.0), timeStamp: 2017-02-23 17:44:09.886
LEye coords (299.0, 181.0), REye coords (309.0, 187.0), timeStamp: 2017-02-23 17:44:09.930
LEye coords (300.0, 181.0), REye coords (311.0, 186.0), timeStamp: 2017-02-23 17:44:09.963
LEye coords (301.0, 180.0), REye coords (312.0, 185.0), timeStamp: 2017-02-23 17:44:09.997
LEye coords (302.0, 180.0), REye coords (314.0, 184.0), timeStamp: 2017-02-23 17:44:10.031
LEye coords (303.0, 179.0), REye coords (315.0, 183.0), timeStamp: 2017-02-23 17:44:10.075
LEye coords (304.0, 179.0), REye coords (316.0, 181.0), timeStamp: 2017-02-23 17:44:10.109
