LEye coords (338.0, 135.0), REye coords (361.0, 146.0), timeStamp: 2017-02-23 17:44:12.921
LEye coords (338.0, 134.0), REye coords (362.0, 146.0), timeStamp: 2017-02-23 17:44:12.955
LEye coords (338.0, 134.0), REye coords (363.0, 145.0), timeStamp: 2017-02-23 17:44:13.001
LEye coords (338.0, 133.0), REye coords (363.0, 144.0), timeStamp: 2017-02-23 17:44:13.034
LEye coords (337.0, 132.0), REye coords (364.0, 144.0), timeStamp: 2017-02-23 17:44:13.067
LEye coords (337.0, 131.0), REye coords (365.0, 143.0), timeStamp: 2017-02-23 17:44:13.111
LEye coords (337.0, 131.0), REye coords (365.0, 143.0), timeStamp: 2017-02-23 17:44:13.146
LEye coords (337.0, 130.0), REye coords (365.0, 142.0), timeStamp: 2017-02-23 17:44:13.180
LEye coords (337.0, 129.0), REye coords (365.0, 142.0), timeStamp: 2017-02-23 17:44:13.223
LEye coords (336.0, 129.0), REye coords (366.0, 142.0), timeStamp: 2017-02-23 17:44:13.256
LEye coords (251.0, 154.0), REye coords (275.0, 152.0), timeStamp: 2017-02-23 17:44:13.290
LEye coords (249.0, 160.0), REye coords (276.0, 154.0), timeStamp: 2017-02-23 17:44:13.333
LEye coords (249.0, 159.0), REye coords (276.0, 156.0), timeStamp: 2017-02-23 17:44:13.366
LEye coords (250.0, 161.0), REye coords (276.0, 154.0), timeStamp: 2017-02-23 17:44:13.399
LEye coords (250.0, 160.0), REye coords (275.0, 154.0), timeStamp: 2017-02-23 17:44:13.443
LEye coords (248.0, 155.0), REye coords (276.0, 157.0), timeStamp: 2017-02-23 17:44:13.475
LEye coords (269.0, 205.0), REye coords (278.0, 211.0), timeStamp: 2017-02-23 17:44:13.519
LEye coords (269.0, 207.0), REye coords (279.0, 211.0), timeStamp: 2017-02-23 17:44:13.552
LEye coords (270.0, 207.0), REye coords (279.0, 212.0), timeStamp: 2017-02-23 17:44:13.586
LEye coords (269.0, 208.0), REye coords (279.0, 213.0), timeStamp: 2017-02-23 17:44:13.630
LEye coords (269.0, 209.0), REye coords (276.0, 222.0), timeStamp: 2017-02-23 17:44:13.664
LEye coords (269.0, 209.0), REye coords (278.0, 215.0), timeStamp: 2017-02-23 17:44:13.698
LEye coords (278.0, 212.0), REye coords (281.0, 214.0), timeStamp: 2017-02-23 17:44:13.742
LEye coords (274.0, 207.0), REye coords (281.0, 215.0), timeStamp: 2017-02-23 17:44:13.776
LEye coords (274.0, 210.0), REye coords (281.0, 217.0), timeStamp: 2017-02-23 17:44:13.809
LEye coords (274.0, 212.0), REye coords (281.0, 218.0), timeStamp: 2017-02-23 17:44:13.843
LEye coords (274.0, 212.0), REye coords (281.0, 219.0), timeStamp: 2017-02-23 17:44:13.887
LEye coords (274.0, 213.0), REye coords (282.0, 219.0), timeStamp: 2017-02-23 17:44:13.920
LEye coords (274.0, 214.0), REye coords (282.0, 219.0), timeStamp: 2017-02-23 17:44:13.964
LEye coords (274.0, 214.0), REye coords (282.0, 219.0), timeStamp: 2017-02-23 17:44:13.998
LEye coords (274.0, 214.0), REye coords (283.0, 219.0), timeStamp: 2017-02-23 17:44:14.032
LEye coords (274.0, 214.0), REye coords (283.0, 219.0), timeStamp: 2017-02-23 17:44:14.067
