LEye coords (210.0, 204.0), REye coords (232.0, 172.0), timeStamp: 2017-02-23 17:44:21.661
LEye coords (210.0, 202.0), REye coords (232.0, 173.0), timeStamp: 2017-02-23 17:44:21.695
LEye coords (210.0, 201.0), REye coords (232.0, 174.0), timeStamp: 2017-02-23 17:44:21.727
LEye coords (211.0, 200.0), REye coords (232.0, 176.0), timeStamp: 2017-02-23 17:44:21.771
LEye coords (211.0, 200.0), REye coords (232.0, 176.0), timeStamp: 2017-02-23 17:44:21.804
LEye coords (211.0, 199.0), REye coords (232.0, 178.0), timeStamp: 2017-02-23 17:44:21.838
LEye coords (212.0, 198.0), REye coords (232.0, 177.0), timeStamp: 2017-02-23 17:44:21.883
LEye coords (212.0, 198.0), REye coords (233.0, 177.0), timeStamp: 2017-02-23 17:44:21.917
LEye coords (212.0, 198.0), REye coords (233.0, 177.0), timeStamp: 2017-02-23 17:44:21.950
LEye coords (213.0, 198.0), REye coords (233.0, 178.0), timeStamp: 2017-02-23 17:44:21.994
LEye coords (213.0, 196.0), REye coords (234.0, 176.0), timeStamp: 2017-02-23 17:44:22.028
LEye coords (214.0, 193.0), REye coords (261.0, 124.0), timeStamp: 2017-02-23 17:44:22.063
LEye coords (215.0, 189.0), REye coords (258.0, 129.0), timeStamp: 2017-02-23 17:44:22.096
LEye coords (216.0, 187.0), REye coords (259.0, 129.0), timeStamp: 2017-02-23 17:44:22.140
LEye coords (217.0, 184.0), REye coords (259.0, 132.0), timeStamp: 2017-02-23 17:44:22.174
LEye coords (218.0, 181.0), REye coords (259.0, 132.0), timeStamp: 2017-02-23 17:44:22.217
LEye coords (219.0, 179.0), REye coords (261.0, 129.0), timeStamp: 2017-02-23 17:44:22.252
LEye coords (219.0, 176.0), REye coords (261.0, 130.0), timeStamp: 2017-02-23 17:44:22.285
LEye coords (220.0, 174.0), REye coords (261.0, 131.0), timeStamp: 2017-02-23 17:44:22.328
LEye coords (221.0, 171.0), REye coords (260.0, 130.0), timeStamp: 2017-02-23 17:44:22.361
LEye coords (221.0, 168.0), REye coords (260.0, 131.0), timeStamp: 2017-02-23 17:44:22.396
LEye coords (222.0, 166.0), REye coords (259.0, 132.0), timeStamp: 2017-02-23 17:44:22.440
LEye coords (222.0, 164.0), REye coords (259.0, 134.0), timeStamp: 2017-02-23 17:44:22.474
LEye coords (223.0, 162.0), REye coords (258.0, 135.0), timeStamp: 2017-02-23 17:44:22.508
LEye coords (223.0, 160.0), REye coords (258.0, 136.0), timeStamp: 2017-02-23 17:44:22.542
LEye coords (224.0, 159.0), REye coords (258.0, 136.0), timeStamp: 2017-02-23 17:44:22.585
LEye coords (224.0, 157.0), REye coords (257.0, 137.0), timeStamp: 2017-02-23 17:44:22.619
LEye coords (225.0, 156.0), REye coords (257.0, 137.0), timeStamp: 2017-02-23 17:44:22.653
LEye coords (225.0, 155.0), REye coords (257.0, 138.0), timeStamp: 2017-02-23 17:44:22.697
LEye coords (226.0, 154.0), REye coords (256.0, 139.0), timeStamp: 2017-02-23 17:44:22.730
LEye coords (226.0, 153.0), REye coords (256.0, 140.0), timeStamp: 2017-02-23 17:44:22.764
