LEye coords (166.0, 283.0), REye coords (173.0, 271.0), timeStamp: 2017-02-23 17:44:24.357
LEye coords (166.0, 283.0), REye coords (173.0, 274.0), timeStamp: 2017-02-23 17:44:24.392
LEye coords (167.0, 283.0), REye coords (173.0, 276.0), timeStamp: 2017-02-23 17:44:24.436
LEye coords (167.0, 284.0), REye coords (172.0, 278.0), timeStamp: 2017-02-23 17:44:24.470
LEye coords (167.0, 285.0), REye coords (172.0, 279.0), timeStamp: 2017-02-23 17:44:24.504
LEye coords (167.0, 285.0), REye coords (172.0, 280.0), timeStamp: 2017-02-23 17:44:24.549
LEye coords (167.0, 286.0), REye coords (171.0, 282.0), timeStamp: 2017-02-23 17:44:24.582
LEye coords (167.0, 287.0), REye coords (171.0, 284.0), timeStamp: 2017-02-23 17:44:24.616
LEye coords (167.0, 287.0), REye coords (171.0, 285.0), timeStamp: 2017-02-23 17:44:24.659
LEye coords (167.0, 287.0), REye coords (171.0, 285.0), timeStamp: 2017-02-23 17:44:24.692
LEye coords (166.0, 286.0), REye coords (170.0, 283.0), timeStamp: 2017-02-23 17:44:24.726
LEye coords (140.0, 264.0), REye coords (169.0, 281.0), timeStamp: 2017-02-23 17:44:24.769
LEye coords (139.0, 265.0), REye coords (168.0, 279.0), timeStamp: 2017-02-23 17:44:24.803
LEye coords (141.0, 263.0), REye coords (167.0, 277.0), timeStamp: 2017-02-23 17:44:24.837
LEye coords (141.0, 263.0), REye coords (165.0, 275.0), timeStamp: 2017-02-23 17:44:24.882
LEye coords (141.0, 263.0), REye coords (164.0, 273.0), timeStamp: 2017-02-23 17:44:24.915
LEye coords (141.0, 266.0), REye coords (163.0, 273.0), timeStamp: 2017-02-23 17:44:24.949
LEye coords (141.0, 270.0), REye coords (162.0, 272.0), timeStamp: 2017-02-23 17:44:24.983
LEye coords (141.0, 273.0), REye coords (161.0, 271.0), timeStamp: 2017-02-23 17:44:25.028
LEye coords (141.0, 276.0), REye coords (159.0, 271.0), timeStamp: 2017-02-23 17:44:25.062
LEye coords (142.0, 277.0), REye coords (158.0, 272.0), timeStamp: 2017-02-23 17:44:25.095
LEye coords (142.0, 279.0), REye coords (157.0, 272.0), timeStamp: 2017-02-23 17:44:25.139
LEye coords (142.0, 281.0), REye coords (156.0, 272.0), timeStamp: 2017-02-23 17:44:25.173
LEye coords (142.0, 282.0), REye coords (155.0, 273.0), timeStamp: 2017-02-23 17:44:25.206
LEye coords (142.0, 284.0), REye coords (153.0, 274.0), timeStamp: 2017-02-23 17:44:25.250
LEye coords (142.0, 285.0), REye coords (152.0, 274.0), timeStamp: 2017-02-23 17:44:25.284
LEye coords (141.0, 287.0), REye coords (151.0, 275.0), timeStamp: 2017-02-23 17:44:25.319
LEye coords (141.0, 288.0), REye coords (150.0, 276.0), timeStamp: 2017-02-23 17:44:25.363
LEye coords (141.0, 289.0), REye coords (148.0, 276.0), timeStamp: 2017-02-23 17:44:25.397
LEye coords (141.0, 290.0), REye coords (147.0, 277.0), timeStamp: 2017-02-23 17:44:25.431
LEye coords (140.0, 291.0), REye coords (146.0, 278.0), timeStamp: 2017-02-23 17:44:25.464
LEye coords (140.0, 292.0), REye coords (145.0, 279.0), timeStamp: 2017-02-23 17:44:25.510
LEye coords (140.0, 293.0), REye coords (144.0, 281.0), timeStamp: 2017-02-23 17:44:25.544
LEye coords (140.0, 294.0), REye coords (144.0, 283.0), timeStamp: 2017-02-23 17:44:25.577
LEye coords (140.0, 295.0), REye coords (143.0, 284.0), timeStamp: 2017-02-23 17:44:25.623
LEye coords (140.0, 296.0), REye coords (143.0, 286.0), timeStamp: 2017-02-23 17:44:25.656
