LEye coords (184.0, 141.0), REye coords (0.0, 0.0), timeStamp: 2017-02-23 17:46:34.456
LEye coords (184.0, 141.0), REye coords (0.0, 0.0), timeStamp: 2017-02-23 17:46:34.490
LEye coords (184.0, 140.0), REye coords (0.0, 0.0), timeStamp: 2017-02-23 17:46:34.524
LEye coords (184.0, 140.0), REye coords (0.0, 0.0), timeStamp: 2017-02-23 17:46:34.568
LEye coords (184.0, 140.0), REye coords (0.0, 0.0), timeStamp: 2017-02-23 17:46:34.602
LEye coords (184.0, 141.0), REye coords (0.0, 0.0), timeStamp: 2017-02-23 17:46:34.636
LEye coords (184.0, 141.0), REye coords (0.0, 0.0), timeStamp: 2017-02-23 17:46:34.670
LEye coords (184.0, 141.0), REye coords (0.0, 0.0), timeStamp: 2017-02-23 17:46:34.714
LEye coords (185.0, 142.0), REye coords (0.0, 0.0), timeStamp: 2017-02-23 17:46:34.748
LEye coords (185.0, 142.0), REye coords (0.0, 0.0), timeStamp: 2017-02-23 17:46:34.781
LEye coords (224.0, 159.0), REye coords (186.0, 138.0), timeStamp: 2017-02-23 17:46:34.825
LEye coords (243.0, 172.0), REye coords (238.0, 163.0), timeStamp: 2017-02-23 17:46:34.858
LEye coords (243.0, 172.0), REye coords (237.0, 160.0), timeStamp: 2017-02-23 17:46:34.892
LEye coords (242.0, 172.0), REye coords (237.0, 159.0), timeStamp: 2017-02-23 17:46:34.936
LEye coords (253.0, 169.0), REye coords (251.0, 162.0), timeStamp: 2017-02-23 17:46:34.970
LEye coords (282.0, 166.0), REye coords (260.0, 160.0), timeStamp: 2017-02-23 17:46:35.003
LEye coords (287.0, 165.0), REye coords (264.0, 161.0), timeStamp: 2017-02-23 17:46:35.047
LEye coords (286.0, 165.0), REye coords (281.0, 156.0), timeStamp: 2017-02-23 17:46:35.080
LEye coords (287.0, 164.0), REye coords (282.0, 160.0), timeStamp: 2017-02-23 17:46:35.124
LEye coords (287.0, 163.0), REye coords (281.0, 160.0), timeStamp: 2017-02-23 17:46:35.158
LEye coords (286.0, 163.0), REye coords (281.0, 161.0), timeStamp: 2017-02-23 17:46:35.192
LEye coords (287.0, 164.0), REye coords (282.0, 161.0), timeStamp: 2017-02-23 17:46:35.225
LEye coords (288.0, 165.0), REye coords (282.0, 161.0), timeStamp: 2017-02-23 17:46:35.269
LEye coords (288.0, 166.0), REye coords (282.0, 160.0), timeStamp: 2017-02-23 17:46:35.303
LEye coords (288.0, 166.0), REye coords (281.0, 162.0), timeStamp: 2017-02-23 17:46:35.337
LEye coords (288.0, 167.0), REye coords (281.0, 162.0), timeStamp: 2017-02-23 17:46:35.381
LEye coords (289.0, 167.0), REye coords (281.0, 163.0), timeStamp: 2017-02-23 17:46:35.415
LEye coords (289.0, 167.0), REye coords (281.0, 164.0), timeStamp: 2017-02-23 17:46:35.449
LEye coords (289.0, 168.0), REye coords (281.0, 164.0), timeStamp: 2017-02-23 17:46:35.494
LEye coords (289.0, 168.0), REye coords (280.0, 165.0), timeStamp: 2017-02-23 17:46:35.527
LEye coords (289.0, 169.0), REye coords (281.0, 165.0), timeStamp: 2017-02-23 17:46:35.561
LEye coords (289.0, 169.0), REye coords (281.0, 166.0), timeStamp: 2017-02-23 17:46:35.595
LEye coords (289.0, 170.0), REye coords (280.0, 167.0), timeStamp: 2017-02-23 17:46:35.639
LEye coords (289.0, 170.0), REye coords (280.0, 167.0), timeStamp: 2017-02-23 17:46:35.673
LEye coords (289.0, 170.0), REye coords (281.0, 167.0), timeStamp: 2017-02-23 17:46:35.708
LEye coords (290.0, 171.0), REye coords (281.0, 168.0), timeStamp: 2017-02-23 17:46:35.753
LEye coords (290.0, 171.0), REye coords (281.0, 168.0), timeStamp: 2017-02-23 17:46:35.786
