LEye coords (0.0, 0.0), REye coords (361.0, 339.0), timeStamp: 2017-02-23 17:49:16.269
LEye coords (0.0, 0.0), REye coords (361.0, 339.0), timeStamp: 2017-02-23 17:49:16.303
LEye coords (0.0, 0.0), REye coords (361.0, 339.0), timeStamp: 2017-02-23 17:49:16.338
LEye coords (352.0, 341.0), REye coords (360.0, 338.0), timeStamp: 2017-02-23 17:49:16.372
LEye coords (278.0, 198.0), REye coords (278.0, 200.0), timeStamp: 2017-02-23 17:49:16.415
LEye coords (278.0, 201.0), REye coords (278.0, 199.0), timeStamp: 2017-02-23 17:49:16.449
LEye coords (281.0, 202.0), REye coords (281.0, 186.0), timeStamp: 2017-02-23 17:49:16.482
LEye coords (281.0, 202.0), REye coords (283.0, 179.0), timeStamp: 2017-02-23 17:49:16.527
LEye coords (280.0, 203.0), REye coords (282.0, 185.0), timeStamp: 2017-02-23 17:49:16.560
LEye coords (280.0, 204.0), REye coords (280.0, 192.0), timeStamp: 2017-02-23 17:49:16.595
LEye coords (164.0, 183.0), REye coords (165.0, 155.0), timeStamp: 2017-02-23 17:49:16.638
LEye coords (143.0, 179.0), REye coords (147.0, 163.0), timeStamp: 2017-02-23 17:49:16.672
LEye coords (137.0, 179.0), REye coords (143.0, 164.0), timeStamp: 2017-02-23 17:49:16.706
LEye coords (135.0, 180.0), REye coords (140.0, 165.0), timeStamp: 2017-02-23 17:49:16.751
LEye coords (124.0, 176.0), REye coords (129.0, 165.0), timeStamp: 2017-02-23 17:49:16.784
LEye coords (126.0, 182.0), REye coords (128.0, 170.0), timeStamp: 2017-02-23 17:49:16.817
LEye coords (126.0, 179.0), REye coords (129.0, 169.0), timeStamp: 2017-02-23 17:49:16.861
LEye coords (143.0, 189.0), REye coords (143.0, 179.0), timeStamp: 2017-02-23 17:49:16.895
LEye coords (150.0, 192.0), REye coords (151.0, 183.0), timeStamp: 2017-02-23 17:49:16.929
LEye coords (158.0, 194.0), REye coords (156.0, 187.0), timeStamp: 2017-02-23 17:49:16.973
LEye coords (161.0, 196.0), REye coords (160.0, 189.0), timeStamp: 2017-02-23 17:49:17.007
LEye coords (163.0, 198.0), REye coords (162.0, 190.0), timeStamp: 2017-02-23 17:49:17.040
LEye coords (165.0, 199.0), REye coords (163.0, 192.0), timeStamp: 2017-02-23 17:49:17.073
LEye coords (174.0, 203.0), REye coords (165.0, 192.0), timeStamp: 2017-02-23 17:49:17.118
LEye coords (177.0, 205.0), REye coords (166.0, 193.0), timeStamp: 2017-02-23 17:49:17.153
LEye coords (177.0, 206.0), REye coords (167.0, 194.0), timeStamp: 2017-02-23 17:49:17.186
LEye coords (178.0, 206.0), REye coords (179.0, 198.0), timeStamp: 2017-02-23 17:49:17.231
LEye coords (178.0, 206.0), REye coords (174.0, 203.0), timeStamp: 2017-02-23 17:49:17.264
LEye coords (179.0, 206.0), REye coords (174.0, 201.0), timeStamp: 2017-02-23 17:49:17.299
LEye coords (179.0, 206.0), REye coords (175.0, 201.0), timeStamp: 2017-02-23 17:49:17.342
LEye coords (179.0, 207.0), REye coords (177.0, 202.0), timeStamp: 2017-02-23 17:49:17.376
LEye coords (179.0, 206.0), REye coords (177.0, 200.0), timeStamp: 2017-02-23 17:49:17.410
LEye coords (177.0, 204.0), REye coords (175.0, 196.0), timeStamp: 2017-02-23 17:49:17.453
LEye coords (175.0, 202.0), REye coords (175.0, 193.0), timeStamp: 2017-02-23 17:49:17.486
LEye coords (174.0, 202.0), REye coords (174.0, 190.0), timeStamp: 2017-02-23 17:49:17.520
