LEye coords (147.0, 137.0), REye coords (142.0, 116.0), timeStamp: 2017-02-23 17:50:44.497
LEye coords (147.0, 137.0), REye coords (142.0, 116.0), timeStamp: 2017-02-23 17:50:44.541
LEye coords (148.0, 138.0), REye coords (142.0, 117.0), timeStamp: 2017-02-23 17:50:44.573
LEye coords (148.0, 138.0), REye coords (142.0, 117.0), timeStamp: 2017-02-23 17:50:44.607
LEye coords (148.0, 138.0), REye coords (142.0, 118.0), timeStamp: 2017-02-23 17:50:44.651
LEye coords (148.0, 139.0), REye coords (142.0, 118.0), timeStamp: 2017-02-23 17:50:44.684
LEye coords (215.0, 182.0), REye coords (205.0, 168.0), timeStamp: 2017-02-23 17:50:44.718
LEye coords (219.0, 187.0), REye coords (215.0, 181.0), timeStamp: 2017-02-23 17:50:44.761
LEye coords (218.0, 189.0), REye coords (215.0, 182.0), timeStamp: 2017-02-23 17:50:44.796
LEye coords (219.0, 189.0), REye coords (215.0, 180.0), timeStamp: 2017-02-23 17:50:44.829
LEye coords (218.0, 189.0), REye coords (216.0, 180.0), timeStamp: 2017-02-23 17:50:44.873
LEye coords (216.0, 192.0), REye coords (219.0, 176.0), timeStamp: 2017-02-23 17:50:44.907
LEye coords (214.0, 191.0), REye coords (214.0, 178.0), timeStamp: 2017-02-23 17:50:44.941
LEye coords (216.0, 189.0), REye coords (215.0, 177.0), timeStamp: 2017-02-23 17:50:44.985
LEye coords (227.0, 183.0), REye coords (228.0, 169.0), timeStamp: 2017-02-23 17:50:45.019
LEye coords (232.0, 179.0), REye coords (234.0, 166.0), timeStamp: 2017-02-23 17:50:45.052
LEye coords (236.0, 178.0), REye coords (238.0, 165.0), timeStamp: 2017-02-23 17:50:45.086
LEye coords (238.0, 176.0), REye coords (240.0, 163.0), timeStamp: 2017-02-23 17:50:45.130
LEye coords (149.0, 192.0), REye coords (145.0, 153.0), timeStamp: 2017-02-23 17:50:45.163
LEye coords (56.0, 246.0), REye coords (42.0, 232.0), timeStamp: 2017-02-23 17:50:45.207
LEye coords (55.0, 245.0), REye coords (43.0, 230.0), timeStamp: 2017-02-23 17:50:45.240
LEye coords (56.0, 244.0), REye coords (44.0, 231.0), timeStamp: 2017-02-23 17:50:45.274
LEye coords (55.0, 245.0), REye coords (45.0, 232.0), timeStamp: 2017-02-23 17:50:45.308
LEye coords (56.0, 242.0), REye coords (48.0, 241.0), timeStamp: 2017-02-23 17:50:45.351
LEye coords (54.0, 244.0), REye coords (51.0, 238.0), timeStamp: 2017-02-23 17:50:45.385
LEye coords (56.0, 245.0), REye coords (50.0, 239.0), timeStamp: 2017-02-23 17:50:45.419
LEye coords (48.0, 238.0), REye coords (42.0, 232.0), timeStamp: 2017-02-23 17:50:45.463
LEye coords (44.0, 236.0), REye coords (38.0, 230.0), timeStamp: 2017-02-23 17:50:45.497
LEye coords (41.0, 234.0), REye coords (35.0, 229.0), timeStamp: 2017-02-23 17:50:45.531
LEye coords (42.0, 232.0), REye coords (33.0, 227.0), timeStamp: 2017-02-23 17:50:45.575
LEye coords (40.0, 231.0), REye coords (32.0, 227.0), timeStamp: 2017-02-23 17:50:45.609
LEye coords (39.0, 231.0), REye coords (31.0, 226.0), timeStamp: 2017-02-23 17:50:45.642
LEye coords (38.0, 231.0), REye coords (31.0, 226.0), timeStamp: 2017-02-23 17:50:45.685
LEye coords (37.0, 230.0), REye coords (30.0, 226.0), timeStamp: 2017-02-23 17:50:45.718
LEye coords (37.0, 230.0), REye coords (30.0, 226.0), timeStamp: 2017-02-23 17:50:45.762
LEye coords (36.0, 230.0), REye coords (30.0, 226.0), timeStamp: 2017-02-23 17:50:45.796
LEye coords (36.0, 231.0), REye coords (30.0, 226.0), timeStamp: 2017-02-23 17:50:45.830
LEye coords (36.0, 231.0), REye coords (30.0, 227.0), timeStamp: 2017-02-23 17:50:45.864
LEye coords (35.0, 231.0), REye coords (30.0, 227.0), timeStamp: 2017-02-23 17:50:45.908
LEye coords (35.0, 232.0), REye coords (29.0, 227.0), timeStamp: 2017-02-23 17:50:45.943
LEye coords (35.0, 232.0), REye coords (29.0, 227.0), timeStamp: 2017-02-23 17:50:45.977
LEye coords (35.0, 232.0), REye coords (29.0, 228.0), timeStamp: 2017-02-23 17:50:46.011
LEye coords (35.0, 232.0), REye coords (29.0, 228.0), timeStamp: 2017-02-23 17:50:46.054
LEye coords (35.0, 233.0), REye coords (29.0, 228.0), timeStamp: 2017-02-23 17:50:46.088
LEye coords (35.0, 233.0), REye coords (29.0, 229.0), timeStamp: 2017-02-23 17:50:46.122
LEye coords (36.0, 234.0), REye coords (29.0, 229.0), timeStamp: 2017-02-23 17:50:46.166
LEye coords (36.0, 234.0), REye coords (28.0, 229.0), timeStamp: 2017-02-23 17:50:46.198
LEye coords (35.0, 234.0), REye coords (28.0, 230.0), timeStamp: 2017-02-23 17:50:46.233
LEye coords (36.0, 235.0), REye coords (28.0, 230.0), timeStamp: 2017-02-23 17:50:46.278
