LEye coords (36.0, 236.0), REye coords (29.0, 232.0), timeStamp: 2017-02-23 17:50:46.387
LEye coords (36.0, 197.0), REye coords (29.0, 193.0), timeStamp: 2017-02-23 17:50:46.421
LEye coords (151.0, 185.0), REye coords (151.0, 176.0), timeStamp: 2017-02-23 17:50:46.464
LEye coords (196.0, 179.0), REye coords (202.0, 172.0), timeStamp: 2017-02-23 17:50:46.497
LEye coords (196.0, 179.0), REye coords (201.0, 172.0), timeStamp: 2017-02-23 17:50:46.532
LEye coords (197.0, 179.0), REye coords (202.0, 173.0), timeStamp: 2017-02-23 17:50:46.566
LEye coords (197.0, 179.0), REye coords (201.0, 174.0), timeStamp: 2017-02-23 17:50:46.609
LEye coords (197.0, 180.0), REye coords (198.0, 174.0), timeStamp: 2017-02-23 17:50:46.643
LEye coords (198.0, 180.0), REye coords (195.0, 176.0), timeStamp: 2017-02-23 17:50:46.687
LEye coords (231.0, 173.0), REye coords (225.0, 170.0), timeStamp: 2017-02-23 17:50:46.719
LEye coords (242.0, 170.0), REye coords (235.0, 169.0), timeStamp: 2017-02-23 17:50:46.753
LEye coords (247.0, 169.0), REye coords (240.0, 167.0), timeStamp: 2017-02-23 17:50:46.796
LEye coords (264.0, 161.0), REye coords (259.0, 165.0), timeStamp: 2017-02-23 17:50:46.830
LEye coords (266.0, 163.0), REye coords (258.0, 161.0), timeStamp: 2017-02-23 17:50:46.864
LEye coords (268.0, 164.0), REye coords (261.0, 161.0), timeStamp: 2017-02-23 17:50:46.906
LEye coords (280.0, 165.0), REye coords (272.0, 167.0), timeStamp: 2017-02-23 17:50:46.940
LEye coords (285.0, 167.0), REye coords (279.0, 170.0), timeStamp: 2017-02-23 17:50:46.973
LEye coords (288.0, 168.0), REye coords (282.0, 172.0), timeStamp: 2017-02-23 17:50:47.018
LEye coords (290.0, 170.0), REye coords (285.0, 173.0), timeStamp: 2017-02-23 17:50:47.051
LEye coords (292.0, 171.0), REye coords (287.0, 174.0), timeStamp: 2017-02-23 17:50:47.085
LEye coords (294.0, 172.0), REye coords (288.0, 174.0), timeStamp: 2017-02-23 17:50:47.129
LEye coords (295.0, 173.0), REye coords (290.0, 175.0), timeStamp: 2017-02-23 17:50:47.163
LEye coords (296.0, 173.0), REye coords (291.0, 175.0), timeStamp: 2017-02-23 17:50:47.196
LEye coords (297.0, 174.0), REye coords (292.0, 175.0), timeStamp: 2017-02-23 17:50:47.240
LEye coords (298.0, 174.0), REye coords (293.0, 176.0), timeStamp: 2017-02-23 17:50:47.274
LEye coords (298.0, 174.0), REye coords (294.0, 176.0), timeStamp: 2017-02-23 17:50:47.307
LEye coords (299.0, 174.0), REye coords (294.0, 176.0), timeStamp: 2017-02-23 17:50:47.349
LEye coords (301.0, 174.0), REye coords (296.0, 176.0), timeStamp: 2017-02-23 17:50:47.383
LEye coords (302.0, 174.0), REye coords (298.0, 175.0), timeStamp: 2017-02-23 17:50:47.427
LEye coords (303.0, 174.0), REye coords (314.0, 173.0), timeStamp: 2017-02-23 17:50:47.461
LEye coords (305.0, 174.0), REye coords (315.0, 172.0), timeStamp: 2017-02-23 17:50:47.495
LEye coords (305.0, 174.0), REye coords (314.0, 173.0), timeStamp: 2017-02-23 17:50:47.528
LEye coords (306.0, 174.0), REye coords (315.0, 172.0), timeStamp: 2017-02-23 17:50:47.572
LEye coords (307.0, 174.0), REye coords (315.0, 173.0), timeStamp: 2017-02-23 17:50:47.605
LEye coords (316.0, 175.0), REye coords (315.0, 171.0), timeStamp: 2017-02-23 17:50:47.649
LEye coords (320.0, 172.0), REye coords (316.0, 171.0), timeStamp: 2017-02-23 17:50:47.682
LEye coords (319.0, 173.0), REye coords (316.0, 170.0), timeStamp: 2017-02-23 17:50:47.716
LEye coords (319.0, 173.0), REye coords (316.0, 170.0), timeStamp: 2017-02-23 17:50:47.761
LEye coords (318.0, 172.0), REye coords (316.0, 170.0), timeStamp: 2017-02-23 17:50:47.795
LEye coords (318.0, 173.0), REye coords (316.0, 170.0), timeStamp: 2017-02-23 17:50:47.829
LEye coords (318.0, 173.0), REye coords (316.0, 170.0), timeStamp: 2017-02-23 17:50:47.863
LEye coords (318.0, 172.0), REye coords (317.0, 169.0), timeStamp: 2017-02-23 17:50:47.907
LEye coords (318.0, 173.0), REye coords (317.0, 168.0), timeStamp: 2017-02-23 17:50:47.941
LEye coords (318.0, 172.0), REye coords (317.0, 168.0), timeStamp: 2017-02-23 17:50:47.975
LEye coords (318.0, 172.0), REye coords (317.0, 169.0), timeStamp: 2017-02-23 17:50:48.019
LEye coords (318.0, 172.0), REye coords (318.0, 168.0), timeStamp: 2017-02-23 17:50:48.052
