LEye coords (249.0, 282.0), REye coords (245.0, 280.0), timeStamp: 2017-02-23 17:50:52.898
LEye coords (249.0, 283.0), REye coords (245.0, 281.0), timeStamp: 2017-02-23 17:50:52.933
LEye coords (249.0, 284.0), REye coords (245.0, 281.0), timeStamp: 2017-02-23 17:50:52.976
LEye coords (248.0, 284.0), REye coords (245.0, 282.0), timeStamp: 2017-02-23 17:50:53.010
LEye coords (249.0, 285.0), REye coords (246.0, 282.0), timeStamp: 2017-02-23 17:50:53.043
LEye coords (249.0, 286.0), REye coords (246.0, 283.0), timeStamp: 2017-02-23 17:50:53.088
LEye coords (250.0, 287.0), REye coords (246.0, 284.0), timeStamp: 2017-02-23 17:50:53.123
LEye coords (150.0, 363.0), REye coords (143.0, 363.0), timeStamp: 2017-02-23 17:50:53.157
LEye coords (144.0, 373.0), REye coords (140.0, 370.0), timeStamp: 2017-02-23 17:50:53.191
LEye coords (143.0, 374.0), REye coords (140.0, 369.0), timeStamp: 2017-02-23 17:50:53.235
LEye coords (143.0, 375.0), REye coords (141.0, 370.0), timeStamp: 2017-02-23 17:50:53.269
LEye coords (143.0, 375.0), REye coords (140.0, 369.0), timeStamp: 2017-02-23 17:50:53.304
LEye coords (142.0, 377.0), REye coords (142.0, 366.0), timeStamp: 2017-02-23 17:50:53.347
LEye coords (143.0, 376.0), REye coords (141.0, 363.0), timeStamp: 2017-02-23 17:50:53.381
LEye coords (142.0, 375.0), REye coords (141.0, 362.0), timeStamp: 2017-02-23 17:50:53.415
LEye coords (143.0, 375.0), REye coords (140.0, 363.0), timeStamp: 2017-02-23 17:50:53.459
LEye coords (142.0, 375.0), REye coords (141.0, 363.0), timeStamp: 2017-02-23 17:50:53.492
LEye coords (143.0, 375.0), REye coords (141.0, 363.0), timeStamp: 2017-02-23 17:50:53.526
LEye coords (143.0, 379.0), REye coords (141.0, 366.0), timeStamp: 2017-02-23 17:50:53.570
LEye coords (144.0, 381.0), REye coords (141.0, 368.0), timeStamp: 2017-02-23 17:50:53.604
LEye coords (144.0, 382.0), REye coords (142.0, 370.0), timeStamp: 2017-02-23 17:50:53.637
LEye coords (145.0, 383.0), REye coords (142.0, 371.0), timeStamp: 2017-02-23 17:50:53.681
LEye coords (145.0, 384.0), REye coords (142.0, 373.0), timeStamp: 2017-02-23 17:50:53.714
LEye coords (145.0, 384.0), REye coords (142.0, 374.0), timeStamp: 2017-02-23 17:50:53.748
LEye coords (145.0, 385.0), REye coords (142.0, 375.0), timeStamp: 2017-02-23 17:50:53.791
LEye coords (145.0, 386.0), REye coords (142.0, 375.0), timeStamp: 2017-02-23 17:50:53.825
LEye coords (146.0, 386.0), REye coords (142.0, 376.0), timeStamp: 2017-02-23 17:50:53.858
LEye coords (146.0, 387.0), REye coords (142.0, 378.0), timeStamp: 2017-02-23 17:50:53.901
LEye coords (146.0, 387.0), REye coords (142.0, 379.0), timeStamp: 2017-02-23 17:50:53.935
LEye coords (146.0, 388.0), REye coords (142.0, 380.0), timeStamp: 2017-02-23 17:50:53.968
LEye coords (146.0, 389.0), REye coords (142.0, 380.0), timeStamp: 2017-02-23 17:50:54.014
LEye coords (147.0, 389.0), REye coords (142.0, 381.0), timeStamp: 2017-02-23 17:50:54.048
LEye coords (147.0, 389.0), REye coords (142.0, 382.0), timeStamp: 2017-02-23 17:50:54.081
LEye coords (147.0, 390.0), REye coords (143.0, 383.0), timeStamp: 2017-02-23 17:50:54.126
