LEye coords (309.0, 215.0), REye coords (297.0, 211.0), timeStamp: 2017-02-23 17:50:58.412
LEye coords (209.0, 121.0), REye coords (229.0, 107.0), timeStamp: 2017-02-23 17:51:31.314
LEye coords (210.0, 121.0), REye coords (230.0, 107.0), timeStamp: 2017-02-23 17:51:31.358
LEye coords (210.0, 120.0), REye coords (229.0, 107.0), timeStamp: 2017-02-23 17:51:31.391
LEye coords (210.0, 120.0), REye coords (229.0, 108.0), timeStamp: 2017-02-23 17:51:31.424
LEye coords (210.0, 120.0), REye coords (229.0, 109.0), timeStamp: 2017-02-23 17:51:31.468
LEye coords (210.0, 120.0), REye coords (229.0, 109.0), timeStamp: 2017-02-23 17:51:31.502
LEye coords (210.0, 121.0), REye coords (228.0, 109.0), timeStamp: 2017-02-23 17:51:31.536
LEye coords (210.0, 121.0), REye coords (228.0, 110.0), timeStamp: 2017-02-23 17:51:31.580
LEye coords (210.0, 121.0), REye coords (228.0, 110.0), timeStamp: 2017-02-23 17:51:31.613
LEye coords (209.0, 123.0), REye coords (226.0, 111.0), timeStamp: 2017-02-23 17:51:31.647
LEye coords (207.0, 124.0), REye coords (225.0, 113.0), timeStamp: 2017-02-23 17:51:31.690
LEye coords (206.0, 125.0), REye coords (224.0, 114.0), timeStamp: 2017-02-23 17:51:31.724
LEye coords (281.0, 137.0), REye coords (296.0, 148.0), timeStamp: 2017-02-23 17:51:31.757
LEye coords (283.0, 147.0), REye coords (309.0, 152.0), timeStamp: 2017-02-23 17:51:31.801
LEye coords (297.0, 145.0), REye coords (328.0, 153.0), timeStamp: 2017-02-23 17:51:31.835
LEye coords (321.0, 150.0), REye coords (349.0, 159.0), timeStamp: 2017-02-23 17:51:31.868
LEye coords (334.0, 154.0), REye coords (361.0, 162.0), timeStamp: 2017-02-23 17:51:31.913
LEye coords (370.0, 166.0), REye coords (391.0, 171.0), timeStamp: 2017-02-23 17:51:31.947
LEye coords (369.0, 164.0), REye coords (393.0, 171.0), timeStamp: 2017-02-23 17:51:31.980
LEye coords (359.0, 166.0), REye coords (381.0, 174.0), timeStamp: 2017-02-23 17:51:32.024
LEye coords (354.0, 166.0), REye coords (376.0, 175.0), timeStamp: 2017-02-23 17:51:32.056
LEye coords (352.0, 167.0), REye coords (374.0, 176.0), timeStamp: 2017-02-23 17:51:32.090
LEye coords (351.0, 168.0), REye coords (0.0, 0.0), timeStamp: 2017-02-23 17:51:32.134
LEye coords (351.0, 169.0), REye coords (371.0, 178.0), timeStamp: 2017-02-23 17:51:32.168
LEye coords (350.0, 169.0), REye coords (370.0, 179.0), timeStamp: 2017-02-23 17:51:32.202
LEye coords (350.0, 170.0), REye coords (369.0, 180.0), timeStamp: 2017-02-23 17:51:32.247
LEye coords (349.0, 170.0), REye coords (369.0, 181.0), timeStamp: 2017-02-23 17:51:32.281
LEye coords (349.0, 171.0), REye coords (368.0, 182.0), timeStamp: 2017-02-23 17:51:32.315
LEye coords (349.0, 172.0), REye coords (367.0, 183.0), timeStamp: 2017-02-23 17:51:32.358
LEye coords (349.0, 172.0), REye coords (368.0, 183.0), timeStamp: 2017-02-23 17:51:32.393
LEye coords (350.0, 173.0), REye coords (369.0, 182.0), timeStamp: 2017-02-23 17:51:32.427
LEye coords (351.0, 173.0), REye coords (370.0, 183.0), timeStamp: 2017-02-23 17:51:32.461
