LEye coords (222.0, 222.0), REye coords (240.0, 223.0), timeStamp: 2017-02-23 17:51:36.017
LEye coords (222.0, 223.0), REye coords (240.0, 223.0), timeStamp: 2017-02-23 17:51:36.050
LEye coords (222.0, 223.0), REye coords (240.0, 223.0), timeStamp: 2017-02-23 17:51:36.095
LEye coords (222.0, 223.0), REye coords (240.0, 223.0), timeStamp: 2017-02-23 17:51:36.130
LEye coords (222.0, 223.0), REye coords (240.0, 223.0), timeStamp: 2017-02-23 17:51:36.163
LEye coords (222.0, 223.0), REye coords (240.0, 223.0), timeStamp: 2017-02-23 17:51:36.198
LEye coords (222.0, 223.0), REye coords (240.0, 223.0), timeStamp: 2017-02-23 17:51:36.243
LEye coords (234.0, 158.0), REye coords (254.0, 146.0), timeStamp: 2017-02-23 17:51:36.277
LEye coords (234.0, 137.0), REye coords (252.0, 123.0), timeStamp: 2017-02-23 17:51:36.311
LEye coords (236.0, 140.0), REye coords (254.0, 123.0), timeStamp: 2017-02-23 17:51:36.355
LEye coords (237.0, 138.0), REye coords (254.0, 123.0), timeStamp: 2017-02-23 17:51:36.387
LEye coords (236.0, 138.0), REye coords (254.0, 123.0), timeStamp: 2017-02-23 17:51:36.421
LEye coords (242.0, 96.0), REye coords (256.0, 90.0), timeStamp: 2017-02-23 17:51:36.464
LEye coords (243.0, 96.0), REye coords (256.0, 86.0), timeStamp: 2017-02-23 17:51:36.497
LEye coords (242.0, 99.0), REye coords (256.0, 86.0), timeStamp: 2017-02-23 17:51:36.541
LEye coords (241.0, 100.0), REye coords (255.0, 86.0), timeStamp: 2017-02-23 17:51:36.573
LEye coords (241.0, 98.0), REye coords (255.0, 87.0), timeStamp: 2017-02-23 17:51:36.606
LEye coords (241.0, 98.0), REye coords (255.0, 89.0), timeStamp: 2017-02-23 17:51:36.651
LEye coords (245.0, 99.0), REye coords (258.0, 91.0), timeStamp: 2017-02-23 17:51:36.684
LEye coords (248.0, 100.0), REye coords (261.0, 93.0), timeStamp: 2017-02-23 17:51:36.717
LEye coords (250.0, 101.0), REye coords (263.0, 94.0), timeStamp: 2017-02-23 17:51:36.762
LEye coords (252.0, 102.0), REye coords (265.0, 95.0), timeStamp: 2017-02-23 17:51:36.796
LEye coords (253.0, 103.0), REye coords (266.0, 96.0), timeStamp: 2017-02-23 17:51:36.829
LEye coords (254.0, 104.0), REye coords (267.0, 97.0), timeStamp: 2017-02-23 17:51:36.873
LEye coords (255.0, 105.0), REye coords (268.0, 98.0), timeStamp: 2017-02-23 17:51:36.906
LEye coords (256.0, 105.0), REye coords (269.0, 99.0), timeStamp: 2017-02-23 17:51:36.941
LEye coords (257.0, 106.0), REye coords (270.0, 100.0), timeStamp: 2017-02-23 17:51:36.976
LEye coords (257.0, 106.0), REye coords (271.0, 100.0), timeStamp: 2017-02-23 17:51:37.020
LEye coords (258.0, 106.0), REye coords (271.0, 101.0), timeStamp: 2017-02-23 17:51:37.054
LEye coords (258.0, 107.0), REye coords (272.0, 101.0), timeStamp: 2017-02-23 17:51:37.088
LEye coords (259.0, 107.0), REye coords (272.0, 102.0), timeStamp: 2017-02-23 17:51:37.133
