LEye coords (260.0, 92.0), REye coords (273.0, 88.0), timeStamp: 2017-02-23 17:51:37.245
LEye coords (260.0, 93.0), REye coords (274.0, 89.0), timeStamp: 2017-02-23 17:51:37.278
LEye coords (260.0, 94.0), REye coords (275.0, 89.0), timeStamp: 2017-02-23 17:51:37.311
LEye coords (261.0, 94.0), REye coords (275.0, 90.0), timeStamp: 2017-02-23 17:51:37.345
LEye coords (261.0, 95.0), REye coords (276.0, 91.0), timeStamp: 2017-02-23 17:51:37.390
LEye coords (262.0, 95.0), REye coords (277.0, 92.0), timeStamp: 2017-02-23 17:51:37.425
LEye coords (262.0, 96.0), REye coords (277.0, 92.0), timeStamp: 2017-02-23 17:51:37.458
LEye coords (261.0, 97.0), REye coords (277.0, 93.0), timeStamp: 2017-02-23 17:51:37.503
LEye coords (279.0, 153.0), REye coords (294.0, 160.0), timeStamp: 2017-02-23 17:51:37.537
LEye coords (277.0, 158.0), REye coords (298.0, 158.0), timeStamp: 2017-02-23 17:51:37.570
LEye coords (278.0, 158.0), REye coords (297.0, 158.0), timeStamp: 2017-02-23 17:51:37.613
LEye coords (279.0, 157.0), REye coords (295.0, 159.0), timeStamp: 2017-02-23 17:51:37.647
LEye coords (280.0, 156.0), REye coords (295.0, 159.0), timeStamp: 2017-02-23 17:51:37.681
LEye coords (280.0, 154.0), REye coords (296.0, 162.0), timeStamp: 2017-02-23 17:51:37.724
LEye coords (337.0, 162.0), REye coords (351.0, 168.0), timeStamp: 2017-02-23 17:51:37.757
LEye coords (335.0, 162.0), REye coords (351.0, 170.0), timeStamp: 2017-02-23 17:51:37.791
LEye coords (334.0, 163.0), REye coords (351.0, 170.0), timeStamp: 2017-02-23 17:51:37.834
LEye coords (334.0, 163.0), REye coords (351.0, 170.0), timeStamp: 2017-02-23 17:51:37.867
LEye coords (334.0, 165.0), REye coords (354.0, 171.0), timeStamp: 2017-02-23 17:51:37.900
LEye coords (337.0, 167.0), REye coords (357.0, 167.0), timeStamp: 2017-02-23 17:51:37.944
LEye coords (336.0, 167.0), REye coords (356.0, 166.0), timeStamp: 2017-02-23 17:51:37.977
LEye coords (336.0, 167.0), REye coords (356.0, 166.0), timeStamp: 2017-02-23 17:51:38.011
LEye coords (337.0, 165.0), REye coords (356.0, 166.0), timeStamp: 2017-02-23 17:51:38.055
LEye coords (337.0, 165.0), REye coords (356.0, 166.0), timeStamp: 2017-02-23 17:51:38.089
LEye coords (337.0, 165.0), REye coords (356.0, 166.0), timeStamp: 2017-02-23 17:51:38.123
LEye coords (337.0, 165.0), REye coords (356.0, 166.0), timeStamp: 2017-02-23 17:51:38.167
LEye coords (338.0, 165.0), REye coords (356.0, 166.0), timeStamp: 2017-02-23 17:51:38.201
LEye coords (338.0, 165.0), REye coords (356.0, 166.0), timeStamp: 2017-02-23 17:51:38.235
LEye coords (339.0, 165.0), REye coords (358.0, 164.0), timeStamp: 2017-02-23 17:51:38.279
LEye coords (339.0, 165.0), REye coords (359.0, 163.0), timeStamp: 2017-02-23 17:51:38.313
LEye coords (339.0, 164.0), REye coords (359.0, 164.0), timeStamp: 2017-02-23 17:51:38.347
LEye coords (339.0, 164.0), REye coords (360.0, 163.0), timeStamp: 2017-02-23 17:51:38.381
LEye coords (339.0, 164.0), REye coords (361.0, 162.0), timeStamp: 2017-02-23 17:51:38.424
LEye coords (339.0, 164.0), REye coords (361.0, 163.0), timeStamp: 2017-02-23 17:51:38.457
LEye coords (339.0, 164.0), REye coords (361.0, 162.0), timeStamp: 2017-02-23 17:51:38.501
LEye coords (338.0, 164.0), REye coords (362.0, 162.0), timeStamp: 2017-02-23 17:51:38.535
LEye coords (339.0, 163.0), REye coords (362.0, 162.0), timeStamp: 2017-02-23 17:51:38.569
LEye coords (339.0, 163.0), REye coords (362.0, 163.0), timeStamp: 2017-02-23 17:51:38.613
LEye coords (339.0, 163.0), REye coords (362.0, 163.0), timeStamp: 2017-02-23 17:51:38.647
LEye coords (339.0, 163.0), REye coords (361.0, 164.0), timeStamp: 2017-02-23 17:51:38.681
LEye coords (339.0, 163.0), REye coords (361.0, 164.0), timeStamp: 2017-02-23 17:51:38.725
LEye coords (339.0, 163.0), REye coords (361.0, 164.0), timeStamp: 2017-02-23 17:51:38.759
LEye coords (339.0, 163.0), REye coords (361.0, 165.0), timeStamp: 2017-02-23 17:51:38.793
LEye coords (339.0, 163.0), REye coords (360.0, 166.0), timeStamp: 2017-02-23 17:51:38.827
LEye coords (339.0, 163.0), REye coords (360.0, 166.0), timeStamp: 2017-02-23 17:51:38.871
LEye coords (339.0, 163.0), REye coords (360.0, 167.0), timeStamp: 2017-02-23 17:51:38.904
