LEye coords (266.0, 195.0), REye coords (287.0, 202.0), timeStamp: 2017-02-23 17:51:42.564
LEye coords (267.0, 194.0), REye coords (287.0, 201.0), timeStamp: 2017-02-23 17:51:42.607
LEye coords (268.0, 194.0), REye coords (287.0, 202.0), timeStamp: 2017-02-23 17:51:42.641
LEye coords (269.0, 193.0), REye coords (287.0, 202.0), timeStamp: 2017-02-23 17:51:42.675
LEye coords (269.0, 193.0), REye coords (287.0, 203.0), timeStamp: 2017-02-23 17:51:42.719
LEye coords (270.0, 193.0), REye coords (287.0, 203.0), timeStamp: 2017-02-23 17:51:42.752
LEye coords (270.0, 193.0), REye coords (287.0, 203.0), timeStamp: 2017-02-23 17:51:42.787
LEye coords (271.0, 194.0), REye coords (287.0, 204.0), timeStamp: 2017-02-23 17:51:42.831
LEye coords (271.0, 194.0), REye coords (288.0, 204.0), timeStamp: 2017-02-23 17:51:42.866
LEye coords (271.0, 194.0), REye coords (288.0, 204.0), timeStamp: 2017-02-23 17:51:42.899
LEye coords (272.0, 194.0), REye coords (288.0, 204.0), timeStamp: 2017-02-23 17:51:42.933
LEye coords (272.0, 193.0), REye coords (290.0, 204.0), timeStamp: 2017-02-23 17:51:42.978
LEye coords (346.0, 156.0), REye coords (239.0, 171.0), timeStamp: 2017-02-23 17:51:43.010
LEye coords (350.0, 155.0), REye coords (372.0, 160.0), timeStamp: 2017-02-23 17:51:43.054
LEye coords (349.0, 157.0), REye coords (372.0, 160.0), timeStamp: 2017-02-23 17:51:43.088
LEye coords (349.0, 156.0), REye coords (372.0, 161.0), timeStamp: 2017-02-23 17:51:43.122
LEye coords (350.0, 155.0), REye coords (372.0, 160.0), timeStamp: 2017-02-23 17:51:43.156
LEye coords (358.0, 158.0), REye coords (379.0, 154.0), timeStamp: 2017-02-23 17:51:43.201
LEye coords (394.0, 152.0), REye coords (403.0, 169.0), timeStamp: 2017-02-23 17:51:43.235
LEye coords (0.0, 0.0), REye coords (404.0, 170.0), timeStamp: 2017-02-23 17:51:43.268
LEye coords (0.0, 0.0), REye coords (405.0, 168.0), timeStamp: 2017-02-23 17:51:43.312
LEye coords (0.0, 0.0), REye coords (404.0, 169.0), timeStamp: 2017-02-23 17:51:43.345
LEye coords (0.0, 0.0), REye coords (404.0, 169.0), timeStamp: 2017-02-23 17:51:43.379
LEye coords (0.0, 0.0), REye coords (404.0, 169.0), timeStamp: 2017-02-23 17:51:43.422
LEye coords (0.0, 0.0), REye coords (404.0, 169.0), timeStamp: 2017-02-23 17:51:43.455
LEye coords (0.0, 0.0), REye coords (404.0, 169.0), timeStamp: 2017-02-23 17:51:43.490
LEye coords (0.0, 0.0), REye coords (405.0, 169.0), timeStamp: 2017-02-23 17:51:43.535
LEye coords (390.0, 153.0), REye coords (406.0, 169.0), timeStamp: 2017-02-23 17:51:43.569
LEye coords (390.0, 154.0), REye coords (406.0, 169.0), timeStamp: 2017-02-23 17:51:43.603
