LEye coords (236.0, 137.0), REye coords (241.0, 124.0), timeStamp: 2017-02-23 17:52:23.285
LEye coords (236.0, 137.0), REye coords (241.0, 125.0), timeStamp: 2017-02-23 17:52:23.319
LEye coords (236.0, 138.0), REye coords (242.0, 126.0), timeStamp: 2017-02-23 17:52:23.351
LEye coords (236.0, 139.0), REye coords (242.0, 126.0), timeStamp: 2017-02-23 17:52:23.396
LEye coords (236.0, 139.0), REye coords (242.0, 127.0), timeStamp: 2017-02-23 17:52:23.429
LEye coords (236.0, 139.0), REye coords (242.0, 127.0), timeStamp: 2017-02-23 17:52:23.462
LEye coords (236.0, 140.0), REye coords (242.0, 128.0), timeStamp: 2017-02-23 17:52:23.505
LEye coords (236.0, 140.0), REye coords (243.0, 128.0), timeStamp: 2017-02-23 17:52:23.540
LEye coords (236.0, 140.0), REye coords (243.0, 129.0), timeStamp: 2017-02-23 17:52:23.574
LEye coords (236.0, 140.0), REye coords (243.0, 129.0), timeStamp: 2017-02-23 17:52:23.617
LEye coords (318.0, 146.0), REye coords (320.0, 141.0), timeStamp: 2017-02-23 17:52:23.650
LEye coords (314.0, 141.0), REye coords (322.0, 141.0), timeStamp: 2017-02-23 17:52:23.684
LEye coords (314.0, 144.0), REye coords (319.0, 144.0), timeStamp: 2017-02-23 17:52:23.728
LEye coords (327.0, 142.0), REye coords (330.0, 144.0), timeStamp: 2017-02-23 17:52:23.761
LEye coords (332.0, 142.0), REye coords (336.0, 145.0), timeStamp: 2017-02-23 17:52:23.794
LEye coords (347.0, 144.0), REye coords (339.0, 148.0), timeStamp: 2017-02-23 17:52:23.838
LEye coords (346.0, 141.0), REye coords (352.0, 142.0), timeStamp: 2017-02-23 17:52:23.872
LEye coords (347.0, 141.0), REye coords (352.0, 142.0), timeStamp: 2017-02-23 17:52:23.906
LEye coords (347.0, 142.0), REye coords (352.0, 141.0), timeStamp: 2017-02-23 17:52:23.949
LEye coords (348.0, 143.0), REye coords (351.0, 142.0), timeStamp: 2017-02-23 17:52:23.983
LEye coords (348.0, 144.0), REye coords (351.0, 142.0), timeStamp: 2017-02-23 17:52:24.017
LEye coords (348.0, 145.0), REye coords (350.0, 142.0), timeStamp: 2017-02-23 17:52:24.062
LEye coords (346.0, 145.0), REye coords (348.0, 143.0), timeStamp: 2017-02-23 17:52:24.096
LEye coords (345.0, 145.0), REye coords (347.0, 143.0), timeStamp: 2017-02-23 17:52:24.131
LEye coords (344.0, 146.0), REye coords (346.0, 143.0), timeStamp: 2017-02-23 17:52:24.166
LEye coords (343.0, 146.0), REye coords (346.0, 143.0), timeStamp: 2017-02-23 17:52:24.211
LEye coords (343.0, 147.0), REye coords (345.0, 142.0), timeStamp: 2017-02-23 17:52:24.245
LEye coords (342.0, 147.0), REye coords (345.0, 142.0), timeStamp: 2017-02-23 17:52:24.278
LEye coords (342.0, 147.0), REye coords (344.0, 143.0), timeStamp: 2017-02-23 17:52:24.313
LEye coords (342.0, 147.0), REye coords (344.0, 143.0), timeStamp: 2017-02-23 17:52:24.357
LEye coords (341.0, 147.0), REye coords (343.0, 143.0), timeStamp: 2017-02-23 17:52:24.391
