LEye coords (268.0, 214.0), REye coords (271.0, 200.0), timeStamp: 2017-02-23 17:52:32.205
LEye coords (269.0, 214.0), REye coords (271.0, 200.0), timeStamp: 2017-02-23 17:52:32.239
LEye coords (270.0, 214.0), REye coords (271.0, 201.0), timeStamp: 2017-02-23 17:52:32.272
LEye coords (270.0, 215.0), REye coords (272.0, 201.0), timeStamp: 2017-02-23 17:52:32.315
LEye coords (271.0, 215.0), REye coords (272.0, 202.0), timeStamp: 2017-02-23 17:52:32.349
LEye coords (271.0, 215.0), REye coords (273.0, 202.0), timeStamp: 2017-02-23 17:52:32.383
LEye coords (271.0, 216.0), REye coords (273.0, 203.0), timeStamp: 2017-02-23 17:52:32.428
LEye coords (272.0, 216.0), REye coords (273.0, 203.0), timeStamp: 2017-02-23 17:52:32.462
LEye coords (272.0, 216.0), REye coords (273.0, 203.0), timeStamp: 2017-02-23 17:52:32.495
LEye coords (272.0, 216.0), REye coords (274.0, 204.0), timeStamp: 2017-02-23 17:52:32.530
LEye coords (271.0, 214.0), REye coords (272.0, 201.0), timeStamp: 2017-02-23 17:52:32.575
LEye coords (252.0, 173.0), REye coords (271.0, 200.0), timeStamp: 2017-02-23 17:52:32.609
LEye coords (252.0, 174.0), REye coords (270.0, 198.0), timeStamp: 2017-02-23 17:52:32.642
LEye coords (252.0, 175.0), REye coords (269.0, 196.0), timeStamp: 2017-02-23 17:52:32.686
LEye coords (252.0, 176.0), REye coords (268.0, 194.0), timeStamp: 2017-02-23 17:52:32.719
LEye coords (260.0, 178.0), REye coords (269.0, 192.0), timeStamp: 2017-02-23 17:52:32.753
LEye coords (266.0, 180.0), REye coords (271.0, 191.0), timeStamp: 2017-02-23 17:52:32.797
LEye coords (269.0, 182.0), REye coords (272.0, 189.0), timeStamp: 2017-02-23 17:52:32.831
LEye coords (272.0, 183.0), REye coords (273.0, 188.0), timeStamp: 2017-02-23 17:52:32.864
LEye coords (274.0, 183.0), REye coords (275.0, 186.0), timeStamp: 2017-02-23 17:52:32.898
LEye coords (276.0, 183.0), REye coords (276.0, 185.0), timeStamp: 2017-02-23 17:52:32.943
LEye coords (278.0, 183.0), REye coords (278.0, 184.0), timeStamp: 2017-02-23 17:52:32.977
LEye coords (280.0, 183.0), REye coords (279.0, 184.0), timeStamp: 2017-02-23 17:52:33.010
LEye coords (282.0, 183.0), REye coords (281.0, 182.0), timeStamp: 2017-02-23 17:52:33.054
