LEye coords (260.0, 168.0), REye coords (259.0, 160.0), timeStamp: 2017-02-23 17:52:40.346
LEye coords (260.0, 168.0), REye coords (259.0, 161.0), timeStamp: 2017-02-23 17:52:40.380
LEye coords (261.0, 169.0), REye coords (260.0, 162.0), timeStamp: 2017-02-23 17:52:40.414
LEye coords (261.0, 169.0), REye coords (260.0, 163.0), timeStamp: 2017-02-23 17:52:40.458
LEye coords (261.0, 170.0), REye coords (260.0, 164.0), timeStamp: 2017-02-23 17:52:40.491
LEye coords (262.0, 170.0), REye coords (260.0, 164.0), timeStamp: 2017-02-23 17:52:40.525
LEye coords (262.0, 170.0), REye coords (260.0, 164.0), timeStamp: 2017-02-23 17:52:40.569
LEye coords (262.0, 170.0), REye coords (260.0, 165.0), timeStamp: 2017-02-23 17:52:40.603
LEye coords (262.0, 170.0), REye coords (260.0, 165.0), timeStamp: 2017-02-23 17:52:40.636
LEye coords (262.0, 170.0), REye coords (260.0, 165.0), timeStamp: 2017-02-23 17:52:40.680
LEye coords (262.0, 170.0), REye coords (260.0, 166.0), timeStamp: 2017-02-23 17:52:40.714
LEye coords (278.0, 218.0), REye coords (0.0, 0.0), timeStamp: 2017-02-23 17:52:40.748
LEye coords (281.0, 221.0), REye coords (278.0, 213.0), timeStamp: 2017-02-23 17:52:40.782
LEye coords (283.0, 221.0), REye coords (283.0, 209.0), timeStamp: 2017-02-23 17:52:40.826
LEye coords (289.0, 227.0), REye coords (292.0, 219.0), timeStamp: 2017-02-23 17:52:40.860
LEye coords (293.0, 232.0), REye coords (294.0, 226.0), timeStamp: 2017-02-23 17:52:40.893
LEye coords (302.0, 249.0), REye coords (297.0, 229.0), timeStamp: 2017-02-23 17:52:40.937
LEye coords (304.0, 251.0), REye coords (300.0, 243.0), timeStamp: 2017-02-23 17:52:40.970
LEye coords (305.0, 252.0), REye coords (301.0, 241.0), timeStamp: 2017-02-23 17:52:41.004
LEye coords (304.0, 252.0), REye coords (301.0, 241.0), timeStamp: 2017-02-23 17:52:41.047
LEye coords (304.0, 252.0), REye coords (301.0, 241.0), timeStamp: 2017-02-23 17:52:41.081
LEye coords (304.0, 253.0), REye coords (301.0, 240.0), timeStamp: 2017-02-23 17:52:41.115
LEye coords (304.0, 252.0), REye coords (301.0, 241.0), timeStamp: 2017-02-23 17:52:41.159
LEye coords (304.0, 252.0), REye coords (302.0, 241.0), timeStamp: 2017-02-23 17:52:41.193
LEye coords (304.0, 252.0), REye coords (302.0, 240.0), timeStamp: 2017-02-23 17:52:41.227
LEye coords (304.0, 252.0), REye coords (303.0, 239.0), timeStamp: 2017-02-23 17:52:41.271
LEye coords (304.0, 253.0), REye coords (303.0, 239.0), timeStamp: 2017-02-23 17:52:41.305
LEye coords (305.0, 252.0), REye coords (303.0, 239.0), timeStamp: 2017-02-23 17:52:41.339
LEye coords (305.0, 252.0), REye coords (304.0, 239.0), timeStamp: 2017-02-23 17:52:41.383
LEye coords (305.0, 252.0), REye coords (304.0, 239.0), timeStamp: 2017-02-23 17:52:41.416
