LEye coords (250.0, 194.0), REye coords (250.0, 184.0), timeStamp: 2017-02-23 17:52:41.527
LEye coords (251.0, 193.0), REye coords (249.0, 186.0), timeStamp: 2017-02-23 17:52:41.561
LEye coords (251.0, 193.0), REye coords (0.0, 0.0), timeStamp: 2017-02-23 17:52:41.605
LEye coords (250.0, 192.0), REye coords (0.0, 0.0), timeStamp: 2017-02-23 17:52:41.639
LEye coords (252.0, 194.0), REye coords (0.0, 0.0), timeStamp: 2017-02-23 17:52:41.674
LEye coords (249.0, 194.0), REye coords (0.0, 0.0), timeStamp: 2017-02-23 17:52:41.708
LEye coords (250.0, 195.0), REye coords (250.0, 188.0), timeStamp: 2017-02-23 17:52:41.753
LEye coords (250.0, 195.0), REye coords (250.0, 188.0), timeStamp: 2017-02-23 17:52:41.786
LEye coords (251.0, 196.0), REye coords (250.0, 188.0), timeStamp: 2017-02-23 17:52:41.820
LEye coords (266.0, 166.0), REye coords (275.0, 169.0), timeStamp: 2017-02-23 17:53:14.315
LEye coords (268.0, 148.0), REye coords (274.0, 153.0), timeStamp: 2017-02-23 17:53:14.360
LEye coords (268.0, 148.0), REye coords (275.0, 151.0), timeStamp: 2017-02-23 17:53:14.393
LEye coords (267.0, 148.0), REye coords (275.0, 149.0), timeStamp: 2017-02-23 17:53:14.426
LEye coords (265.0, 149.0), REye coords (269.0, 146.0), timeStamp: 2017-02-23 17:53:14.470
LEye coords (266.0, 144.0), REye coords (273.0, 145.0), timeStamp: 2017-02-23 17:53:14.503
LEye coords (265.0, 146.0), REye coords (273.0, 146.0), timeStamp: 2017-02-23 17:53:14.537
LEye coords (264.0, 145.0), REye coords (272.0, 148.0), timeStamp: 2017-02-23 17:53:14.580
LEye coords (265.0, 147.0), REye coords (273.0, 149.0), timeStamp: 2017-02-23 17:53:14.614
LEye coords (265.0, 147.0), REye coords (273.0, 148.0), timeStamp: 2017-02-23 17:53:14.648
LEye coords (265.0, 148.0), REye coords (273.0, 149.0), timeStamp: 2017-02-23 17:53:14.693
LEye coords (265.0, 149.0), REye coords (273.0, 149.0), timeStamp: 2017-02-23 17:53:14.727
LEye coords (268.0, 149.0), REye coords (275.0, 150.0), timeStamp: 2017-02-23 17:53:14.760
LEye coords (270.0, 150.0), REye coords (277.0, 150.0), timeStamp: 2017-02-23 17:53:14.804
LEye coords (273.0, 150.0), REye coords (279.0, 150.0), timeStamp: 2017-02-23 17:53:14.838
LEye coords (274.0, 151.0), REye coords (281.0, 151.0), timeStamp: 2017-02-23 17:53:14.872
LEye coords (276.0, 151.0), REye coords (281.0, 152.0), timeStamp: 2017-02-23 17:53:14.916
LEye coords (276.0, 151.0), REye coords (282.0, 152.0), timeStamp: 2017-02-23 17:53:14.949
LEye coords (277.0, 151.0), REye coords (282.0, 153.0), timeStamp: 2017-02-23 17:53:14.982
LEye coords (277.0, 151.0), REye coords (282.0, 153.0), timeStamp: 2017-02-23 17:53:15.028
LEye coords (278.0, 152.0), REye coords (282.0, 153.0), timeStamp: 2017-02-23 17:53:15.062
LEye coords (278.0, 152.0), REye coords (282.0, 154.0), timeStamp: 2017-02-23 17:53:15.095
LEye coords (279.0, 152.0), REye coords (282.0, 155.0), timeStamp: 2017-02-23 17:53:15.129
LEye coords (279.0, 152.0), REye coords (283.0, 155.0), timeStamp: 2017-02-23 17:53:15.173
LEye coords (280.0, 152.0), REye coords (283.0, 155.0), timeStamp: 2017-02-23 17:53:15.207
LEye coords (280.0, 152.0), REye coords (283.0, 156.0), timeStamp: 2017-02-23 17:53:15.241
LEye coords (280.0, 152.0), REye coords (284.0, 156.0), timeStamp: 2017-02-23 17:53:15.284
LEye coords (281.0, 153.0), REye coords (284.0, 156.0), timeStamp: 2017-02-23 17:53:15.318
LEye coords (281.0, 153.0), REye coords (285.0, 157.0), timeStamp: 2017-02-23 17:53:15.351
LEye coords (282.0, 154.0), REye coords (285.0, 157.0), timeStamp: 2017-02-23 17:53:15.395
LEye coords (282.0, 154.0), REye coords (285.0, 158.0), timeStamp: 2017-02-23 17:53:15.431
LEye coords (283.0, 155.0), REye coords (286.0, 158.0), timeStamp: 2017-02-23 17:53:15.463
LEye coords (283.0, 155.0), REye coords (286.0, 158.0), timeStamp: 2017-02-23 17:53:15.506
