LEye coords (283.0, 157.0), REye coords (286.0, 160.0), timeStamp: 2017-02-23 17:53:15.618
LEye coords (283.0, 176.0), REye coords (286.0, 179.0), timeStamp: 2017-02-23 17:53:15.651
LEye coords (283.0, 177.0), REye coords (286.0, 180.0), timeStamp: 2017-02-23 17:53:15.684
LEye coords (283.0, 178.0), REye coords (285.0, 181.0), timeStamp: 2017-02-23 17:53:15.728
LEye coords (283.0, 179.0), REye coords (285.0, 182.0), timeStamp: 2017-02-23 17:53:15.761
LEye coords (284.0, 180.0), REye coords (285.0, 182.0), timeStamp: 2017-02-23 17:53:15.795
LEye coords (284.0, 181.0), REye coords (285.0, 183.0), timeStamp: 2017-02-23 17:53:15.840
LEye coords (284.0, 182.0), REye coords (285.0, 184.0), timeStamp: 2017-02-23 17:53:15.873
LEye coords (284.0, 183.0), REye coords (285.0, 184.0), timeStamp: 2017-02-23 17:53:15.907
LEye coords (285.0, 185.0), REye coords (286.0, 187.0), timeStamp: 2017-02-23 17:53:15.951
LEye coords (301.0, 230.0), REye coords (287.0, 190.0), timeStamp: 2017-02-23 17:53:15.984
LEye coords (299.0, 231.0), REye coords (288.0, 193.0), timeStamp: 2017-02-23 17:53:16.019
LEye coords (322.0, 254.0), REye coords (338.0, 275.0), timeStamp: 2017-02-23 17:53:16.063
LEye coords (328.0, 263.0), REye coords (338.0, 280.0), timeStamp: 2017-02-23 17:53:16.097
LEye coords (332.0, 268.0), REye coords (340.0, 278.0), timeStamp: 2017-02-23 17:53:16.130
LEye coords (344.0, 282.0), REye coords (341.0, 277.0), timeStamp: 2017-02-23 17:53:16.174
LEye coords (342.0, 284.0), REye coords (341.0, 278.0), timeStamp: 2017-02-23 17:53:16.208
LEye coords (342.0, 286.0), REye coords (342.0, 277.0), timeStamp: 2017-02-23 17:53:16.241
LEye coords (342.0, 285.0), REye coords (340.0, 278.0), timeStamp: 2017-02-23 17:53:16.285
LEye coords (342.0, 286.0), REye coords (341.0, 280.0), timeStamp: 2017-02-23 17:53:16.319
LEye coords (342.0, 286.0), REye coords (340.0, 281.0), timeStamp: 2017-02-23 17:53:16.352
LEye coords (342.0, 286.0), REye coords (339.0, 281.0), timeStamp: 2017-02-23 17:53:16.396
LEye coords (342.0, 286.0), REye coords (340.0, 281.0), timeStamp: 2017-02-23 17:53:16.431
LEye coords (342.0, 287.0), REye coords (340.0, 280.0), timeStamp: 2017-02-23 17:53:16.464
LEye coords (344.0, 286.0), REye coords (342.0, 280.0), timeStamp: 2017-02-23 17:53:16.498
LEye coords (345.0, 286.0), REye coords (343.0, 278.0), timeStamp: 2017-02-23 17:53:16.542
LEye coords (346.0, 285.0), REye coords (344.0, 278.0), timeStamp: 2017-02-23 17:53:16.576
LEye coords (347.0, 285.0), REye coords (346.0, 276.0), timeStamp: 2017-02-23 17:53:16.610
