LEye coords (190.0, 113.0), REye coords (190.0, 93.0), timeStamp: 2017-02-23 17:53:22.428
LEye coords (190.0, 114.0), REye coords (190.0, 94.0), timeStamp: 2017-02-23 17:53:22.461
LEye coords (189.0, 115.0), REye coords (189.0, 95.0), timeStamp: 2017-02-23 17:53:22.495
LEye coords (189.0, 116.0), REye coords (189.0, 96.0), timeStamp: 2017-02-23 17:53:22.540
LEye coords (189.0, 116.0), REye coords (189.0, 97.0), timeStamp: 2017-02-23 17:53:22.574
LEye coords (231.0, 226.0), REye coords (230.0, 225.0), timeStamp: 2017-02-23 17:53:22.608
LEye coords (239.0, 266.0), REye coords (241.0, 264.0), timeStamp: 2017-02-23 17:53:22.642
LEye coords (239.0, 265.0), REye coords (242.0, 264.0), timeStamp: 2017-02-23 17:53:22.686
LEye coords (240.0, 264.0), REye coords (241.0, 265.0), timeStamp: 2017-02-23 17:53:22.720
LEye coords (240.0, 264.0), REye coords (241.0, 265.0), timeStamp: 2017-02-23 17:53:22.753
LEye coords (240.0, 261.0), REye coords (239.0, 265.0), timeStamp: 2017-02-23 17:53:22.797
LEye coords (311.0, 251.0), REye coords (321.0, 254.0), timeStamp: 2017-02-23 17:53:22.830
LEye coords (357.0, 233.0), REye coords (363.0, 241.0), timeStamp: 2017-02-23 17:53:22.864
LEye coords (373.0, 228.0), REye coords (378.0, 236.0), timeStamp: 2017-02-23 17:53:22.908
LEye coords (381.0, 225.0), REye coords (387.0, 232.0), timeStamp: 2017-02-23 17:53:22.942
LEye coords (406.0, 212.0), REye coords (410.0, 215.0), timeStamp: 2017-02-23 17:53:22.975
LEye coords (406.0, 211.0), REye coords (410.0, 219.0), timeStamp: 2017-02-23 17:53:23.018
LEye coords (411.0, 205.0), REye coords (414.0, 211.0), timeStamp: 2017-02-23 17:53:23.051
LEye coords (413.0, 200.0), REye coords (416.0, 207.0), timeStamp: 2017-02-23 17:53:23.095
LEye coords (414.0, 199.0), REye coords (0.0, 0.0), timeStamp: 2017-02-23 17:53:23.129
LEye coords (415.0, 198.0), REye coords (416.0, 204.0), timeStamp: 2017-02-23 17:53:23.162
LEye coords (416.0, 197.0), REye coords (417.0, 203.0), timeStamp: 2017-02-23 17:53:23.205
LEye coords (416.0, 196.0), REye coords (417.0, 202.0), timeStamp: 2017-02-23 17:53:23.239
LEye coords (417.0, 195.0), REye coords (418.0, 202.0), timeStamp: 2017-02-23 17:53:23.273
LEye coords (419.0, 194.0), REye coords (419.0, 200.0), timeStamp: 2017-02-23 17:53:23.307
LEye coords (420.0, 192.0), REye coords (420.0, 199.0), timeStamp: 2017-02-23 17:53:23.350
LEye coords (421.0, 192.0), REye coords (421.0, 198.0), timeStamp: 2017-02-23 17:53:23.384
LEye coords (423.0, 191.0), REye coords (422.0, 197.0), timeStamp: 2017-02-23 17:53:23.429
LEye coords (423.0, 190.0), REye coords (422.0, 197.0), timeStamp: 2017-02-23 17:53:23.465
