LEye coords (376.0, 245.0), REye coords (385.0, 238.0), timeStamp: 2017-02-23 17:53:26.901
LEye coords (376.0, 245.0), REye coords (384.0, 239.0), timeStamp: 2017-02-23 17:53:26.935
LEye coords (376.0, 245.0), REye coords (383.0, 240.0), timeStamp: 2017-02-23 17:53:26.980
LEye coords (301.0, 211.0), REye coords (308.0, 214.0), timeStamp: 2017-02-23 17:53:27.014
LEye coords (279.0, 199.0), REye coords (282.0, 200.0), timeStamp: 2017-02-23 17:53:27.048
LEye coords (279.0, 198.0), REye coords (284.0, 198.0), timeStamp: 2017-02-23 17:53:27.082
LEye coords (278.0, 197.0), REye coords (282.0, 199.0), timeStamp: 2017-02-23 17:53:27.127
LEye coords (278.0, 198.0), REye coords (283.0, 199.0), timeStamp: 2017-02-23 17:53:27.161
LEye coords (278.0, 202.0), REye coords (283.0, 200.0), timeStamp: 2017-02-23 17:53:27.194
LEye coords (282.0, 202.0), REye coords (285.0, 198.0), timeStamp: 2017-02-23 17:53:27.237
LEye coords (278.0, 201.0), REye coords (283.0, 199.0), timeStamp: 2017-02-23 17:53:27.271
LEye coords (264.0, 196.0), REye coords (269.0, 195.0), timeStamp: 2017-02-23 17:53:27.305
LEye coords (257.0, 194.0), REye coords (263.0, 192.0), timeStamp: 2017-02-23 17:53:27.349
LEye coords (253.0, 192.0), REye coords (259.0, 189.0), timeStamp: 2017-02-23 17:53:27.383
LEye coords (247.0, 189.0), REye coords (227.0, 147.0), timeStamp: 2017-02-23 17:53:27.416
LEye coords (206.0, 159.0), REye coords (209.0, 132.0), timeStamp: 2017-02-23 17:53:27.460
LEye coords (206.0, 161.0), REye coords (209.0, 138.0), timeStamp: 2017-02-23 17:53:27.494
LEye coords (205.0, 161.0), REye coords (209.0, 140.0), timeStamp: 2017-02-23 17:53:27.527
LEye coords (205.0, 161.0), REye coords (209.0, 140.0), timeStamp: 2017-02-23 17:53:27.570
LEye coords (203.0, 161.0), REye coords (208.0, 141.0), timeStamp: 2017-02-23 17:53:27.603
LEye coords (200.0, 161.0), REye coords (192.0, 135.0), timeStamp: 2017-02-23 17:53:27.647
LEye coords (198.0, 161.0), REye coords (189.0, 145.0), timeStamp: 2017-02-23 17:53:27.680
LEye coords (197.0, 162.0), REye coords (192.0, 142.0), timeStamp: 2017-02-23 17:53:27.713
LEye coords (196.0, 162.0), REye coords (192.0, 141.0), timeStamp: 2017-02-23 17:53:27.758
LEye coords (195.0, 162.0), REye coords (193.0, 141.0), timeStamp: 2017-02-23 17:53:27.791
LEye coords (194.0, 163.0), REye coords (192.0, 142.0), timeStamp: 2017-02-23 17:53:27.824
LEye coords (195.0, 162.0), REye coords (194.0, 142.0), timeStamp: 2017-02-23 17:53:27.869
LEye coords (195.0, 162.0), REye coords (196.0, 143.0), timeStamp: 2017-02-23 17:53:27.902
LEye coords (196.0, 162.0), REye coords (197.0, 143.0), timeStamp: 2017-02-23 17:53:27.936
LEye coords (196.0, 161.0), REye coords (198.0, 144.0), timeStamp: 2017-02-23 17:53:27.979
