LEye coords (171.0, 242.0), REye coords (175.0, 234.0), timeStamp: 2017-02-23 17:57:52.238
LEye coords (171.0, 239.0), REye coords (174.0, 236.0), timeStamp: 2017-02-23 17:57:52.272
LEye coords (171.0, 239.0), REye coords (174.0, 240.0), timeStamp: 2017-02-23 17:57:52.305
LEye coords (172.0, 233.0), REye coords (174.0, 229.0), timeStamp: 2017-02-23 17:57:52.348
LEye coords (172.0, 224.0), REye coords (175.0, 218.0), timeStamp: 2017-02-23 17:57:52.382
LEye coords (172.0, 218.0), REye coords (175.0, 209.0), timeStamp: 2017-02-23 17:57:52.415
LEye coords (172.0, 214.0), REye coords (174.0, 203.0), timeStamp: 2017-02-23 17:57:52.459
LEye coords (172.0, 212.0), REye coords (174.0, 200.0), timeStamp: 2017-02-23 17:57:52.492
LEye coords (172.0, 209.0), REye coords (175.0, 198.0), timeStamp: 2017-02-23 17:57:52.526
LEye coords (172.0, 208.0), REye coords (174.0, 195.0), timeStamp: 2017-02-23 17:57:52.570
LEye coords (172.0, 207.0), REye coords (174.0, 193.0), timeStamp: 2017-02-23 17:57:52.604
LEye coords (173.0, 206.0), REye coords (174.0, 192.0), timeStamp: 2017-02-23 17:57:52.637
LEye coords (170.0, 204.0), REye coords (147.0, 154.0), timeStamp: 2017-02-23 17:57:52.680
LEye coords (168.0, 201.0), REye coords (147.0, 158.0), timeStamp: 2017-02-23 17:57:52.713
LEye coords (166.0, 200.0), REye coords (149.0, 159.0), timeStamp: 2017-02-23 17:57:52.757
LEye coords (165.0, 198.0), REye coords (149.0, 159.0), timeStamp: 2017-02-23 17:57:52.790
LEye coords (163.0, 197.0), REye coords (148.0, 159.0), timeStamp: 2017-02-23 17:57:52.825
LEye coords (162.0, 195.0), REye coords (148.0, 159.0), timeStamp: 2017-02-23 17:57:52.858
LEye coords (161.0, 194.0), REye coords (147.0, 161.0), timeStamp: 2017-02-23 17:57:52.902
LEye coords (159.0, 193.0), REye coords (147.0, 163.0), timeStamp: 2017-02-23 17:57:52.935
LEye coords (158.0, 192.0), REye coords (147.0, 164.0), timeStamp: 2017-02-23 17:57:52.970
LEye coords (157.0, 192.0), REye coords (147.0, 164.0), timeStamp: 2017-02-23 17:57:53.013
LEye coords (156.0, 190.0), REye coords (147.0, 163.0), timeStamp: 2017-02-23 17:57:53.045
LEye coords (155.0, 190.0), REye coords (147.0, 162.0), timeStamp: 2017-02-23 17:57:53.090
LEye coords (154.0, 189.0), REye coords (147.0, 161.0), timeStamp: 2017-02-23 17:57:53.123
LEye coords (153.0, 188.0), REye coords (147.0, 160.0), timeStamp: 2017-02-23 17:57:53.156
LEye coords (152.0, 189.0), REye coords (147.0, 159.0), timeStamp: 2017-02-23 17:57:53.200
LEye coords (151.0, 189.0), REye coords (148.0, 159.0), timeStamp: 2017-02-23 17:57:53.234
LEye coords (150.0, 190.0), REye coords (148.0, 160.0), timeStamp: 2017-02-23 17:57:53.268
LEye coords (149.0, 190.0), REye coords (148.0, 161.0), timeStamp: 2017-02-23 17:57:53.312
LEye coords (149.0, 190.0), REye coords (148.0, 161.0), timeStamp: 2017-02-23 17:57:53.346
LEye coords (148.0, 190.0), REye coords (148.0, 162.0), timeStamp: 2017-02-23 17:57:53.381
LEye coords (148.0, 191.0), REye coords (148.0, 162.0), timeStamp: 2017-02-23 17:57:53.414
LEye coords (147.0, 191.0), REye coords (148.0, 163.0), timeStamp: 2017-02-23 17:57:53.458
LEye coords (147.0, 192.0), REye coords (148.0, 165.0), timeStamp: 2017-02-23 17:57:53.491
LEye coords (147.0, 193.0), REye coords (148.0, 167.0), timeStamp: 2017-02-23 17:57:53.525
LEye coords (148.0, 194.0), REye coords (148.0, 168.0), timeStamp: 2017-02-23 17:57:53.571
LEye coords (148.0, 195.0), REye coords (149.0, 170.0), timeStamp: 2017-02-23 17:57:53.606
LEye coords (148.0, 196.0), REye coords (149.0, 171.0), timeStamp: 2017-02-23 17:57:53.639
LEye coords (148.0, 196.0), REye coords (149.0, 173.0), timeStamp: 2017-02-23 17:57:53.673
LEye coords (148.0, 197.0), REye coords (149.0, 173.0), timeStamp: 2017-02-23 17:57:53.717
LEye coords (149.0, 198.0), REye coords (150.0, 175.0), timeStamp: 2017-02-23 17:57:53.750
LEye coords (149.0, 199.0), REye coords (150.0, 176.0), timeStamp: 2017-02-23 17:57:53.783
LEye coords (149.0, 199.0), REye coords (150.0, 178.0), timeStamp: 2017-02-23 17:57:53.827
LEye coords (149.0, 200.0), REye coords (150.0, 180.0), timeStamp: 2017-02-23 17:57:53.861
LEye coords (149.0, 201.0), REye coords (151.0, 181.0), timeStamp: 2017-02-23 17:57:53.895
LEye coords (149.0, 201.0), REye coords (151.0, 182.0), timeStamp: 2017-02-23 17:57:53.938
LEye coords (149.0, 202.0), REye coords (151.0, 184.0), timeStamp: 2017-02-23 17:57:53.971
LEye coords (150.0, 202.0), REye coords (151.0, 185.0), timeStamp: 2017-02-23 17:57:54.005
