84
43
49
60
53
81
78
79
92
7
105
57
15
164
30
198
155
53
78
18
135
12
263
124
35
47
117
89
94
49
112
77
91
54
68
342
66
18
53
38
153
50
91
179
14
40
63
171
204
160
78
24
39
62
84
92
159
74
89
235
130
103
15
268
33
232
188
166
72
63
119
114
160
37
189
40
64
113
51
34
79
99
19
250
45
97
98
75
32
2
166
379
54
148
55
7
20
118
64
78
50
29
42
46
52
199
191
39
271
63
122
347
98
78
25
64
44
10
111
17
45
204
70
44
12
112
130
23
288
124
155
14
71
80
97
9
27
250
141
120
49
