000211
000232
000306
000408
000417
000462
000464
000491
000622
000728
000767
000770
000786
000808
000827
000834
000880
000904
001073
001130
001143
001182
001299
001312
001442
001468
001614
001713
001741
001806
002021
002088
002126
002152
002237
002300
002323
002369
002387
002494
002505
002634
002669
002695
002749
002763
002794
002868
002940
002978
003105
003354
003410
003439
003640
003750
003887
003994
004023
004141
004200
004368
004441
004474
004500
004537
004571
004585
004686
004826
005036
005063
005114
005124
005326
005404
005418
005514
005547
005653
005728
005841
005843
005981
006073
006095
006111
006148
006170
006177
006202
006291
006404
006562
006612
006708
006761
006841
006935
007008
007045
007072
007075
007153
007215
007389
007528
007772
007786
007939
007979
008005
008189
008202
008208
008299
008342
008345
008475
008607
008615
008636
008706
008722
008927
008973
009113
009133
009189
009245
009308
009429
009463
009545
009586
009650
009710
009717
009865
009897
009908
