LEye coords (191.0, 241.0), REye coords (202.0, 194.0), timeStamp: 2017-03-02 11:07:38.315
LEye coords (193.0, 242.0), REye coords (203.0, 194.0), timeStamp: 2017-03-02 11:07:38.349
LEye coords (194.0, 243.0), REye coords (203.0, 195.0), timeStamp: 2017-03-02 11:07:38.393
LEye coords (196.0, 243.0), REye coords (204.0, 194.0), timeStamp: 2017-03-02 11:07:38.428
LEye coords (197.0, 244.0), REye coords (205.0, 194.0), timeStamp: 2017-03-02 11:07:38.462
LEye coords (198.0, 244.0), REye coords (206.0, 194.0), timeStamp: 2017-03-02 11:07:38.506
LEye coords (199.0, 245.0), REye coords (206.0, 194.0), timeStamp: 2017-03-02 11:07:38.540
LEye coords (201.0, 245.0), REye coords (208.0, 194.0), timeStamp: 2017-03-02 11:07:38.575
LEye coords (202.0, 246.0), REye coords (209.0, 194.0), timeStamp: 2017-03-02 11:07:38.608
LEye coords (203.0, 246.0), REye coords (210.0, 194.0), timeStamp: 2017-03-02 11:07:38.653
LEye coords (203.0, 247.0), REye coords (211.0, 194.0), timeStamp: 2017-03-02 11:07:38.685
LEye coords (204.0, 247.0), REye coords (212.0, 194.0), timeStamp: 2017-03-02 11:07:38.719
LEye coords (205.0, 248.0), REye coords (217.0, 199.0), timeStamp: 2017-03-02 11:07:38.763
LEye coords (204.0, 250.0), REye coords (211.0, 222.0), timeStamp: 2017-03-02 11:07:38.796
LEye coords (205.0, 254.0), REye coords (213.0, 210.0), timeStamp: 2017-03-02 11:07:38.830
LEye coords (210.0, 260.0), REye coords (217.0, 226.0), timeStamp: 2017-03-02 11:07:38.873
LEye coords (212.0, 262.0), REye coords (218.0, 235.0), timeStamp: 2017-03-02 11:07:38.907
LEye coords (214.0, 262.0), REye coords (219.0, 241.0), timeStamp: 2017-03-02 11:07:38.951
