LEye coords (71.0, 231.0), REye coords (73.0, 218.0), timeStamp: 2017-03-02 11:08:48.863
LEye coords (70.0, 232.0), REye coords (72.0, 216.0), timeStamp: 2017-03-02 11:08:48.896
LEye coords (72.0, 231.0), REye coords (74.0, 215.0), timeStamp: 2017-03-02 11:08:48.930
LEye coords (199.0, 213.0), REye coords (205.0, 209.0), timeStamp: 2017-03-02 11:08:48.964
LEye coords (199.0, 214.0), REye coords (204.0, 215.0), timeStamp: 2017-03-02 11:08:49.008
LEye coords (200.0, 212.0), REye coords (202.0, 213.0), timeStamp: 2017-03-02 11:08:49.041
LEye coords (199.0, 212.0), REye coords (201.0, 214.0), timeStamp: 2017-03-02 11:08:49.085
LEye coords (199.0, 212.0), REye coords (201.0, 215.0), timeStamp: 2017-03-02 11:08:49.118
LEye coords (203.0, 215.0), REye coords (201.0, 215.0), timeStamp: 2017-03-02 11:08:49.152
LEye coords (202.0, 216.0), REye coords (204.0, 207.0), timeStamp: 2017-03-02 11:08:49.196
LEye coords (202.0, 216.0), REye coords (202.0, 209.0), timeStamp: 2017-03-02 11:08:49.231
LEye coords (202.0, 217.0), REye coords (203.0, 213.0), timeStamp: 2017-03-02 11:08:49.265
LEye coords (0.0, 0.0), REye coords (216.0, 237.0), timeStamp: 2017-03-02 11:08:49.298
LEye coords (0.0, 0.0), REye coords (256.0, 302.0), timeStamp: 2017-03-02 11:08:49.342
LEye coords (0.0, 0.0), REye coords (256.0, 309.0), timeStamp: 2017-03-02 11:08:49.375
LEye coords (0.0, 0.0), REye coords (258.0, 307.0), timeStamp: 2017-03-02 11:08:49.419
LEye coords (213.0, 238.0), REye coords (259.0, 306.0), timeStamp: 2017-03-02 11:08:49.452
LEye coords (241.0, 302.0), REye coords (260.0, 304.0), timeStamp: 2017-03-02 11:08:49.485
LEye coords (241.0, 305.0), REye coords (260.0, 304.0), timeStamp: 2017-03-02 11:08:49.530
LEye coords (241.0, 305.0), REye coords (260.0, 304.0), timeStamp: 2017-03-02 11:08:49.563
LEye coords (243.0, 307.0), REye coords (260.0, 303.0), timeStamp: 2017-03-02 11:08:49.597
LEye coords (243.0, 307.0), REye coords (260.0, 303.0), timeStamp: 2017-03-02 11:08:49.631
LEye coords (244.0, 306.0), REye coords (260.0, 303.0), timeStamp: 2017-03-02 11:08:49.674
LEye coords (244.0, 305.0), REye coords (260.0, 302.0), timeStamp: 2017-03-02 11:08:49.709
