LEye coords (246.0, 304.0), REye coords (259.0, 301.0), timeStamp: 2017-03-02 11:08:49.856
LEye coords (246.0, 303.0), REye coords (259.0, 300.0), timeStamp: 2017-03-02 11:08:49.890
LEye coords (245.0, 302.0), REye coords (259.0, 300.0), timeStamp: 2017-03-02 11:08:49.934
LEye coords (246.0, 302.0), REye coords (259.0, 300.0), timeStamp: 2017-03-02 11:08:49.969
LEye coords (224.0, 236.0), REye coords (232.0, 245.0), timeStamp: 2017-03-02 11:08:50.003
LEye coords (227.0, 240.0), REye coords (226.0, 242.0), timeStamp: 2017-03-02 11:08:50.047
LEye coords (226.0, 239.0), REye coords (233.0, 214.0), timeStamp: 2017-03-02 11:08:50.080
LEye coords (226.0, 239.0), REye coords (230.0, 235.0), timeStamp: 2017-03-02 11:08:50.113
LEye coords (226.0, 240.0), REye coords (229.0, 237.0), timeStamp: 2017-03-02 11:08:50.157
LEye coords (225.0, 241.0), REye coords (223.0, 251.0), timeStamp: 2017-03-02 11:08:50.190
LEye coords (234.0, 235.0), REye coords (239.0, 247.0), timeStamp: 2017-03-02 11:08:50.223
LEye coords (320.0, 214.0), REye coords (313.0, 221.0), timeStamp: 2017-03-02 11:08:50.268
LEye coords (346.0, 203.0), REye coords (338.0, 211.0), timeStamp: 2017-03-02 11:08:50.301
LEye coords (359.0, 199.0), REye coords (351.0, 205.0), timeStamp: 2017-03-02 11:08:50.335
LEye coords (397.0, 186.0), REye coords (392.0, 187.0), timeStamp: 2017-03-02 11:08:50.380
LEye coords (398.0, 184.0), REye coords (391.0, 189.0), timeStamp: 2017-03-02 11:08:50.412
LEye coords (398.0, 187.0), REye coords (391.0, 187.0), timeStamp: 2017-03-02 11:08:50.446
LEye coords (398.0, 189.0), REye coords (390.0, 188.0), timeStamp: 2017-03-02 11:08:50.490
LEye coords (400.0, 189.0), REye coords (390.0, 189.0), timeStamp: 2017-03-02 11:08:50.523
LEye coords (0.0, 0.0), REye coords (394.0, 189.0), timeStamp: 2017-03-02 11:08:50.557
LEye coords (0.0, 0.0), REye coords (396.0, 190.0), timeStamp: 2017-03-02 11:08:50.600
LEye coords (0.0, 0.0), REye coords (398.0, 191.0), timeStamp: 2017-03-02 11:08:50.633
