LEye coords (0.0, 0.0), REye coords (401.0, 193.0), timeStamp: 2017-03-02 11:08:50.744
LEye coords (0.0, 0.0), REye coords (401.0, 192.0), timeStamp: 2017-03-02 11:08:50.788
LEye coords (0.0, 0.0), REye coords (402.0, 192.0), timeStamp: 2017-03-02 11:08:50.822
LEye coords (0.0, 0.0), REye coords (402.0, 192.0), timeStamp: 2017-03-02 11:08:50.856
LEye coords (0.0, 0.0), REye coords (403.0, 193.0), timeStamp: 2017-03-02 11:08:50.890
LEye coords (0.0, 0.0), REye coords (403.0, 193.0), timeStamp: 2017-03-02 11:08:50.934
LEye coords (322.0, 218.0), REye coords (341.0, 197.0), timeStamp: 2017-03-02 11:08:50.969
LEye coords (244.0, 239.0), REye coords (245.0, 249.0), timeStamp: 2017-03-02 11:08:51.002
LEye coords (245.0, 244.0), REye coords (247.0, 249.0), timeStamp: 2017-03-02 11:08:51.046
LEye coords (246.0, 246.0), REye coords (247.0, 251.0), timeStamp: 2017-03-02 11:08:51.080
LEye coords (247.0, 247.0), REye coords (246.0, 252.0), timeStamp: 2017-03-02 11:08:51.115
LEye coords (250.0, 243.0), REye coords (245.0, 251.0), timeStamp: 2017-03-02 11:08:51.148
LEye coords (249.0, 243.0), REye coords (244.0, 248.0), timeStamp: 2017-03-02 11:08:51.192
LEye coords (251.0, 228.0), REye coords (256.0, 207.0), timeStamp: 2017-03-02 11:08:51.226
LEye coords (252.0, 217.0), REye coords (261.0, 195.0), timeStamp: 2017-03-02 11:08:51.260
LEye coords (253.0, 215.0), REye coords (263.0, 188.0), timeStamp: 2017-03-02 11:08:51.303
LEye coords (255.0, 213.0), REye coords (271.0, 169.0), timeStamp: 2017-03-02 11:08:51.337
LEye coords (255.0, 212.0), REye coords (260.0, 190.0), timeStamp: 2017-03-02 11:08:51.370
LEye coords (255.0, 211.0), REye coords (264.0, 178.0), timeStamp: 2017-03-02 11:08:51.413
LEye coords (256.0, 210.0), REye coords (262.0, 184.0), timeStamp: 2017-03-02 11:08:51.446
LEye coords (256.0, 210.0), REye coords (265.0, 179.0), timeStamp: 2017-03-02 11:08:51.489
LEye coords (256.0, 209.0), REye coords (266.0, 176.0), timeStamp: 2017-03-02 11:08:51.523
LEye coords (257.0, 209.0), REye coords (266.0, 174.0), timeStamp: 2017-03-02 11:08:51.557
