LEye coords (96.0, 306.0), REye coords (114.0, 318.0), timeStamp: 2017-03-02 11:10:12.654
LEye coords (72.0, 409.0), REye coords (85.0, 426.0), timeStamp: 2017-03-02 11:10:12.688
LEye coords (73.0, 410.0), REye coords (85.0, 427.0), timeStamp: 2017-03-02 11:10:12.722
LEye coords (73.0, 412.0), REye coords (85.0, 427.0), timeStamp: 2017-03-02 11:10:12.765
LEye coords (125.0, 312.0), REye coords (136.0, 319.0), timeStamp: 2017-03-02 11:10:12.799
LEye coords (0.0, 0.0), REye coords (144.0, 287.0), timeStamp: 2017-03-02 11:10:12.833
LEye coords (129.0, 310.0), REye coords (144.0, 288.0), timeStamp: 2017-03-02 11:10:12.877
LEye coords (129.0, 312.0), REye coords (142.0, 291.0), timeStamp: 2017-03-02 11:10:12.910
LEye coords (129.0, 311.0), REye coords (143.0, 291.0), timeStamp: 2017-03-02 11:10:12.944
LEye coords (129.0, 309.0), REye coords (139.0, 290.0), timeStamp: 2017-03-02 11:10:12.987
LEye coords (129.0, 302.0), REye coords (141.0, 293.0), timeStamp: 2017-03-02 11:10:13.020
LEye coords (130.0, 303.0), REye coords (142.0, 295.0), timeStamp: 2017-03-02 11:10:13.053
LEye coords (144.0, 315.0), REye coords (148.0, 304.0), timeStamp: 2017-03-02 11:10:13.097
LEye coords (155.0, 332.0), REye coords (157.0, 321.0), timeStamp: 2017-03-02 11:10:13.130
LEye coords (160.0, 342.0), REye coords (185.0, 364.0), timeStamp: 2017-03-02 11:10:13.174
LEye coords (179.0, 370.0), REye coords (185.0, 371.0), timeStamp: 2017-03-02 11:10:13.207
LEye coords (179.0, 373.0), REye coords (185.0, 369.0), timeStamp: 2017-03-02 11:10:13.240
LEye coords (179.0, 373.0), REye coords (185.0, 370.0), timeStamp: 2017-03-02 11:10:13.284
LEye coords (178.0, 371.0), REye coords (184.0, 371.0), timeStamp: 2017-03-02 11:10:13.318
LEye coords (178.0, 372.0), REye coords (184.0, 372.0), timeStamp: 2017-03-02 11:10:13.352
LEye coords (178.0, 373.0), REye coords (0.0, 0.0), timeStamp: 2017-03-02 11:10:13.396
LEye coords (175.0, 376.0), REye coords (181.0, 376.0), timeStamp: 2017-03-02 11:10:13.430
LEye coords (173.0, 379.0), REye coords (179.0, 380.0), timeStamp: 2017-03-02 11:10:13.463
LEye coords (171.0, 382.0), REye coords (178.0, 384.0), timeStamp: 2017-03-02 11:10:13.507
LEye coords (170.0, 384.0), REye coords (177.0, 386.0), timeStamp: 2017-03-02 11:10:13.541
LEye coords (170.0, 386.0), REye coords (176.0, 388.0), timeStamp: 2017-03-02 11:10:13.576
