LEye coords (223.0, 242.0), REye coords (235.0, 243.0), timeStamp: 2017-03-02 11:10:19.464
LEye coords (224.0, 243.0), REye coords (236.0, 244.0), timeStamp: 2017-03-02 11:10:19.498
LEye coords (225.0, 244.0), REye coords (237.0, 244.0), timeStamp: 2017-03-02 11:10:19.531
LEye coords (226.0, 244.0), REye coords (238.0, 245.0), timeStamp: 2017-03-02 11:10:19.575
LEye coords (226.0, 245.0), REye coords (238.0, 246.0), timeStamp: 2017-03-02 11:10:19.608
LEye coords (227.0, 246.0), REye coords (239.0, 247.0), timeStamp: 2017-03-02 11:10:19.641
LEye coords (227.0, 246.0), REye coords (239.0, 248.0), timeStamp: 2017-03-02 11:10:19.685
LEye coords (228.0, 247.0), REye coords (240.0, 248.0), timeStamp: 2017-03-02 11:10:19.719
LEye coords (229.0, 248.0), REye coords (240.0, 249.0), timeStamp: 2017-03-02 11:10:19.752
LEye coords (229.0, 248.0), REye coords (241.0, 250.0), timeStamp: 2017-03-02 11:10:19.799
LEye coords (230.0, 248.0), REye coords (241.0, 250.0), timeStamp: 2017-03-02 11:10:19.833
LEye coords (231.0, 249.0), REye coords (242.0, 252.0), timeStamp: 2017-03-02 11:10:19.868
LEye coords (259.0, 290.0), REye coords (272.0, 297.0), timeStamp: 2017-03-02 11:10:19.902
LEye coords (260.0, 288.0), REye coords (272.0, 297.0), timeStamp: 2017-03-02 11:10:19.947
LEye coords (259.0, 289.0), REye coords (273.0, 297.0), timeStamp: 2017-03-02 11:10:19.981
LEye coords (259.0, 290.0), REye coords (273.0, 296.0), timeStamp: 2017-03-02 11:10:20.015
LEye coords (259.0, 290.0), REye coords (273.0, 296.0), timeStamp: 2017-03-02 11:10:20.049
LEye coords (259.0, 291.0), REye coords (273.0, 296.0), timeStamp: 2017-03-02 11:10:20.093
LEye coords (265.0, 293.0), REye coords (277.0, 298.0), timeStamp: 2017-03-02 11:10:20.126
LEye coords (269.0, 296.0), REye coords (303.0, 316.0), timeStamp: 2017-03-02 11:10:20.159
