LEye coords (313.0, 206.0), REye coords (309.0, 205.0), timeStamp: 2017-03-02 11:10:21.195
LEye coords (312.0, 206.0), REye coords (309.0, 205.0), timeStamp: 2017-03-02 11:10:21.240
LEye coords (311.0, 207.0), REye coords (309.0, 205.0), timeStamp: 2017-03-02 11:10:21.274
LEye coords (311.0, 207.0), REye coords (309.0, 205.0), timeStamp: 2017-03-02 11:10:21.309
LEye coords (311.0, 207.0), REye coords (310.0, 205.0), timeStamp: 2017-03-02 11:10:21.344
LEye coords (310.0, 207.0), REye coords (310.0, 206.0), timeStamp: 2017-03-02 11:10:21.389
LEye coords (310.0, 207.0), REye coords (310.0, 206.0), timeStamp: 2017-03-02 11:10:21.422
LEye coords (309.0, 207.0), REye coords (310.0, 206.0), timeStamp: 2017-03-02 11:10:21.456
LEye coords (309.0, 207.0), REye coords (311.0, 206.0), timeStamp: 2017-03-02 11:10:21.501
LEye coords (309.0, 208.0), REye coords (312.0, 206.0), timeStamp: 2017-03-02 11:10:21.535
LEye coords (309.0, 208.0), REye coords (312.0, 207.0), timeStamp: 2017-03-02 11:10:21.568
LEye coords (229.0, 183.0), REye coords (236.0, 182.0), timeStamp: 2017-03-02 11:10:21.612
LEye coords (229.0, 184.0), REye coords (236.0, 176.0), timeStamp: 2017-03-02 11:10:21.645
LEye coords (228.0, 185.0), REye coords (235.0, 179.0), timeStamp: 2017-03-02 11:10:21.678
LEye coords (228.0, 185.0), REye coords (235.0, 179.0), timeStamp: 2017-03-02 11:10:21.723
LEye coords (228.0, 185.0), REye coords (235.0, 178.0), timeStamp: 2017-03-02 11:10:21.756
LEye coords (230.0, 184.0), REye coords (238.0, 178.0), timeStamp: 2017-03-02 11:10:21.790
LEye coords (228.0, 184.0), REye coords (234.0, 176.0), timeStamp: 2017-03-02 11:10:21.835
LEye coords (227.0, 184.0), REye coords (233.0, 179.0), timeStamp: 2017-03-02 11:10:21.869
LEye coords (226.0, 184.0), REye coords (233.0, 181.0), timeStamp: 2017-03-02 11:10:21.903
LEye coords (227.0, 184.0), REye coords (233.0, 179.0), timeStamp: 2017-03-02 11:10:21.936
LEye coords (227.0, 184.0), REye coords (233.0, 179.0), timeStamp: 2017-03-02 11:10:21.980
