LEye coords (260.0, 133.0), REye coords (271.0, 134.0), timeStamp: 2017-03-02 11:10:23.084
LEye coords (260.0, 135.0), REye coords (271.0, 134.0), timeStamp: 2017-03-02 11:10:23.127
LEye coords (260.0, 136.0), REye coords (271.0, 135.0), timeStamp: 2017-03-02 11:10:23.161
LEye coords (259.0, 138.0), REye coords (271.0, 135.0), timeStamp: 2017-03-02 11:10:23.194
LEye coords (259.0, 140.0), REye coords (271.0, 136.0), timeStamp: 2017-03-02 11:10:23.239
LEye coords (259.0, 141.0), REye coords (271.0, 136.0), timeStamp: 2017-03-02 11:10:23.272
LEye coords (258.0, 142.0), REye coords (271.0, 137.0), timeStamp: 2017-03-02 11:10:23.305
LEye coords (258.0, 143.0), REye coords (271.0, 137.0), timeStamp: 2017-03-02 11:10:23.349
LEye coords (259.0, 146.0), REye coords (272.0, 139.0), timeStamp: 2017-03-02 11:10:23.383
LEye coords (274.0, 196.0), REye coords (288.0, 191.0), timeStamp: 2017-03-02 11:10:23.416
LEye coords (277.0, 199.0), REye coords (293.0, 188.0), timeStamp: 2017-03-02 11:10:23.460
LEye coords (275.0, 199.0), REye coords (293.0, 182.0), timeStamp: 2017-03-02 11:10:23.494
LEye coords (276.0, 202.0), REye coords (292.0, 180.0), timeStamp: 2017-03-02 11:10:23.527
LEye coords (288.0, 227.0), REye coords (300.0, 212.0), timeStamp: 2017-03-02 11:10:23.571
LEye coords (321.0, 320.0), REye coords (325.0, 325.0), timeStamp: 2017-03-02 11:10:23.604
LEye coords (322.0, 317.0), REye coords (327.0, 322.0), timeStamp: 2017-03-02 11:10:23.648
LEye coords (321.0, 319.0), REye coords (327.0, 323.0), timeStamp: 2017-03-02 11:10:23.682
LEye coords (321.0, 320.0), REye coords (327.0, 325.0), timeStamp: 2017-03-02 11:10:23.716
LEye coords (321.0, 322.0), REye coords (327.0, 324.0), timeStamp: 2017-03-02 11:10:23.750
LEye coords (316.0, 315.0), REye coords (323.0, 319.0), timeStamp: 2017-03-02 11:10:23.794
LEye coords (313.0, 311.0), REye coords (321.0, 315.0), timeStamp: 2017-03-02 11:10:23.828
LEye coords (310.0, 308.0), REye coords (319.0, 313.0), timeStamp: 2017-03-02 11:10:23.862
LEye coords (308.0, 306.0), REye coords (317.0, 311.0), timeStamp: 2017-03-02 11:10:23.906
LEye coords (307.0, 304.0), REye coords (316.0, 310.0), timeStamp: 2017-03-02 11:10:23.941
LEye coords (306.0, 302.0), REye coords (315.0, 308.0), timeStamp: 2017-03-02 11:10:23.975
LEye coords (308.0, 300.0), REye coords (317.0, 306.0), timeStamp: 2017-03-02 11:10:24.009
LEye coords (310.0, 298.0), REye coords (319.0, 304.0), timeStamp: 2017-03-02 11:10:24.054
LEye coords (311.0, 296.0), REye coords (320.0, 302.0), timeStamp: 2017-03-02 11:10:24.088
LEye coords (312.0, 294.0), REye coords (321.0, 300.0), timeStamp: 2017-03-02 11:10:24.122
LEye coords (313.0, 293.0), REye coords (322.0, 299.0), timeStamp: 2017-03-02 11:10:24.156
LEye coords (314.0, 291.0), REye coords (322.0, 298.0), timeStamp: 2017-03-02 11:10:24.201
