LEye coords (227.0, 183.0), REye coords (234.0, 181.0), timeStamp: 2017-03-02 11:10:22.091
LEye coords (227.0, 183.0), REye coords (234.0, 181.0), timeStamp: 2017-03-02 11:10:22.125
LEye coords (226.0, 183.0), REye coords (234.0, 181.0), timeStamp: 2017-03-02 11:10:22.158
LEye coords (226.0, 183.0), REye coords (234.0, 181.0), timeStamp: 2017-03-02 11:10:22.203
LEye coords (226.0, 183.0), REye coords (234.0, 182.0), timeStamp: 2017-03-02 11:10:22.238
LEye coords (226.0, 183.0), REye coords (235.0, 182.0), timeStamp: 2017-03-02 11:10:22.271
LEye coords (226.0, 183.0), REye coords (234.0, 182.0), timeStamp: 2017-03-02 11:10:22.305
LEye coords (225.0, 183.0), REye coords (234.0, 183.0), timeStamp: 2017-03-02 11:10:22.349
LEye coords (225.0, 183.0), REye coords (234.0, 184.0), timeStamp: 2017-03-02 11:10:22.382
LEye coords (226.0, 181.0), REye coords (235.0, 181.0), timeStamp: 2017-03-02 11:10:22.426
LEye coords (0.0, 0.0), REye coords (0.0, 0.0), timeStamp: 2017-03-02 11:10:22.460
LEye coords (263.0, 99.0), REye coords (283.0, 84.0), timeStamp: 2017-03-02 11:10:22.492
LEye coords (262.0, 97.0), REye coords (280.0, 85.0), timeStamp: 2017-03-02 11:10:22.537
LEye coords (263.0, 97.0), REye coords (280.0, 84.0), timeStamp: 2017-03-02 11:10:22.570
LEye coords (263.0, 97.0), REye coords (280.0, 84.0), timeStamp: 2017-03-02 11:10:22.603
LEye coords (263.0, 96.0), REye coords (280.0, 84.0), timeStamp: 2017-03-02 11:10:22.648
LEye coords (264.0, 86.0), REye coords (282.0, 77.0), timeStamp: 2017-03-02 11:10:22.682
LEye coords (266.0, 85.0), REye coords (282.0, 84.0), timeStamp: 2017-03-02 11:10:22.716
LEye coords (265.0, 84.0), REye coords (0.0, 0.0), timeStamp: 2017-03-02 11:10:22.759
LEye coords (266.0, 84.0), REye coords (0.0, 0.0), timeStamp: 2017-03-02 11:10:22.794
LEye coords (265.0, 95.0), REye coords (276.0, 101.0), timeStamp: 2017-03-02 11:10:22.828
LEye coords (263.0, 101.0), REye coords (274.0, 106.0), timeStamp: 2017-03-02 11:10:22.861
LEye coords (263.0, 106.0), REye coords (274.0, 110.0), timeStamp: 2017-03-02 11:10:22.905
LEye coords (262.0, 109.0), REye coords (272.0, 112.0), timeStamp: 2017-03-02 11:10:22.939
LEye coords (262.0, 112.0), REye coords (271.0, 115.0), timeStamp: 2017-03-02 11:10:22.973
