LEye coords (237.0, 383.0), REye coords (243.0, 394.0), timeStamp: 2017-03-02 11:10:24.312
LEye coords (238.0, 382.0), REye coords (244.0, 393.0), timeStamp: 2017-03-02 11:10:24.346
LEye coords (239.0, 381.0), REye coords (244.0, 392.0), timeStamp: 2017-03-02 11:10:24.379
LEye coords (239.0, 380.0), REye coords (244.0, 391.0), timeStamp: 2017-03-02 11:10:24.424
LEye coords (239.0, 378.0), REye coords (245.0, 390.0), timeStamp: 2017-03-02 11:10:24.458
LEye coords (224.0, 317.0), REye coords (237.0, 328.0), timeStamp: 2017-03-02 11:10:24.492
LEye coords (213.0, 293.0), REye coords (220.0, 293.0), timeStamp: 2017-03-02 11:10:24.536
LEye coords (213.0, 292.0), REye coords (219.0, 297.0), timeStamp: 2017-03-02 11:10:24.569
LEye coords (214.0, 291.0), REye coords (220.0, 297.0), timeStamp: 2017-03-02 11:10:24.603
LEye coords (213.0, 292.0), REye coords (221.0, 293.0), timeStamp: 2017-03-02 11:10:24.647
LEye coords (213.0, 298.0), REye coords (128.0, 264.0), timeStamp: 2017-03-02 11:10:24.681
LEye coords (211.0, 289.0), REye coords (225.0, 274.0), timeStamp: 2017-03-02 11:10:24.715
LEye coords (222.0, 294.0), REye coords (230.0, 287.0), timeStamp: 2017-03-02 11:10:24.749
LEye coords (236.0, 296.0), REye coords (244.0, 292.0), timeStamp: 2017-03-02 11:10:24.793
LEye coords (243.0, 299.0), REye coords (252.0, 291.0), timeStamp: 2017-03-02 11:10:24.827
LEye coords (262.0, 305.0), REye coords (256.0, 295.0), timeStamp: 2017-03-02 11:10:24.861
LEye coords (265.0, 301.0), REye coords (258.0, 297.0), timeStamp: 2017-03-02 11:10:24.904
LEye coords (265.0, 301.0), REye coords (269.0, 306.0), timeStamp: 2017-03-02 11:10:24.938
LEye coords (265.0, 300.0), REye coords (270.0, 305.0), timeStamp: 2017-03-02 11:10:24.971
LEye coords (265.0, 301.0), REye coords (269.0, 306.0), timeStamp: 2017-03-02 11:10:25.015
LEye coords (265.0, 302.0), REye coords (268.0, 308.0), timeStamp: 2017-03-02 11:10:25.049
LEye coords (265.0, 302.0), REye coords (268.0, 308.0), timeStamp: 2017-03-02 11:10:25.083
LEye coords (265.0, 302.0), REye coords (268.0, 307.0), timeStamp: 2017-03-02 11:10:25.126
LEye coords (264.0, 301.0), REye coords (268.0, 307.0), timeStamp: 2017-03-02 11:10:25.160
LEye coords (264.0, 301.0), REye coords (268.0, 307.0), timeStamp: 2017-03-02 11:10:25.195
LEye coords (264.0, 301.0), REye coords (268.0, 308.0), timeStamp: 2017-03-02 11:10:25.239
