LEye coords (250.0, 211.0), REye coords (188.0, 211.0), timeStamp: 2017-03-02 11:11:05.728
LEye coords (249.0, 211.0), REye coords (189.0, 211.0), timeStamp: 2017-03-02 11:11:05.762
LEye coords (249.0, 212.0), REye coords (189.0, 211.0), timeStamp: 2017-03-02 11:11:05.795
LEye coords (249.0, 213.0), REye coords (189.0, 211.0), timeStamp: 2017-03-02 11:11:05.839
LEye coords (249.0, 213.0), REye coords (189.0, 212.0), timeStamp: 2017-03-02 11:11:05.872
LEye coords (249.0, 213.0), REye coords (190.0, 212.0), timeStamp: 2017-03-02 11:11:05.906
LEye coords (249.0, 213.0), REye coords (190.0, 212.0), timeStamp: 2017-03-02 11:11:05.951
LEye coords (250.0, 213.0), REye coords (190.0, 211.0), timeStamp: 2017-03-02 11:11:05.983
LEye coords (250.0, 213.0), REye coords (190.0, 211.0), timeStamp: 2017-03-02 11:11:06.018
LEye coords (250.0, 213.0), REye coords (190.0, 211.0), timeStamp: 2017-03-02 11:11:06.061
LEye coords (250.0, 214.0), REye coords (190.0, 211.0), timeStamp: 2017-03-02 11:11:06.096
LEye coords (251.0, 214.0), REye coords (191.0, 211.0), timeStamp: 2017-03-02 11:11:06.129
LEye coords (251.0, 214.0), REye coords (191.0, 211.0), timeStamp: 2017-03-02 11:11:06.172
LEye coords (251.0, 214.0), REye coords (191.0, 211.0), timeStamp: 2017-03-02 11:11:06.206
LEye coords (293.0, 241.0), REye coords (225.0, 241.0), timeStamp: 2017-03-02 11:11:06.239
LEye coords (292.0, 236.0), REye coords (226.0, 246.0), timeStamp: 2017-03-02 11:11:06.283
LEye coords (293.0, 237.0), REye coords (226.0, 245.0), timeStamp: 2017-03-02 11:11:06.316
LEye coords (291.0, 237.0), REye coords (227.0, 244.0), timeStamp: 2017-03-02 11:11:06.350
LEye coords (291.0, 237.0), REye coords (227.0, 243.0), timeStamp: 2017-03-02 11:11:06.394
LEye coords (292.0, 236.0), REye coords (227.0, 241.0), timeStamp: 2017-03-02 11:11:06.428
LEye coords (293.0, 237.0), REye coords (227.0, 240.0), timeStamp: 2017-03-02 11:11:06.461
LEye coords (293.0, 237.0), REye coords (227.0, 240.0), timeStamp: 2017-03-02 11:11:06.505
LEye coords (293.0, 237.0), REye coords (227.0, 240.0), timeStamp: 2017-03-02 11:11:06.540
LEye coords (293.0, 238.0), REye coords (227.0, 241.0), timeStamp: 2017-03-02 11:11:06.573
LEye coords (292.0, 238.0), REye coords (227.0, 240.0), timeStamp: 2017-03-02 11:11:06.617
LEye coords (293.0, 234.0), REye coords (227.0, 236.0), timeStamp: 2017-03-02 11:11:06.651
