LEye coords (284.0, 146.0), REye coords (220.0, 131.0), timeStamp: 2017-03-02 11:11:07.646
LEye coords (214.0, 196.0), REye coords (166.0, 172.0), timeStamp: 2017-03-02 11:11:07.689
LEye coords (214.0, 197.0), REye coords (165.0, 170.0), timeStamp: 2017-03-02 11:11:07.723
LEye coords (214.0, 196.0), REye coords (165.0, 177.0), timeStamp: 2017-03-02 11:11:07.756
LEye coords (213.0, 195.0), REye coords (165.0, 186.0), timeStamp: 2017-03-02 11:11:07.801
LEye coords (214.0, 196.0), REye coords (165.0, 184.0), timeStamp: 2017-03-02 11:11:07.834
LEye coords (214.0, 195.0), REye coords (166.0, 185.0), timeStamp: 2017-03-02 11:11:07.868
LEye coords (214.0, 196.0), REye coords (166.0, 184.0), timeStamp: 2017-03-02 11:11:07.912
LEye coords (214.0, 196.0), REye coords (167.0, 182.0), timeStamp: 2017-03-02 11:11:07.945
LEye coords (213.0, 197.0), REye coords (167.0, 181.0), timeStamp: 2017-03-02 11:11:07.979
LEye coords (214.0, 198.0), REye coords (167.0, 179.0), timeStamp: 2017-03-02 11:11:08.023
LEye coords (213.0, 199.0), REye coords (167.0, 180.0), timeStamp: 2017-03-02 11:11:08.057
LEye coords (214.0, 200.0), REye coords (167.0, 180.0), timeStamp: 2017-03-02 11:11:08.091
LEye coords (214.0, 201.0), REye coords (167.0, 180.0), timeStamp: 2017-03-02 11:11:08.125
LEye coords (203.0, 118.0), REye coords (175.0, 108.0), timeStamp: 2017-03-02 11:11:08.169
LEye coords (205.0, 116.0), REye coords (173.0, 105.0), timeStamp: 2017-03-02 11:11:08.202
LEye coords (203.0, 118.0), REye coords (173.0, 108.0), timeStamp: 2017-03-02 11:11:08.236
LEye coords (203.0, 119.0), REye coords (174.0, 106.0), timeStamp: 2017-03-02 11:11:08.281
LEye coords (204.0, 121.0), REye coords (174.0, 107.0), timeStamp: 2017-03-02 11:11:08.314
LEye coords (205.0, 125.0), REye coords (176.0, 105.0), timeStamp: 2017-03-02 11:11:08.348
LEye coords (206.0, 124.0), REye coords (171.0, 110.0), timeStamp: 2017-03-02 11:11:08.391
LEye coords (207.0, 124.0), REye coords (173.0, 107.0), timeStamp: 2017-03-02 11:11:08.425
LEye coords (207.0, 126.0), REye coords (173.0, 107.0), timeStamp: 2017-03-02 11:11:08.459
LEye coords (207.0, 125.0), REye coords (173.0, 108.0), timeStamp: 2017-03-02 11:11:08.503
