LEye coords (320.0, 285.0), REye coords (280.0, 292.0), timeStamp: 2017-03-02 11:11:12.981
LEye coords (322.0, 285.0), REye coords (281.0, 292.0), timeStamp: 2017-03-02 11:11:13.015
LEye coords (323.0, 285.0), REye coords (282.0, 293.0), timeStamp: 2017-03-02 11:11:13.049
LEye coords (324.0, 285.0), REye coords (283.0, 294.0), timeStamp: 2017-03-02 11:11:13.093
LEye coords (324.0, 286.0), REye coords (284.0, 295.0), timeStamp: 2017-03-02 11:11:13.127
LEye coords (325.0, 286.0), REye coords (284.0, 295.0), timeStamp: 2017-03-02 11:11:13.161
LEye coords (304.0, 191.0), REye coords (0.0, 0.0), timeStamp: 2017-03-02 11:11:13.206
LEye coords (304.0, 191.0), REye coords (252.0, 161.0), timeStamp: 2017-03-02 11:11:13.240
LEye coords (303.0, 191.0), REye coords (247.0, 165.0), timeStamp: 2017-03-02 11:11:13.273
LEye coords (304.0, 192.0), REye coords (248.0, 168.0), timeStamp: 2017-03-02 11:11:13.307
LEye coords (304.0, 193.0), REye coords (249.0, 172.0), timeStamp: 2017-03-02 11:11:13.351
LEye coords (0.0, 0.0), REye coords (273.0, 187.0), timeStamp: 2017-03-02 11:11:13.384
LEye coords (0.0, 0.0), REye coords (348.0, 235.0), timeStamp: 2017-03-02 11:11:13.418
LEye coords (0.0, 0.0), REye coords (344.0, 237.0), timeStamp: 2017-03-02 11:11:13.462
LEye coords (0.0, 0.0), REye coords (345.0, 236.0), timeStamp: 2017-03-02 11:11:13.496
LEye coords (0.0, 0.0), REye coords (344.0, 236.0), timeStamp: 2017-03-02 11:11:13.529
LEye coords (0.0, 0.0), REye coords (0.0, 0.0), timeStamp: 2017-03-02 11:11:13.573
LEye coords (0.0, 0.0), REye coords (342.0, 227.0), timeStamp: 2017-03-02 11:11:13.607
LEye coords (0.0, 0.0), REye coords (341.0, 219.0), timeStamp: 2017-03-02 11:11:13.641
LEye coords (0.0, 0.0), REye coords (341.0, 213.0), timeStamp: 2017-03-02 11:11:13.685
LEye coords (0.0, 0.0), REye coords (340.0, 209.0), timeStamp: 2017-03-02 11:11:13.720
LEye coords (0.0, 0.0), REye coords (340.0, 206.0), timeStamp: 2017-03-02 11:11:13.753
LEye coords (0.0, 0.0), REye coords (340.0, 203.0), timeStamp: 2017-03-02 11:11:13.797
LEye coords (0.0, 0.0), REye coords (339.0, 201.0), timeStamp: 2017-03-02 11:11:13.830
LEye coords (0.0, 0.0), REye coords (339.0, 200.0), timeStamp: 2017-03-02 11:11:13.864
LEye coords (0.0, 0.0), REye coords (340.0, 199.0), timeStamp: 2017-03-02 11:11:13.908
LEye coords (0.0, 0.0), REye coords (341.0, 198.0), timeStamp: 2017-03-02 11:11:13.941
LEye coords (0.0, 0.0), REye coords (341.0, 197.0), timeStamp: 2017-03-02 11:11:13.975
LEye coords (0.0, 0.0), REye coords (342.0, 197.0), timeStamp: 2017-03-02 11:11:14.019
LEye coords (0.0, 0.0), REye coords (341.0, 195.0), timeStamp: 2017-03-02 11:11:14.052
LEye coords (269.0, 193.0), REye coords (205.0, 150.0), timeStamp: 2017-03-02 11:11:14.088
LEye coords (269.0, 190.0), REye coords (203.0, 189.0), timeStamp: 2017-03-02 11:11:14.122
LEye coords (271.0, 189.0), REye coords (202.0, 188.0), timeStamp: 2017-03-02 11:11:14.166
LEye coords (271.0, 189.0), REye coords (202.0, 189.0), timeStamp: 2017-03-02 11:11:14.200
LEye coords (271.0, 190.0), REye coords (202.0, 190.0), timeStamp: 2017-03-02 11:11:14.233
LEye coords (271.0, 191.0), REye coords (204.0, 187.0), timeStamp: 2017-03-02 11:11:14.278
LEye coords (271.0, 192.0), REye coords (204.0, 190.0), timeStamp: 2017-03-02 11:11:14.311
LEye coords (271.0, 192.0), REye coords (205.0, 190.0), timeStamp: 2017-03-02 11:11:14.344
LEye coords (271.0, 192.0), REye coords (204.0, 188.0), timeStamp: 2017-03-02 11:11:14.387
LEye coords (267.0, 194.0), REye coords (199.0, 191.0), timeStamp: 2017-03-02 11:11:14.421
LEye coords (264.0, 195.0), REye coords (196.0, 194.0), timeStamp: 2017-03-02 11:11:14.455
LEye coords (262.0, 196.0), REye coords (193.0, 196.0), timeStamp: 2017-03-02 11:11:14.500
