LEye coords (239.0, 188.0), REye coords (189.0, 177.0), timeStamp: 2017-03-02 11:11:14.611
LEye coords (238.0, 187.0), REye coords (187.0, 176.0), timeStamp: 2017-03-02 11:11:14.645
LEye coords (238.0, 187.0), REye coords (186.0, 176.0), timeStamp: 2017-03-02 11:11:14.679
LEye coords (238.0, 186.0), REye coords (185.0, 177.0), timeStamp: 2017-03-02 11:11:14.713
LEye coords (238.0, 186.0), REye coords (185.0, 178.0), timeStamp: 2017-03-02 11:11:14.757
LEye coords (239.0, 186.0), REye coords (184.0, 179.0), timeStamp: 2017-03-02 11:11:14.791
LEye coords (238.0, 185.0), REye coords (184.0, 180.0), timeStamp: 2017-03-02 11:11:14.826
LEye coords (238.0, 185.0), REye coords (183.0, 180.0), timeStamp: 2017-03-02 11:11:14.870
LEye coords (238.0, 184.0), REye coords (182.0, 181.0), timeStamp: 2017-03-02 11:11:14.904
LEye coords (238.0, 184.0), REye coords (182.0, 182.0), timeStamp: 2017-03-02 11:11:14.937
LEye coords (239.0, 184.0), REye coords (181.0, 182.0), timeStamp: 2017-03-02 11:11:14.980
LEye coords (239.0, 184.0), REye coords (181.0, 182.0), timeStamp: 2017-03-02 11:11:15.014
LEye coords (239.0, 184.0), REye coords (180.0, 182.0), timeStamp: 2017-03-02 11:11:15.048
LEye coords (238.0, 185.0), REye coords (180.0, 183.0), timeStamp: 2017-03-02 11:11:15.091
LEye coords (209.0, 236.0), REye coords (159.0, 242.0), timeStamp: 2017-03-02 11:11:15.125
LEye coords (210.0, 237.0), REye coords (155.0, 244.0), timeStamp: 2017-03-02 11:11:15.158
LEye coords (208.0, 237.0), REye coords (158.0, 243.0), timeStamp: 2017-03-02 11:11:15.201
LEye coords (208.0, 236.0), REye coords (158.0, 244.0), timeStamp: 2017-03-02 11:11:15.234
LEye coords (207.0, 237.0), REye coords (159.0, 245.0), timeStamp: 2017-03-02 11:11:15.268
LEye coords (206.0, 237.0), REye coords (157.0, 245.0), timeStamp: 2017-03-02 11:11:15.313
LEye coords (206.0, 238.0), REye coords (156.0, 244.0), timeStamp: 2017-03-02 11:11:15.346
LEye coords (206.0, 238.0), REye coords (158.0, 243.0), timeStamp: 2017-03-02 11:11:15.380
