LEye coords (241.0, 255.0), REye coords (251.0, 251.0), timeStamp: 2017-03-02 11:11:51.542
LEye coords (241.0, 256.0), REye coords (250.0, 252.0), timeStamp: 2017-03-02 11:11:51.576
LEye coords (243.0, 254.0), REye coords (0.0, 0.0), timeStamp: 2017-03-02 11:11:51.621
LEye coords (243.0, 252.0), REye coords (0.0, 0.0), timeStamp: 2017-03-02 11:11:51.654
LEye coords (244.0, 252.0), REye coords (0.0, 0.0), timeStamp: 2017-03-02 11:11:51.688
LEye coords (244.0, 252.0), REye coords (0.0, 0.0), timeStamp: 2017-03-02 11:11:51.733
LEye coords (244.0, 251.0), REye coords (0.0, 0.0), timeStamp: 2017-03-02 11:11:51.767
LEye coords (245.0, 251.0), REye coords (0.0, 0.0), timeStamp: 2017-03-02 11:11:51.800
LEye coords (245.0, 251.0), REye coords (0.0, 0.0), timeStamp: 2017-03-02 11:11:51.843
LEye coords (245.0, 251.0), REye coords (0.0, 0.0), timeStamp: 2017-03-02 11:11:51.878
LEye coords (230.0, 172.0), REye coords (242.0, 151.0), timeStamp: 2017-03-02 11:11:51.912
LEye coords (229.0, 172.0), REye coords (236.0, 141.0), timeStamp: 2017-03-02 11:11:51.946
LEye coords (229.0, 170.0), REye coords (238.0, 144.0), timeStamp: 2017-03-02 11:11:51.990
LEye coords (229.0, 169.0), REye coords (237.0, 150.0), timeStamp: 2017-03-02 11:11:52.024
LEye coords (229.0, 169.0), REye coords (238.0, 146.0), timeStamp: 2017-03-02 11:11:52.057
LEye coords (227.0, 166.0), REye coords (232.0, 146.0), timeStamp: 2017-03-02 11:11:52.102
LEye coords (226.0, 169.0), REye coords (236.0, 150.0), timeStamp: 2017-03-02 11:11:52.135
