LEye coords (175.0, 143.0), REye coords (180.0, 125.0), timeStamp: 2017-03-02 11:11:59.209
LEye coords (176.0, 144.0), REye coords (180.0, 126.0), timeStamp: 2017-03-02 11:11:59.243
LEye coords (177.0, 144.0), REye coords (181.0, 125.0), timeStamp: 2017-03-02 11:11:59.277
LEye coords (178.0, 144.0), REye coords (181.0, 126.0), timeStamp: 2017-03-02 11:11:59.311
LEye coords (179.0, 144.0), REye coords (182.0, 126.0), timeStamp: 2017-03-02 11:11:59.355
LEye coords (180.0, 145.0), REye coords (182.0, 126.0), timeStamp: 2017-03-02 11:11:59.388
LEye coords (180.0, 145.0), REye coords (183.0, 127.0), timeStamp: 2017-03-02 11:11:59.422
LEye coords (223.0, 232.0), REye coords (226.0, 233.0), timeStamp: 2017-03-02 11:11:59.466
LEye coords (219.0, 249.0), REye coords (236.0, 234.0), timeStamp: 2017-03-02 11:11:59.501
LEye coords (222.0, 248.0), REye coords (236.0, 233.0), timeStamp: 2017-03-02 11:11:59.536
LEye coords (223.0, 246.0), REye coords (236.0, 234.0), timeStamp: 2017-03-02 11:11:59.579
LEye coords (222.0, 246.0), REye coords (234.0, 235.0), timeStamp: 2017-03-02 11:11:59.612
LEye coords (224.0, 243.0), REye coords (229.0, 241.0), timeStamp: 2017-03-02 11:11:59.646
LEye coords (226.0, 238.0), REye coords (226.0, 244.0), timeStamp: 2017-03-02 11:11:59.690
LEye coords (248.0, 246.0), REye coords (254.0, 246.0), timeStamp: 2017-03-02 11:11:59.724
LEye coords (258.0, 250.0), REye coords (266.0, 245.0), timeStamp: 2017-03-02 11:11:59.757
LEye coords (262.0, 251.0), REye coords (272.0, 245.0), timeStamp: 2017-03-02 11:11:59.801
LEye coords (264.0, 252.0), REye coords (288.0, 243.0), timeStamp: 2017-03-02 11:11:59.835
LEye coords (266.0, 253.0), REye coords (284.0, 249.0), timeStamp: 2017-03-02 11:11:59.868
LEye coords (274.0, 260.0), REye coords (282.0, 252.0), timeStamp: 2017-03-02 11:11:59.911
LEye coords (276.0, 256.0), REye coords (281.0, 252.0), timeStamp: 2017-03-02 11:11:59.945
LEye coords (275.0, 258.0), REye coords (280.0, 253.0), timeStamp: 2017-03-02 11:11:59.978
LEye coords (275.0, 259.0), REye coords (280.0, 255.0), timeStamp: 2017-03-02 11:12:00.021
