LEye coords (181.0, 371.0), REye coords (179.0, 367.0), timeStamp: 2017-03-02 11:12:57.936
LEye coords (181.0, 373.0), REye coords (179.0, 369.0), timeStamp: 2017-03-02 11:12:57.979
LEye coords (182.0, 376.0), REye coords (180.0, 371.0), timeStamp: 2017-03-02 11:12:58.013
LEye coords (182.0, 379.0), REye coords (180.0, 373.0), timeStamp: 2017-03-02 11:12:58.048
LEye coords (0.0, 0.0), REye coords (181.0, 375.0), timeStamp: 2017-03-02 11:12:58.092
LEye coords (182.0, 381.0), REye coords (181.0, 377.0), timeStamp: 2017-03-02 11:12:58.125
LEye coords (183.0, 380.0), REye coords (181.0, 375.0), timeStamp: 2017-03-02 11:12:58.158
LEye coords (183.0, 377.0), REye coords (182.0, 372.0), timeStamp: 2017-03-02 11:12:58.202
LEye coords (183.0, 374.0), REye coords (182.0, 370.0), timeStamp: 2017-03-02 11:12:58.235
LEye coords (183.0, 371.0), REye coords (182.0, 367.0), timeStamp: 2017-03-02 11:12:58.269
LEye coords (184.0, 372.0), REye coords (183.0, 368.0), timeStamp: 2017-03-02 11:12:58.312
LEye coords (184.0, 372.0), REye coords (183.0, 369.0), timeStamp: 2017-03-02 11:12:58.346
LEye coords (185.0, 373.0), REye coords (183.0, 369.0), timeStamp: 2017-03-02 11:12:58.389
LEye coords (185.0, 373.0), REye coords (184.0, 370.0), timeStamp: 2017-03-02 11:12:58.423
LEye coords (186.0, 374.0), REye coords (184.0, 370.0), timeStamp: 2017-03-02 11:12:58.457
LEye coords (186.0, 374.0), REye coords (184.0, 369.0), timeStamp: 2017-03-02 11:12:58.491
LEye coords (188.0, 375.0), REye coords (186.0, 370.0), timeStamp: 2017-03-02 11:12:58.534
LEye coords (189.0, 377.0), REye coords (187.0, 372.0), timeStamp: 2017-03-02 11:12:58.568
LEye coords (190.0, 378.0), REye coords (188.0, 374.0), timeStamp: 2017-03-02 11:12:58.612
LEye coords (192.0, 380.0), REye coords (190.0, 376.0), timeStamp: 2017-03-02 11:12:58.646
LEye coords (193.0, 382.0), REye coords (191.0, 378.0), timeStamp: 2017-03-02 11:12:58.680
LEye coords (203.0, 403.0), REye coords (192.0, 380.0), timeStamp: 2017-03-02 11:12:58.713
LEye coords (204.0, 411.0), REye coords (194.0, 382.0), timeStamp: 2017-03-02 11:12:58.757
