LEye coords (245.0, 299.0), REye coords (243.0, 293.0), timeStamp: 2017-03-02 11:12:57.087
LEye coords (245.0, 266.0), REye coords (243.0, 261.0), timeStamp: 2017-03-02 11:12:57.132
LEye coords (244.0, 263.0), REye coords (241.0, 258.0), timeStamp: 2017-03-02 11:12:57.165
LEye coords (244.0, 260.0), REye coords (240.0, 256.0), timeStamp: 2017-03-02 11:12:57.199
LEye coords (244.0, 257.0), REye coords (239.0, 254.0), timeStamp: 2017-03-02 11:12:57.232
LEye coords (243.0, 255.0), REye coords (239.0, 252.0), timeStamp: 2017-03-02 11:12:57.277
LEye coords (243.0, 253.0), REye coords (238.0, 251.0), timeStamp: 2017-03-02 11:12:57.311
LEye coords (243.0, 251.0), REye coords (237.0, 249.0), timeStamp: 2017-03-02 11:12:57.344
LEye coords (242.0, 250.0), REye coords (237.0, 248.0), timeStamp: 2017-03-02 11:12:57.387
LEye coords (242.0, 248.0), REye coords (236.0, 246.0), timeStamp: 2017-03-02 11:12:57.421
LEye coords (242.0, 247.0), REye coords (235.0, 245.0), timeStamp: 2017-03-02 11:12:57.455
LEye coords (241.0, 245.0), REye coords (234.0, 243.0), timeStamp: 2017-03-02 11:12:57.499
LEye coords (241.0, 244.0), REye coords (234.0, 242.0), timeStamp: 2017-03-02 11:12:57.534
LEye coords (240.0, 242.0), REye coords (233.0, 240.0), timeStamp: 2017-03-02 11:12:57.567
LEye coords (240.0, 240.0), REye coords (232.0, 238.0), timeStamp: 2017-03-02 11:12:57.612
LEye coords (240.0, 239.0), REye coords (232.0, 237.0), timeStamp: 2017-03-02 11:12:57.645
LEye coords (240.0, 241.0), REye coords (233.0, 238.0), timeStamp: 2017-03-02 11:12:57.679
LEye coords (240.0, 242.0), REye coords (233.0, 238.0), timeStamp: 2017-03-02 11:12:57.722
LEye coords (0.0, 0.0), REye coords (234.0, 239.0), timeStamp: 2017-03-02 11:12:57.756
LEye coords (240.0, 244.0), REye coords (235.0, 240.0), timeStamp: 2017-03-02 11:12:57.790
LEye coords (240.0, 245.0), REye coords (236.0, 242.0), timeStamp: 2017-03-02 11:12:57.834
