LEye coords (284.0, 213.0), REye coords (270.0, 211.0), timeStamp: 2017-03-02 11:13:00.642
LEye coords (284.0, 213.0), REye coords (272.0, 209.0), timeStamp: 2017-03-02 11:13:00.676
LEye coords (285.0, 213.0), REye coords (273.0, 208.0), timeStamp: 2017-03-02 11:13:00.719
LEye coords (285.0, 213.0), REye coords (273.0, 208.0), timeStamp: 2017-03-02 11:13:00.753
LEye coords (286.0, 213.0), REye coords (0.0, 0.0), timeStamp: 2017-03-02 11:13:00.786
LEye coords (287.0, 213.0), REye coords (0.0, 0.0), timeStamp: 2017-03-02 11:13:00.830
LEye coords (287.0, 213.0), REye coords (0.0, 0.0), timeStamp: 2017-03-02 11:13:00.864
LEye coords (287.0, 214.0), REye coords (0.0, 0.0), timeStamp: 2017-03-02 11:13:00.897
LEye coords (288.0, 214.0), REye coords (0.0, 0.0), timeStamp: 2017-03-02 11:13:00.941
LEye coords (288.0, 214.0), REye coords (0.0, 0.0), timeStamp: 2017-03-02 11:13:00.976
LEye coords (288.0, 215.0), REye coords (0.0, 0.0), timeStamp: 2017-03-02 11:13:01.008
LEye coords (288.0, 215.0), REye coords (0.0, 0.0), timeStamp: 2017-03-02 11:13:01.053
LEye coords (288.0, 216.0), REye coords (273.0, 209.0), timeStamp: 2017-03-02 11:13:01.088
LEye coords (288.0, 218.0), REye coords (273.0, 211.0), timeStamp: 2017-03-02 11:13:01.121
LEye coords (287.0, 220.0), REye coords (273.0, 212.0), timeStamp: 2017-03-02 11:13:01.156
LEye coords (286.0, 222.0), REye coords (273.0, 213.0), timeStamp: 2017-03-02 11:13:01.200
LEye coords (285.0, 224.0), REye coords (273.0, 214.0), timeStamp: 2017-03-02 11:13:01.233
LEye coords (284.0, 226.0), REye coords (273.0, 216.0), timeStamp: 2017-03-02 11:13:01.267
LEye coords (283.0, 228.0), REye coords (272.0, 217.0), timeStamp: 2017-03-02 11:13:01.310
LEye coords (282.0, 230.0), REye coords (272.0, 218.0), timeStamp: 2017-03-02 11:13:01.344
LEye coords (281.0, 232.0), REye coords (273.0, 218.0), timeStamp: 2017-03-02 11:13:01.378
LEye coords (280.0, 233.0), REye coords (273.0, 219.0), timeStamp: 2017-03-02 11:13:01.423
