LEye coords (337.0, 270.0), REye coords (344.0, 280.0), timeStamp: 2017-03-02 11:14:21.842
LEye coords (337.0, 270.0), REye coords (344.0, 280.0), timeStamp: 2017-03-02 11:14:21.875
LEye coords (337.0, 269.0), REye coords (344.0, 280.0), timeStamp: 2017-03-02 11:14:21.918
LEye coords (337.0, 270.0), REye coords (344.0, 280.0), timeStamp: 2017-03-02 11:14:21.951
LEye coords (333.0, 270.0), REye coords (340.0, 281.0), timeStamp: 2017-03-02 11:14:21.996
LEye coords (286.0, 272.0), REye coords (293.0, 279.0), timeStamp: 2017-03-02 11:14:22.030
LEye coords (281.0, 279.0), REye coords (292.0, 276.0), timeStamp: 2017-03-02 11:14:22.064
LEye coords (279.0, 279.0), REye coords (293.0, 276.0), timeStamp: 2017-03-02 11:14:22.099
LEye coords (271.0, 255.0), REye coords (284.0, 255.0), timeStamp: 2017-03-02 11:14:22.142
LEye coords (263.0, 238.0), REye coords (277.0, 239.0), timeStamp: 2017-03-02 11:14:22.176
LEye coords (243.0, 190.0), REye coords (256.0, 194.0), timeStamp: 2017-03-02 11:14:22.209
LEye coords (244.0, 190.0), REye coords (254.0, 193.0), timeStamp: 2017-03-02 11:14:22.253
LEye coords (244.0, 189.0), REye coords (255.0, 195.0), timeStamp: 2017-03-02 11:14:22.287
LEye coords (244.0, 192.0), REye coords (254.0, 196.0), timeStamp: 2017-03-02 11:14:22.320
LEye coords (244.0, 192.0), REye coords (253.0, 195.0), timeStamp: 2017-03-02 11:14:22.363
LEye coords (244.0, 193.0), REye coords (253.0, 195.0), timeStamp: 2017-03-02 11:14:22.396
LEye coords (244.0, 194.0), REye coords (254.0, 195.0), timeStamp: 2017-03-02 11:14:22.440
LEye coords (243.0, 194.0), REye coords (253.0, 195.0), timeStamp: 2017-03-02 11:14:22.474
