LEye coords (218.0, 273.0), REye coords (231.0, 294.0), timeStamp: 2017-03-02 11:14:20.215
LEye coords (219.0, 275.0), REye coords (230.0, 295.0), timeStamp: 2017-03-02 11:14:20.249
LEye coords (219.0, 277.0), REye coords (230.0, 295.0), timeStamp: 2017-03-02 11:14:20.292
LEye coords (219.0, 279.0), REye coords (230.0, 295.0), timeStamp: 2017-03-02 11:14:20.326
LEye coords (220.0, 281.0), REye coords (230.0, 296.0), timeStamp: 2017-03-02 11:14:20.361
LEye coords (220.0, 283.0), REye coords (229.0, 296.0), timeStamp: 2017-03-02 11:14:20.395
LEye coords (220.0, 284.0), REye coords (229.0, 296.0), timeStamp: 2017-03-02 11:14:20.438
LEye coords (222.0, 217.0), REye coords (238.0, 218.0), timeStamp: 2017-03-02 11:14:20.471
LEye coords (224.0, 223.0), REye coords (237.0, 226.0), timeStamp: 2017-03-02 11:14:20.514
LEye coords (224.0, 224.0), REye coords (237.0, 226.0), timeStamp: 2017-03-02 11:14:20.548
LEye coords (224.0, 223.0), REye coords (237.0, 224.0), timeStamp: 2017-03-02 11:14:20.581
LEye coords (224.0, 223.0), REye coords (236.0, 225.0), timeStamp: 2017-03-02 11:14:20.627
LEye coords (225.0, 223.0), REye coords (237.0, 221.0), timeStamp: 2017-03-02 11:14:20.659
LEye coords (225.0, 224.0), REye coords (234.0, 222.0), timeStamp: 2017-03-02 11:14:20.693
LEye coords (225.0, 223.0), REye coords (236.0, 221.0), timeStamp: 2017-03-02 11:14:20.737
LEye coords (224.0, 223.0), REye coords (235.0, 220.0), timeStamp: 2017-03-02 11:14:20.770
LEye coords (224.0, 223.0), REye coords (234.0, 220.0), timeStamp: 2017-03-02 11:14:20.803
LEye coords (224.0, 223.0), REye coords (234.0, 218.0), timeStamp: 2017-03-02 11:14:20.847
LEye coords (224.0, 223.0), REye coords (234.0, 219.0), timeStamp: 2017-03-02 11:14:20.881
LEye coords (223.0, 223.0), REye coords (234.0, 220.0), timeStamp: 2017-03-02 11:14:20.915
LEye coords (223.0, 223.0), REye coords (234.0, 219.0), timeStamp: 2017-03-02 11:14:20.958
