LEye coords (0.0, 0.0), REye coords (238.0, 203.0), timeStamp: 2017-03-02 11:14:21.070
LEye coords (0.0, 0.0), REye coords (240.0, 205.0), timeStamp: 2017-03-02 11:14:21.105
LEye coords (0.0, 0.0), REye coords (241.0, 207.0), timeStamp: 2017-03-02 11:14:21.138
LEye coords (0.0, 0.0), REye coords (243.0, 209.0), timeStamp: 2017-03-02 11:14:21.182
LEye coords (225.0, 202.0), REye coords (244.0, 211.0), timeStamp: 2017-03-02 11:14:21.216
LEye coords (227.0, 203.0), REye coords (245.0, 212.0), timeStamp: 2017-03-02 11:14:21.250
LEye coords (228.0, 204.0), REye coords (246.0, 214.0), timeStamp: 2017-03-02 11:14:21.285
LEye coords (229.0, 206.0), REye coords (246.0, 215.0), timeStamp: 2017-03-02 11:14:21.329
LEye coords (231.0, 207.0), REye coords (247.0, 217.0), timeStamp: 2017-03-02 11:14:21.362
LEye coords (232.0, 208.0), REye coords (248.0, 218.0), timeStamp: 2017-03-02 11:14:21.395
LEye coords (233.0, 209.0), REye coords (248.0, 219.0), timeStamp: 2017-03-02 11:14:21.439
LEye coords (324.0, 237.0), REye coords (333.0, 251.0), timeStamp: 2017-03-02 11:14:21.472
LEye coords (335.0, 239.0), REye coords (344.0, 251.0), timeStamp: 2017-03-02 11:14:21.507
LEye coords (334.0, 240.0), REye coords (343.0, 250.0), timeStamp: 2017-03-02 11:14:21.550
LEye coords (336.0, 240.0), REye coords (343.0, 251.0), timeStamp: 2017-03-02 11:14:21.584
LEye coords (336.0, 240.0), REye coords (343.0, 252.0), timeStamp: 2017-03-02 11:14:21.617
LEye coords (334.0, 243.0), REye coords (342.0, 255.0), timeStamp: 2017-03-02 11:14:21.661
LEye coords (335.0, 242.0), REye coords (343.0, 254.0), timeStamp: 2017-03-02 11:14:21.695
LEye coords (336.0, 244.0), REye coords (344.0, 253.0), timeStamp: 2017-03-02 11:14:21.728
