LEye coords (166.0, 221.0), REye coords (168.0, 236.0), timeStamp: 2017-03-02 11:14:25.992
LEye coords (0.0, 0.0), REye coords (172.0, 235.0), timeStamp: 2017-03-02 11:14:26.025
LEye coords (0.0, 0.0), REye coords (174.0, 234.0), timeStamp: 2017-03-02 11:14:26.059
LEye coords (0.0, 0.0), REye coords (176.0, 234.0), timeStamp: 2017-03-02 11:14:26.102
LEye coords (168.0, 220.0), REye coords (177.0, 233.0), timeStamp: 2017-03-02 11:14:26.136
LEye coords (170.0, 218.0), REye coords (178.0, 232.0), timeStamp: 2017-03-02 11:14:26.170
LEye coords (172.0, 217.0), REye coords (180.0, 232.0), timeStamp: 2017-03-02 11:14:26.214
LEye coords (173.0, 216.0), REye coords (180.0, 231.0), timeStamp: 2017-03-02 11:14:26.247
LEye coords (174.0, 216.0), REye coords (181.0, 231.0), timeStamp: 2017-03-02 11:14:26.280
LEye coords (247.0, 216.0), REye coords (252.0, 219.0), timeStamp: 2017-03-02 11:14:26.324
LEye coords (248.0, 218.0), REye coords (254.0, 219.0), timeStamp: 2017-03-02 11:14:26.358
LEye coords (249.0, 219.0), REye coords (254.0, 221.0), timeStamp: 2017-03-02 11:14:26.393
LEye coords (250.0, 217.0), REye coords (254.0, 221.0), timeStamp: 2017-03-02 11:14:26.438
LEye coords (251.0, 217.0), REye coords (254.0, 221.0), timeStamp: 2017-03-02 11:14:26.471
LEye coords (254.0, 216.0), REye coords (252.0, 218.0), timeStamp: 2017-03-02 11:14:26.505
LEye coords (250.0, 216.0), REye coords (251.0, 220.0), timeStamp: 2017-03-02 11:14:26.548
LEye coords (236.0, 230.0), REye coords (239.0, 230.0), timeStamp: 2017-03-02 11:14:26.580
LEye coords (231.0, 235.0), REye coords (235.0, 234.0), timeStamp: 2017-03-02 11:14:26.614
LEye coords (229.0, 236.0), REye coords (232.0, 237.0), timeStamp: 2017-03-02 11:14:26.658
