LEye coords (218.0, 223.0), REye coords (227.0, 225.0), timeStamp: 2017-03-02 11:14:25.215
LEye coords (218.0, 223.0), REye coords (227.0, 225.0), timeStamp: 2017-03-02 11:14:25.248
LEye coords (218.0, 223.0), REye coords (227.0, 224.0), timeStamp: 2017-03-02 11:14:25.282
LEye coords (218.0, 223.0), REye coords (227.0, 225.0), timeStamp: 2017-03-02 11:14:25.326
LEye coords (218.0, 223.0), REye coords (227.0, 225.0), timeStamp: 2017-03-02 11:14:25.360
LEye coords (218.0, 223.0), REye coords (227.0, 225.0), timeStamp: 2017-03-02 11:14:25.394
LEye coords (218.0, 223.0), REye coords (227.0, 225.0), timeStamp: 2017-03-02 11:14:25.437
LEye coords (219.0, 223.0), REye coords (227.0, 226.0), timeStamp: 2017-03-02 11:14:25.471
LEye coords (219.0, 223.0), REye coords (227.0, 226.0), timeStamp: 2017-03-02 11:14:25.504
LEye coords (219.0, 223.0), REye coords (227.0, 226.0), timeStamp: 2017-03-02 11:14:25.548
LEye coords (219.0, 223.0), REye coords (227.0, 226.0), timeStamp: 2017-03-02 11:14:25.582
LEye coords (167.0, 228.0), REye coords (174.0, 242.0), timeStamp: 2017-03-02 11:14:25.616
LEye coords (159.0, 246.0), REye coords (169.0, 266.0), timeStamp: 2017-03-02 11:14:25.660
LEye coords (159.0, 249.0), REye coords (167.0, 264.0), timeStamp: 2017-03-02 11:14:25.694
LEye coords (161.0, 251.0), REye coords (168.0, 263.0), timeStamp: 2017-03-02 11:14:25.728
LEye coords (160.0, 251.0), REye coords (167.0, 262.0), timeStamp: 2017-03-02 11:14:25.771
LEye coords (160.0, 248.0), REye coords (163.0, 261.0), timeStamp: 2017-03-02 11:14:25.804
LEye coords (162.0, 255.0), REye coords (164.0, 265.0), timeStamp: 2017-03-02 11:14:25.837
LEye coords (163.0, 255.0), REye coords (165.0, 267.0), timeStamp: 2017-03-02 11:14:25.881
