LEye coords (289.0, 242.0), REye coords (296.0, 245.0), timeStamp: 2017-03-02 11:16:08.282
LEye coords (289.0, 242.0), REye coords (296.0, 245.0), timeStamp: 2017-03-02 11:16:08.326
LEye coords (290.0, 241.0), REye coords (296.0, 245.0), timeStamp: 2017-03-02 11:16:08.359
LEye coords (290.0, 241.0), REye coords (297.0, 245.0), timeStamp: 2017-03-02 11:16:08.393
LEye coords (290.0, 241.0), REye coords (297.0, 245.0), timeStamp: 2017-03-02 11:16:08.438
LEye coords (290.0, 240.0), REye coords (297.0, 244.0), timeStamp: 2017-03-02 11:16:08.472
LEye coords (290.0, 240.0), REye coords (297.0, 244.0), timeStamp: 2017-03-02 11:16:08.505
LEye coords (290.0, 240.0), REye coords (297.0, 244.0), timeStamp: 2017-03-02 11:16:08.549
LEye coords (290.0, 240.0), REye coords (297.0, 245.0), timeStamp: 2017-03-02 11:16:08.584
LEye coords (290.0, 240.0), REye coords (298.0, 245.0), timeStamp: 2017-03-02 11:16:08.617
LEye coords (290.0, 240.0), REye coords (297.0, 245.0), timeStamp: 2017-03-02 11:16:08.661
LEye coords (206.0, 228.0), REye coords (216.0, 231.0), timeStamp: 2017-03-02 11:16:08.694
LEye coords (210.0, 230.0), REye coords (216.0, 231.0), timeStamp: 2017-03-02 11:16:08.728
LEye coords (208.0, 232.0), REye coords (215.0, 231.0), timeStamp: 2017-03-02 11:16:08.772
LEye coords (208.0, 233.0), REye coords (216.0, 232.0), timeStamp: 2017-03-02 11:16:08.806
LEye coords (230.0, 218.0), REye coords (240.0, 211.0), timeStamp: 2017-03-02 11:16:08.839
LEye coords (294.0, 177.0), REye coords (310.0, 150.0), timeStamp: 2017-03-02 11:16:08.874
LEye coords (292.0, 179.0), REye coords (307.0, 150.0), timeStamp: 2017-03-02 11:16:08.918
LEye coords (292.0, 180.0), REye coords (307.0, 152.0), timeStamp: 2017-03-02 11:16:08.952
LEye coords (292.0, 180.0), REye coords (308.0, 154.0), timeStamp: 2017-03-02 11:16:08.986
LEye coords (292.0, 181.0), REye coords (308.0, 153.0), timeStamp: 2017-03-02 11:16:09.030
LEye coords (293.0, 180.0), REye coords (307.0, 155.0), timeStamp: 2017-03-02 11:16:09.064
LEye coords (293.0, 181.0), REye coords (307.0, 155.0), timeStamp: 2017-03-02 11:16:09.098
LEye coords (292.0, 179.0), REye coords (306.0, 155.0), timeStamp: 2017-03-02 11:16:09.142
LEye coords (291.0, 179.0), REye coords (305.0, 155.0), timeStamp: 2017-03-02 11:16:09.175
LEye coords (291.0, 177.0), REye coords (304.0, 156.0), timeStamp: 2017-03-02 11:16:09.209
LEye coords (290.0, 177.0), REye coords (303.0, 156.0), timeStamp: 2017-03-02 11:16:09.253
LEye coords (290.0, 177.0), REye coords (303.0, 155.0), timeStamp: 2017-03-02 11:16:09.287
LEye coords (290.0, 177.0), REye coords (303.0, 155.0), timeStamp: 2017-03-02 11:16:09.320
LEye coords (290.0, 176.0), REye coords (303.0, 154.0), timeStamp: 2017-03-02 11:16:09.365
LEye coords (289.0, 176.0), REye coords (303.0, 154.0), timeStamp: 2017-03-02 11:16:09.399
