LEye coords (401.0, 271.0), REye coords (401.0, 274.0), timeStamp: 2017-03-02 11:16:06.511
LEye coords (403.0, 271.0), REye coords (401.0, 275.0), timeStamp: 2017-03-02 11:16:06.545
LEye coords (343.0, 244.0), REye coords (355.0, 253.0), timeStamp: 2017-03-02 11:16:06.579
LEye coords (266.0, 234.0), REye coords (286.0, 227.0), timeStamp: 2017-03-02 11:16:06.625
LEye coords (266.0, 235.0), REye coords (280.0, 234.0), timeStamp: 2017-03-02 11:16:06.660
LEye coords (267.0, 236.0), REye coords (277.0, 236.0), timeStamp: 2017-03-02 11:16:06.693
LEye coords (267.0, 237.0), REye coords (276.0, 236.0), timeStamp: 2017-03-02 11:16:06.727
LEye coords (270.0, 239.0), REye coords (274.0, 235.0), timeStamp: 2017-03-02 11:16:06.771
LEye coords (268.0, 241.0), REye coords (274.0, 237.0), timeStamp: 2017-03-02 11:16:06.805
LEye coords (266.0, 238.0), REye coords (274.0, 238.0), timeStamp: 2017-03-02 11:16:06.839
LEye coords (268.0, 238.0), REye coords (275.0, 238.0), timeStamp: 2017-03-02 11:16:06.882
LEye coords (271.0, 236.0), REye coords (277.0, 237.0), timeStamp: 2017-03-02 11:16:06.917
LEye coords (274.0, 234.0), REye coords (279.0, 235.0), timeStamp: 2017-03-02 11:16:06.950
LEye coords (276.0, 232.0), REye coords (281.0, 234.0), timeStamp: 2017-03-02 11:16:06.995
LEye coords (278.0, 230.0), REye coords (282.0, 233.0), timeStamp: 2017-03-02 11:16:07.029
LEye coords (279.0, 228.0), REye coords (283.0, 232.0), timeStamp: 2017-03-02 11:16:07.062
LEye coords (280.0, 227.0), REye coords (284.0, 231.0), timeStamp: 2017-03-02 11:16:07.106
LEye coords (281.0, 227.0), REye coords (285.0, 231.0), timeStamp: 2017-03-02 11:16:07.140
LEye coords (282.0, 226.0), REye coords (286.0, 229.0), timeStamp: 2017-03-02 11:16:07.173
LEye coords (282.0, 225.0), REye coords (286.0, 228.0), timeStamp: 2017-03-02 11:16:07.217
LEye coords (282.0, 224.0), REye coords (287.0, 227.0), timeStamp: 2017-03-02 11:16:07.252
LEye coords (283.0, 223.0), REye coords (288.0, 226.0), timeStamp: 2017-03-02 11:16:07.285
LEye coords (283.0, 223.0), REye coords (289.0, 225.0), timeStamp: 2017-03-02 11:16:07.319
