LEye coords (229.0, 282.0), REye coords (236.0, 295.0), timeStamp: 2017-03-02 11:16:51.844
LEye coords (228.0, 283.0), REye coords (237.0, 296.0), timeStamp: 2017-03-02 11:16:51.887
LEye coords (227.0, 282.0), REye coords (243.0, 289.0), timeStamp: 2017-03-02 11:16:51.920
LEye coords (227.0, 279.0), REye coords (270.0, 235.0), timeStamp: 2017-03-02 11:16:51.954
LEye coords (227.0, 277.0), REye coords (267.0, 235.0), timeStamp: 2017-03-02 11:16:51.999
LEye coords (227.0, 274.0), REye coords (267.0, 234.0), timeStamp: 2017-03-02 11:16:52.033
LEye coords (228.0, 272.0), REye coords (267.0, 234.0), timeStamp: 2017-03-02 11:16:52.066
LEye coords (228.0, 269.0), REye coords (267.0, 233.0), timeStamp: 2017-03-02 11:16:52.110
LEye coords (228.0, 267.0), REye coords (268.0, 233.0), timeStamp: 2017-03-02 11:16:52.144
LEye coords (229.0, 264.0), REye coords (269.0, 234.0), timeStamp: 2017-03-02 11:16:52.178
LEye coords (171.0, 242.0), REye coords (199.0, 245.0), timeStamp: 2017-03-02 11:16:52.223
LEye coords (171.0, 253.0), REye coords (201.0, 244.0), timeStamp: 2017-03-02 11:16:52.256
LEye coords (172.0, 254.0), REye coords (199.0, 246.0), timeStamp: 2017-03-02 11:16:52.290
LEye coords (173.0, 255.0), REye coords (198.0, 248.0), timeStamp: 2017-03-02 11:16:52.333
LEye coords (174.0, 255.0), REye coords (197.0, 248.0), timeStamp: 2017-03-02 11:16:52.367
LEye coords (175.0, 252.0), REye coords (196.0, 247.0), timeStamp: 2017-03-02 11:16:52.401
LEye coords (175.0, 254.0), REye coords (193.0, 247.0), timeStamp: 2017-03-02 11:16:52.444
LEye coords (174.0, 252.0), REye coords (193.0, 250.0), timeStamp: 2017-03-02 11:16:52.478
LEye coords (173.0, 252.0), REye coords (193.0, 250.0), timeStamp: 2017-03-02 11:16:52.511
LEye coords (174.0, 252.0), REye coords (193.0, 250.0), timeStamp: 2017-03-02 11:16:52.555
LEye coords (174.0, 252.0), REye coords (192.0, 250.0), timeStamp: 2017-03-02 11:16:52.588
LEye coords (174.0, 252.0), REye coords (192.0, 251.0), timeStamp: 2017-03-02 11:16:52.622
