LEye coords (173.0, 224.0), REye coords (192.0, 224.0), timeStamp: 2017-03-02 11:16:52.733
LEye coords (173.0, 224.0), REye coords (192.0, 224.0), timeStamp: 2017-03-02 11:16:52.777
LEye coords (173.0, 223.0), REye coords (192.0, 224.0), timeStamp: 2017-03-02 11:16:52.811
LEye coords (173.0, 223.0), REye coords (192.0, 224.0), timeStamp: 2017-03-02 11:16:52.845
LEye coords (173.0, 223.0), REye coords (192.0, 225.0), timeStamp: 2017-03-02 11:16:52.889
LEye coords (173.0, 223.0), REye coords (193.0, 225.0), timeStamp: 2017-03-02 11:16:52.922
LEye coords (173.0, 224.0), REye coords (193.0, 225.0), timeStamp: 2017-03-02 11:16:52.956
LEye coords (173.0, 224.0), REye coords (193.0, 225.0), timeStamp: 2017-03-02 11:16:52.990
LEye coords (234.0, 214.0), REye coords (271.0, 215.0), timeStamp: 2017-03-02 11:16:53.034
LEye coords (238.0, 211.0), REye coords (277.0, 214.0), timeStamp: 2017-03-02 11:16:53.067
LEye coords (240.0, 212.0), REye coords (276.0, 214.0), timeStamp: 2017-03-02 11:16:53.111
LEye coords (241.0, 214.0), REye coords (277.0, 214.0), timeStamp: 2017-03-02 11:16:53.145
LEye coords (242.0, 215.0), REye coords (276.0, 216.0), timeStamp: 2017-03-02 11:16:53.179
LEye coords (246.0, 217.0), REye coords (273.0, 217.0), timeStamp: 2017-03-02 11:16:53.212
LEye coords (246.0, 218.0), REye coords (274.0, 216.0), timeStamp: 2017-03-02 11:16:53.256
LEye coords (246.0, 217.0), REye coords (274.0, 213.0), timeStamp: 2017-03-02 11:16:53.289
LEye coords (246.0, 214.0), REye coords (272.0, 214.0), timeStamp: 2017-03-02 11:16:53.323
LEye coords (257.0, 217.0), REye coords (281.0, 218.0), timeStamp: 2017-03-02 11:16:53.366
LEye coords (263.0, 221.0), REye coords (287.0, 222.0), timeStamp: 2017-03-02 11:16:53.398
LEye coords (266.0, 224.0), REye coords (291.0, 224.0), timeStamp: 2017-03-02 11:16:53.442
LEye coords (269.0, 226.0), REye coords (294.0, 226.0), timeStamp: 2017-03-02 11:16:53.476
LEye coords (271.0, 228.0), REye coords (297.0, 228.0), timeStamp: 2017-03-02 11:16:53.510
LEye coords (273.0, 229.0), REye coords (299.0, 230.0), timeStamp: 2017-03-02 11:16:53.555
