LEye coords (277.0, 232.0), REye coords (303.0, 234.0), timeStamp: 2017-03-02 11:16:53.698
LEye coords (278.0, 232.0), REye coords (304.0, 235.0), timeStamp: 2017-03-02 11:16:53.732
LEye coords (278.0, 232.0), REye coords (305.0, 236.0), timeStamp: 2017-03-02 11:16:53.777
LEye coords (279.0, 233.0), REye coords (306.0, 236.0), timeStamp: 2017-03-02 11:16:53.809
LEye coords (279.0, 233.0), REye coords (306.0, 237.0), timeStamp: 2017-03-02 11:16:53.844
LEye coords (279.0, 233.0), REye coords (307.0, 237.0), timeStamp: 2017-03-02 11:16:53.887
LEye coords (279.0, 233.0), REye coords (307.0, 237.0), timeStamp: 2017-03-02 11:16:53.921
LEye coords (280.0, 233.0), REye coords (308.0, 238.0), timeStamp: 2017-03-02 11:16:53.954
LEye coords (279.0, 231.0), REye coords (307.0, 236.0), timeStamp: 2017-03-02 11:16:53.998
LEye coords (0.0, 0.0), REye coords (276.0, 180.0), timeStamp: 2017-03-02 11:16:54.032
LEye coords (0.0, 0.0), REye coords (275.0, 171.0), timeStamp: 2017-03-02 11:16:54.066
LEye coords (0.0, 0.0), REye coords (283.0, 152.0), timeStamp: 2017-03-02 11:16:54.100
LEye coords (0.0, 0.0), REye coords (284.0, 146.0), timeStamp: 2017-03-02 11:16:54.144
LEye coords (0.0, 0.0), REye coords (284.0, 140.0), timeStamp: 2017-03-02 11:16:54.177
LEye coords (0.0, 0.0), REye coords (285.0, 130.0), timeStamp: 2017-03-02 11:16:54.212
LEye coords (0.0, 0.0), REye coords (286.0, 135.0), timeStamp: 2017-03-02 11:16:54.256
LEye coords (0.0, 0.0), REye coords (284.0, 134.0), timeStamp: 2017-03-02 11:16:54.289
LEye coords (0.0, 0.0), REye coords (285.0, 135.0), timeStamp: 2017-03-02 11:16:54.322
LEye coords (0.0, 0.0), REye coords (284.0, 132.0), timeStamp: 2017-03-02 11:16:54.367
LEye coords (0.0, 0.0), REye coords (283.0, 132.0), timeStamp: 2017-03-02 11:16:54.401
LEye coords (0.0, 0.0), REye coords (282.0, 132.0), timeStamp: 2017-03-02 11:16:54.434
LEye coords (0.0, 0.0), REye coords (282.0, 133.0), timeStamp: 2017-03-02 11:16:54.478
