LEye coords (162.0, 273.0), REye coords (183.0, 278.0), timeStamp: 2017-03-02 11:16:56.442
LEye coords (162.0, 273.0), REye coords (182.0, 279.0), timeStamp: 2017-03-02 11:16:56.475
LEye coords (162.0, 273.0), REye coords (182.0, 278.0), timeStamp: 2017-03-02 11:16:56.509
LEye coords (161.0, 272.0), REye coords (182.0, 279.0), timeStamp: 2017-03-02 11:16:56.542
LEye coords (161.0, 273.0), REye coords (182.0, 278.0), timeStamp: 2017-03-02 11:16:56.586
LEye coords (161.0, 274.0), REye coords (182.0, 277.0), timeStamp: 2017-03-02 11:16:56.619
LEye coords (160.0, 274.0), REye coords (181.0, 277.0), timeStamp: 2017-03-02 11:16:56.663
LEye coords (160.0, 276.0), REye coords (181.0, 276.0), timeStamp: 2017-03-02 11:16:56.697
LEye coords (160.0, 276.0), REye coords (181.0, 276.0), timeStamp: 2017-03-02 11:16:56.732
LEye coords (159.0, 277.0), REye coords (181.0, 275.0), timeStamp: 2017-03-02 11:16:56.765
LEye coords (159.0, 278.0), REye coords (181.0, 275.0), timeStamp: 2017-03-02 11:16:56.809
LEye coords (159.0, 277.0), REye coords (181.0, 274.0), timeStamp: 2017-03-02 11:16:56.842
LEye coords (159.0, 276.0), REye coords (203.0, 184.0), timeStamp: 2017-03-02 11:16:56.877
LEye coords (159.0, 274.0), REye coords (200.0, 181.0), timeStamp: 2017-03-02 11:16:56.921
LEye coords (159.0, 273.0), REye coords (201.0, 176.0), timeStamp: 2017-03-02 11:16:56.954
LEye coords (160.0, 271.0), REye coords (202.0, 180.0), timeStamp: 2017-03-02 11:16:56.988
LEye coords (160.0, 269.0), REye coords (201.0, 182.0), timeStamp: 2017-03-02 11:16:57.031
LEye coords (160.0, 267.0), REye coords (200.0, 182.0), timeStamp: 2017-03-02 11:16:57.065
LEye coords (160.0, 265.0), REye coords (198.0, 201.0), timeStamp: 2017-03-02 11:16:57.099
LEye coords (160.0, 263.0), REye coords (199.0, 192.0), timeStamp: 2017-03-02 11:16:57.143
LEye coords (161.0, 261.0), REye coords (198.0, 192.0), timeStamp: 2017-03-02 11:16:57.176
LEye coords (0.0, 0.0), REye coords (193.0, 200.0), timeStamp: 2017-03-02 11:16:57.210
