LEye coords (0.0, 0.0), REye coords (282.0, 153.0), timeStamp: 2017-03-02 11:16:54.624
LEye coords (238.0, 201.0), REye coords (282.0, 153.0), timeStamp: 2017-03-02 11:16:54.657
LEye coords (240.0, 199.0), REye coords (281.0, 156.0), timeStamp: 2017-03-02 11:16:54.702
LEye coords (241.0, 198.0), REye coords (281.0, 156.0), timeStamp: 2017-03-02 11:16:54.736
LEye coords (241.0, 197.0), REye coords (281.0, 159.0), timeStamp: 2017-03-02 11:16:54.770
LEye coords (241.0, 196.0), REye coords (281.0, 159.0), timeStamp: 2017-03-02 11:16:54.814
LEye coords (242.0, 196.0), REye coords (280.0, 161.0), timeStamp: 2017-03-02 11:16:54.847
LEye coords (242.0, 197.0), REye coords (280.0, 164.0), timeStamp: 2017-03-02 11:16:54.881
LEye coords (242.0, 198.0), REye coords (280.0, 166.0), timeStamp: 2017-03-02 11:16:54.915
LEye coords (242.0, 198.0), REye coords (279.0, 168.0), timeStamp: 2017-03-02 11:16:54.959
LEye coords (242.0, 199.0), REye coords (279.0, 170.0), timeStamp: 2017-03-02 11:16:54.994
LEye coords (242.0, 199.0), REye coords (279.0, 172.0), timeStamp: 2017-03-02 11:16:55.027
LEye coords (242.0, 200.0), REye coords (278.0, 175.0), timeStamp: 2017-03-02 11:16:55.071
LEye coords (243.0, 200.0), REye coords (278.0, 177.0), timeStamp: 2017-03-02 11:16:55.105
LEye coords (243.0, 201.0), REye coords (277.0, 180.0), timeStamp: 2017-03-02 11:16:55.138
LEye coords (243.0, 201.0), REye coords (277.0, 182.0), timeStamp: 2017-03-02 11:16:55.181
LEye coords (244.0, 202.0), REye coords (277.0, 185.0), timeStamp: 2017-03-02 11:16:55.215
LEye coords (244.0, 202.0), REye coords (277.0, 187.0), timeStamp: 2017-03-02 11:16:55.249
LEye coords (244.0, 202.0), REye coords (277.0, 189.0), timeStamp: 2017-03-02 11:16:55.293
LEye coords (244.0, 203.0), REye coords (276.0, 191.0), timeStamp: 2017-03-02 11:16:55.327
LEye coords (244.0, 203.0), REye coords (276.0, 193.0), timeStamp: 2017-03-02 11:16:55.359
LEye coords (245.0, 203.0), REye coords (276.0, 195.0), timeStamp: 2017-03-02 11:16:55.404
