LEye coords (0.0, 0.0), REye coords (287.0, 272.0), timeStamp: 2017-03-02 11:17:05.287
LEye coords (0.0, 0.0), REye coords (287.0, 273.0), timeStamp: 2017-03-02 11:17:05.320
LEye coords (0.0, 0.0), REye coords (287.0, 273.0), timeStamp: 2017-03-02 11:17:05.398
LEye coords (259.0, 266.0), REye coords (287.0, 274.0), timeStamp: 2017-03-02 11:17:05.432
LEye coords (0.0, 0.0), REye coords (287.0, 273.0), timeStamp: 2017-03-02 11:17:05.354
LEye coords (0.0, 0.0), REye coords (287.0, 274.0), timeStamp: 2017-03-02 11:17:05.466
LEye coords (229.0, 202.0), REye coords (237.0, 202.0), timeStamp: 2017-03-02 11:17:43.623
LEye coords (230.0, 203.0), REye coords (236.0, 202.0), timeStamp: 2017-03-02 11:17:43.668
LEye coords (230.0, 203.0), REye coords (236.0, 202.0), timeStamp: 2017-03-02 11:17:43.702
LEye coords (231.0, 204.0), REye coords (236.0, 202.0), timeStamp: 2017-03-02 11:17:43.735
LEye coords (228.0, 202.0), REye coords (236.0, 202.0), timeStamp: 2017-03-02 11:17:43.768
LEye coords (230.0, 204.0), REye coords (236.0, 203.0), timeStamp: 2017-03-02 11:17:43.811
LEye coords (231.0, 206.0), REye coords (236.0, 203.0), timeStamp: 2017-03-02 11:17:43.845
LEye coords (233.0, 206.0), REye coords (235.0, 203.0), timeStamp: 2017-03-02 11:17:43.879
LEye coords (232.0, 205.0), REye coords (235.0, 203.0), timeStamp: 2017-03-02 11:17:43.923
LEye coords (232.0, 205.0), REye coords (235.0, 204.0), timeStamp: 2017-03-02 11:17:43.956
LEye coords (232.0, 205.0), REye coords (235.0, 204.0), timeStamp: 2017-03-02 11:17:43.999
LEye coords (230.0, 204.0), REye coords (235.0, 204.0), timeStamp: 2017-03-02 11:17:44.034
LEye coords (226.0, 204.0), REye coords (233.0, 204.0), timeStamp: 2017-03-02 11:17:44.068
LEye coords (223.0, 204.0), REye coords (231.0, 203.0), timeStamp: 2017-03-02 11:17:44.111
LEye coords (221.0, 204.0), REye coords (230.0, 203.0), timeStamp: 2017-03-02 11:17:44.144
LEye coords (220.0, 203.0), REye coords (229.0, 204.0), timeStamp: 2017-03-02 11:17:44.178
LEye coords (218.0, 203.0), REye coords (228.0, 204.0), timeStamp: 2017-03-02 11:17:44.223
LEye coords (217.0, 204.0), REye coords (227.0, 203.0), timeStamp: 2017-03-02 11:17:44.256
LEye coords (215.0, 204.0), REye coords (226.0, 204.0), timeStamp: 2017-03-02 11:17:44.290
LEye coords (214.0, 204.0), REye coords (225.0, 204.0), timeStamp: 2017-03-02 11:17:44.333
LEye coords (213.0, 205.0), REye coords (224.0, 204.0), timeStamp: 2017-03-02 11:17:44.368
LEye coords (212.0, 206.0), REye coords (223.0, 205.0), timeStamp: 2017-03-02 11:17:44.401
LEye coords (211.0, 207.0), REye coords (222.0, 205.0), timeStamp: 2017-03-02 11:17:44.434
LEye coords (211.0, 207.0), REye coords (221.0, 206.0), timeStamp: 2017-03-02 11:17:44.478
