LEye coords (239.0, 235.0), REye coords (248.0, 226.0), timeStamp: 2017-03-02 11:17:46.587
LEye coords (239.0, 234.0), REye coords (247.0, 226.0), timeStamp: 2017-03-02 11:17:46.621
LEye coords (239.0, 234.0), REye coords (247.0, 226.0), timeStamp: 2017-03-02 11:17:46.656
LEye coords (239.0, 234.0), REye coords (247.0, 226.0), timeStamp: 2017-03-02 11:17:46.701
LEye coords (239.0, 234.0), REye coords (247.0, 227.0), timeStamp: 2017-03-02 11:17:46.734
LEye coords (239.0, 234.0), REye coords (247.0, 227.0), timeStamp: 2017-03-02 11:17:46.767
LEye coords (239.0, 234.0), REye coords (246.0, 227.0), timeStamp: 2017-03-02 11:17:46.812
LEye coords (239.0, 235.0), REye coords (246.0, 228.0), timeStamp: 2017-03-02 11:17:46.846
LEye coords (239.0, 235.0), REye coords (247.0, 228.0), timeStamp: 2017-03-02 11:17:46.880
LEye coords (239.0, 235.0), REye coords (247.0, 228.0), timeStamp: 2017-03-02 11:17:46.924
LEye coords (239.0, 235.0), REye coords (246.0, 229.0), timeStamp: 2017-03-02 11:17:46.959
LEye coords (236.0, 234.0), REye coords (244.0, 227.0), timeStamp: 2017-03-02 11:17:46.993
LEye coords (234.0, 233.0), REye coords (242.0, 226.0), timeStamp: 2017-03-02 11:17:47.026
LEye coords (232.0, 232.0), REye coords (240.0, 225.0), timeStamp: 2017-03-02 11:17:47.070
LEye coords (230.0, 231.0), REye coords (238.0, 223.0), timeStamp: 2017-03-02 11:17:47.104
LEye coords (228.0, 230.0), REye coords (236.0, 222.0), timeStamp: 2017-03-02 11:17:47.138
LEye coords (226.0, 229.0), REye coords (235.0, 221.0), timeStamp: 2017-03-02 11:17:47.183
LEye coords (224.0, 228.0), REye coords (233.0, 220.0), timeStamp: 2017-03-02 11:17:47.216
LEye coords (222.0, 227.0), REye coords (232.0, 218.0), timeStamp: 2017-03-02 11:17:47.250
LEye coords (220.0, 226.0), REye coords (230.0, 217.0), timeStamp: 2017-03-02 11:17:47.294
LEye coords (218.0, 225.0), REye coords (228.0, 215.0), timeStamp: 2017-03-02 11:17:47.327
LEye coords (217.0, 224.0), REye coords (227.0, 214.0), timeStamp: 2017-03-02 11:17:47.361
LEye coords (215.0, 223.0), REye coords (225.0, 213.0), timeStamp: 2017-03-02 11:17:47.405
LEye coords (214.0, 222.0), REye coords (224.0, 212.0), timeStamp: 2017-03-02 11:17:47.439
LEye coords (212.0, 222.0), REye coords (222.0, 211.0), timeStamp: 2017-03-02 11:17:47.473
LEye coords (211.0, 221.0), REye coords (221.0, 210.0), timeStamp: 2017-03-02 11:17:47.516
LEye coords (210.0, 221.0), REye coords (220.0, 209.0), timeStamp: 2017-03-02 11:17:47.550
