LEye coords (217.0, 167.0), REye coords (0.0, 0.0), timeStamp: 2017-03-02 11:17:52.585
LEye coords (216.0, 166.0), REye coords (0.0, 0.0), timeStamp: 2017-03-02 11:17:52.618
LEye coords (216.0, 167.0), REye coords (241.0, 144.0), timeStamp: 2017-03-02 11:17:52.653
LEye coords (216.0, 167.0), REye coords (240.0, 145.0), timeStamp: 2017-03-02 11:17:52.697
LEye coords (216.0, 166.0), REye coords (240.0, 142.0), timeStamp: 2017-03-02 11:17:52.732
LEye coords (216.0, 167.0), REye coords (238.0, 143.0), timeStamp: 2017-03-02 11:17:52.765
LEye coords (216.0, 167.0), REye coords (238.0, 143.0), timeStamp: 2017-03-02 11:17:52.809
LEye coords (222.0, 229.0), REye coords (225.0, 222.0), timeStamp: 2017-03-02 11:17:52.843
LEye coords (221.0, 227.0), REye coords (232.0, 219.0), timeStamp: 2017-03-02 11:17:52.876
LEye coords (221.0, 228.0), REye coords (232.0, 222.0), timeStamp: 2017-03-02 11:17:52.920
LEye coords (221.0, 227.0), REye coords (232.0, 221.0), timeStamp: 2017-03-02 11:17:52.953
LEye coords (221.0, 226.0), REye coords (232.0, 221.0), timeStamp: 2017-03-02 11:17:52.987
LEye coords (228.0, 226.0), REye coords (265.0, 221.0), timeStamp: 2017-03-02 11:17:53.021
LEye coords (315.0, 223.0), REye coords (322.0, 218.0), timeStamp: 2017-03-02 11:17:53.066
LEye coords (318.0, 224.0), REye coords (323.0, 219.0), timeStamp: 2017-03-02 11:17:53.100
LEye coords (318.0, 224.0), REye coords (323.0, 220.0), timeStamp: 2017-03-02 11:17:53.134
LEye coords (318.0, 223.0), REye coords (323.0, 221.0), timeStamp: 2017-03-02 11:17:53.178
LEye coords (318.0, 223.0), REye coords (321.0, 228.0), timeStamp: 2017-03-02 11:17:53.211
LEye coords (322.0, 223.0), REye coords (325.0, 218.0), timeStamp: 2017-03-02 11:17:53.245
LEye coords (319.0, 225.0), REye coords (325.0, 220.0), timeStamp: 2017-03-02 11:17:53.290
LEye coords (318.0, 226.0), REye coords (326.0, 219.0), timeStamp: 2017-03-02 11:17:53.323
LEye coords (318.0, 226.0), REye coords (324.0, 220.0), timeStamp: 2017-03-02 11:17:53.358
LEye coords (319.0, 226.0), REye coords (324.0, 222.0), timeStamp: 2017-03-02 11:17:53.391
LEye coords (319.0, 226.0), REye coords (323.0, 222.0), timeStamp: 2017-03-02 11:17:53.435
LEye coords (319.0, 226.0), REye coords (323.0, 223.0), timeStamp: 2017-03-02 11:17:53.467
