LEye coords (244.0, 319.0), REye coords (0.0, 0.0), timeStamp: 2017-03-02 11:17:59.397
LEye coords (223.0, 216.0), REye coords (227.0, 220.0), timeStamp: 2017-03-02 11:17:59.542
LEye coords (223.0, 218.0), REye coords (230.0, 217.0), timeStamp: 2017-03-02 11:17:59.575
LEye coords (222.0, 220.0), REye coords (230.0, 218.0), timeStamp: 2017-03-02 11:17:59.609
LEye coords (222.0, 220.0), REye coords (230.0, 218.0), timeStamp: 2017-03-02 11:17:59.654
LEye coords (222.0, 224.0), REye coords (229.0, 217.0), timeStamp: 2017-03-02 11:17:59.687
LEye coords (219.0, 221.0), REye coords (238.0, 218.0), timeStamp: 2017-03-02 11:17:59.508
LEye coords (235.0, 307.0), REye coords (0.0, 0.0), timeStamp: 2017-03-02 11:17:59.429
LEye coords (180.0, 128.0), REye coords (201.0, 124.0), timeStamp: 2017-03-02 11:18:39.622
LEye coords (182.0, 133.0), REye coords (202.0, 126.0), timeStamp: 2017-03-02 11:18:39.656
LEye coords (182.0, 133.0), REye coords (200.0, 131.0), timeStamp: 2017-03-02 11:18:39.700
LEye coords (183.0, 132.0), REye coords (200.0, 126.0), timeStamp: 2017-03-02 11:18:39.734
LEye coords (183.0, 133.0), REye coords (200.0, 125.0), timeStamp: 2017-03-02 11:18:39.768
LEye coords (183.0, 134.0), REye coords (201.0, 126.0), timeStamp: 2017-03-02 11:18:39.812
LEye coords (183.0, 135.0), REye coords (201.0, 125.0), timeStamp: 2017-03-02 11:18:39.845
LEye coords (187.0, 141.0), REye coords (205.0, 133.0), timeStamp: 2017-03-02 11:18:39.879
LEye coords (229.0, 237.0), REye coords (236.0, 240.0), timeStamp: 2017-03-02 11:18:39.923
LEye coords (229.0, 239.0), REye coords (232.0, 240.0), timeStamp: 2017-03-02 11:18:39.957
LEye coords (227.0, 238.0), REye coords (233.0, 241.0), timeStamp: 2017-03-02 11:18:39.991
LEye coords (228.0, 239.0), REye coords (232.0, 242.0), timeStamp: 2017-03-02 11:18:40.024
LEye coords (196.0, 233.0), REye coords (199.0, 236.0), timeStamp: 2017-03-02 11:18:40.067
LEye coords (100.0, 212.0), REye coords (104.0, 219.0), timeStamp: 2017-03-02 11:18:40.100
LEye coords (101.0, 212.0), REye coords (104.0, 216.0), timeStamp: 2017-03-02 11:18:40.144
LEye coords (100.0, 212.0), REye coords (104.0, 221.0), timeStamp: 2017-03-02 11:18:40.177
LEye coords (100.0, 213.0), REye coords (103.0, 221.0), timeStamp: 2017-03-02 11:18:40.211
LEye coords (100.0, 213.0), REye coords (104.0, 221.0), timeStamp: 2017-03-02 11:18:40.254
LEye coords (100.0, 213.0), REye coords (104.0, 221.0), timeStamp: 2017-03-02 11:18:40.288
LEye coords (97.0, 214.0), REye coords (99.0, 222.0), timeStamp: 2017-03-02 11:18:40.321
LEye coords (95.0, 216.0), REye coords (96.0, 224.0), timeStamp: 2017-03-02 11:18:40.365
LEye coords (94.0, 217.0), REye coords (93.0, 224.0), timeStamp: 2017-03-02 11:18:40.398
LEye coords (92.0, 218.0), REye coords (91.0, 225.0), timeStamp: 2017-03-02 11:18:40.432
LEye coords (91.0, 219.0), REye coords (90.0, 226.0), timeStamp: 2017-03-02 11:18:40.475
LEye coords (90.0, 220.0), REye coords (88.0, 226.0), timeStamp: 2017-03-02 11:18:40.508
LEye coords (90.0, 221.0), REye coords (87.0, 227.0), timeStamp: 2017-03-02 11:18:40.552
LEye coords (89.0, 221.0), REye coords (86.0, 228.0), timeStamp: 2017-03-02 11:18:40.586
LEye coords (88.0, 222.0), REye coords (85.0, 228.0), timeStamp: 2017-03-02 11:18:40.620
LEye coords (88.0, 222.0), REye coords (85.0, 229.0), timeStamp: 2017-03-02 11:18:40.664
