LEye coords (252.0, 239.0), REye coords (256.0, 234.0), timeStamp: 2017-03-02 11:19:35.883
LEye coords (251.0, 232.0), REye coords (256.0, 234.0), timeStamp: 2017-03-02 11:19:35.916
LEye coords (252.0, 232.0), REye coords (256.0, 234.0), timeStamp: 2017-03-02 11:19:35.951
LEye coords (253.0, 234.0), REye coords (256.0, 234.0), timeStamp: 2017-03-02 11:19:35.994
LEye coords (253.0, 234.0), REye coords (256.0, 235.0), timeStamp: 2017-03-02 11:19:36.027
LEye coords (253.0, 235.0), REye coords (256.0, 235.0), timeStamp: 2017-03-02 11:19:36.060
LEye coords (253.0, 234.0), REye coords (256.0, 236.0), timeStamp: 2017-03-02 11:19:36.105
LEye coords (253.0, 235.0), REye coords (256.0, 236.0), timeStamp: 2017-03-02 11:19:36.138
LEye coords (253.0, 235.0), REye coords (256.0, 236.0), timeStamp: 2017-03-02 11:19:36.173
LEye coords (252.0, 235.0), REye coords (256.0, 236.0), timeStamp: 2017-03-02 11:19:36.217
LEye coords (252.0, 235.0), REye coords (256.0, 237.0), timeStamp: 2017-03-02 11:19:36.251
LEye coords (252.0, 236.0), REye coords (257.0, 237.0), timeStamp: 2017-03-02 11:19:36.285
LEye coords (340.0, 256.0), REye coords (343.0, 255.0), timeStamp: 2017-03-02 11:19:36.318
LEye coords (372.0, 271.0), REye coords (0.0, 0.0), timeStamp: 2017-03-02 11:19:36.362
LEye coords (373.0, 271.0), REye coords (0.0, 0.0), timeStamp: 2017-03-02 11:19:36.396
LEye coords (374.0, 271.0), REye coords (0.0, 0.0), timeStamp: 2017-03-02 11:19:36.430
LEye coords (375.0, 270.0), REye coords (0.0, 0.0), timeStamp: 2017-03-02 11:19:36.474
LEye coords (378.0, 270.0), REye coords (0.0, 0.0), timeStamp: 2017-03-02 11:19:36.507
LEye coords (385.0, 272.0), REye coords (381.0, 263.0), timeStamp: 2017-03-02 11:19:36.541
LEye coords (393.0, 272.0), REye coords (393.0, 269.0), timeStamp: 2017-03-02 11:19:36.584
LEye coords (397.0, 272.0), REye coords (398.0, 271.0), timeStamp: 2017-03-02 11:19:36.619
LEye coords (0.0, 0.0), REye coords (399.0, 273.0), timeStamp: 2017-03-02 11:19:36.652
LEye coords (399.0, 271.0), REye coords (405.0, 275.0), timeStamp: 2017-03-02 11:19:36.698
LEye coords (400.0, 271.0), REye coords (407.0, 277.0), timeStamp: 2017-03-02 11:19:36.731
LEye coords (400.0, 271.0), REye coords (406.0, 276.0), timeStamp: 2017-03-02 11:19:36.765
LEye coords (400.0, 271.0), REye coords (406.0, 278.0), timeStamp: 2017-03-02 11:19:36.798
LEye coords (400.0, 270.0), REye coords (406.0, 278.0), timeStamp: 2017-03-02 11:19:36.841
