LEye coords (275.0, 404.0), REye coords (281.0, 405.0), timeStamp: 2017-03-02 11:19:39.325
LEye coords (276.0, 403.0), REye coords (281.0, 404.0), timeStamp: 2017-03-02 11:19:39.358
LEye coords (276.0, 401.0), REye coords (282.0, 403.0), timeStamp: 2017-03-02 11:19:39.391
LEye coords (277.0, 401.0), REye coords (283.0, 402.0), timeStamp: 2017-03-02 11:19:39.435
LEye coords (278.0, 400.0), REye coords (283.0, 402.0), timeStamp: 2017-03-02 11:19:39.469
LEye coords (278.0, 399.0), REye coords (283.0, 401.0), timeStamp: 2017-03-02 11:19:39.503
LEye coords (234.0, 341.0), REye coords (243.0, 342.0), timeStamp: 2017-03-02 11:19:39.547
LEye coords (216.0, 351.0), REye coords (227.0, 342.0), timeStamp: 2017-03-02 11:19:39.580
LEye coords (217.0, 351.0), REye coords (227.0, 345.0), timeStamp: 2017-03-02 11:19:39.614
LEye coords (217.0, 352.0), REye coords (226.0, 345.0), timeStamp: 2017-03-02 11:19:39.658
LEye coords (218.0, 352.0), REye coords (226.0, 345.0), timeStamp: 2017-03-02 11:19:39.692
LEye coords (193.0, 229.0), REye coords (204.0, 196.0), timeStamp: 2017-03-02 11:19:39.726
LEye coords (0.0, 0.0), REye coords (0.0, 0.0), timeStamp: 2017-03-02 11:19:39.759
LEye coords (190.0, 228.0), REye coords (0.0, 0.0), timeStamp: 2017-03-02 11:19:39.804
LEye coords (190.0, 230.0), REye coords (0.0, 0.0), timeStamp: 2017-03-02 11:19:39.838
LEye coords (190.0, 231.0), REye coords (0.0, 0.0), timeStamp: 2017-03-02 11:19:39.872
LEye coords (190.0, 230.0), REye coords (0.0, 0.0), timeStamp: 2017-03-02 11:19:39.915
LEye coords (184.0, 266.0), REye coords (187.0, 254.0), timeStamp: 2017-03-02 11:19:39.948
LEye coords (184.0, 266.0), REye coords (185.0, 253.0), timeStamp: 2017-03-02 11:19:39.983
LEye coords (184.0, 264.0), REye coords (187.0, 246.0), timeStamp: 2017-03-02 11:19:40.027
LEye coords (184.0, 263.0), REye coords (187.0, 245.0), timeStamp: 2017-03-02 11:19:40.061
LEye coords (184.0, 264.0), REye coords (187.0, 239.0), timeStamp: 2017-03-02 11:19:40.094
LEye coords (184.0, 262.0), REye coords (186.0, 251.0), timeStamp: 2017-03-02 11:19:40.139
LEye coords (184.0, 262.0), REye coords (186.0, 251.0), timeStamp: 2017-03-02 11:19:40.173
