LEye coords (231.0, 235.0), REye coords (231.0, 225.0), timeStamp: 2017-03-02 11:20:45.676
LEye coords (231.0, 265.0), REye coords (231.0, 255.0), timeStamp: 2017-03-02 11:20:45.721
LEye coords (230.0, 265.0), REye coords (227.0, 267.0), timeStamp: 2017-03-02 11:20:45.755
LEye coords (230.0, 266.0), REye coords (230.0, 262.0), timeStamp: 2017-03-02 11:20:45.789
LEye coords (229.0, 266.0), REye coords (230.0, 263.0), timeStamp: 2017-03-02 11:20:45.834
LEye coords (229.0, 266.0), REye coords (231.0, 263.0), timeStamp: 2017-03-02 11:20:45.868
LEye coords (229.0, 267.0), REye coords (231.0, 263.0), timeStamp: 2017-03-02 11:20:45.902
LEye coords (228.0, 267.0), REye coords (231.0, 263.0), timeStamp: 2017-03-02 11:20:45.937
LEye coords (228.0, 268.0), REye coords (232.0, 263.0), timeStamp: 2017-03-02 11:20:45.972
LEye coords (228.0, 268.0), REye coords (231.0, 264.0), timeStamp: 2017-03-02 11:20:46.016
LEye coords (227.0, 268.0), REye coords (231.0, 264.0), timeStamp: 2017-03-02 11:20:46.049
LEye coords (306.0, 323.0), REye coords (309.0, 314.0), timeStamp: 2017-03-02 11:20:46.083
LEye coords (301.0, 320.0), REye coords (304.0, 309.0), timeStamp: 2017-03-02 11:20:46.127
LEye coords (301.0, 320.0), REye coords (303.0, 311.0), timeStamp: 2017-03-02 11:20:46.162
LEye coords (301.0, 320.0), REye coords (301.0, 314.0), timeStamp: 2017-03-02 11:20:46.196
LEye coords (301.0, 321.0), REye coords (301.0, 316.0), timeStamp: 2017-03-02 11:20:46.239
LEye coords (301.0, 322.0), REye coords (301.0, 322.0), timeStamp: 2017-03-02 11:20:46.274
LEye coords (299.0, 324.0), REye coords (297.0, 333.0), timeStamp: 2017-03-02 11:20:46.307
LEye coords (298.0, 323.0), REye coords (298.0, 334.0), timeStamp: 2017-03-02 11:20:46.351
LEye coords (297.0, 323.0), REye coords (0.0, 0.0), timeStamp: 2017-03-02 11:20:46.386
LEye coords (296.0, 324.0), REye coords (0.0, 0.0), timeStamp: 2017-03-02 11:20:46.419
LEye coords (296.0, 325.0), REye coords (0.0, 0.0), timeStamp: 2017-03-02 11:20:46.452
LEye coords (296.0, 325.0), REye coords (0.0, 0.0), timeStamp: 2017-03-02 11:20:46.496
LEye coords (296.0, 325.0), REye coords (0.0, 0.0), timeStamp: 2017-03-02 11:20:46.529
LEye coords (296.0, 325.0), REye coords (0.0, 0.0), timeStamp: 2017-03-02 11:20:46.563
