LEye coords (436.7353, 398.0619), REye coords (460.5164, 406.5838), timeStamp: 2017-02-16 10:35:57.209
LEye coords (437.4317, 397.452), REye coords (460.731, 405.9817), timeStamp: 2017-02-16 10:35:57.253
LEye coords (438.8715, 397.1727), REye coords (460.4655, 405.9148), timeStamp: 2017-02-16 10:35:57.287
LEye coords (439.5712, 396.9258), REye coords (460.0031, 405.4058), timeStamp: 2017-02-16 10:35:57.321
LEye coords (440.0138, 397.236), REye coords (459.3891, 404.4644), timeStamp: 2017-02-16 10:35:57.365
LEye coords (440.1494, 396.8801), REye coords (459.3019, 403.8568), timeStamp: 2017-02-16 10:35:57.400
LEye coords (440.7299, 397.6923), REye coords (459.5769, 403.1021), timeStamp: 2017-02-16 10:35:57.435
LEye coords (439.5018, 394.6589), REye coords (459.4608, 402.4863), timeStamp: 2017-02-16 10:35:57.468
LEye coords (437.3445, 392.1985), REye coords (459.5887, 402.221), timeStamp: 2017-02-16 10:35:57.503
LEye coords (436.1307, 391.8091), REye coords (459.7995, 402.1902), timeStamp: 2017-02-16 10:35:57.548
LEye coords (436.7213, 392.3987), REye coords (460.2513, 402.4329), timeStamp: 2017-02-16 10:35:57.582
LEye coords (221.4184, 524.9637), REye coords (207.8687, 567.0352), timeStamp: 2017-02-16 10:35:57.616
LEye coords (193.5772, 586.4448), REye coords (174.4606, 587.9295), timeStamp: 2017-02-16 10:35:57.661
LEye coords (197.1289, 583.9158), REye coords (183.0609, 585.5155), timeStamp: 2017-02-16 10:35:57.695
LEye coords (198.6134, 576.6694), REye coords (184.3024, 583.7927), timeStamp: 2017-02-16 10:35:57.729
LEye coords (200.3981, 574.0593), REye coords (188.304, 586.1572), timeStamp: 2017-02-16 10:35:57.772
LEye coords (200.2978, 572.8674), REye coords (191.2304, 594.2038), timeStamp: 2017-02-16 10:35:57.805
LEye coords (235.5365, 538.8689), REye coords (230.2124, 581.345), timeStamp: 2017-02-16 10:35:57.840
LEye coords (231.4568, 531.0516), REye coords (231.0402, 586.2047), timeStamp: 2017-02-16 10:35:57.873
LEye coords (229.8822, 528.2418), REye coords (232.8511, 583.9804), timeStamp: 2017-02-16 10:35:57.918
LEye coords (228.4774, 527.37), REye coords (230.9486, 586.4656), timeStamp: 2017-02-16 10:35:57.951
LEye coords (230.0384, 526.2504), REye coords (231.05, 588.2486), timeStamp: 2017-02-16 10:35:57.985
LEye coords (230.3461, 526.2629), REye coords (229.8851, 588.819), timeStamp: 2017-02-16 10:35:58.029
LEye coords (229.1595, 527.6574), REye coords (229.0966, 589.821), timeStamp: 2017-02-16 10:35:58.063
LEye coords (229.4827, 529.8447), REye coords (226.468, 589.2123), timeStamp: 2017-02-16 10:35:58.096
LEye coords (227.8292, 529.4488), REye coords (225.7728, 589.4793), timeStamp: 2017-02-16 10:35:58.140
LEye coords (227.0135, 530.0677), REye coords (225.5236, 589.8934), timeStamp: 2017-02-16 10:35:58.174
LEye coords (223.9184, 529.6188), REye coords (220.813, 589.4981), timeStamp: 2017-02-16 10:35:58.208
LEye coords (220.562, 530.0806), REye coords (217.8456, 589.5294), timeStamp: 2017-02-16 10:35:58.252
LEye coords (217.6913, 532.3917), REye coords (213.7887, 589.5034), timeStamp: 2017-02-16 10:35:58.286
LEye coords (214.7539, 532.2788), REye coords (210.7898, 589.8401), timeStamp: 2017-02-16 10:35:58.321
LEye coords (211.6401, 530.8154), REye coords (208.8147, 590.3936), timeStamp: 2017-02-16 10:35:58.355
LEye coords (211.7841, 529.7621), REye coords (209.4124, 589.7433), timeStamp: 2017-02-16 10:35:58.397
LEye coords (211.328, 529.0475), REye coords (210.2612, 589.1677), timeStamp: 2017-02-16 10:35:58.430
LEye coords (211.8404, 527.7847), REye coords (210.8122, 588.6473), timeStamp: 2017-02-16 10:35:58.475
LEye coords (211.3103, 526.1271), REye coords (211.3193, 587.8783), timeStamp: 2017-02-16 10:35:58.509
LEye coords (212.5694, 525.1487), REye coords (212.0032, 586.7712), timeStamp: 2017-02-16 10:35:58.542
LEye coords (213.218, 524.2452), REye coords (212.7369, 585.8516), timeStamp: 2017-02-16 10:35:58.577
LEye coords (213.5728, 524.0059), REye coords (213.6254, 585.1982), timeStamp: 2017-02-16 10:35:58.620
LEye coords (213.7271, 522.6442), REye coords (213.6787, 584.6016), timeStamp: 2017-02-16 10:35:58.654
LEye coords (213.9249, 522.0864), REye coords (214.2654, 584.2267), timeStamp: 2017-02-16 10:35:58.688
LEye coords (217.9138, 520.1203), REye coords (218.4526, 581.9611), timeStamp: 2017-02-16 10:35:58.732
LEye coords (221.1613, 518.9468), REye coords (221.2612, 580.0244), timeStamp: 2017-02-16 10:35:58.766
LEye coords (223.2819, 517.5812), REye coords (224.842, 578.2688), timeStamp: 2017-02-16 10:35:58.799
LEye coords (225.9802, 517.4668), REye coords (228.3838, 577.1799), timeStamp: 2017-02-16 10:35:58.843
LEye coords (228.4965, 516.0933), REye coords (231.7688, 575.4255), timeStamp: 2017-02-16 10:35:58.878
LEye coords (232.1087, 516.4501), REye coords (234.9979, 574.57), timeStamp: 2017-02-16 10:35:58.911
LEye coords (234.8123, 517.1913), REye coords (238.2033, 573.5438), timeStamp: 2017-02-16 10:35:58.956
LEye coords (238.1587, 518.0763), REye coords (240.4604, 572.5732), timeStamp: 2017-02-16 10:35:58.989
LEye coords (241.0727, 518.4225), REye coords (243.743, 571.5294), timeStamp: 2017-02-16 10:35:59.023
LEye coords (244.2591, 518.9943), REye coords (246.9215, 570.4023), timeStamp: 2017-02-16 10:35:59.067
LEye coords (247.4558, 519.0864), REye coords (249.809, 569.9439), timeStamp: 2017-02-16 10:35:59.100
LEye coords (250.1282, 519.15), REye coords (252.5086, 569.0508), timeStamp: 2017-02-16 10:35:59.134
LEye coords (253.2988, 520.2224), REye coords (254.5261, 568.8941), timeStamp: 2017-02-16 10:35:59.179
LEye coords (255.8502, 522.3583), REye coords (255.9192, 568.2578), timeStamp: 2017-02-16 10:35:59.213
LEye coords (257.4777, 523.8174), REye coords (257.0525, 567.9186), timeStamp: 2017-02-16 10:35:59.246
LEye coords (258.5487, 526.8193), REye coords (258.0356, 567.2948), timeStamp: 2017-02-16 10:35:59.281
LEye coords (260.4879, 529.9299), REye coords (259.2126, 566.4421), timeStamp: 2017-02-16 10:35:59.326
LEye coords (261.1155, 532.3325), REye coords (260.5174, 566.1002), timeStamp: 2017-02-16 10:35:59.359
LEye coords (262.4871, 535.6867), REye coords (260.4391, 565.6857), timeStamp: 2017-02-16 10:35:59.394
LEye coords (262.7485, 538.9523), REye coords (261.2567, 565.358), timeStamp: 2017-02-16 10:35:59.427
LEye coords (264.3883, 542.2479), REye coords (261.1894, 565.1903), timeStamp: 2017-02-16 10:35:59.472
LEye coords (266.1835, 544.7044), REye coords (261.5221, 564.384), timeStamp: 2017-02-16 10:35:59.506
LEye coords (266.5385, 548.8965), REye coords (260.6606, 564.4654), timeStamp: 2017-02-16 10:35:59.541
LEye coords (267.3781, 553.405), REye coords (260.7612, 564.3111), timeStamp: 2017-02-16 10:35:59.585
LEye coords (267.3457, 556.9989), REye coords (260.7003, 563.8182), timeStamp: 2017-02-16 10:35:59.618
LEye coords (269.567, 561.7365), REye coords (260.1523, 563.614), timeStamp: 2017-02-16 10:35:59.652
LEye coords (269.589, 566.4235), REye coords (260.4073, 563.8873), timeStamp: 2017-02-16 10:35:59.697
LEye coords (270.5258, 569.3517), REye coords (260.7195, 563.825), timeStamp: 2017-02-16 10:35:59.731
LEye coords (272.6223, 572.9929), REye coords (261.0416, 563.3761), timeStamp: 2017-02-16 10:35:59.764
LEye coords (273.9778, 574.664), REye coords (260.7808, 563.0537), timeStamp: 2017-02-16 10:35:59.799
LEye coords (275.6334, 577.6709), REye coords (260.7019, 563.1933), timeStamp: 2017-02-16 10:35:59.842
LEye coords (276.8879, 579.5236), REye coords (261.1724, 563.6006), timeStamp: 2017-02-16 10:35:59.876
LEye coords (276.5341, 580.8143), REye coords (261.4023, 563.5955), timeStamp: 2017-02-16 10:35:59.910
LEye coords (277.9737, 582.2952), REye coords (261.0137, 563.4493), timeStamp: 2017-02-16 10:35:59.955
LEye coords (279.7864, 582.1987), REye coords (260.8818, 562.4824), timeStamp: 2017-02-16 10:35:59.989
LEye coords (279.6275, 582.7729), REye coords (261.259, 562.2493), timeStamp: 2017-02-16 10:36:00.022
LEye coords (280.7107, 581.7975), REye coords (262.2071, 561.7877), timeStamp: 2017-02-16 10:36:00.066
LEye coords (281.0204, 582.1511), REye coords (262.4166, 561.4497), timeStamp: 2017-02-16 10:36:00.099
LEye coords (280.9969, 581.3092), REye coords (263.7242, 560.9511), timeStamp: 2017-02-16 10:36:00.132
LEye coords (280.8853, 580.8519), REye coords (263.7756, 560.1603), timeStamp: 2017-02-16 10:36:00.176
LEye coords (281.9771, 581.0444), REye coords (264.6389, 559.2336), timeStamp: 2017-02-16 10:36:00.210
LEye coords (283.1589, 580.7736), REye coords (265.6901, 558.0226), timeStamp: 2017-02-16 10:36:00.244
LEye coords (283.6161, 578.8854), REye coords (267.7057, 556.9194), timeStamp: 2017-02-16 10:36:00.287
LEye coords (283.4612, 579.1389), REye coords (268.9065, 556.1661), timeStamp: 2017-02-16 10:36:00.321
LEye coords (283.5971, 578.4738), REye coords (269.7846, 555.3331), timeStamp: 2017-02-16 10:36:00.354
LEye coords (282.9613, 577.7318), REye coords (270.0611, 554.4694), timeStamp: 2017-02-16 10:36:00.398
LEye coords (282.615, 576.6718), REye coords (270.5941, 554.5089), timeStamp: 2017-02-16 10:36:00.433
LEye coords (282.2914, 576.4818), REye coords (271.4217, 554.1825), timeStamp: 2017-02-16 10:36:00.466
LEye coords (281.9537, 574.6715), REye coords (271.9617, 554.1169), timeStamp: 2017-02-16 10:36:00.510
LEye coords (281.6853, 570.9206), REye coords (271.7674, 553.4415), timeStamp: 2017-02-16 10:36:00.543
LEye coords (280.1713, 567.869), REye coords (271.3656, 552.8295), timeStamp: 2017-02-16 10:36:00.575
LEye coords (279.2005, 565.6723), REye coords (271.8389, 550.4672), timeStamp: 2017-02-16 10:36:00.621
LEye coords (278.2423, 562.0824), REye coords (272.0848, 548.2054), timeStamp: 2017-02-16 10:36:00.655
LEye coords (277.4881, 558.0656), REye coords (271.7568, 546.5192), timeStamp: 2017-02-16 10:36:00.688
LEye coords (277.6465, 554.0272), REye coords (272.1433, 544.9427), timeStamp: 2017-02-16 10:36:00.732
LEye coords (277.5254, 551.009), REye coords (272.419, 543.9464), timeStamp: 2017-02-16 10:36:00.765
LEye coords (276.397, 547.8226), REye coords (273.0157, 542.3891), timeStamp: 2017-02-16 10:36:00.798
LEye coords (276.4025, 546.3387), REye coords (273.6304, 541.3887), timeStamp: 2017-02-16 10:36:00.843
LEye coords (276.4953, 544.9807), REye coords (274.6805, 540.8179), timeStamp: 2017-02-16 10:36:00.876
LEye coords (277.3517, 543.2283), REye coords (275.2957, 539.7613), timeStamp: 2017-02-16 10:36:00.910
LEye coords (276.9276, 541.071), REye coords (276.0705, 538.9861), timeStamp: 2017-02-16 10:36:00.953
LEye coords (277.0584, 539.4453), REye coords (276.8987, 538.1556), timeStamp: 2017-02-16 10:36:00.987
LEye coords (276.6937, 537.7848), REye coords (276.8207, 538.198), timeStamp: 2017-02-16 10:36:01.021
LEye coords (276.8303, 536.5617), REye coords (277.3185, 537.4171), timeStamp: 2017-02-16 10:36:01.065
LEye coords (276.2585, 536.0307), REye coords (277.7814, 537.0799), timeStamp: 2017-02-16 10:36:01.098
LEye coords (276.3192, 534.2258), REye coords (278.5177, 536.7208), timeStamp: 2017-02-16 10:36:01.132
LEye coords (275.0003, 535.4234), REye coords (276.8089, 536.0812), timeStamp: 2017-02-16 10:36:01.177
LEye coords (49.2159, 644.3588), REye coords (70.0524, 545.4957), timeStamp: 2017-02-16 10:36:01.210
LEye coords (76.9246, 597.8982), REye coords (66.0958, 548.1591), timeStamp: 2017-02-16 10:36:01.243
LEye coords (72.2798, 585.7103), REye coords (71.4724, 546.2114), timeStamp: 2017-02-16 10:36:01.288
LEye coords (68.4568, 583.6722), REye coords (70.3909, 550.2812), timeStamp: 2017-02-16 10:36:01.321
LEye coords (68.2022, 582.5018), REye coords (67.6638, 555.1738), timeStamp: 2017-02-16 10:36:01.355
LEye coords (60.1032, 577.7642), REye coords (73.8243, 551.6523), timeStamp: 2017-02-16 10:36:01.398
LEye coords (65.7389, 570.1719), REye coords (67.6879, 556.604), timeStamp: 2017-02-16 10:36:01.431
LEye coords (64.1936, 581.061), REye coords (67.0347, 553.508), timeStamp: 2017-02-16 10:36:01.464
LEye coords (66.1167, 576.6461), REye coords (68.6024, 554.2075), timeStamp: 2017-02-16 10:36:01.509
LEye coords (68.1334, 576.4946), REye coords (68.4017, 556.1691), timeStamp: 2017-02-16 10:36:01.544
LEye coords (64.9221, 575.056), REye coords (69.7227, 556.2159), timeStamp: 2017-02-16 10:36:01.577
LEye coords (62.2107, 574.0839), REye coords (69.3133, 555.979), timeStamp: 2017-02-16 10:36:01.611
LEye coords (57.5831, 569.9705), REye coords (68.8024, 557.3795), timeStamp: 2017-02-16 10:36:01.655
LEye coords (58.4967, 569.0818), REye coords (68.8283, 558.13), timeStamp: 2017-02-16 10:36:01.689
LEye coords (57.9295, 569.6489), REye coords (69.2016, 558.6874), timeStamp: 2017-02-16 10:36:01.722
LEye coords (56.8141, 571.3774), REye coords (69.0719, 558.5825), timeStamp: 2017-02-16 10:36:01.767
LEye coords (56.9365, 572.6555), REye coords (69.3723, 559.8442), timeStamp: 2017-02-16 10:36:01.800
LEye coords (56.9365, 577.027), REye coords (69.183, 560.425), timeStamp: 2017-02-16 10:36:01.834
LEye coords (57.6135, 579.5154), REye coords (69.4795, 560.9015), timeStamp: 2017-02-16 10:36:01.877
LEye coords (56.7611, 581.8778), REye coords (69.0221, 560.4406), timeStamp: 2017-02-16 10:36:01.911
LEye coords (56.597, 584.5288), REye coords (67.6673, 560.7624), timeStamp: 2017-02-16 10:36:01.945
LEye coords (56.2829, 587.6469), REye coords (66.9745, 561.1176), timeStamp: 2017-02-16 10:36:01.989
LEye coords (56.4239, 589.8392), REye coords (66.1899, 561.2742), timeStamp: 2017-02-16 10:36:02.023
LEye coords (57.1674, 591.6729), REye coords (65.2244, 561.1249), timeStamp: 2017-02-16 10:36:02.058
LEye coords (58.208, 592.8995), REye coords (64.8365, 561.217), timeStamp: 2017-02-16 10:36:02.102
LEye coords (57.7204, 595.4474), REye coords (64.7808, 561.3783), timeStamp: 2017-02-16 10:36:02.136
LEye coords (57.0789, 595.1213), REye coords (63.8121, 562.0285), timeStamp: 2017-02-16 10:36:02.169
LEye coords (55.6714, 593.2434), REye coords (63.3887, 561.6993), timeStamp: 2017-02-16 10:36:02.213
LEye coords (54.5197, 593.8616), REye coords (62.9936, 562.1722), timeStamp: 2017-02-16 10:36:02.247
LEye coords (53.8467, 593.2086), REye coords (63.1759, 562.2113), timeStamp: 2017-02-16 10:36:02.281
LEye coords (53.6582, 593.0414), REye coords (62.4397, 562.5714), timeStamp: 2017-02-16 10:36:02.315
LEye coords (53.0341, 592.468), REye coords (62.1135, 563.098), timeStamp: 2017-02-16 10:36:02.360
LEye coords (50.6033, 591.4532), REye coords (61.6764, 563.1601), timeStamp: 2017-02-16 10:36:02.394
LEye coords (50.8387, 592.6442), REye coords (61.0172, 562.9246), timeStamp: 2017-02-16 10:36:02.428
LEye coords (50.3374, 592.7627), REye coords (60.6776, 563.1674), timeStamp: 2017-02-16 10:36:02.463
LEye coords (50.0908, 593.6931), REye coords (59.6864, 563.7211), timeStamp: 2017-02-16 10:36:02.508
LEye coords (49.4556, 594.0768), REye coords (58.3792, 564.3756), timeStamp: 2017-02-16 10:36:02.542
LEye coords (49.1118, 594.2095), REye coords (57.8769, 565.5356), timeStamp: 2017-02-16 10:36:02.576
LEye coords (48.0364, 593.7883), REye coords (58.0435, 566.0009), timeStamp: 2017-02-16 10:36:02.610
LEye coords (47.2718, 593.3059), REye coords (57.3269, 566.2813), timeStamp: 2017-02-16 10:36:02.654
LEye coords (46.2316, 593.9875), REye coords (56.3731, 566.5103), timeStamp: 2017-02-16 10:36:02.688
LEye coords (44.6099, 593.3594), REye coords (55.8209, 567.298), timeStamp: 2017-02-16 10:36:02.722
LEye coords (44.4636, 592.8458), REye coords (55.8498, 567.9988), timeStamp: 2017-02-16 10:36:02.765
LEye coords (45.0809, 591.6838), REye coords (56.0962, 568.0217), timeStamp: 2017-02-16 10:36:02.798
LEye coords (44.7541, 593.6915), REye coords (55.9443, 568.5128), timeStamp: 2017-02-16 10:36:02.842
LEye coords (44.2921, 595.0518), REye coords (56.077, 569.2517), timeStamp: 2017-02-16 10:36:02.875
LEye coords (45.1705, 597.1216), REye coords (55.8433, 569.5005), timeStamp: 2017-02-16 10:36:02.908
LEye coords (45.67, 598.7195), REye coords (55.5529, 569.8842), timeStamp: 2017-02-16 10:36:02.952
LEye coords (46.3098, 600.7226), REye coords (55.934, 569.8431), timeStamp: 2017-02-16 10:36:02.986
LEye coords (47.0587, 603.3871), REye coords (55.9628, 570.6542), timeStamp: 2017-02-16 10:36:03.020
LEye coords (47.2999, 604.7029), REye coords (55.4313, 570.8017), timeStamp: 2017-02-16 10:36:03.064
LEye coords (49.8507, 606.7111), REye coords (54.7945, 570.7544), timeStamp: 2017-02-16 10:36:03.097
LEye coords (50.7128, 607.7489), REye coords (55.8635, 569.731), timeStamp: 2017-02-16 10:36:03.131
LEye coords (53.0996, 609.5863), REye coords (57.2741, 568.4696), timeStamp: 2017-02-16 10:36:03.175
LEye coords (56.2078, 611.7066), REye coords (57.7886, 567.2593), timeStamp: 2017-02-16 10:36:03.209
LEye coords (57.2406, 613.803), REye coords (58.5594, 566.2174), timeStamp: 2017-02-16 10:36:03.244
LEye coords (58.1272, 614.651), REye coords (59.4948, 564.9498), timeStamp: 2017-02-16 10:36:03.278
LEye coords (58.641, 616.4435), REye coords (60.7109, 563.7353), timeStamp: 2017-02-16 10:36:03.322
LEye coords (61.0193, 618.1268), REye coords (61.1249, 562.7433), timeStamp: 2017-02-16 10:36:03.356
LEye coords (62.957, 618.5118), REye coords (62.0186, 561.4056), timeStamp: 2017-02-16 10:36:03.391
LEye coords (65.0053, 620.5266), REye coords (61.9412, 560.6917), timeStamp: 2017-02-16 10:36:03.425
LEye coords (66.3032, 621.5198), REye coords (62.5837, 560.0911), timeStamp: 2017-02-16 10:36:03.469
LEye coords (65.1952, 617.0098), REye coords (63.4249, 560.3274), timeStamp: 2017-02-16 10:36:03.504
LEye coords (316.1581, 553.5543), REye coords (342.4942, 516.4053), timeStamp: 2017-02-16 10:36:03.538
LEye coords (419.8175, 496.6657), REye coords (466.7645, 543.799), timeStamp: 2017-02-16 10:36:03.581
LEye coords (430.8476, 503.1638), REye coords (466.3351, 536.2805), timeStamp: 2017-02-16 10:36:03.614
LEye coords (429.7536, 500.4203), REye coords (465.4393, 538.0848), timeStamp: 2017-02-16 10:36:03.648
LEye coords (427.8441, 496.1357), REye coords (464.6889, 535.566), timeStamp: 2017-02-16 10:36:03.694
LEye coords (447.4634, 507.8619), REye coords (458.3241, 543.6229), timeStamp: 2017-02-16 10:36:03.728
LEye coords (537.6354, 448.7337), REye coords (595.7555, 469.9367), timeStamp: 2017-02-16 10:36:03.762
LEye coords (501.1413, 416.9537), REye coords (560.006, 491.7942), timeStamp: 2017-02-16 10:36:03.796
LEye coords (532.9876, 436.83), REye coords (569.1569, 487.0079), timeStamp: 2017-02-16 10:36:03.839
LEye coords (545.0191, 442.5639), REye coords (574.3469, 484.9834), timeStamp: 2017-02-16 10:36:03.874
