LEye coords (250.9419, 478.6634), REye coords (236.9418, 438.9531), timeStamp: 2017-02-16 10:36:07.348
LEye coords (250.3497, 477.1008), REye coords (236.9836, 438.5945), timeStamp: 2017-02-16 10:36:07.393
LEye coords (246.6817, 474.5344), REye coords (237.0811, 437.4539), timeStamp: 2017-02-16 10:36:07.426
LEye coords (246.1289, 473.4694), REye coords (238.247, 435.7692), timeStamp: 2017-02-16 10:36:07.461
LEye coords (246.1635, 470.0292), REye coords (239.9689, 433.2417), timeStamp: 2017-02-16 10:36:07.504
LEye coords (246.1247, 468.6296), REye coords (241.0982, 431.3613), timeStamp: 2017-02-16 10:36:07.539
LEye coords (246.8127, 466.2994), REye coords (242.277, 430.3181), timeStamp: 2017-02-16 10:36:07.572
LEye coords (246.6767, 465.7644), REye coords (243.0562, 429.7521), timeStamp: 2017-02-16 10:36:07.608
LEye coords (245.5424, 462.7382), REye coords (243.9174, 428.4221), timeStamp: 2017-02-16 10:36:07.652
LEye coords (245.4214, 459.1741), REye coords (245.5303, 427.2137), timeStamp: 2017-02-16 10:36:07.684
LEye coords (248.4325, 454.0599), REye coords (249.7245, 425.0452), timeStamp: 2017-02-16 10:36:07.718
LEye coords (305.8604, 366.0522), REye coords (254.3779, 423.176), timeStamp: 2017-02-16 10:36:07.762
LEye coords (293.5498, 364.576), REye coords (258.5335, 421.5037), timeStamp: 2017-02-16 10:36:07.796
LEye coords (282.9438, 375.4451), REye coords (262.5257, 420.0383), timeStamp: 2017-02-16 10:36:07.829
LEye coords (279.9368, 367.4028), REye coords (266.4423, 418.1486), timeStamp: 2017-02-16 10:36:07.873
LEye coords (332.0871, 362.0649), REye coords (532.9873, 361.8275), timeStamp: 2017-02-16 10:36:07.907
LEye coords (517.7981, 337.332), REye coords (527.0605, 365.959), timeStamp: 2017-02-16 10:36:07.940
LEye coords (497.0474, 338.1435), REye coords (530.377, 349.4965), timeStamp: 2017-02-16 10:36:07.985
LEye coords (504.2207, 344.7442), REye coords (531.1751, 348.5737), timeStamp: 2017-02-16 10:36:08.017
LEye coords (505.549, 341.7038), REye coords (528.5614, 349.1249), timeStamp: 2017-02-16 10:36:08.051
LEye coords (489.0566, 331.1484), REye coords (467.9211, 330.5043), timeStamp: 2017-02-16 10:36:08.094
LEye coords (478.0134, 327.7997), REye coords (471.4059, 334.7366), timeStamp: 2017-02-16 10:36:08.128
LEye coords (469.3427, 317.7281), REye coords (468.3775, 329.0827), timeStamp: 2017-02-16 10:36:08.162
LEye coords (461.9948, 315.3766), REye coords (467.6871, 330.215), timeStamp: 2017-02-16 10:36:08.207
LEye coords (458.7694, 310.1227), REye coords (467.0141, 328.6517), timeStamp: 2017-02-16 10:36:08.241
LEye coords (456.0399, 308.9042), REye coords (466.2175, 324.4158), timeStamp: 2017-02-16 10:36:08.275
LEye coords (451.5927, 304.5336), REye coords (464.8349, 330.3068), timeStamp: 2017-02-16 10:36:08.318
LEye coords (449.9204, 302.8759), REye coords (463.317, 329.998), timeStamp: 2017-02-16 10:36:08.352
LEye coords (447.2942, 300.8956), REye coords (463.0017, 329.9261), timeStamp: 2017-02-16 10:36:08.386
LEye coords (446.5031, 298.7892), REye coords (463.294, 327.8802), timeStamp: 2017-02-16 10:36:08.432
LEye coords (560.3361, 337.0902), REye coords (474.8654, 330.1611), timeStamp: 2017-02-16 10:36:08.465
LEye coords (563.6454, 338.7386), REye coords (483.6047, 332.4306), timeStamp: 2017-02-16 10:36:08.498
LEye coords (557.308, 334.1309), REye coords (490.7286, 333.822), timeStamp: 2017-02-16 10:36:08.532
LEye coords (560.6597, 337.1752), REye coords (497.3416, 333.5992), timeStamp: 2017-02-16 10:36:08.576
LEye coords (0.0, 0.0), REye coords (503.3043, 333.7708), timeStamp: 2017-02-16 10:36:08.609
LEye coords (0.0, 0.0), REye coords (509.026, 334.0671), timeStamp: 2017-02-16 10:36:08.653
LEye coords (0.0, 0.0), REye coords (513.8505, 334.3467), timeStamp: 2017-02-16 10:36:08.688
LEye coords (562.9541, 337.8513), REye coords (520.6506, 336.1434), timeStamp: 2017-02-16 10:36:08.721
LEye coords (562.4989, 344.8241), REye coords (527.1013, 336.4747), timeStamp: 2017-02-16 10:36:08.755
LEye coords (575.1748, 352.511), REye coords (532.5519, 339.2192), timeStamp: 2017-02-16 10:36:08.800
LEye coords (574.4811, 350.9064), REye coords (537.8941, 340.1322), timeStamp: 2017-02-16 10:36:08.834
LEye coords (572.9599, 347.1986), REye coords (541.9393, 341.3616), timeStamp: 2017-02-16 10:36:08.868
LEye coords (572.0591, 346.7849), REye coords (545.5197, 343.7688), timeStamp: 2017-02-16 10:36:08.911
LEye coords (573.858, 348.7218), REye coords (550.6377, 345.5372), timeStamp: 2017-02-16 10:36:08.947
LEye coords (574.1603, 350.166), REye coords (556.3156, 347.3223), timeStamp: 2017-02-16 10:36:08.982
LEye coords (576.2083, 350.9655), REye coords (561.6275, 348.6376), timeStamp: 2017-02-16 10:36:09.015
LEye coords (577.8955, 352.8392), REye coords (565.9969, 351.1831), timeStamp: 2017-02-16 10:36:09.060
LEye coords (578.3137, 353.2894), REye coords (569.8311, 353.7953), timeStamp: 2017-02-16 10:36:09.093
LEye coords (580.0094, 353.8213), REye coords (574.0732, 354.8773), timeStamp: 2017-02-16 10:36:09.126
LEye coords (579.7089, 353.6299), REye coords (577.9362, 357.0478), timeStamp: 2017-02-16 10:36:09.169
LEye coords (583.1793, 352.7435), REye coords (582.2912, 357.4625), timeStamp: 2017-02-16 10:36:09.203
LEye coords (586.3112, 352.2936), REye coords (617.575, 340.8859), timeStamp: 2017-02-16 10:36:09.236
LEye coords (588.556, 350.1189), REye coords (621.2627, 349.6499), timeStamp: 2017-02-16 10:36:09.280
LEye coords (591.5323, 349.4672), REye coords (622.7144, 347.9315), timeStamp: 2017-02-16 10:36:09.313
LEye coords (593.6176, 348.2545), REye coords (623.3314, 346.7651), timeStamp: 2017-02-16 10:36:09.347
LEye coords (595.6983, 347.3636), REye coords (624.4636, 345.1689), timeStamp: 2017-02-16 10:36:09.391
LEye coords (597.626, 345.8112), REye coords (622.8427, 346.5917), timeStamp: 2017-02-16 10:36:09.425
LEye coords (599.3127, 345.3941), REye coords (622.8979, 344.2053), timeStamp: 2017-02-16 10:36:09.459
LEye coords (600.6841, 344.4213), REye coords (622.0226, 343.9536), timeStamp: 2017-02-16 10:36:09.503
LEye coords (603.2881, 343.6187), REye coords (621.7538, 344.6462), timeStamp: 2017-02-16 10:36:09.537
LEye coords (605.1229, 343.2187), REye coords (621.2474, 342.8602), timeStamp: 2017-02-16 10:36:09.570
LEye coords (607.4325, 341.8867), REye coords (620.4068, 344.1103), timeStamp: 2017-02-16 10:36:09.614
LEye coords (609.5696, 340.4602), REye coords (620.4206, 344.5435), timeStamp: 2017-02-16 10:36:09.648
LEye coords (611.6021, 340.3399), REye coords (620.4122, 344.3605), timeStamp: 2017-02-16 10:36:09.682
LEye coords (613.9816, 339.7228), REye coords (620.124, 345.3316), timeStamp: 2017-02-16 10:36:09.725
LEye coords (615.9047, 339.1266), REye coords (620.6381, 346.0872), timeStamp: 2017-02-16 10:36:09.759
LEye coords (616.7084, 338.2374), REye coords (620.6101, 346.4539), timeStamp: 2017-02-16 10:36:09.793
LEye coords (617.6758, 337.8814), REye coords (621.0468, 347.1457), timeStamp: 2017-02-16 10:36:09.828
LEye coords (617.8561, 335.4366), REye coords (621.1841, 346.8615), timeStamp: 2017-02-16 10:36:09.872
LEye coords (619.8832, 334.7852), REye coords (623.6637, 346.8119), timeStamp: 2017-02-16 10:36:09.906
LEye coords (622.449, 333.8146), REye coords (625.978, 346.5617), timeStamp: 2017-02-16 10:36:09.939
LEye coords (624.9642, 333.3174), REye coords (629.5901, 345.9946), timeStamp: 2017-02-16 10:36:09.984
LEye coords (626.7427, 333.2444), REye coords (632.4741, 345.0695), timeStamp: 2017-02-16 10:36:10.018
LEye coords (628.9749, 333.5194), REye coords (635.0152, 344.9693), timeStamp: 2017-02-16 10:36:10.052
LEye coords (630.7744, 333.3408), REye coords (637.6266, 345.1412), timeStamp: 2017-02-16 10:36:10.096
LEye coords (632.2226, 333.544), REye coords (640.7702, 344.5044), timeStamp: 2017-02-16 10:36:10.130
LEye coords (633.8229, 334.1724), REye coords (642.175, 344.4465), timeStamp: 2017-02-16 10:36:10.164
LEye coords (635.8826, 334.0224), REye coords (643.4861, 344.1329), timeStamp: 2017-02-16 10:36:10.198
LEye coords (636.6041, 337.1346), REye coords (644.5839, 344.1442), timeStamp: 2017-02-16 10:36:10.241
LEye coords (637.2251, 340.821), REye coords (648.3766, 345.2675), timeStamp: 2017-02-16 10:36:10.275
LEye coords (639.4971, 342.1027), REye coords (650.5587, 343.5603), timeStamp: 2017-02-16 10:36:10.310
LEye coords (640.9399, 342.2224), REye coords (652.1707, 342.0475), timeStamp: 2017-02-16 10:36:10.354
LEye coords (642.3167, 342.1331), REye coords (653.7996, 341.7238), timeStamp: 2017-02-16 10:36:10.389
LEye coords (643.798, 342.8169), REye coords (655.8632, 341.055), timeStamp: 2017-02-16 10:36:10.423
LEye coords (645.6664, 344.0424), REye coords (657.6241, 339.5188), timeStamp: 2017-02-16 10:36:10.467
LEye coords (647.2003, 344.4082), REye coords (659.6048, 338.2984), timeStamp: 2017-02-16 10:36:10.501
LEye coords (646.7927, 344.8467), REye coords (661.0906, 337.5105), timeStamp: 2017-02-16 10:36:10.533
LEye coords (646.5151, 345.3654), REye coords (661.6988, 336.5538), timeStamp: 2017-02-16 10:36:10.577
LEye coords (646.8577, 344.7559), REye coords (662.3416, 336.5237), timeStamp: 2017-02-16 10:36:10.610
LEye coords (648.9825, 346.5695), REye coords (664.2732, 336.3738), timeStamp: 2017-02-16 10:36:10.645
LEye coords (651.5533, 349.8506), REye coords (665.957, 339.429), timeStamp: 2017-02-16 10:36:10.679
LEye coords (652.8292, 351.5429), REye coords (666.4491, 341.7281), timeStamp: 2017-02-16 10:36:10.723
LEye coords (654.6108, 353.2164), REye coords (667.4357, 343.846), timeStamp: 2017-02-16 10:36:10.757
LEye coords (655.947, 354.445), REye coords (668.119, 345.3519), timeStamp: 2017-02-16 10:36:10.792
LEye coords (657.5444, 354.16), REye coords (667.9371, 345.4606), timeStamp: 2017-02-16 10:36:10.837
LEye coords (658.5704, 353.2592), REye coords (667.84, 345.9496), timeStamp: 2017-02-16 10:36:10.869
LEye coords (659.3488, 352.8085), REye coords (667.4718, 345.2959), timeStamp: 2017-02-16 10:36:10.903
LEye coords (660.298, 351.605), REye coords (667.3423, 344.4404), timeStamp: 2017-02-16 10:36:10.946
LEye coords (660.9901, 350.5849), REye coords (667.9786, 343.5233), timeStamp: 2017-02-16 10:36:10.980
LEye coords (661.5231, 349.2253), REye coords (668.6245, 342.5631), timeStamp: 2017-02-16 10:36:11.013
LEye coords (661.6909, 347.4475), REye coords (668.7307, 342.7716), timeStamp: 2017-02-16 10:36:11.056
LEye coords (662.5289, 345.6592), REye coords (668.3508, 342.386), timeStamp: 2017-02-16 10:36:11.089
LEye coords (662.9772, 345.0186), REye coords (668.3887, 343.1991), timeStamp: 2017-02-16 10:36:11.124
LEye coords (663.4438, 344.5396), REye coords (0.0, 0.0), timeStamp: 2017-02-16 10:36:11.169
LEye coords (663.3301, 344.5316), REye coords (0.0, 0.0), timeStamp: 2017-02-16 10:36:11.202
LEye coords (663.2706, 343.2741), REye coords (0.0, 0.0), timeStamp: 2017-02-16 10:36:11.236
LEye coords (661.162, 341.4213), REye coords (0.0, 0.0), timeStamp: 2017-02-16 10:36:11.280
LEye coords (661.8613, 340.9504), REye coords (668.0922, 345.3172), timeStamp: 2017-02-16 10:36:11.314
LEye coords (663.6373, 340.4432), REye coords (668.4175, 345.7129), timeStamp: 2017-02-16 10:36:11.348
LEye coords (665.4312, 338.5468), REye coords (668.867, 346.0851), timeStamp: 2017-02-16 10:36:11.392
LEye coords (666.4423, 338.2225), REye coords (669.4299, 346.8924), timeStamp: 2017-02-16 10:36:11.426
LEye coords (666.7604, 336.2813), REye coords (669.8693, 347.555), timeStamp: 2017-02-16 10:36:11.460
LEye coords (667.7242, 336.1541), REye coords (670.0049, 347.2172), timeStamp: 2017-02-16 10:36:11.493
LEye coords (669.6389, 335.7082), REye coords (670.4946, 347.6585), timeStamp: 2017-02-16 10:36:11.537
LEye coords (670.7521, 336.6764), REye coords (0.0, 0.0), timeStamp: 2017-02-16 10:36:11.572
LEye coords (671.6453, 335.8532), REye coords (671.4161, 348.8062), timeStamp: 2017-02-16 10:36:11.606
LEye coords (672.6566, 337.0897), REye coords (671.9305, 349.0739), timeStamp: 2017-02-16 10:36:11.649
LEye coords (675.6755, 337.7025), REye coords (673.265, 348.4777), timeStamp: 2017-02-16 10:36:11.683
LEye coords (678.1167, 337.2332), REye coords (674.7532, 346.4341), timeStamp: 2017-02-16 10:36:11.716
LEye coords (680.5464, 337.1606), REye coords (675.541, 345.8849), timeStamp: 2017-02-16 10:36:11.760
LEye coords (683.8458, 337.6636), REye coords (676.381, 345.2499), timeStamp: 2017-02-16 10:36:11.793
LEye coords (686.0554, 337.3743), REye coords (677.961, 344.4507), timeStamp: 2017-02-16 10:36:11.836
LEye coords (690.5883, 335.6123), REye coords (681.632, 343.5089), timeStamp: 2017-02-16 10:36:11.870
LEye coords (695.3063, 334.42), REye coords (685.1786, 342.7267), timeStamp: 2017-02-16 10:36:11.903
LEye coords (698.6092, 333.1221), REye coords (689.0237, 341.5349), timeStamp: 2017-02-16 10:36:11.947
LEye coords (702.7829, 332.2257), REye coords (692.5729, 341.5511), timeStamp: 2017-02-16 10:36:11.980
LEye coords (706.696, 330.0118), REye coords (695.9387, 340.6543), timeStamp: 2017-02-16 10:36:12.013
LEye coords (709.6101, 328.1626), REye coords (699.4484, 339.9458), timeStamp: 2017-02-16 10:36:12.057
LEye coords (713.1593, 328.1645), REye coords (703.1298, 338.938), timeStamp: 2017-02-16 10:36:12.091
LEye coords (716.1588, 328.7146), REye coords (706.9648, 337.3013), timeStamp: 2017-02-16 10:36:12.126
LEye coords (718.3646, 330.9122), REye coords (711.3694, 336.9126), timeStamp: 2017-02-16 10:36:12.160
LEye coords (719.0618, 335.158), REye coords (714.2894, 338.747), timeStamp: 2017-02-16 10:36:12.205
LEye coords (719.079, 340.9048), REye coords (717.3736, 341.6355), timeStamp: 2017-02-16 10:36:12.239
LEye coords (719.5032, 345.9195), REye coords (720.9385, 341.8813), timeStamp: 2017-02-16 10:36:12.273
LEye coords (719.946, 350.9653), REye coords (723.5941, 343.7194), timeStamp: 2017-02-16 10:36:12.316
LEye coords (718.6011, 355.1257), REye coords (726.9629, 345.8214), timeStamp: 2017-02-16 10:36:12.349
LEye coords (719.3936, 360.6348), REye coords (730.0152, 348.3967), timeStamp: 2017-02-16 10:36:12.383
LEye coords (720.072, 366.5298), REye coords (731.9854, 350.69), timeStamp: 2017-02-16 10:36:12.429
LEye coords (721.0668, 370.3782), REye coords (734.5358, 352.6015), timeStamp: 2017-02-16 10:36:12.463
LEye coords (719.5248, 374.0945), REye coords (736.7661, 353.5345), timeStamp: 2017-02-16 10:36:12.497
LEye coords (542.454, 239.3605), REye coords (738.5653, 353.0023), timeStamp: 2017-02-16 10:36:12.532
LEye coords (717.079, 299.1508), REye coords (740.0485, 351.848), timeStamp: 2017-02-16 10:36:12.576
LEye coords (714.1031, 308.8483), REye coords (741.8635, 351.0454), timeStamp: 2017-02-16 10:36:12.609
LEye coords (717.5405, 313.9468), REye coords (743.5967, 349.8268), timeStamp: 2017-02-16 10:36:12.643
LEye coords (716.7714, 321.9694), REye coords (744.2659, 349.141), timeStamp: 2017-02-16 10:36:12.687
LEye coords (713.6764, 326.3514), REye coords (744.491, 348.9988), timeStamp: 2017-02-16 10:36:12.721
LEye coords (709.7748, 322.3222), REye coords (744.1924, 348.3185), timeStamp: 2017-02-16 10:36:12.755
LEye coords (706.9416, 318.5168), REye coords (745.3625, 345.2868), timeStamp: 2017-02-16 10:36:12.789
LEye coords (708.6353, 319.3071), REye coords (745.6744, 344.4259), timeStamp: 2017-02-16 10:36:12.833
LEye coords (712.7142, 320.6307), REye coords (745.6922, 342.9552), timeStamp: 2017-02-16 10:36:12.867
LEye coords (713.3174, 321.9256), REye coords (745.5016, 342.0627), timeStamp: 2017-02-16 10:36:12.901
LEye coords (714.1337, 322.9194), REye coords (745.3203, 341.4855), timeStamp: 2017-02-16 10:36:12.945
LEye coords (715.1747, 323.8322), REye coords (745.0521, 341.8467), timeStamp: 2017-02-16 10:36:12.978
LEye coords (716.0312, 325.4168), REye coords (744.7946, 341.7065), timeStamp: 2017-02-16 10:36:13.012
LEye coords (717.0502, 328.1216), REye coords (745.0082, 341.2113), timeStamp: 2017-02-16 10:36:13.056
LEye coords (716.7779, 331.024), REye coords (744.7061, 339.8569), timeStamp: 2017-02-16 10:36:13.090
LEye coords (717.4276, 336.5541), REye coords (743.7906, 339.5918), timeStamp: 2017-02-16 10:36:13.124
LEye coords (715.6135, 339.5863), REye coords (742.4571, 339.9639), timeStamp: 2017-02-16 10:36:13.169
LEye coords (714.8879, 342.9883), REye coords (742.4893, 340.3955), timeStamp: 2017-02-16 10:36:13.203
LEye coords (713.6556, 346.3903), REye coords (741.9777, 340.4064), timeStamp: 2017-02-16 10:36:13.236
LEye coords (712.7223, 351.0945), REye coords (740.316, 341.6046), timeStamp: 2017-02-16 10:36:13.270
LEye coords (712.096, 355.2503), REye coords (739.5767, 344.567), timeStamp: 2017-02-16 10:36:13.314
LEye coords (710.4139, 358.8128), REye coords (739.2692, 347.7448), timeStamp: 2017-02-16 10:36:13.348
LEye coords (710.0894, 364.579), REye coords (738.0261, 352.2137), timeStamp: 2017-02-16 10:36:13.381
LEye coords (709.7501, 369.7547), REye coords (737.2726, 356.3978), timeStamp: 2017-02-16 10:36:13.426
LEye coords (708.1083, 373.4531), REye coords (736.3901, 359.2288), timeStamp: 2017-02-16 10:36:13.459
LEye coords (550.9919, 344.0685), REye coords (735.6602, 361.9141), timeStamp: 2017-02-16 10:36:13.493
LEye coords (680.5038, 381.7018), REye coords (733.9938, 365.7811), timeStamp: 2017-02-16 10:36:13.538
LEye coords (679.1528, 374.5858), REye coords (732.7251, 369.646), timeStamp: 2017-02-16 10:36:13.570
LEye coords (684.2965, 376.2189), REye coords (731.4926, 371.8748), timeStamp: 2017-02-16 10:36:13.604
LEye coords (685.5098, 372.0501), REye coords (730.3353, 374.5678), timeStamp: 2017-02-16 10:36:13.649
LEye coords (691.7107, 368.7232), REye coords (729.0068, 376.1758), timeStamp: 2017-02-16 10:36:13.684
LEye coords (693.6699, 367.5217), REye coords (728.0812, 377.9278), timeStamp: 2017-02-16 10:36:13.718
LEye coords (696.661, 369.4248), REye coords (727.0735, 379.9079), timeStamp: 2017-02-16 10:36:13.752
LEye coords (694.7389, 370.0158), REye coords (725.7374, 381.9524), timeStamp: 2017-02-16 10:36:13.796
LEye coords (692.5684, 370.3249), REye coords (725.0502, 383.2746), timeStamp: 2017-02-16 10:36:13.830
LEye coords (696.3502, 372.8834), REye coords (724.5743, 384.6609), timeStamp: 2017-02-16 10:36:13.863
LEye coords (695.8501, 371.2163), REye coords (724.0986, 385.8354), timeStamp: 2017-02-16 10:36:13.907
LEye coords (698.3586, 371.4281), REye coords (723.896, 386.7348), timeStamp: 2017-02-16 10:36:13.940
LEye coords (698.9536, 372.2764), REye coords (723.7587, 387.683), timeStamp: 2017-02-16 10:36:13.976
LEye coords (700.0207, 373.112), REye coords (722.2743, 389.2717), timeStamp: 2017-02-16 10:36:14.010
LEye coords (701.8917, 374.5058), REye coords (721.5622, 390.9858), timeStamp: 2017-02-16 10:36:14.056
LEye coords (703.7243, 376.0208), REye coords (721.5062, 391.5857), timeStamp: 2017-02-16 10:36:14.089
LEye coords (704.9707, 377.2273), REye coords (720.9355, 392.3535), timeStamp: 2017-02-16 10:36:14.124
LEye coords (705.8513, 378.7521), REye coords (720.8608, 391.3586), timeStamp: 2017-02-16 10:36:14.168
LEye coords (706.4646, 381.2543), REye coords (721.0891, 391.1467), timeStamp: 2017-02-16 10:36:14.202
LEye coords (707.4047, 382.9012), REye coords (721.4988, 390.8669), timeStamp: 2017-02-16 10:36:14.236
LEye coords (708.274, 385.9441), REye coords (721.9425, 390.2702), timeStamp: 2017-02-16 10:36:14.270
LEye coords (708.9164, 388.3569), REye coords (721.9783, 389.4788), timeStamp: 2017-02-16 10:36:14.313
