LEye coords (549.6124, 440.8252), REye coords (551.7843, 419.1505), timeStamp: 2017-02-16 10:37:53.023
LEye coords (552.6149, 442.9574), REye coords (551.947, 420.1742), timeStamp: 2017-02-16 10:37:53.056
LEye coords (554.3843, 444.9654), REye coords (552.0482, 421.1044), timeStamp: 2017-02-16 10:37:53.089
LEye coords (556.1865, 445.1955), REye coords (552.3352, 421.8347), timeStamp: 2017-02-16 10:37:53.134
LEye coords (555.9719, 446.4056), REye coords (552.312, 422.4608), timeStamp: 2017-02-16 10:37:53.167
LEye coords (557.1526, 446.707), REye coords (552.5054, 422.7053), timeStamp: 2017-02-16 10:37:53.201
LEye coords (557.7961, 448.3401), REye coords (552.4551, 422.1992), timeStamp: 2017-02-16 10:37:53.245
LEye coords (558.2021, 449.1344), REye coords (552.1494, 422.4), timeStamp: 2017-02-16 10:37:53.279
LEye coords (557.3018, 449.5651), REye coords (552.6763, 422.8714), timeStamp: 2017-02-16 10:37:53.313
LEye coords (558.527, 451.7977), REye coords (552.8902, 423.2962), timeStamp: 2017-02-16 10:37:53.347
LEye coords (559.6796, 452.5735), REye coords (553.4871, 423.8658), timeStamp: 2017-02-16 10:37:53.390
LEye coords (560.3969, 452.5482), REye coords (553.9814, 424.0974), timeStamp: 2017-02-16 10:37:53.425
LEye coords (560.6313, 451.6153), REye coords (554.933, 423.7791), timeStamp: 2017-02-16 10:37:53.467
LEye coords (561.2592, 451.8548), REye coords (556.0572, 422.9161), timeStamp: 2017-02-16 10:37:53.500
LEye coords (562.1674, 450.3419), REye coords (557.0286, 420.8103), timeStamp: 2017-02-16 10:37:53.533
LEye coords (562.129, 447.7588), REye coords (557.4088, 419.2969), timeStamp: 2017-02-16 10:37:53.577
LEye coords (562.0914, 445.405), REye coords (558.3055, 418.4799), timeStamp: 2017-02-16 10:37:53.611
LEye coords (561.8103, 443.3163), REye coords (558.9352, 418.0177), timeStamp: 2017-02-16 10:37:53.645
LEye coords (562.887, 441.6713), REye coords (559.3728, 416.0572), timeStamp: 2017-02-16 10:37:53.689
LEye coords (562.9078, 440.0304), REye coords (559.4297, 414.5082), timeStamp: 2017-02-16 10:37:53.721
LEye coords (270.8482, 324.0298), REye coords (315.7015, 383.0946), timeStamp: 2017-02-16 10:37:53.755
LEye coords (292.4445, 360.0679), REye coords (321.0669, 375.6147), timeStamp: 2017-02-16 10:37:53.798
LEye coords (287.223, 338.5164), REye coords (320.1388, 377.9588), timeStamp: 2017-02-16 10:37:53.832
LEye coords (281.5946, 329.0579), REye coords (323.9141, 376.2527), timeStamp: 2017-02-16 10:37:53.866
LEye coords (278.2433, 325.8291), REye coords (324.0907, 374.2322), timeStamp: 2017-02-16 10:37:53.910
LEye coords (291.7228, 335.5448), REye coords (327.2557, 364.314), timeStamp: 2017-02-16 10:37:53.943
LEye coords (279.4606, 315.427), REye coords (320.3542, 370.096), timeStamp: 2017-02-16 10:37:53.976
LEye coords (277.8162, 316.353), REye coords (319.8058, 372.8866), timeStamp: 2017-02-16 10:37:54.019
LEye coords (294.791, 325.7689), REye coords (342.7823, 381.6948), timeStamp: 2017-02-16 10:37:54.053
LEye coords (392.8883, 330.0443), REye coords (425.6953, 376.2277), timeStamp: 2017-02-16 10:37:54.096
LEye coords (707.4753, 363.1282), REye coords (684.6278, 385.6935), timeStamp: 2017-02-16 10:37:54.130
LEye coords (693.9069, 362.7545), REye coords (679.5353, 395.9092), timeStamp: 2017-02-16 10:37:54.162
LEye coords (697.4284, 365.7962), REye coords (688.0654, 391.352), timeStamp: 2017-02-16 10:37:54.207
LEye coords (695.5707, 368.3517), REye coords (688.0804, 388.2311), timeStamp: 2017-02-16 10:37:54.240
LEye coords (693.6539, 367.2177), REye coords (685.8665, 386.6702), timeStamp: 2017-02-16 10:37:54.273
LEye coords (693.6763, 369.3389), REye coords (685.8265, 385.8241), timeStamp: 2017-02-16 10:37:54.317
LEye coords (694.6757, 371.812), REye coords (686.1155, 384.2362), timeStamp: 2017-02-16 10:37:54.350
LEye coords (696.7993, 375.5917), REye coords (686.3352, 382.5683), timeStamp: 2017-02-16 10:37:54.393
LEye coords (696.9954, 378.8453), REye coords (687.6658, 381.412), timeStamp: 2017-02-16 10:37:54.426
LEye coords (697.5999, 379.778), REye coords (688.4114, 380.8602), timeStamp: 2017-02-16 10:37:54.458
LEye coords (699.3326, 382.2945), REye coords (689.141, 382.4657), timeStamp: 2017-02-16 10:37:54.501
LEye coords (699.2995, 383.6889), REye coords (690.1644, 382.3593), timeStamp: 2017-02-16 10:37:54.534
LEye coords (699.4492, 383.6492), REye coords (690.1955, 382.787), timeStamp: 2017-02-16 10:37:54.578
LEye coords (700.8984, 384.5488), REye coords (690.5217, 382.1997), timeStamp: 2017-02-16 10:37:54.612
LEye coords (701.6875, 385.0323), REye coords (691.4388, 381.8291), timeStamp: 2017-02-16 10:37:54.646
LEye coords (701.9527, 385.3878), REye coords (691.5707, 382.1032), timeStamp: 2017-02-16 10:37:54.680
LEye coords (703.057, 386.4968), REye coords (691.8025, 382.6794), timeStamp: 2017-02-16 10:37:54.723
LEye coords (703.064, 386.2591), REye coords (692.3199, 382.8589), timeStamp: 2017-02-16 10:37:54.755
LEye coords (703.3947, 386.6204), REye coords (692.8532, 382.9722), timeStamp: 2017-02-16 10:37:54.800
LEye coords (703.0445, 387.2324), REye coords (693.4188, 382.6263), timeStamp: 2017-02-16 10:37:54.833
LEye coords (703.7614, 388.4882), REye coords (694.0585, 382.6679), timeStamp: 2017-02-16 10:37:54.867
LEye coords (703.9109, 391.0944), REye coords (694.0786, 384.0691), timeStamp: 2017-02-16 10:37:54.911
LEye coords (704.4482, 395.914), REye coords (695.0536, 384.7984), timeStamp: 2017-02-16 10:37:54.945
LEye coords (730.3704, 494.9003), REye coords (697.0603, 389.323), timeStamp: 2017-02-16 10:37:54.978
LEye coords (711.7809, 485.3528), REye coords (699.3345, 392.7416), timeStamp: 2017-02-16 10:37:55.012
LEye coords (719.8396, 489.2739), REye coords (701.2059, 397.3542), timeStamp: 2017-02-16 10:37:55.055
LEye coords (722.4723, 491.2296), REye coords (703.2382, 402.1782), timeStamp: 2017-02-16 10:37:55.089
LEye coords (723.1726, 487.0993), REye coords (705.357, 406.936), timeStamp: 2017-02-16 10:37:55.132
LEye coords (724.2314, 488.4068), REye coords (707.0068, 411.946), timeStamp: 2017-02-16 10:37:55.165
LEye coords (725.0697, 490.1519), REye coords (708.1322, 416.477), timeStamp: 2017-02-16 10:37:55.199
LEye coords (724.7908, 490.814), REye coords (709.0902, 421.7547), timeStamp: 2017-02-16 10:37:55.241
LEye coords (723.9862, 488.5018), REye coords (710.5511, 426.5271), timeStamp: 2017-02-16 10:37:55.275
LEye coords (723.9749, 487.3768), REye coords (711.3262, 431.1747), timeStamp: 2017-02-16 10:37:55.317
LEye coords (724.2699, 488.163), REye coords (712.6495, 436.1383), timeStamp: 2017-02-16 10:37:55.350
LEye coords (725.5423, 489.7142), REye coords (714.3019, 440.3564), timeStamp: 2017-02-16 10:37:55.383
LEye coords (725.8225, 489.5001), REye coords (715.3992, 444.3426), timeStamp: 2017-02-16 10:37:55.427
LEye coords (726.1003, 490.9351), REye coords (715.5859, 449.2694), timeStamp: 2017-02-16 10:37:55.460
LEye coords (726.2999, 491.1736), REye coords (716.3427, 453.3991), timeStamp: 2017-02-16 10:37:55.493
LEye coords (726.2571, 492.278), REye coords (716.4264, 457.8747), timeStamp: 2017-02-16 10:37:55.537
LEye coords (726.9896, 493.9847), REye coords (717.4684, 461.0119), timeStamp: 2017-02-16 10:37:55.570
LEye coords (727.3452, 494.3414), REye coords (717.7956, 463.0304), timeStamp: 2017-02-16 10:37:55.614
LEye coords (727.6771, 495.6721), REye coords (719.1159, 465.9789), timeStamp: 2017-02-16 10:37:55.648
LEye coords (727.5482, 496.0175), REye coords (719.6601, 469.4608), timeStamp: 2017-02-16 10:37:55.682
LEye coords (726.9349, 496.6446), REye coords (720.029, 471.2223), timeStamp: 2017-02-16 10:37:55.715
LEye coords (726.8316, 497.4741), REye coords (720.6555, 472.6792), timeStamp: 2017-02-16 10:37:55.760
LEye coords (726.8294, 498.0411), REye coords (720.4595, 473.2429), timeStamp: 2017-02-16 10:37:55.794
LEye coords (726.8205, 499.0342), REye coords (720.3915, 473.9001), timeStamp: 2017-02-16 10:37:55.836
LEye coords (726.6718, 499.2647), REye coords (720.208, 474.7883), timeStamp: 2017-02-16 10:37:55.869
LEye coords (726.0742, 499.2966), REye coords (720.7098, 474.9829), timeStamp: 2017-02-16 10:37:55.903
LEye coords (726.1208, 500.6327), REye coords (720.4351, 476.0961), timeStamp: 2017-02-16 10:37:55.947
LEye coords (725.9089, 500.19), REye coords (720.0419, 476.6079), timeStamp: 2017-02-16 10:37:55.982
LEye coords (722.5491, 499.6122), REye coords (717.6067, 475.6361), timeStamp: 2017-02-16 10:37:56.016
LEye coords (719.7811, 497.3156), REye coords (714.4401, 476.1302), timeStamp: 2017-02-16 10:37:56.050
LEye coords (717.2679, 497.1907), REye coords (711.7007, 476.4867), timeStamp: 2017-02-16 10:37:56.093
LEye coords (714.6629, 496.4109), REye coords (709.3488, 476.1724), timeStamp: 2017-02-16 10:37:56.127
LEye coords (712.5082, 495.723), REye coords (705.8964, 475.6449), timeStamp: 2017-02-16 10:37:56.160
LEye coords (710.0213, 495.0471), REye coords (704.4626, 474.2085), timeStamp: 2017-02-16 10:37:56.203
LEye coords (707.7181, 494.0362), REye coords (701.9867, 473.538), timeStamp: 2017-02-16 10:37:56.236
LEye coords (705.5518, 493.0887), REye coords (699.5338, 472.5382), timeStamp: 2017-02-16 10:37:56.280
LEye coords (704.0002, 492.6119), REye coords (697.6478, 471.9003), timeStamp: 2017-02-16 10:37:56.313
LEye coords (701.8778, 491.545), REye coords (696.2266, 470.3836), timeStamp: 2017-02-16 10:37:56.345
LEye coords (699.0039, 490.239), REye coords (694.9094, 469.056), timeStamp: 2017-02-16 10:37:56.389
LEye coords (697.3588, 490.5106), REye coords (693.7189, 468.2172), timeStamp: 2017-02-16 10:37:56.424
LEye coords (696.1662, 490.5429), REye coords (692.232, 467.0007), timeStamp: 2017-02-16 10:37:56.458
LEye coords (695.0312, 489.322), REye coords (691.3056, 465.9557), timeStamp: 2017-02-16 10:37:56.501
LEye coords (694.0961, 488.997), REye coords (690.2142, 465.3113), timeStamp: 2017-02-16 10:37:56.534
LEye coords (693.2178, 489.2089), REye coords (688.8252, 465.5361), timeStamp: 2017-02-16 10:37:56.567
LEye coords (691.2405, 488.9754), REye coords (687.7564, 465.1215), timeStamp: 2017-02-16 10:37:56.611
LEye coords (690.8147, 489.0772), REye coords (686.6894, 464.823), timeStamp: 2017-02-16 10:37:56.644
LEye coords (690.1714, 488.4737), REye coords (685.2296, 464.4669), timeStamp: 2017-02-16 10:37:56.678
LEye coords (689.4455, 489.2392), REye coords (684.8471, 463.9443), timeStamp: 2017-02-16 10:37:56.722
LEye coords (689.2733, 489.3777), REye coords (684.7337, 461.9753), timeStamp: 2017-02-16 10:37:56.755
LEye coords (688.0788, 489.7682), REye coords (684.5218, 460.7341), timeStamp: 2017-02-16 10:37:56.789
LEye coords (688.2314, 492.0775), REye coords (685.2405, 460.336), timeStamp: 2017-02-16 10:37:56.833
LEye coords (687.8947, 494.4284), REye coords (685.7632, 459.8046), timeStamp: 2017-02-16 10:37:56.866
LEye coords (687.8369, 495.1324), REye coords (687.2192, 459.8803), timeStamp: 2017-02-16 10:37:56.901
LEye coords (687.7865, 496.8838), REye coords (687.9802, 459.4425), timeStamp: 2017-02-16 10:37:56.944
LEye coords (688.0728, 499.0819), REye coords (689.3741, 458.8393), timeStamp: 2017-02-16 10:37:56.978
LEye coords (688.1237, 500.5163), REye coords (689.8731, 458.5902), timeStamp: 2017-02-16 10:37:57.013
LEye coords (688.6386, 502.0756), REye coords (690.9207, 458.6568), timeStamp: 2017-02-16 10:37:57.056
LEye coords (688.3065, 503.5561), REye coords (691.4728, 458.1562), timeStamp: 2017-02-16 10:37:57.089
LEye coords (688.5072, 505.0409), REye coords (691.8487, 459.5891), timeStamp: 2017-02-16 10:37:57.123
LEye coords (689.0882, 506.6191), REye coords (691.6595, 460.4633), timeStamp: 2017-02-16 10:37:57.168
LEye coords (689.2065, 506.9271), REye coords (691.6541, 460.5215), timeStamp: 2017-02-16 10:37:57.200
LEye coords (688.2607, 507.546), REye coords (692.0862, 460.7061), timeStamp: 2017-02-16 10:37:57.234
LEye coords (686.5272, 508.6355), REye coords (691.7277, 461.204), timeStamp: 2017-02-16 10:37:57.277
LEye coords (686.2924, 509.3453), REye coords (691.0175, 462.83), timeStamp: 2017-02-16 10:37:57.311
LEye coords (685.1354, 509.7543), REye coords (690.471, 463.8811), timeStamp: 2017-02-16 10:37:57.345
LEye coords (685.1037, 509.7354), REye coords (689.9423, 464.9655), timeStamp: 2017-02-16 10:37:57.388
LEye coords (684.7592, 510.4055), REye coords (689.9618, 466.3273), timeStamp: 2017-02-16 10:37:57.421
LEye coords (684.0078, 512.475), REye coords (689.6036, 467.6633), timeStamp: 2017-02-16 10:37:57.455
