LEye coords (567.1933, 598.9532), REye coords (654.3703, 547.5497), timeStamp: 2017-02-16 10:38:12.594
LEye coords (582.1342, 590.3953), REye coords (653.298, 544.2737), timeStamp: 2017-02-16 10:38:12.637
LEye coords (642.103, 547.6834), REye coords (650.9759, 542.9594), timeStamp: 2017-02-16 10:38:12.671
LEye coords (637.3173, 550.567), REye coords (631.6155, 553.4013), timeStamp: 2017-02-16 10:38:12.704
LEye coords (644.3015, 563.853), REye coords (642.3663, 546.5536), timeStamp: 2017-02-16 10:38:12.748
LEye coords (645.3882, 566.8332), REye coords (637.4413, 543.6617), timeStamp: 2017-02-16 10:38:12.781
LEye coords (646.4941, 569.1049), REye coords (635.6695, 545.7549), timeStamp: 2017-02-16 10:38:12.815
LEye coords (638.3167, 561.5516), REye coords (623.1849, 535.1677), timeStamp: 2017-02-16 10:38:12.859
LEye coords (633.3678, 556.4147), REye coords (615.2739, 528.9412), timeStamp: 2017-02-16 10:38:12.892
LEye coords (628.8359, 552.0259), REye coords (611.3361, 523.4884), timeStamp: 2017-02-16 10:38:12.927
LEye coords (625.5464, 546.9031), REye coords (606.3428, 520.6377), timeStamp: 2017-02-16 10:38:12.972
LEye coords (622.7482, 544.1992), REye coords (602.0801, 517.6965), timeStamp: 2017-02-16 10:38:13.006
LEye coords (625.0488, 532.753), REye coords (657.615, 415.0804), timeStamp: 2017-02-16 10:38:13.039
LEye coords (671.7567, 412.4113), REye coords (658.7457, 388.7814), timeStamp: 2017-02-16 10:38:13.083
LEye coords (677.0469, 410.1999), REye coords (651.2023, 399.0748), timeStamp: 2017-02-16 10:38:13.117
LEye coords (673.2199, 401.8531), REye coords (652.647, 402.8317), timeStamp: 2017-02-16 10:38:13.152
LEye coords (673.5818, 402.7407), REye coords (651.3758, 403.6923), timeStamp: 2017-02-16 10:38:13.184
LEye coords (672.8653, 400.15), REye coords (656.8607, 390.7287), timeStamp: 2017-02-16 10:38:13.228
LEye coords (672.4733, 398.4812), REye coords (643.5232, 397.0916), timeStamp: 2017-02-16 10:38:13.263
LEye coords (674.0491, 399.4664), REye coords (649.8826, 386.71), timeStamp: 2017-02-16 10:38:13.296
LEye coords (675.6005, 398.2614), REye coords (649.4669, 381.6347), timeStamp: 2017-02-16 10:38:13.339
LEye coords (676.3047, 398.3965), REye coords (647.7643, 387.8918), timeStamp: 2017-02-16 10:38:13.372
LEye coords (675.7922, 398.3167), REye coords (649.3909, 390.4576), timeStamp: 2017-02-16 10:38:13.416
LEye coords (672.9824, 395.8335), REye coords (644.5203, 391.0884), timeStamp: 2017-02-16 10:38:13.448
LEye coords (671.0712, 395.3169), REye coords (641.7573, 390.3263), timeStamp: 2017-02-16 10:38:13.482
LEye coords (669.4174, 393.7052), REye coords (638.7026, 391.3781), timeStamp: 2017-02-16 10:38:13.526
LEye coords (667.4681, 393.3508), REye coords (637.335, 390.4059), timeStamp: 2017-02-16 10:38:13.560
LEye coords (665.8184, 392.6888), REye coords (636.0941, 389.0735), timeStamp: 2017-02-16 10:38:13.594
LEye coords (663.9984, 391.1917), REye coords (635.6278, 387.4556), timeStamp: 2017-02-16 10:38:13.637
LEye coords (663.126, 390.5505), REye coords (634.6642, 386.6562), timeStamp: 2017-02-16 10:38:13.670
LEye coords (661.6577, 387.8055), REye coords (633.5802, 387.6819), timeStamp: 2017-02-16 10:38:13.705
LEye coords (659.8392, 386.6479), REye coords (633.8377, 387.1478), timeStamp: 2017-02-16 10:38:13.748
LEye coords (658.3727, 386.2174), REye coords (633.4171, 386.9998), timeStamp: 2017-02-16 10:38:13.781
LEye coords (656.7319, 386.4303), REye coords (633.3316, 386.1683), timeStamp: 2017-02-16 10:38:13.814
LEye coords (652.7103, 387.5733), REye coords (628.4965, 388.2072), timeStamp: 2017-02-16 10:38:13.857
LEye coords (648.2563, 388.5601), REye coords (624.4449, 388.6179), timeStamp: 2017-02-16 10:38:13.891
LEye coords (644.9964, 389.5063), REye coords (620.6479, 390.1342), timeStamp: 2017-02-16 10:38:13.934
LEye coords (640.1713, 389.198), REye coords (616.9388, 389.9437), timeStamp: 2017-02-16 10:38:13.968
LEye coords (636.9059, 389.344), REye coords (614.074, 390.1598), timeStamp: 2017-02-16 10:38:14.002
LEye coords (633.6655, 390.3254), REye coords (611.3693, 390.7772), timeStamp: 2017-02-16 10:38:14.045
LEye coords (629.5969, 390.6855), REye coords (608.8848, 389.6576), timeStamp: 2017-02-16 10:38:14.078
LEye coords (625.9515, 391.3106), REye coords (605.7566, 390.8405), timeStamp: 2017-02-16 10:38:14.111
LEye coords (621.8154, 391.9006), REye coords (602.7399, 391.5176), timeStamp: 2017-02-16 10:38:14.154
LEye coords (617.4771, 392.3726), REye coords (599.9578, 391.8382), timeStamp: 2017-02-16 10:38:14.188
LEye coords (613.4066, 392.8714), REye coords (597.6831, 392.0995), timeStamp: 2017-02-16 10:38:14.222
LEye coords (610.8682, 394.2787), REye coords (595.9657, 393.2352), timeStamp: 2017-02-16 10:38:14.265
LEye coords (608.147, 395.0389), REye coords (593.8718, 393.8542), timeStamp: 2017-02-16 10:38:14.299
LEye coords (603.4835, 395.4023), REye coords (591.8204, 394.3696), timeStamp: 2017-02-16 10:38:14.332
LEye coords (599.799, 395.4425), REye coords (589.8093, 395.8243), timeStamp: 2017-02-16 10:38:14.374
LEye coords (596.0599, 396.299), REye coords (587.8207, 396.7209), timeStamp: 2017-02-16 10:38:14.408
LEye coords (593.6636, 398.1623), REye coords (585.9293, 397.6612), timeStamp: 2017-02-16 10:38:14.452
LEye coords (590.2765, 399.2799), REye coords (584.3657, 398.7233), timeStamp: 2017-02-16 10:38:14.486
LEye coords (585.8698, 399.8648), REye coords (582.3708, 399.8986), timeStamp: 2017-02-16 10:38:14.520
LEye coords (583.5728, 401.4108), REye coords (581.0014, 400.4224), timeStamp: 2017-02-16 10:38:14.564
LEye coords (581.1384, 399.7812), REye coords (579.727, 400.5991), timeStamp: 2017-02-16 10:38:14.596
LEye coords (576.0225, 397.2196), REye coords (577.2301, 398.8955), timeStamp: 2017-02-16 10:38:14.630
LEye coords (432.7514, 345.6373), REye coords (575.1845, 396.0784), timeStamp: 2017-02-16 10:38:14.675
LEye coords (531.8566, 360.6708), REye coords (572.9119, 393.7158), timeStamp: 2017-02-16 10:38:14.708
LEye coords (530.8718, 371.0532), REye coords (570.5582, 391.3265), timeStamp: 2017-02-16 10:38:14.741
LEye coords (515.6478, 360.0089), REye coords (568.1814, 389.0661), timeStamp: 2017-02-16 10:38:14.787
LEye coords (520.7341, 357.7579), REye coords (565.9904, 386.1134), timeStamp: 2017-02-16 10:38:14.820
LEye coords (0.0, 0.0), REye coords (563.8844, 384.3741), timeStamp: 2017-02-16 10:38:14.853
LEye coords (521.4627, 362.4126), REye coords (561.622, 382.4624), timeStamp: 2017-02-16 10:38:14.896
LEye coords (0.0, 0.0), REye coords (559.6902, 381.1058), timeStamp: 2017-02-16 10:38:14.930
LEye coords (0.0, 0.0), REye coords (557.9446, 378.774), timeStamp: 2017-02-16 10:38:14.964
LEye coords (522.1002, 366.0193), REye coords (555.8696, 376.8255), timeStamp: 2017-02-16 10:38:15.007
LEye coords (519.5607, 367.4871), REye coords (554.1478, 374.7754), timeStamp: 2017-02-16 10:38:15.040
LEye coords (0.0, 0.0), REye coords (552.9809, 372.7225), timeStamp: 2017-02-16 10:38:15.073
LEye coords (508.7305, 368.6144), REye coords (551.7332, 371.7153), timeStamp: 2017-02-16 10:38:15.117
LEye coords (506.2042, 367.7895), REye coords (550.5967, 369.8475), timeStamp: 2017-02-16 10:38:15.150
LEye coords (507.7018, 371.286), REye coords (549.3206, 369.2765), timeStamp: 2017-02-16 10:38:15.184
LEye coords (0.0, 0.0), REye coords (548.6815, 367.7233), timeStamp: 2017-02-16 10:38:15.229
LEye coords (501.2532, 370.5875), REye coords (547.7952, 365.9683), timeStamp: 2017-02-16 10:38:15.263
LEye coords (500.8535, 370.0768), REye coords (546.6688, 364.5339), timeStamp: 2017-02-16 10:38:15.296
LEye coords (442.9167, 391.9004), REye coords (546.3195, 364.1923), timeStamp: 2017-02-16 10:38:15.340
LEye coords (445.8294, 391.0622), REye coords (544.6866, 364.5649), timeStamp: 2017-02-16 10:38:15.374
LEye coords (480.0949, 400.6997), REye coords (543.0079, 365.4836), timeStamp: 2017-02-16 10:38:15.407
LEye coords (494.8353, 399.866), REye coords (542.5602, 365.8197), timeStamp: 2017-02-16 10:38:15.451
LEye coords (0.0, 0.0), REye coords (541.5654, 365.9021), timeStamp: 2017-02-16 10:38:15.485
LEye coords (489.7085, 407.3277), REye coords (540.6229, 367.7679), timeStamp: 2017-02-16 10:38:15.519
LEye coords (545.1248, 510.9013), REye coords (540.4959, 372.2299), timeStamp: 2017-02-16 10:38:15.563
LEye coords (459.2871, 491.2746), REye coords (540.2452, 375.7945), timeStamp: 2017-02-16 10:38:15.596
LEye coords (491.3269, 468.884), REye coords (539.2573, 379.2851), timeStamp: 2017-02-16 10:38:15.629
LEye coords (474.6299, 459.4566), REye coords (538.5239, 381.6328), timeStamp: 2017-02-16 10:38:15.673
LEye coords (490.3325, 454.0225), REye coords (537.3646, 384.2868), timeStamp: 2017-02-16 10:38:15.707
LEye coords (478.809, 448.8915), REye coords (536.2107, 386.5458), timeStamp: 2017-02-16 10:38:15.740
LEye coords (473.4394, 445.1196), REye coords (535.2745, 389.1094), timeStamp: 2017-02-16 10:38:15.784
LEye coords (471.1767, 442.2929), REye coords (533.9932, 391.7154), timeStamp: 2017-02-16 10:38:15.818
LEye coords (474.0429, 441.6756), REye coords (532.5643, 394.3149), timeStamp: 2017-02-16 10:38:15.851
LEye coords (469.9698, 441.1165), REye coords (531.3736, 396.5988), timeStamp: 2017-02-16 10:38:15.895
LEye coords (469.4408, 440.4327), REye coords (530.7948, 398.9003), timeStamp: 2017-02-16 10:38:15.928
LEye coords (467.5136, 435.7893), REye coords (529.2894, 401.4662), timeStamp: 2017-02-16 10:38:15.962
LEye coords (467.5686, 436.9079), REye coords (528.4143, 402.51), timeStamp: 2017-02-16 10:38:16.005
LEye coords (466.2937, 436.9479), REye coords (527.4193, 405.362), timeStamp: 2017-02-16 10:38:16.039
LEye coords (471.4318, 438.858), REye coords (526.1724, 407.2865), timeStamp: 2017-02-16 10:38:16.072
LEye coords (0.0, 0.0), REye coords (526.8769, 405.7954), timeStamp: 2017-02-16 10:38:16.117
LEye coords (479.064, 435.4777), REye coords (526.9901, 404.3157), timeStamp: 2017-02-16 10:38:16.150
LEye coords (484.571, 433.4632), REye coords (527.2989, 403.3537), timeStamp: 2017-02-16 10:38:16.183
LEye coords (490.5288, 432.4382), REye coords (528.3086, 401.0478), timeStamp: 2017-02-16 10:38:16.228
LEye coords (496.9625, 430.8699), REye coords (528.3734, 399.9329), timeStamp: 2017-02-16 10:38:16.261
LEye coords (503.258, 428.1193), REye coords (529.6417, 398.828), timeStamp: 2017-02-16 10:38:16.294
LEye coords (506.8648, 424.7291), REye coords (530.1672, 396.904), timeStamp: 2017-02-16 10:38:16.338
LEye coords (510.9403, 422.4655), REye coords (530.8969, 393.7068), timeStamp: 2017-02-16 10:38:16.371
LEye coords (509.104, 418.8256), REye coords (532.027, 390.9716), timeStamp: 2017-02-16 10:38:16.415
LEye coords (0.0, 0.0), REye coords (533.67, 388.2249), timeStamp: 2017-02-16 10:38:16.449
LEye coords (0.0, 0.0), REye coords (534.7725, 386.0315), timeStamp: 2017-02-16 10:38:16.482
LEye coords (513.1786, 414.7727), REye coords (536.1665, 383.8914), timeStamp: 2017-02-16 10:38:16.515
LEye coords (0.0, 0.0), REye coords (537.4487, 381.4872), timeStamp: 2017-02-16 10:38:16.557
LEye coords (515.7634, 412.2036), REye coords (538.5541, 378.8321), timeStamp: 2017-02-16 10:38:16.591
LEye coords (0.0, 0.0), REye coords (539.3343, 376.2333), timeStamp: 2017-02-16 10:38:16.634
LEye coords (520.7009, 410.625), REye coords (540.0754, 373.2719), timeStamp: 2017-02-16 10:38:16.668
LEye coords (523.0399, 408.6933), REye coords (540.9941, 371.7024), timeStamp: 2017-02-16 10:38:16.701
LEye coords (521.3224, 402.8473), REye coords (541.5607, 369.4815), timeStamp: 2017-02-16 10:38:16.745
LEye coords (524.6624, 402.2377), REye coords (542.0967, 368.7701), timeStamp: 2017-02-16 10:38:16.779
LEye coords (524.3405, 399.2015), REye coords (542.4094, 367.4662), timeStamp: 2017-02-16 10:38:16.812
LEye coords (521.2489, 397.5927), REye coords (542.621, 365.7085), timeStamp: 2017-02-16 10:38:16.856
LEye coords (520.8239, 395.5641), REye coords (543.3101, 364.1474), timeStamp: 2017-02-16 10:38:16.889
LEye coords (524.7678, 394.8674), REye coords (543.4927, 364.1353), timeStamp: 2017-02-16 10:38:16.932
LEye coords (527.1145, 394.4615), REye coords (544.032, 363.9702), timeStamp: 2017-02-16 10:38:16.966
LEye coords (0.0, 0.0), REye coords (543.8589, 363.0641), timeStamp: 2017-02-16 10:38:16.999
LEye coords (0.0, 0.0), REye coords (543.4152, 361.972), timeStamp: 2017-02-16 10:38:17.042
LEye coords (529.7229, 395.1799), REye coords (542.7808, 361.7187), timeStamp: 2017-02-16 10:38:17.076
LEye coords (532.4366, 394.8513), REye coords (542.2392, 361.1382), timeStamp: 2017-02-16 10:38:17.109
LEye coords (533.4847, 394.2931), REye coords (541.7966, 361.2329), timeStamp: 2017-02-16 10:38:17.152
LEye coords (555.4902, 418.8098), REye coords (541.6597, 361.6216), timeStamp: 2017-02-16 10:38:17.185
LEye coords (551.9979, 416.0386), REye coords (542.0482, 361.5073), timeStamp: 2017-02-16 10:38:17.219
LEye coords (565.7946, 422.1512), REye coords (544.0731, 362.4057), timeStamp: 2017-02-16 10:38:17.264
LEye coords (674.5309, 401.6936), REye coords (841.7094, 339.0535), timeStamp: 2017-02-16 10:38:17.297
LEye coords (724.7642, 395.869), REye coords (833.5873, 356.8994), timeStamp: 2017-02-16 10:38:17.330
LEye coords (860.2244, 367.48), REye coords (839.6072, 345.3655), timeStamp: 2017-02-16 10:38:17.375
LEye coords (858.0201, 370.9285), REye coords (838.8833, 342.73), timeStamp: 2017-02-16 10:38:17.409
LEye coords (858.8923, 372.8233), REye coords (838.1827, 342.3252), timeStamp: 2017-02-16 10:38:17.443
LEye coords (860.8391, 372.8925), REye coords (838.4955, 325.7351), timeStamp: 2017-02-16 10:38:17.486
