LEye coords (777.5922, 373.6256), REye coords (529.0319, 363.0185), timeStamp: 2017-02-16 10:38:17.519
LEye coords (527.2634, 367.1673), REye coords (530.3821, 356.6185), timeStamp: 2017-02-16 10:38:17.552
LEye coords (555.9955, 369.1929), REye coords (530.8594, 353.3724), timeStamp: 2017-02-16 10:38:17.595
LEye coords (544.8688, 368.0229), REye coords (528.034, 354.0426), timeStamp: 2017-02-16 10:38:17.629
LEye coords (542.1038, 368.9645), REye coords (516.4794, 343.7024), timeStamp: 2017-02-16 10:38:17.663
LEye coords (542.9296, 365.2507), REye coords (528.3662, 341.7111), timeStamp: 2017-02-16 10:38:17.707
LEye coords (540.0275, 361.9951), REye coords (524.2689, 341.746), timeStamp: 2017-02-16 10:38:17.740
LEye coords (539.2349, 359.3032), REye coords (522.3182, 341.655), timeStamp: 2017-02-16 10:38:17.784
LEye coords (539.3476, 358.3889), REye coords (520.7092, 338.1144), timeStamp: 2017-02-16 10:38:17.818
LEye coords (538.9106, 357.6338), REye coords (521.9429, 335.2736), timeStamp: 2017-02-16 10:38:17.851
LEye coords (547.7236, 361.8073), REye coords (617.1678, 421.3492), timeStamp: 2017-02-16 10:38:17.885
LEye coords (754.6525, 442.4226), REye coords (749.139, 453.9149), timeStamp: 2017-02-16 10:38:17.929
LEye coords (777.8973, 456.1095), REye coords (754.7061, 451.8712), timeStamp: 2017-02-16 10:38:17.962
LEye coords (771.7347, 452.2359), REye coords (756.0242, 450.2679), timeStamp: 2017-02-16 10:38:18.005
LEye coords (767.8842, 448.6684), REye coords (752.699, 452.9924), timeStamp: 2017-02-16 10:38:18.038
LEye coords (768.7562, 446.4548), REye coords (751.4178, 436.7862), timeStamp: 2017-02-16 10:38:18.070
LEye coords (0.0, 0.0), REye coords (769.6843, 428.7447), timeStamp: 2017-02-16 10:38:18.114
LEye coords (759.8381, 422.4098), REye coords (763.2093, 436.3377), timeStamp: 2017-02-16 10:38:18.147
LEye coords (774.0469, 440.2552), REye coords (761.15, 440.1081), timeStamp: 2017-02-16 10:38:18.181
LEye coords (778.2791, 438.6521), REye coords (760.9438, 438.2592), timeStamp: 2017-02-16 10:38:18.224
LEye coords (775.2734, 436.9377), REye coords (761.413, 435.6692), timeStamp: 2017-02-16 10:38:18.258
LEye coords (772.9799, 433.982), REye coords (759.7524, 439.7088), timeStamp: 2017-02-16 10:38:18.301
LEye coords (779.4622, 431.318), REye coords (765.9698, 439.6116), timeStamp: 2017-02-16 10:38:18.334
LEye coords (789.7637, 431.0001), REye coords (778.2156, 437.4737), timeStamp: 2017-02-16 10:38:18.367
LEye coords (798.6026, 429.4687), REye coords (786.8947, 436.8142), timeStamp: 2017-02-16 10:38:18.410
LEye coords (805.0817, 428.761), REye coords (793.0092, 437.3447), timeStamp: 2017-02-16 10:38:18.443
LEye coords (811.2632, 429.5807), REye coords (797.9584, 437.7618), timeStamp: 2017-02-16 10:38:18.478
LEye coords (815.694, 428.3453), REye coords (802.3614, 437.6094), timeStamp: 2017-02-16 10:38:18.522
LEye coords (819.9942, 426.9166), REye coords (806.1229, 436.8544), timeStamp: 2017-02-16 10:38:18.555
LEye coords (824.0101, 426.9446), REye coords (809.1744, 436.696), timeStamp: 2017-02-16 10:38:18.589
LEye coords (826.6234, 427.3209), REye coords (811.489, 436.8628), timeStamp: 2017-02-16 10:38:18.632
LEye coords (829.8104, 427.923), REye coords (813.6801, 437.0861), timeStamp: 2017-02-16 10:38:18.667
LEye coords (831.8463, 427.9605), REye coords (816.2032, 435.5552), timeStamp: 2017-02-16 10:38:18.701
LEye coords (833.3456, 428.6727), REye coords (818.4432, 435.0176), timeStamp: 2017-02-16 10:38:18.746
LEye coords (834.4061, 430.05), REye coords (820.832, 434.7206), timeStamp: 2017-02-16 10:38:18.782
LEye coords (839.9852, 432.5869), REye coords (827.7419, 435.2081), timeStamp: 2017-02-16 10:38:18.814
LEye coords (846.0488, 435.0826), REye coords (833.615, 438.5756), timeStamp: 2017-02-16 10:38:18.848
LEye coords (851.767, 438.1674), REye coords (921.2031, 472.0641), timeStamp: 2017-02-16 10:38:18.892
LEye coords (857.1381, 440.6768), REye coords (915.6277, 458.7252), timeStamp: 2017-02-16 10:38:18.926
LEye coords (861.7044, 443.6168), REye coords (911.4645, 463.6016), timeStamp: 2017-02-16 10:38:18.959
LEye coords (868.2784, 446.0197), REye coords (913.4786, 462.6395), timeStamp: 2017-02-16 10:38:19.003
LEye coords (874.1895, 448.5558), REye coords (913.062, 467.1847), timeStamp: 2017-02-16 10:38:19.037
LEye coords (880.6851, 451.0731), REye coords (915.6479, 467.1528), timeStamp: 2017-02-16 10:38:19.070
LEye coords (886.6592, 453.7002), REye coords (915.8344, 469.7741), timeStamp: 2017-02-16 10:38:19.113
LEye coords (891.8057, 456.4442), REye coords (916.33, 469.3791), timeStamp: 2017-02-16 10:38:19.147
LEye coords (923.6936, 477.3687), REye coords (915.9281, 471.4412), timeStamp: 2017-02-16 10:38:19.182
LEye coords (968.4108, 461.095), REye coords (921.1339, 470.0562), timeStamp: 2017-02-16 10:38:19.226
LEye coords (966.2108, 449.5143), REye coords (924.7954, 467.5379), timeStamp: 2017-02-16 10:38:19.258
LEye coords (965.5669, 450.4529), REye coords (928.4272, 463.3038), timeStamp: 2017-02-16 10:38:19.292
LEye coords (964.5497, 450.7136), REye coords (931.1489, 460.1515), timeStamp: 2017-02-16 10:38:19.336
LEye coords (963.8581, 448.7723), REye coords (933.1282, 457.7125), timeStamp: 2017-02-16 10:38:19.369
LEye coords (963.4563, 448.6003), REye coords (0.0, 0.0), timeStamp: 2017-02-16 10:38:19.403
LEye coords (962.0279, 449.8443), REye coords (0.0, 0.0), timeStamp: 2017-02-16 10:38:19.448
LEye coords (963.4017, 449.8531), REye coords (934.8518, 456.6506), timeStamp: 2017-02-16 10:38:19.481
LEye coords (959.2325, 450.9077), REye coords (932.7302, 455.6334), timeStamp: 2017-02-16 10:38:19.514
LEye coords (955.8184, 452.7634), REye coords (931.3687, 454.0072), timeStamp: 2017-02-16 10:38:19.558
LEye coords (952.1071, 454.9229), REye coords (930.014, 454.3202), timeStamp: 2017-02-16 10:38:19.591
LEye coords (949.0337, 455.5301), REye coords (928.5581, 454.5442), timeStamp: 2017-02-16 10:38:19.634
LEye coords (947.5292, 456.3733), REye coords (926.4131, 454.8484), timeStamp: 2017-02-16 10:38:19.668
LEye coords (945.835, 458.087), REye coords (924.7953, 454.4686), timeStamp: 2017-02-16 10:38:19.702
LEye coords (943.6035, 459.7525), REye coords (923.1298, 455.9176), timeStamp: 2017-02-16 10:38:19.737
LEye coords (941.038, 461.3014), REye coords (921.8541, 456.4419), timeStamp: 2017-02-16 10:38:19.780
LEye coords (939.488, 462.6624), REye coords (921.035, 457.532), timeStamp: 2017-02-16 10:38:19.814
LEye coords (938.1874, 464.7698), REye coords (919.318, 458.7808), timeStamp: 2017-02-16 10:38:19.847
LEye coords (937.193, 466.4798), REye coords (917.1923, 459.5937), timeStamp: 2017-02-16 10:38:19.891
LEye coords (935.3213, 469.1671), REye coords (915.4472, 461.8102), timeStamp: 2017-02-16 10:38:19.925
LEye coords (933.7762, 470.0969), REye coords (913.0382, 464.2664), timeStamp: 2017-02-16 10:38:19.958
LEye coords (932.8364, 471.1406), REye coords (911.8305, 465.0363), timeStamp: 2017-02-16 10:38:20.001
LEye coords (931.057, 473.3248), REye coords (909.8192, 466.9387), timeStamp: 2017-02-16 10:38:20.036
LEye coords (929.6156, 475.7506), REye coords (908.9067, 468.9403), timeStamp: 2017-02-16 10:38:20.070
LEye coords (927.2872, 478.4052), REye coords (907.1186, 469.8789), timeStamp: 2017-02-16 10:38:20.115
LEye coords (925.2624, 480.975), REye coords (905.5203, 472.4434), timeStamp: 2017-02-16 10:38:20.148
LEye coords (924.6509, 482.4927), REye coords (903.5552, 474.0552), timeStamp: 2017-02-16 10:38:20.182
LEye coords (926.9683, 486.3516), REye coords (905.6751, 478.0774), timeStamp: 2017-02-16 10:38:20.226
LEye coords (928.8649, 488.017), REye coords (907.7151, 481.4221), timeStamp: 2017-02-16 10:38:20.259
LEye coords (930.3974, 490.1771), REye coords (910.2847, 484.3554), timeStamp: 2017-02-16 10:38:20.293
LEye coords (933.4139, 492.1658), REye coords (912.6122, 487.902), timeStamp: 2017-02-16 10:38:20.337
LEye coords (935.3691, 493.4249), REye coords (914.6571, 489.4761), timeStamp: 2017-02-16 10:38:20.370
LEye coords (936.0876, 493.372), REye coords (916.0082, 489.9562), timeStamp: 2017-02-16 10:38:20.404
LEye coords (936.9327, 493.7329), REye coords (916.287, 490.3521), timeStamp: 2017-02-16 10:38:20.449
LEye coords (937.2042, 493.8774), REye coords (916.612, 491.072), timeStamp: 2017-02-16 10:38:20.482
LEye coords (937.431, 494.5239), REye coords (916.8329, 492.2344), timeStamp: 2017-02-16 10:38:20.515
LEye coords (937.4878, 494.754), REye coords (917.1447, 491.9901), timeStamp: 2017-02-16 10:38:20.560
LEye coords (937.9447, 494.9719), REye coords (917.3761, 492.4829), timeStamp: 2017-02-16 10:38:20.594
LEye coords (938.336, 495.1636), REye coords (917.5684, 492.5999), timeStamp: 2017-02-16 10:38:20.627
LEye coords (938.6716, 495.0727), REye coords (917.8328, 492.5155), timeStamp: 2017-02-16 10:38:20.670
LEye coords (938.715, 494.6821), REye coords (918.0593, 494.1535), timeStamp: 2017-02-16 10:38:20.702
LEye coords (939.1783, 494.5398), REye coords (918.2676, 494.6967), timeStamp: 2017-02-16 10:38:20.735
LEye coords (939.0486, 495.2294), REye coords (918.1331, 495.9904), timeStamp: 2017-02-16 10:38:20.778
LEye coords (939.7491, 496.124), REye coords (917.8154, 497.8643), timeStamp: 2017-02-16 10:38:20.812
LEye coords (939.9868, 496.2994), REye coords (918.6064, 499.3329), timeStamp: 2017-02-16 10:38:20.846
LEye coords (940.3082, 497.0275), REye coords (918.718, 499.8977), timeStamp: 2017-02-16 10:38:20.890
LEye coords (941.609, 497.0738), REye coords (918.2496, 501.7954), timeStamp: 2017-02-16 10:38:20.923
LEye coords (942.8197, 497.5568), REye coords (918.0433, 501.811), timeStamp: 2017-02-16 10:38:20.957
LEye coords (942.5681, 497.6792), REye coords (918.7485, 502.7876), timeStamp: 2017-02-16 10:38:21.001
LEye coords (941.4983, 496.625), REye coords (918.0228, 503.9324), timeStamp: 2017-02-16 10:38:21.035
LEye coords (941.3977, 496.6321), REye coords (917.351, 504.3771), timeStamp: 2017-02-16 10:38:21.069
LEye coords (941.6998, 496.3716), REye coords (916.5756, 506.2128), timeStamp: 2017-02-16 10:38:21.112
LEye coords (941.4672, 495.7817), REye coords (915.7738, 507.4893), timeStamp: 2017-02-16 10:38:21.146
LEye coords (940.7877, 495.8694), REye coords (915.2327, 510.4133), timeStamp: 2017-02-16 10:38:21.180
LEye coords (940.8024, 496.3348), REye coords (914.9324, 512.3141), timeStamp: 2017-02-16 10:38:21.224
LEye coords (940.967, 496.6588), REye coords (915.2315, 513.4562), timeStamp: 2017-02-16 10:38:21.257
LEye coords (941.103, 496.7786), REye coords (915.374, 515.4488), timeStamp: 2017-02-16 10:38:21.290
LEye coords (941.623, 496.4655), REye coords (915.447, 516.9724), timeStamp: 2017-02-16 10:38:21.334
LEye coords (942.041, 496.4682), REye coords (915.3349, 518.2543), timeStamp: 2017-02-16 10:38:21.367
LEye coords (942.5377, 495.7902), REye coords (915.4491, 519.8419), timeStamp: 2017-02-16 10:38:21.402
LEye coords (942.6981, 495.3253), REye coords (915.2234, 521.968), timeStamp: 2017-02-16 10:38:21.446
LEye coords (942.4656, 494.0867), REye coords (915.1945, 523.0694), timeStamp: 2017-02-16 10:38:21.478
LEye coords (942.9109, 493.461), REye coords (914.759, 523.8021), timeStamp: 2017-02-16 10:38:21.512
LEye coords (942.7499, 492.9431), REye coords (914.7037, 524.2165), timeStamp: 2017-02-16 10:38:21.556
LEye coords (943.0301, 492.2821), REye coords (914.7803, 523.7429), timeStamp: 2017-02-16 10:38:21.589
LEye coords (942.744, 491.3003), REye coords (914.5446, 522.8982), timeStamp: 2017-02-16 10:38:21.632
LEye coords (942.3162, 491.2264), REye coords (914.4008, 522.0192), timeStamp: 2017-02-16 10:38:21.666
LEye coords (942.7531, 491.0359), REye coords (913.9358, 522.0793), timeStamp: 2017-02-16 10:38:21.699
LEye coords (942.3882, 491.0281), REye coords (913.8117, 521.9731), timeStamp: 2017-02-16 10:38:21.744
LEye coords (941.5419, 490.9788), REye coords (913.861, 522.8859), timeStamp: 2017-02-16 10:38:21.777
LEye coords (941.1086, 491.6468), REye coords (913.7, 523.3643), timeStamp: 2017-02-16 10:38:21.810
LEye coords (941.5911, 491.9041), REye coords (912.9453, 523.3686), timeStamp: 2017-02-16 10:38:21.854
LEye coords (939.0742, 493.747), REye coords (910.7493, 522.7642), timeStamp: 2017-02-16 10:38:21.887
LEye coords (936.0917, 494.6809), REye coords (907.9752, 522.8666), timeStamp: 2017-02-16 10:38:21.919
LEye coords (934.2747, 495.6257), REye coords (905.8491, 522.6977), timeStamp: 2017-02-16 10:38:21.964
LEye coords (932.5602, 496.6678), REye coords (903.2508, 521.0927), timeStamp: 2017-02-16 10:38:21.997
LEye coords (930.4375, 497.5511), REye coords (900.9943, 520.1563), timeStamp: 2017-02-16 10:38:22.030
LEye coords (927.569, 497.8484), REye coords (897.9659, 520.7817), timeStamp: 2017-02-16 10:38:22.075
LEye coords (924.7002, 499.0302), REye coords (896.251, 519.8953), timeStamp: 2017-02-16 10:38:22.108
LEye coords (922.2527, 500.207), REye coords (893.4424, 519.3226), timeStamp: 2017-02-16 10:38:22.141
LEye coords (920.3972, 500.9837), REye coords (891.2609, 519.441), timeStamp: 2017-02-16 10:38:22.186
LEye coords (918.2296, 502.2789), REye coords (888.5678, 519.0868), timeStamp: 2017-02-16 10:38:22.220
LEye coords (916.1276, 502.6448), REye coords (886.8802, 518.1646), timeStamp: 2017-02-16 10:38:22.253
LEye coords (914.5872, 503.2605), REye coords (885.0952, 518.4075), timeStamp: 2017-02-16 10:38:22.296
LEye coords (912.3395, 503.364), REye coords (882.6386, 518.4738), timeStamp: 2017-02-16 10:38:22.329
LEye coords (910.1873, 503.3058), REye coords (880.9502, 518.3284), timeStamp: 2017-02-16 10:38:22.373
LEye coords (908.7139, 503.6997), REye coords (879.7822, 516.8142), timeStamp: 2017-02-16 10:38:22.406
LEye coords (906.5334, 504.4322), REye coords (878.7654, 515.9161), timeStamp: 2017-02-16 10:38:22.439
LEye coords (904.9998, 504.7877), REye coords (877.5817, 515.0019), timeStamp: 2017-02-16 10:38:22.483
LEye coords (903.0252, 504.0614), REye coords (876.5125, 513.5991), timeStamp: 2017-02-16 10:38:22.515
LEye coords (901.0882, 503.6361), REye coords (875.0654, 513.1895), timeStamp: 2017-02-16 10:38:22.548
LEye coords (899.7159, 504.3731), REye coords (873.6476, 512.1149), timeStamp: 2017-02-16 10:38:22.592
LEye coords (898.3823, 504.5762), REye coords (871.9977, 511.2375), timeStamp: 2017-02-16 10:38:22.625
LEye coords (897.0442, 504.6674), REye coords (871.6442, 510.0865), timeStamp: 2017-02-16 10:38:22.669
LEye coords (896.9396, 504.7935), REye coords (871.7455, 508.4507), timeStamp: 2017-02-16 10:38:22.703
LEye coords (896.1246, 505.3044), REye coords (872.2614, 508.0764), timeStamp: 2017-02-16 10:38:22.737
LEye coords (896.1854, 505.8053), REye coords (871.8928, 508.6133), timeStamp: 2017-02-16 10:38:22.781
LEye coords (896.2367, 505.8935), REye coords (872.7322, 509.234), timeStamp: 2017-02-16 10:38:22.814
LEye coords (779.9372, 516.9919), REye coords (866.4551, 509.6987), timeStamp: 2017-02-16 10:38:22.848
LEye coords (392.3404, 549.4705), REye coords (398.2265, 517.2642), timeStamp: 2017-02-16 10:38:22.882
LEye coords (404.6336, 542.2744), REye coords (416.7483, 496.3809), timeStamp: 2017-02-16 10:38:22.925
LEye coords (409.166, 537.4457), REye coords (413.9982, 497.9217), timeStamp: 2017-02-16 10:38:22.958
LEye coords (408.8403, 525.7848), REye coords (412.7814, 495.8712), timeStamp: 2017-02-16 10:38:23.002
LEye coords (384.8123, 468.0715), REye coords (411.6622, 493.8728), timeStamp: 2017-02-16 10:38:23.036
LEye coords (401.4946, 469.594), REye coords (404.5944, 494.9712), timeStamp: 2017-02-16 10:38:23.070
LEye coords (402.6508, 471.8695), REye coords (408.6844, 496.1874), timeStamp: 2017-02-16 10:38:23.104
LEye coords (406.9865, 459.8921), REye coords (416.7932, 481.6853), timeStamp: 2017-02-16 10:38:23.148
LEye coords (421.2648, 460.5426), REye coords (428.0807, 467.906), timeStamp: 2017-02-16 10:38:23.181
LEye coords (425.6579, 454.7729), REye coords (429.2132, 463.2177), timeStamp: 2017-02-16 10:38:23.215
LEye coords (428.4478, 451.2649), REye coords (430.6656, 463.4807), timeStamp: 2017-02-16 10:38:23.257
LEye coords (430.472, 447.131), REye coords (432.0275, 463.4033), timeStamp: 2017-02-16 10:38:23.291
LEye coords (432.3881, 442.6607), REye coords (432.4555, 463.0557), timeStamp: 2017-02-16 10:38:23.334
LEye coords (433.7074, 441.2973), REye coords (431.4604, 464.5513), timeStamp: 2017-02-16 10:38:23.368
LEye coords (434.3986, 441.6925), REye coords (431.4478, 464.7698), timeStamp: 2017-02-16 10:38:23.401
LEye coords (435.6053, 442.1931), REye coords (432.258, 464.0907), timeStamp: 2017-02-16 10:38:23.444
LEye coords (436.3928, 442.2586), REye coords (432.273, 463.4764), timeStamp: 2017-02-16 10:38:23.477
LEye coords (437.2001, 441.3206), REye coords (432.0946, 463.8334), timeStamp: 2017-02-16 10:38:23.511
LEye coords (438.7444, 440.4263), REye coords (431.8673, 463.7377), timeStamp: 2017-02-16 10:38:23.554
LEye coords (439.6701, 441.0107), REye coords (432.089, 463.899), timeStamp: 2017-02-16 10:38:23.588
LEye coords (439.8656, 439.4919), REye coords (432.1926, 463.0115), timeStamp: 2017-02-16 10:38:23.632
LEye coords (439.1597, 439.0968), REye coords (432.072, 462.849), timeStamp: 2017-02-16 10:38:23.665
LEye coords (438.8197, 437.8615), REye coords (431.9612, 462.0375), timeStamp: 2017-02-16 10:38:23.700
LEye coords (438.7998, 436.336), REye coords (430.9906, 461.1388), timeStamp: 2017-02-16 10:38:23.734
LEye coords (439.4333, 436.8981), REye coords (430.3828, 460.9943), timeStamp: 2017-02-16 10:38:23.777
LEye coords (439.2464, 438.7579), REye coords (430.1391, 460.4065), timeStamp: 2017-02-16 10:38:23.811
LEye coords (438.8783, 440.0245), REye coords (429.4888, 460.0573), timeStamp: 2017-02-16 10:38:23.846
LEye coords (439.0461, 440.902), REye coords (429.3901, 459.6986), timeStamp: 2017-02-16 10:38:23.889
LEye coords (442.2155, 445.5786), REye coords (432.2962, 460.8873), timeStamp: 2017-02-16 10:38:23.923
LEye coords (445.8191, 451.1312), REye coords (435.74, 463.9292), timeStamp: 2017-02-16 10:38:23.955
LEye coords (448.1862, 454.9704), REye coords (438.5798, 466.9021), timeStamp: 2017-02-16 10:38:23.998
LEye coords (451.2261, 460.8742), REye coords (441.7746, 469.1177), timeStamp: 2017-02-16 10:38:24.031
LEye coords (452.7714, 463.3521), REye coords (444.4704, 471.0999), timeStamp: 2017-02-16 10:38:24.075
LEye coords (451.2128, 464.6847), REye coords (447.0221, 471.5798), timeStamp: 2017-02-16 10:38:24.109
LEye coords (449.2046, 463.8099), REye coords (449.29, 472.3283), timeStamp: 2017-02-16 10:38:24.142
LEye coords (447.7224, 464.2384), REye coords (451.7307, 472.7888), timeStamp: 2017-02-16 10:38:24.185
LEye coords (446.7126, 464.6273), REye coords (453.7039, 473.8658), timeStamp: 2017-02-16 10:38:24.219
LEye coords (443.816, 463.6683), REye coords (455.5488, 474.1989), timeStamp: 2017-02-16 10:38:24.252
LEye coords (444.6447, 465.6211), REye coords (456.874, 475.366), timeStamp: 2017-02-16 10:38:24.295
LEye coords (443.0286, 464.4183), REye coords (457.8324, 475.9528), timeStamp: 2017-02-16 10:38:24.330
LEye coords (438.4764, 466.5369), REye coords (459.4292, 477.6818), timeStamp: 2017-02-16 10:38:24.363
LEye coords (437.6153, 466.6837), REye coords (460.5717, 478.8278), timeStamp: 2017-02-16 10:38:24.408
LEye coords (434.6356, 466.4501), REye coords (461.8649, 480.2717), timeStamp: 2017-02-16 10:38:24.441
LEye coords (436.3672, 468.4813), REye coords (462.548, 481.7873), timeStamp: 2017-02-16 10:38:24.474
LEye coords (435.5889, 470.3364), REye coords (463.2143, 482.704), timeStamp: 2017-02-16 10:38:24.519
LEye coords (437.42, 472.2907), REye coords (463.9857, 483.7016), timeStamp: 2017-02-16 10:38:24.552
LEye coords (435.7404, 471.6429), REye coords (465.1492, 485.1591), timeStamp: 2017-02-16 10:38:24.585
LEye coords (433.975, 469.8889), REye coords (465.9794, 485.8145), timeStamp: 2017-02-16 10:38:24.628
LEye coords (433.0043, 469.0256), REye coords (466.8894, 487.4053), timeStamp: 2017-02-16 10:38:24.663
LEye coords (434.1507, 469.6454), REye coords (467.8611, 487.7993), timeStamp: 2017-02-16 10:38:24.695
LEye coords (435.734, 470.1039), REye coords (466.7882, 486.7), timeStamp: 2017-02-16 10:38:24.739
LEye coords (431.6186, 467.3718), REye coords (465.6548, 485.4734), timeStamp: 2017-02-16 10:38:24.773
LEye coords (429.6726, 464.2178), REye coords (465.1714, 484.9137), timeStamp: 2017-02-16 10:38:24.816
LEye coords (424.3604, 460.0749), REye coords (464.918, 484.9252), timeStamp: 2017-02-16 10:38:24.849
LEye coords (424.0527, 459.6306), REye coords (464.3113, 485.3121), timeStamp: 2017-02-16 10:38:24.883
LEye coords (423.6664, 459.2055), REye coords (464.3384, 485.1663), timeStamp: 2017-02-16 10:38:24.926
LEye coords (424.6002, 460.6064), REye coords (463.9994, 485.5065), timeStamp: 2017-02-16 10:38:24.960
LEye coords (424.5872, 461.2681), REye coords (463.981, 485.9524), timeStamp: 2017-02-16 10:38:24.994
LEye coords (426.9811, 460.5526), REye coords (463.8267, 485.9184), timeStamp: 2017-02-16 10:38:25.037
LEye coords (428.5891, 461.1496), REye coords (463.5041, 486.9298), timeStamp: 2017-02-16 10:38:25.070
LEye coords (427.0182, 460.9403), REye coords (463.1202, 488.2588), timeStamp: 2017-02-16 10:38:25.103
LEye coords (428.4056, 462.091), REye coords (462.5893, 488.0324), timeStamp: 2017-02-16 10:38:25.147
LEye coords (429.5634, 461.1466), REye coords (462.559, 488.496), timeStamp: 2017-02-16 10:38:25.181
LEye coords (428.9192, 461.5778), REye coords (462.9973, 488.0644), timeStamp: 2017-02-16 10:38:25.214
LEye coords (432.0467, 464.9878), REye coords (462.9693, 488.3995), timeStamp: 2017-02-16 10:38:25.257
LEye coords (434.1744, 467.4205), REye coords (463.5002, 488.6413), timeStamp: 2017-02-16 10:38:25.291
LEye coords (433.3594, 470.4232), REye coords (463.5583, 489.1073), timeStamp: 2017-02-16 10:38:25.333
LEye coords (433.1281, 471.9772), REye coords (463.5708, 489.739), timeStamp: 2017-02-16 10:38:25.366
LEye coords (435.2498, 476.0317), REye coords (463.2297, 490.7896), timeStamp: 2017-02-16 10:38:25.399
LEye coords (436.3876, 479.5741), REye coords (463.0182, 491.8037), timeStamp: 2017-02-16 10:38:25.443
LEye coords (437.693, 484.6214), REye coords (463.3051, 491.6368), timeStamp: 2017-02-16 10:38:25.477
LEye coords (437.6735, 488.0442), REye coords (462.9024, 492.7046), timeStamp: 2017-02-16 10:38:25.510
LEye coords (437.6053, 492.6236), REye coords (462.4074, 493.5735), timeStamp: 2017-02-16 10:38:25.554
LEye coords (439.4984, 498.0356), REye coords (466.1023, 494.4698), timeStamp: 2017-02-16 10:38:25.588
LEye coords (441.4335, 501.8338), REye coords (469.0792, 495.2482), timeStamp: 2017-02-16 10:38:25.621
LEye coords (518.8086, 557.4075), REye coords (472.0232, 495.4494), timeStamp: 2017-02-16 10:38:25.666
LEye coords (485.6832, 539.251), REye coords (474.4688, 496.1924), timeStamp: 2017-02-16 10:38:25.698
LEye coords (489.0867, 529.6351), REye coords (476.1749, 498.1038), timeStamp: 2017-02-16 10:38:25.731
LEye coords (474.5266, 525.3356), REye coords (478.4155, 499.936), timeStamp: 2017-02-16 10:38:25.773
LEye coords (474.855, 528.6729), REye coords (480.8273, 500.9965), timeStamp: 2017-02-16 10:38:25.808
LEye coords (473.7522, 521.4536), REye coords (482.9369, 501.8268), timeStamp: 2017-02-16 10:38:25.852
LEye coords (477.2715, 521.313), REye coords (485.0346, 502.4363), timeStamp: 2017-02-16 10:38:25.885
LEye coords (476.1853, 519.384), REye coords (485.7546, 502.7185), timeStamp: 2017-02-16 10:38:25.918
LEye coords (469.3852, 515.1628), REye coords (486.5768, 502.8648), timeStamp: 2017-02-16 10:38:25.960
LEye coords (463.1024, 516.1796), REye coords (487.51, 502.112), timeStamp: 2017-02-16 10:38:25.994
LEye coords (461.4341, 515.127), REye coords (487.8812, 501.935), timeStamp: 2017-02-16 10:38:26.038
LEye coords (459.4781, 514.0164), REye coords (488.318, 501.4958), timeStamp: 2017-02-16 10:38:26.071
LEye coords (459.1088, 510.7029), REye coords (488.1376, 501.4532), timeStamp: 2017-02-16 10:38:26.104
LEye coords (456.5657, 509.3583), REye coords (488.9987, 500.9569), timeStamp: 2017-02-16 10:38:26.148
LEye coords (455.5508, 508.7185), REye coords (489.4706, 500.8464), timeStamp: 2017-02-16 10:38:26.180
LEye coords (457.8678, 507.8175), REye coords (489.9134, 499.7942), timeStamp: 2017-02-16 10:38:26.213
LEye coords (459.2986, 508.6916), REye coords (489.3023, 499.7617), timeStamp: 2017-02-16 10:38:26.256
LEye coords (464.5983, 509.3185), REye coords (492.3824, 499.7188), timeStamp: 2017-02-16 10:38:26.289
LEye coords (600.3137, 507.3108), REye coords (598.0078, 495.5827), timeStamp: 2017-02-16 10:38:26.333
LEye coords (606.7285, 514.1238), REye coords (589.3296, 492.1706), timeStamp: 2017-02-16 10:38:26.367
LEye coords (614.1223, 516.9957), REye coords (593.2851, 493.7245), timeStamp: 2017-02-16 10:38:26.401
LEye coords (614.8242, 519.4619), REye coords (592.9684, 495.2324), timeStamp: 2017-02-16 10:38:26.445
LEye coords (614.2713, 514.7183), REye coords (592.4737, 495.9348), timeStamp: 2017-02-16 10:38:26.480
LEye coords (613.0142, 512.2462), REye coords (592.7673, 493.7677), timeStamp: 2017-02-16 10:38:26.512
LEye coords (613.2787, 513.842), REye coords (593.181, 495.7362), timeStamp: 2017-02-16 10:38:26.556
LEye coords (613.3956, 508.1693), REye coords (591.8862, 496.3549), timeStamp: 2017-02-16 10:38:26.589
LEye coords (613.176, 506.1945), REye coords (592.6704, 496.8481), timeStamp: 2017-02-16 10:38:26.623
LEye coords (620.3496, 505.6732), REye coords (638.5392, 474.0649), timeStamp: 2017-02-16 10:38:26.667
LEye coords (624.1054, 503.8765), REye coords (641.1516, 447.791), timeStamp: 2017-02-16 10:38:26.700
LEye coords (629.3281, 503.2735), REye coords (638.7889, 455.7117), timeStamp: 2017-02-16 10:38:26.734
LEye coords (634.2079, 503.2746), REye coords (645.0216, 456.2083), timeStamp: 2017-02-16 10:38:26.777
LEye coords (636.5353, 502.3648), REye coords (642.8491, 459.5229), timeStamp: 2017-02-16 10:38:26.810
LEye coords (638.8884, 501.1246), REye coords (642.1312, 462.9098), timeStamp: 2017-02-16 10:38:26.844
LEye coords (639.6741, 499.9227), REye coords (641.2897, 463.7069), timeStamp: 2017-02-16 10:38:26.887
LEye coords (642.3364, 498.6841), REye coords (641.789, 463.6361), timeStamp: 2017-02-16 10:38:26.921
LEye coords (644.6649, 498.5273), REye coords (642.0007, 464.2924), timeStamp: 2017-02-16 10:38:26.954
LEye coords (668.012, 488.3485), REye coords (642.7325, 463.6329), timeStamp: 2017-02-16 10:38:26.997
LEye coords (642.8115, 487.8642), REye coords (642.3591, 465.3684), timeStamp: 2017-02-16 10:38:27.031
LEye coords (648.0377, 474.0607), REye coords (641.3497, 467.4427), timeStamp: 2017-02-16 10:38:27.064
LEye coords (644.8138, 474.263), REye coords (642.5931, 467.8698), timeStamp: 2017-02-16 10:38:27.107
LEye coords (646.0015, 480.2665), REye coords (642.773, 469.4286), timeStamp: 2017-02-16 10:38:27.141
LEye coords (640.6115, 483.1724), REye coords (643.7122, 471.3775), timeStamp: 2017-02-16 10:38:27.176
LEye coords (639.2796, 486.9012), REye coords (643.9307, 471.6289), timeStamp: 2017-02-16 10:38:27.220
LEye coords (638.6906, 493.4644), REye coords (643.5071, 474.0471), timeStamp: 2017-02-16 10:38:27.253
LEye coords (641.2642, 504.9898), REye coords (643.8509, 479.2288), timeStamp: 2017-02-16 10:38:27.286
LEye coords (644.2367, 515.3411), REye coords (644.8527, 482.7054), timeStamp: 2017-02-16 10:38:27.331
LEye coords (642.793, 513.5488), REye coords (645.3881, 484.1563), timeStamp: 2017-02-16 10:38:27.364
LEye coords (640.6166, 510.9318), REye coords (647.1389, 485.0657), timeStamp: 2017-02-16 10:38:27.398
LEye coords (633.4929, 508.2887), REye coords (648.9966, 486.8665), timeStamp: 2017-02-16 10:38:27.442
LEye coords (632.9364, 508.0388), REye coords (650.9899, 488.3268), timeStamp: 2017-02-16 10:38:27.476
LEye coords (631.7972, 509.6387), REye coords (652.7302, 489.8467), timeStamp: 2017-02-16 10:38:27.510
LEye coords (493.9977, 527.4666), REye coords (654.6171, 490.7679), timeStamp: 2017-02-16 10:38:27.554
LEye coords (619.9202, 493.5886), REye coords (655.9705, 492.1812), timeStamp: 2017-02-16 10:38:27.589
LEye coords (623.5391, 507.6503), REye coords (657.8806, 493.2056), timeStamp: 2017-02-16 10:38:27.622
LEye coords (622.2741, 504.5091), REye coords (659.5416, 493.4998), timeStamp: 2017-02-16 10:38:27.666
LEye coords (591.7373, 497.5879), REye coords (660.1326, 492.8531), timeStamp: 2017-02-16 10:38:27.700
LEye coords (625.9532, 464.2427), REye coords (661.8423, 489.3395), timeStamp: 2017-02-16 10:38:27.733
LEye coords (547.0506, 457.85), REye coords (662.8898, 486.1372), timeStamp: 2017-02-16 10:38:27.767
LEye coords (595.7432, 452.8504), REye coords (663.1495, 483.791), timeStamp: 2017-02-16 10:38:27.810
LEye coords (606.7604, 461.5063), REye coords (664.3073, 480.8109), timeStamp: 2017-02-16 10:38:27.844
LEye coords (584.6903, 458.7947), REye coords (664.8681, 479.7571), timeStamp: 2017-02-16 10:38:27.878
LEye coords (573.2926, 450.9615), REye coords (665.5707, 477.6266), timeStamp: 2017-02-16 10:38:27.923
LEye coords (583.7181, 454.8503), REye coords (666.2593, 476.2545), timeStamp: 2017-02-16 10:38:27.956
LEye coords (581.7237, 454.9709), REye coords (666.9556, 473.5728), timeStamp: 2017-02-16 10:38:27.989
LEye coords (586.8006, 458.2867), REye coords (667.4882, 471.8539), timeStamp: 2017-02-16 10:38:28.033
LEye coords (580.2296, 457.9005), REye coords (666.4266, 469.3272), timeStamp: 2017-02-16 10:38:28.067
LEye coords (574.3653, 454.7284), REye coords (666.6348, 464.817), timeStamp: 2017-02-16 10:38:28.101
LEye coords (568.6112, 452.8338), REye coords (665.9547, 460.8035), timeStamp: 2017-02-16 10:38:28.145
LEye coords (573.2596, 451.4325), REye coords (664.5681, 457.2154), timeStamp: 2017-02-16 10:38:28.179
LEye coords (567.7338, 449.201), REye coords (662.9276, 454.929), timeStamp: 2017-02-16 10:38:28.212
LEye coords (562.775, 446.4292), REye coords (661.1377, 451.1056), timeStamp: 2017-02-16 10:38:28.255
LEye coords (559.3613, 442.6764), REye coords (659.6363, 447.971), timeStamp: 2017-02-16 10:38:28.289
LEye coords (554.2245, 440.2871), REye coords (658.1052, 444.5096), timeStamp: 2017-02-16 10:38:28.322
LEye coords (547.6921, 438.4933), REye coords (656.3292, 441.5058), timeStamp: 2017-02-16 10:38:28.366
LEye coords (677.6907, 482.1624), REye coords (654.2529, 439.2743), timeStamp: 2017-02-16 10:38:28.399
LEye coords (657.3477, 470.6396), REye coords (652.4155, 436.6723), timeStamp: 2017-02-16 10:38:28.442
LEye coords (658.9682, 476.7645), REye coords (650.6843, 434.9878), timeStamp: 2017-02-16 10:38:28.475
LEye coords (647.27, 475.0745), REye coords (649.3552, 433.3116), timeStamp: 2017-02-16 10:38:28.508
LEye coords (649.7525, 475.3407), REye coords (647.4401, 433.7215), timeStamp: 2017-02-16 10:38:28.551
LEye coords (715.9753, 539.3288), REye coords (650.8837, 437.2459), timeStamp: 2017-02-16 10:38:28.585
LEye coords (690.2687, 551.9189), REye coords (654.0465, 440.4663), timeStamp: 2017-02-16 10:38:28.618
LEye coords (691.3113, 536.8256), REye coords (656.675, 444.0518), timeStamp: 2017-02-16 10:38:28.662
LEye coords (697.4304, 541.1249), REye coords (659.0654, 447.4713), timeStamp: 2017-02-16 10:38:28.695
LEye coords (678.0508, 525.9879), REye coords (660.3277, 452.8326), timeStamp: 2017-02-16 10:38:28.739
LEye coords (526.5435, 486.8727), REye coords (661.4597, 456.5706), timeStamp: 2017-02-16 10:38:28.773
LEye coords (507.5642, 498.5802), REye coords (661.6114, 461.3578), timeStamp: 2017-02-16 10:38:28.806
LEye coords (579.8544, 505.2821), REye coords (661.9182, 466.1842), timeStamp: 2017-02-16 10:38:28.851
LEye coords (595.2351, 510.0848), REye coords (661.1241, 470.5105), timeStamp: 2017-02-16 10:38:28.885
LEye coords (577.0612, 508.3673), REye coords (660.3004, 475.3793), timeStamp: 2017-02-16 10:38:28.919
LEye coords (582.7393, 505.2546), REye coords (659.7286, 479.6232), timeStamp: 2017-02-16 10:38:28.953
LEye coords (573.2841, 502.1426), REye coords (659.2492, 482.8766), timeStamp: 2017-02-16 10:38:28.997
LEye coords (558.9933, 502.0333), REye coords (658.5152, 486.7664), timeStamp: 2017-02-16 10:38:29.030
LEye coords (566.4851, 499.386), REye coords (657.8321, 490.6475), timeStamp: 2017-02-16 10:38:29.062
LEye coords (654.6544, 527.23), REye coords (656.7415, 494.225), timeStamp: 2017-02-16 10:38:29.106
LEye coords (651.226, 498.9058), REye coords (656.2582, 497.0572), timeStamp: 2017-02-16 10:38:29.138
LEye coords (653.1119, 507.1753), REye coords (655.6071, 499.4683), timeStamp: 2017-02-16 10:38:29.182
LEye coords (651.7847, 518.3193), REye coords (654.651, 501.2764), timeStamp: 2017-02-16 10:38:29.216
LEye coords (650.2515, 523.9676), REye coords (653.7231, 503.8461), timeStamp: 2017-02-16 10:38:29.250
LEye coords (651.6364, 527.1069), REye coords (652.8955, 506.0083), timeStamp: 2017-02-16 10:38:29.293
LEye coords (653.7639, 531.0064), REye coords (652.0328, 507.6087), timeStamp: 2017-02-16 10:38:29.328
LEye coords (653.0656, 526.6038), REye coords (651.0161, 509.0629), timeStamp: 2017-02-16 10:38:29.360
LEye coords (650.6006, 526.0691), REye coords (649.1014, 509.2985), timeStamp: 2017-02-16 10:38:29.404
LEye coords (650.8263, 528.3869), REye coords (647.4373, 509.7227), timeStamp: 2017-02-16 10:38:29.437
LEye coords (651.1094, 528.1188), REye coords (647.3904, 508.9567), timeStamp: 2017-02-16 10:38:29.471
LEye coords (652.1324, 529.866), REye coords (647.1793, 508.395), timeStamp: 2017-02-16 10:38:29.516
LEye coords (650.8206, 528.6577), REye coords (646.7098, 508.319), timeStamp: 2017-02-16 10:38:29.549
LEye coords (651.2465, 528.2275), REye coords (647.4896, 508.4005), timeStamp: 2017-02-16 10:38:29.581
LEye coords (651.6905, 527.126), REye coords (648.557, 507.1738), timeStamp: 2017-02-16 10:38:29.626
LEye coords (651.6089, 523.2195), REye coords (648.3464, 507.4873), timeStamp: 2017-02-16 10:38:29.659
LEye coords (652.2201, 521.9665), REye coords (649.9702, 507.5391), timeStamp: 2017-02-16 10:38:29.693
LEye coords (650.6732, 520.2219), REye coords (651.8076, 506.4758), timeStamp: 2017-02-16 10:38:29.736
