LEye coords (651.1516, 520.1733), REye coords (652.5487, 506.0784), timeStamp: 2017-02-16 10:38:29.770
LEye coords (651.7532, 520.2993), REye coords (654.1107, 505.5868), timeStamp: 2017-02-16 10:38:29.803
LEye coords (651.8235, 519.84), REye coords (655.2352, 505.0179), timeStamp: 2017-02-16 10:38:29.846
LEye coords (653.0366, 520.2612), REye coords (656.2025, 503.4547), timeStamp: 2017-02-16 10:38:29.880
LEye coords (652.4237, 520.3486), REye coords (657.3412, 503.1122), timeStamp: 2017-02-16 10:38:29.915
LEye coords (652.3351, 519.592), REye coords (658.5555, 502.7917), timeStamp: 2017-02-16 10:38:29.959
LEye coords (653.3829, 519.4564), REye coords (659.7537, 502.2578), timeStamp: 2017-02-16 10:38:29.992
LEye coords (653.6271, 516.8837), REye coords (660.8476, 502.2189), timeStamp: 2017-02-16 10:38:30.027
LEye coords (655.2798, 515.32), REye coords (661.5944, 501.7652), timeStamp: 2017-02-16 10:38:30.071
LEye coords (656.534, 514.506), REye coords (662.745, 500.8921), timeStamp: 2017-02-16 10:38:30.104
LEye coords (656.8492, 512.4742), REye coords (663.296, 500.6875), timeStamp: 2017-02-16 10:38:30.138
LEye coords (554.0537, 363.8698), REye coords (550.0449, 313.8449), timeStamp: 2017-02-16 10:38:30.183
LEye coords (538.2275, 281.8785), REye coords (511.8393, 268.9322), timeStamp: 2017-02-16 10:38:30.216
LEye coords (537.0392, 280.8916), REye coords (511.5434, 259.2928), timeStamp: 2017-02-16 10:38:30.249
LEye coords (532.764, 278.2082), REye coords (510.6861, 257.7549), timeStamp: 2017-02-16 10:38:30.292
LEye coords (532.8105, 275.6471), REye coords (507.7139, 257.7197), timeStamp: 2017-02-16 10:38:30.325
LEye coords (557.8111, 70.3589), REye coords (575.1202, 111.4552), timeStamp: 2017-02-16 10:38:30.358
LEye coords (564.8931, 94.8584), REye coords (581.8652, 105.4133), timeStamp: 2017-02-16 10:38:30.402
LEye coords (567.9406, 99.4616), REye coords (583.1389, 91.2878), timeStamp: 2017-02-16 10:38:30.435
LEye coords (569.4899, 101.9263), REye coords (585.675, 91.4845), timeStamp: 2017-02-16 10:38:30.469
LEye coords (572.5812, 101.1722), REye coords (586.5154, 87.927), timeStamp: 2017-02-16 10:38:30.513
LEye coords (573.1094, 110.3911), REye coords (587.0041, 68.3403), timeStamp: 2017-02-16 10:38:30.546
LEye coords (578.3852, 109.0589), REye coords (586.5403, 104.807), timeStamp: 2017-02-16 10:38:30.580
LEye coords (708.6797, 95.2927), REye coords (682.5843, 84.8816), timeStamp: 2017-02-16 10:38:30.623
LEye coords (755.1719, 90.5224), REye coords (722.7953, 79.0899), timeStamp: 2017-02-16 10:38:30.656
LEye coords (777.2321, 87.3748), REye coords (731.0567, 80.5467), timeStamp: 2017-02-16 10:38:30.700
LEye coords (849.4628, 85.322), REye coords (805.6915, 63.0181), timeStamp: 2017-02-16 10:38:30.733
LEye coords (835.589, 79.2153), REye coords (801.3488, 64.6569), timeStamp: 2017-02-16 10:38:30.767
LEye coords (832.6622, 75.2583), REye coords (801.8532, 61.8577), timeStamp: 2017-02-16 10:38:30.810
LEye coords (837.5107, 83.1141), REye coords (801.3049, 63.6945), timeStamp: 2017-02-16 10:38:30.843
LEye coords (841.8683, 83.7269), REye coords (807.0137, 65.646), timeStamp: 2017-02-16 10:38:30.877
LEye coords (1080.3289, 97.2864), REye coords (1047.8844, 98.5151), timeStamp: 2017-02-16 10:38:30.921
LEye coords (1090.5043, 102.5351), REye coords (1058.7467, 84.8247), timeStamp: 2017-02-16 10:38:30.954
LEye coords (1088.0321, 102.6528), REye coords (1054.2255, 85.0265), timeStamp: 2017-02-16 10:38:30.988
LEye coords (1085.4569, 100.1365), REye coords (1054.319, 86.5329), timeStamp: 2017-02-16 10:38:31.032
LEye coords (1087.6759, 100.1596), REye coords (1051.5029, 89.2816), timeStamp: 2017-02-16 10:38:31.065
LEye coords (1087.6041, 109.0593), REye coords (1044.1492, 88.9741), timeStamp: 2017-02-16 10:38:31.098
LEye coords (1083.3912, 101.0765), REye coords (1051.7803, 91.9483), timeStamp: 2017-02-16 10:38:31.142
LEye coords (1083.3987, 97.1278), REye coords (1047.9382, 91.456), timeStamp: 2017-02-16 10:38:31.174
LEye coords (946.0672, 85.8095), REye coords (920.3831, 64.4742), timeStamp: 2017-02-16 10:38:31.219
LEye coords (834.7523, 85.4899), REye coords (818.1088, 47.9658), timeStamp: 2017-02-16 10:38:31.252
LEye coords (507.0106, 70.7554), REye coords (514.4155, 6.6915), timeStamp: 2017-02-16 10:38:31.286
LEye coords (509.2531, 72.5916), REye coords (514.0211, 3.4658), timeStamp: 2017-02-16 10:38:31.329
LEye coords (511.738, 68.5396), REye coords (508.1931, 4.2045), timeStamp: 2017-02-16 10:38:31.361
LEye coords (508.6966, 70.1309), REye coords (510.9014, 4.8656), timeStamp: 2017-02-16 10:38:31.394
LEye coords (508.0188, 72.3277), REye coords (509.9701, 6.9923), timeStamp: 2017-02-16 10:38:31.438
LEye coords (507.4431, 73.3613), REye coords (510.2327, 5.7512), timeStamp: 2017-02-16 10:38:31.471
LEye coords (506.5179, 73.4659), REye coords (509.6541, 5.8979), timeStamp: 2017-02-16 10:38:31.515
LEye coords (502.1296, 74.3183), REye coords (508.7078, 7.9341), timeStamp: 2017-02-16 10:38:31.547
LEye coords (491.0741, 76.9494), REye coords (501.6205, 8.2771), timeStamp: 2017-02-16 10:38:31.581
LEye coords (481.693, 77.7655), REye coords (496.2042, 7.2989), timeStamp: 2017-02-16 10:38:31.626
LEye coords (473.47, 78.2894), REye coords (491.6376, 6.0129), timeStamp: 2017-02-16 10:38:31.659
LEye coords (466.9123, 79.1204), REye coords (487.7056, 5.9687), timeStamp: 2017-02-16 10:38:31.692
LEye coords (462.5756, 79.652), REye coords (484.2545, 5.6409), timeStamp: 2017-02-16 10:38:31.737
LEye coords (458.0339, 80.0836), REye coords (481.7636, 5.0726), timeStamp: 2017-02-16 10:38:31.770
LEye coords (454.6995, 80.519), REye coords (478.8049, 5.1416), timeStamp: 2017-02-16 10:38:31.803
LEye coords (451.7517, 80.6032), REye coords (475.9176, 4.8342), timeStamp: 2017-02-16 10:38:31.846
LEye coords (449.0095, 81.3259), REye coords (474.2607, 4.881), timeStamp: 2017-02-16 10:38:31.879
LEye coords (446.6422, 82.0881), REye coords (471.9404, 4.7757), timeStamp: 2017-02-16 10:38:31.914
LEye coords (440.7315, 81.3111), REye coords (467.5597, 3.4441), timeStamp: 2017-02-16 10:38:31.959
LEye coords (435.4753, 79.8973), REye coords (463.125, 4.0069), timeStamp: 2017-02-16 10:38:31.992
LEye coords (430.3232, 79.0592), REye coords (459.894, 2.0), timeStamp: 2017-02-16 10:38:32.025
LEye coords (425.2207, 78.3919), REye coords (457.0191, 0.0349), timeStamp: 2017-02-16 10:38:32.069
LEye coords (421.0351, 77.9022), REye coords (454.297, -1.6714), timeStamp: 2017-02-16 10:38:32.104
LEye coords (415.2277, 77.0451), REye coords (450.0037, -3.1311), timeStamp: 2017-02-16 10:38:32.137
LEye coords (410.1028, 76.9956), REye coords (446.0866, -2.9944), timeStamp: 2017-02-16 10:38:32.180
LEye coords (404.9365, 76.2477), REye coords (442.5971, -4.759), timeStamp: 2017-02-16 10:38:32.213
LEye coords (400.5426, 76.0798), REye coords (439.4723, -6.4664), timeStamp: 2017-02-16 10:38:32.248
LEye coords (396.6358, 75.63), REye coords (436.1889, -7.4583), timeStamp: 2017-02-16 10:38:32.291
LEye coords (392.6414, 75.0182), REye coords (433.1651, -8.8009), timeStamp: 2017-02-16 10:38:32.325
LEye coords (389.5288, 74.5845), REye coords (430.7088, -9.7759), timeStamp: 2017-02-16 10:38:32.358
LEye coords (388.2798, 73.5453), REye coords (428.9893, -10.8297), timeStamp: 2017-02-16 10:38:32.402
LEye coords (386.6279, 72.8929), REye coords (427.3988, -11.5979), timeStamp: 2017-02-16 10:38:32.436
LEye coords (385.265, 72.8156), REye coords (425.8453, -13.0921), timeStamp: 2017-02-16 10:38:32.470
LEye coords (383.7991, 72.7202), REye coords (424.7867, -13.8973), timeStamp: 2017-02-16 10:38:32.514
LEye coords (382.3697, 72.1602), REye coords (424.0285, -16.269), timeStamp: 2017-02-16 10:38:32.547
LEye coords (381.2201, 71.9473), REye coords (423.047, -17.2791), timeStamp: 2017-02-16 10:38:32.581
LEye coords (379.6919, 72.0361), REye coords (422.3768, -18.3195), timeStamp: 2017-02-16 10:38:32.625
LEye coords (378.6344, 71.7622), REye coords (422.1273, -19.6351), timeStamp: 2017-02-16 10:38:32.657
LEye coords (377.639, 70.9863), REye coords (421.6622, -20.8962), timeStamp: 2017-02-16 10:38:32.691
LEye coords (376.8821, 70.6824), REye coords (421.2994, -21.6646), timeStamp: 2017-02-16 10:38:32.734
LEye coords (376.9497, 70.6987), REye coords (421.4561, -22.4852), timeStamp: 2017-02-16 10:38:32.767
LEye coords (377.2271, 70.4985), REye coords (422.3115, -23.8289), timeStamp: 2017-02-16 10:38:32.800
LEye coords (377.1656, 70.5486), REye coords (422.7554, -24.4699), timeStamp: 2017-02-16 10:38:32.845
LEye coords (377.4827, 70.7247), REye coords (423.0129, -24.2872), timeStamp: 2017-02-16 10:38:32.878
LEye coords (377.4481, 70.584), REye coords (423.7276, -25.2648), timeStamp: 2017-02-16 10:38:32.922
LEye coords (377.2423, 70.2096), REye coords (424.1755, -26.1293), timeStamp: 2017-02-16 10:38:32.955
LEye coords (376.8526, 70.1478), REye coords (424.8349, -26.9847), timeStamp: 2017-02-16 10:38:32.989
LEye coords (376.2903, 70.1671), REye coords (425.1463, -26.9921), timeStamp: 2017-02-16 10:38:33.023
LEye coords (375.8602, 69.7445), REye coords (425.3739, -27.0329), timeStamp: 2017-02-16 10:38:33.067
LEye coords (374.9677, 70.1499), REye coords (425.7707, -27.5036), timeStamp: 2017-02-16 10:38:33.100
LEye coords (373.9288, 70.2614), REye coords (426.3142, -27.5914), timeStamp: 2017-02-16 10:38:33.135
LEye coords (373.0697, 70.2528), REye coords (426.7352, -28.3266), timeStamp: 2017-02-16 10:38:33.179
LEye coords (372.1853, 70.5302), REye coords (426.88, -28.4023), timeStamp: 2017-02-16 10:38:33.212
LEye coords (370.1873, 70.4963), REye coords (426.1374, -29.4211), timeStamp: 2017-02-16 10:38:33.245
LEye coords (368.6892, 70.0835), REye coords (425.79, -29.7086), timeStamp: 2017-02-16 10:38:33.288
LEye coords (367.3318, 69.5869), REye coords (424.998, -29.5583), timeStamp: 2017-02-16 10:38:33.323
LEye coords (366.7954, 69.7404), REye coords (424.3061, -29.1964), timeStamp: 2017-02-16 10:38:33.357
LEye coords (366.3523, 69.9405), REye coords (423.9297, -29.3717), timeStamp: 2017-02-16 10:38:33.400
LEye coords (365.5287, 69.7667), REye coords (423.3889, -29.5021), timeStamp: 2017-02-16 10:38:33.433
LEye coords (365.2685, 69.8121), REye coords (422.8962, -28.5451), timeStamp: 2017-02-16 10:38:33.467
LEye coords (363.0362, 69.3744), REye coords (420.5872, -29.2488), timeStamp: 2017-02-16 10:38:33.511
LEye coords (361.0442, 69.3054), REye coords (418.4098, -30.4633), timeStamp: 2017-02-16 10:38:33.545
LEye coords (359.5595, 69.5569), REye coords (416.7027, -30.4877), timeStamp: 2017-02-16 10:38:33.578
LEye coords (358.0886, 69.2784), REye coords (414.6378, -30.6721), timeStamp: 2017-02-16 10:38:33.622
LEye coords (356.5114, 69.3565), REye coords (412.6879, -29.9728), timeStamp: 2017-02-16 10:38:33.655
LEye coords (354.5304, 69.2752), REye coords (410.6739, -30.0633), timeStamp: 2017-02-16 10:38:33.699
LEye coords (353.0424, 69.1208), REye coords (409.1488, -30.0492), timeStamp: 2017-02-16 10:38:33.732
LEye coords (351.5864, 68.5746), REye coords (407.8004, -30.6789), timeStamp: 2017-02-16 10:38:33.768
LEye coords (349.6909, 68.3044), REye coords (406.3821, -30.6349), timeStamp: 2017-02-16 10:38:33.801
LEye coords (347.602, 67.5465), REye coords (404.6626, -30.4273), timeStamp: 2017-02-16 10:38:33.845
LEye coords (345.8014, 67.0876), REye coords (403.4221, -31.353), timeStamp: 2017-02-16 10:38:33.878
LEye coords (343.9442, 66.2326), REye coords (402.0244, -30.7004), timeStamp: 2017-02-16 10:38:33.911
LEye coords (342.1859, 65.9056), REye coords (400.5417, -30.0389), timeStamp: 2017-02-16 10:38:33.956
LEye coords (341.5238, 66.4064), REye coords (399.1353, -29.5696), timeStamp: 2017-02-16 10:38:33.989
LEye coords (340.9205, 66.2314), REye coords (398.3648, -29.8531), timeStamp: 2017-02-16 10:38:34.023
LEye coords (340.633, 66.4269), REye coords (397.6479, -29.1402), timeStamp: 2017-02-16 10:38:34.067
LEye coords (340.2264, 66.6907), REye coords (396.9459, -29.0907), timeStamp: 2017-02-16 10:38:34.101
LEye coords (339.4983, 66.9277), REye coords (396.4192, -29.7535), timeStamp: 2017-02-16 10:38:34.134
LEye coords (339.0368, 66.7762), REye coords (395.7516, -29.6272), timeStamp: 2017-02-16 10:38:34.179
LEye coords (339.8309, 67.0204), REye coords (395.7864, -28.9127), timeStamp: 2017-02-16 10:38:34.212
LEye coords (340.5743, 67.7945), REye coords (395.9541, -27.9141), timeStamp: 2017-02-16 10:38:34.245
LEye coords (340.4862, 66.7726), REye coords (396.3101, -27.351), timeStamp: 2017-02-16 10:38:34.290
LEye coords (253.0591, -1.8207), REye coords (397.343, -25.6891), timeStamp: 2017-02-16 10:38:34.322
LEye coords (268.0, 36.3795), REye coords (397.9536, -24.4036), timeStamp: 2017-02-16 10:38:34.355
LEye coords (266.5428, 32.602), REye coords (398.2252, -22.3997), timeStamp: 2017-02-16 10:38:34.399
LEye coords (243.6852, 25.292), REye coords (398.5104, -19.2728), timeStamp: 2017-02-16 10:38:34.431
LEye coords (246.4389, 21.8739), REye coords (398.525, -18.2685), timeStamp: 2017-02-16 10:38:34.474
LEye coords (202.6908, 7.7135), REye coords (398.1302, -16.4967), timeStamp: 2017-02-16 10:38:34.507
LEye coords (216.781, -31.1038), REye coords (397.9755, -16.1177), timeStamp: 2017-02-16 10:38:34.549
LEye coords (227.572, -16.0146), REye coords (397.6064, -14.6166), timeStamp: 2017-02-16 10:38:34.582
LEye coords (234.9068, -13.475), REye coords (397.2944, -14.03), timeStamp: 2017-02-16 10:38:34.615
LEye coords (237.8726, -10.6677), REye coords (396.7589, -11.9386), timeStamp: 2017-02-16 10:38:34.659
LEye coords (232.5328, -10.144), REye coords (396.6953, -10.4363), timeStamp: 2017-02-16 10:38:34.693
LEye coords (233.3088, -8.2069), REye coords (396.4801, -10.2476), timeStamp: 2017-02-16 10:38:34.725
LEye coords (231.7426, -9.8466), REye coords (395.9333, -9.6247), timeStamp: 2017-02-16 10:38:34.770
LEye coords (230.8515, -5.4562), REye coords (396.0863, -9.6587), timeStamp: 2017-02-16 10:38:34.804
LEye coords (234.2381, -0.312), REye coords (395.7582, -9.2009), timeStamp: 2017-02-16 10:38:34.837
LEye coords (230.5899, 3.645), REye coords (395.1545, -6.8938), timeStamp: 2017-02-16 10:38:34.880
LEye coords (231.1954, 5.6091), REye coords (394.6248, -4.0524), timeStamp: 2017-02-16 10:38:34.914
LEye coords (232.9692, 6.1906), REye coords (394.3498, -3.2518), timeStamp: 2017-02-16 10:38:34.947
LEye coords (229.2309, 8.77), REye coords (394.2095, -2.4461), timeStamp: 2017-02-16 10:38:34.992
LEye coords (227.6675, 10.1329), REye coords (393.6403, -1.9214), timeStamp: 2017-02-16 10:38:35.024
LEye coords (227.1039, 10.3915), REye coords (393.3661, -1.4855), timeStamp: 2017-02-16 10:38:35.058
LEye coords (226.0379, 10.15), REye coords (392.7423, -0.6442), timeStamp: 2017-02-16 10:38:35.102
LEye coords (226.8297, 11.1508), REye coords (392.3539, -0.4831), timeStamp: 2017-02-16 10:38:35.134
LEye coords (228.3319, 11.3373), REye coords (391.9254, -0.3432), timeStamp: 2017-02-16 10:38:35.179
LEye coords (226.5896, 11.2296), REye coords (391.4102, 1.7849), timeStamp: 2017-02-16 10:38:35.213
LEye coords (225.4488, 10.5549), REye coords (390.6766, 1.8851), timeStamp: 2017-02-16 10:38:35.245
LEye coords (225.6183, 9.418), REye coords (390.401, 2.4842), timeStamp: 2017-02-16 10:38:35.280
LEye coords (224.3582, 9.0842), REye coords (389.9109, 4.4214), timeStamp: 2017-02-16 10:38:35.324
LEye coords (224.1198, 8.249), REye coords (389.5761, 6.5983), timeStamp: 2017-02-16 10:38:35.358
LEye coords (227.2604, 9.832), REye coords (389.5809, 6.0842), timeStamp: 2017-02-16 10:38:35.391
LEye coords (225.8719, 10.3239), REye coords (389.7566, 7.7723), timeStamp: 2017-02-16 10:38:35.435
LEye coords (225.3948, 11.2248), REye coords (389.9899, 6.8012), timeStamp: 2017-02-16 10:38:35.468
LEye coords (226.6929, 11.6167), REye coords (390.193, 7.0733), timeStamp: 2017-02-16 10:38:35.512
LEye coords (227.9932, 9.8834), REye coords (390.635, 7.8373), timeStamp: 2017-02-16 10:38:35.545
LEye coords (227.7648, 10.2187), REye coords (390.7107, 7.7464), timeStamp: 2017-02-16 10:38:35.579
LEye coords (228.0698, 8.4787), REye coords (390.4756, 7.7556), timeStamp: 2017-02-16 10:38:35.621
LEye coords (227.0848, 7.4113), REye coords (390.4195, 6.7965), timeStamp: 2017-02-16 10:38:35.654
LEye coords (229.1643, 6.6497), REye coords (390.6183, 6.0529), timeStamp: 2017-02-16 10:38:35.688
LEye coords (226.3016, 4.688), REye coords (390.3394, 6.0014), timeStamp: 2017-02-16 10:38:35.732
LEye coords (223.3641, 3.016), REye coords (389.5027, 6.2993), timeStamp: 2017-02-16 10:38:35.764
LEye coords (223.476, 0.7087), REye coords (389.0421, 6.5236), timeStamp: 2017-02-16 10:38:35.808
LEye coords (220.4222, -0.9148), REye coords (388.4096, 7.2675), timeStamp: 2017-02-16 10:38:35.842
LEye coords (215.371, -2.4554), REye coords (387.7339, 8.3431), timeStamp: 2017-02-16 10:38:35.877
LEye coords (213.9781, -3.836), REye coords (387.1631, 8.4415), timeStamp: 2017-02-16 10:38:35.911
LEye coords (211.5305, -5.8095), REye coords (386.2888, 9.3509), timeStamp: 2017-02-16 10:38:35.956
LEye coords (209.4069, -6.8329), REye coords (386.0906, 9.9477), timeStamp: 2017-02-16 10:38:35.990
LEye coords (208.5363, -8.5357), REye coords (386.2082, 8.8541), timeStamp: 2017-02-16 10:38:36.024
LEye coords (208.2886, -10.1661), REye coords (386.0153, 8.0318), timeStamp: 2017-02-16 10:38:36.058
LEye coords (205.0631, -10.2278), REye coords (385.7796, 7.7786), timeStamp: 2017-02-16 10:38:36.102
LEye coords (205.9005, -10.4404), REye coords (385.6682, 6.0818), timeStamp: 2017-02-16 10:38:36.135
LEye coords (205.9327, -10.5664), REye coords (385.8996, 7.9249), timeStamp: 2017-02-16 10:38:36.170
LEye coords (203.6608, -9.5661), REye coords (386.032, 8.7401), timeStamp: 2017-02-16 10:38:36.213
LEye coords (202.4574, -9.2893), REye coords (386.1441, 11.0811), timeStamp: 2017-02-16 10:38:36.247
LEye coords (201.8472, -9.182), REye coords (386.9821, 13.8462), timeStamp: 2017-02-16 10:38:36.280
LEye coords (200.5928, -9.6243), REye coords (387.0489, 16.2888), timeStamp: 2017-02-16 10:38:36.323
LEye coords (198.7264, -8.6627), REye coords (387.5485, 15.6494), timeStamp: 2017-02-16 10:38:36.356
LEye coords (197.6358, -9.4786), REye coords (388.2045, 14.9782), timeStamp: 2017-02-16 10:38:36.400
LEye coords (198.4568, -8.0926), REye coords (388.8101, 15.1538), timeStamp: 2017-02-16 10:38:36.433
LEye coords (198.5466, -7.7315), REye coords (389.2865, 16.9188), timeStamp: 2017-02-16 10:38:36.466
LEye coords (199.0422, -6.1858), REye coords (389.7663, 17.1788), timeStamp: 2017-02-16 10:38:36.510
LEye coords (203.1043, -4.9255), REye coords (389.9992, 16.5038), timeStamp: 2017-02-16 10:38:36.543
LEye coords (202.9037, -2.9943), REye coords (390.8121, 16.3763), timeStamp: 2017-02-16 10:38:36.576
LEye coords (203.7281, -0.9766), REye coords (391.1671, 17.6277), timeStamp: 2017-02-16 10:38:36.621
LEye coords (206.9053, 0.5837), REye coords (391.7559, 16.45), timeStamp: 2017-02-16 10:38:36.653
LEye coords (209.657, 1.688), REye coords (392.3274, 15.5984), timeStamp: 2017-02-16 10:38:36.687
LEye coords (209.5426, 2.4845), REye coords (392.9451, 15.6955), timeStamp: 2017-02-16 10:38:36.731
LEye coords (213.9039, 4.1416), REye coords (393.5845, 14.484), timeStamp: 2017-02-16 10:38:36.766
LEye coords (216.0471, 4.7067), REye coords (393.9704, 13.6685), timeStamp: 2017-02-16 10:38:36.800
LEye coords (214.8577, 5.893), REye coords (394.3798, 14.2342), timeStamp: 2017-02-16 10:38:36.844
LEye coords (214.5381, 6.7645), REye coords (394.972, 14.8301), timeStamp: 2017-02-16 10:38:36.876
LEye coords (217.4454, 6.9424), REye coords (395.575, 14.0343), timeStamp: 2017-02-16 10:38:36.909
LEye coords (216.2679, 7.2329), REye coords (395.8994, 14.0848), timeStamp: 2017-02-16 10:38:36.952
LEye coords (216.3696, 7.2976), REye coords (396.0286, 13.513), timeStamp: 2017-02-16 10:38:36.986
LEye coords (216.4229, 5.6189), REye coords (396.3127, 12.4413), timeStamp: 2017-02-16 10:38:37.030
LEye coords (217.2706, 6.3302), REye coords (395.8864, 12.3315), timeStamp: 2017-02-16 10:38:37.063
LEye coords (219.4224, 6.4979), REye coords (395.1556, 10.1402), timeStamp: 2017-02-16 10:38:37.096
LEye coords (217.9799, 4.8474), REye coords (394.6587, 9.5556), timeStamp: 2017-02-16 10:38:37.139
LEye coords (217.5015, 3.8927), REye coords (393.9803, 8.8627), timeStamp: 2017-02-16 10:38:37.174
LEye coords (216.5489, 1.9609), REye coords (393.4845, 8.2743), timeStamp: 2017-02-16 10:38:37.207
LEye coords (217.7488, 1.139), REye coords (392.5497, 7.9835), timeStamp: 2017-02-16 10:38:37.251
LEye coords (220.7846, 2.0723), REye coords (392.0581, 6.1258), timeStamp: 2017-02-16 10:38:37.283
LEye coords (223.3755, 2.3844), REye coords (391.4092, 5.0843), timeStamp: 2017-02-16 10:38:37.317
LEye coords (220.6367, 0.841), REye coords (390.7865, 4.327), timeStamp: 2017-02-16 10:38:37.361
LEye coords (219.59, -0.4228), REye coords (389.6775, 3.4531), timeStamp: 2017-02-16 10:38:37.396
LEye coords (218.8505, -0.5135), REye coords (388.7409, 1.9566), timeStamp: 2017-02-16 10:38:37.429
LEye coords (216.9206, -0.9226), REye coords (388.0898, 1.1924), timeStamp: 2017-02-16 10:38:37.473
LEye coords (213.9022, -1.0638), REye coords (387.5945, 1.2816), timeStamp: 2017-02-16 10:38:37.507
LEye coords (212.1575, -1.2624), REye coords (387.1866, 1.6897), timeStamp: 2017-02-16 10:38:37.541
LEye coords (211.4331, -2.5559), REye coords (386.7096, 2.1974), timeStamp: 2017-02-16 10:38:37.585
LEye coords (208.5334, -2.9058), REye coords (386.4931, 3.1077), timeStamp: 2017-02-16 10:38:37.618
LEye coords (207.008, -3.1015), REye coords (386.1782, 2.9021), timeStamp: 2017-02-16 10:38:37.651
LEye coords (206.0157, -3.2144), REye coords (386.2007, 3.4253), timeStamp: 2017-02-16 10:38:37.694
LEye coords (206.9403, -3.1597), REye coords (385.9947, 3.9496), timeStamp: 2017-02-16 10:38:37.729
LEye coords (207.7769, -2.9748), REye coords (385.7901, 4.5925), timeStamp: 2017-02-16 10:38:37.761
LEye coords (205.476, -3.9838), REye coords (385.3752, 5.6516), timeStamp: 2017-02-16 10:38:37.805
LEye coords (203.7996, -3.6121), REye coords (385.3592, 6.1178), timeStamp: 2017-02-16 10:38:37.840
LEye coords (206.1122, -3.9238), REye coords (385.5977, 6.9961), timeStamp: 2017-02-16 10:38:37.873
LEye coords (204.4204, -3.9987), REye coords (385.3934, 8.8264), timeStamp: 2017-02-16 10:38:37.918
LEye coords (203.0659, -4.0885), REye coords (385.1962, 10.0207), timeStamp: 2017-02-16 10:38:37.951
LEye coords (202.4541, -3.7956), REye coords (385.4059, 10.5915), timeStamp: 2017-02-16 10:38:37.986
LEye coords (199.6796, -2.6523), REye coords (385.3286, 12.4688), timeStamp: 2017-02-16 10:38:38.018
LEye coords (198.9024, -1.5581), REye coords (385.6287, 13.9776), timeStamp: 2017-02-16 10:38:38.062
LEye coords (196.064, -2.5436), REye coords (385.9292, 14.9076), timeStamp: 2017-02-16 10:38:38.097
LEye coords (193.2079, -2.3143), REye coords (385.8358, 16.7543), timeStamp: 2017-02-16 10:38:38.131
LEye coords (193.0383, -3.0589), REye coords (385.4549, 17.6892), timeStamp: 2017-02-16 10:38:38.175
LEye coords (346.3874, 67.4407), REye coords (385.567, 17.3924), timeStamp: 2017-02-16 10:38:38.209
LEye coords (346.8889, 49.2561), REye coords (386.209, 17.8342), timeStamp: 2017-02-16 10:38:38.244
LEye coords (336.3002, 42.6992), REye coords (386.0147, 18.6089), timeStamp: 2017-02-16 10:38:38.288
LEye coords (296.7456, 23.4233), REye coords (386.3619, 19.8678), timeStamp: 2017-02-16 10:38:38.321
LEye coords (309.9716, 35.7562), REye coords (385.9636, 20.8471), timeStamp: 2017-02-16 10:38:38.356
LEye coords (335.4564, 84.6275), REye coords (386.1615, 21.6762), timeStamp: 2017-02-16 10:38:38.390
LEye coords (337.381, 72.7974), REye coords (386.7918, 22.0464), timeStamp: 2017-02-16 10:38:38.433
LEye coords (336.9887, 79.3493), REye coords (386.56, 23.2102), timeStamp: 2017-02-16 10:38:38.467
LEye coords (337.9301, 76.5868), REye coords (386.7961, 23.7226), timeStamp: 2017-02-16 10:38:38.501
LEye coords (335.8612, 75.9021), REye coords (386.8712, 24.3492), timeStamp: 2017-02-16 10:38:38.546
LEye coords (185.4035, -2.5021), REye coords (387.071, 25.2052), timeStamp: 2017-02-16 10:38:38.579
LEye coords (334.6165, 80.4887), REye coords (387.5555, 25.0561), timeStamp: 2017-02-16 10:38:38.613
LEye coords (273.1022, 51.0654), REye coords (387.8387, 25.6455), timeStamp: 2017-02-16 10:38:38.657
LEye coords (289.5594, 57.0846), REye coords (388.084, 25.6611), timeStamp: 2017-02-16 10:38:38.692
LEye coords (300.7981, 65.8943), REye coords (388.3968, 24.9416), timeStamp: 2017-02-16 10:38:38.725
LEye coords (325.3486, 78.3157), REye coords (388.9354, 25.151), timeStamp: 2017-02-16 10:38:38.769
LEye coords (332.8965, 81.1242), REye coords (388.9264, 25.9851), timeStamp: 2017-02-16 10:38:38.803
LEye coords (340.884, 86.2716), REye coords (389.2182, 26.1384), timeStamp: 2017-02-16 10:38:38.836
LEye coords (315.027, 75.8557), REye coords (389.7283, 25.1888), timeStamp: 2017-02-16 10:38:38.871
LEye coords (321.9567, 76.1233), REye coords (389.7709, 27.8534), timeStamp: 2017-02-16 10:38:38.916
LEye coords (323.5241, 74.9777), REye coords (389.8243, 28.047), timeStamp: 2017-02-16 10:38:38.950
LEye coords (202.9673, 9.9324), REye coords (390.6973, 29.8183), timeStamp: 2017-02-16 10:38:38.983
LEye coords (222.8648, 28.3762), REye coords (390.6171, 31.2415), timeStamp: 2017-02-16 10:38:39.026
LEye coords (280.9968, 54.7481), REye coords (390.1686, 33.8034), timeStamp: 2017-02-16 10:38:39.060
LEye coords (299.8322, 61.5753), REye coords (390.0643, 35.6991), timeStamp: 2017-02-16 10:38:39.094
LEye coords (284.5947, 52.6571), REye coords (389.8107, 38.0634), timeStamp: 2017-02-16 10:38:39.137
LEye coords (296.847, 60.0383), REye coords (389.9174, 40.7285), timeStamp: 2017-02-16 10:38:39.171
LEye coords (282.603, 56.7141), REye coords (387.9215, 40.2146), timeStamp: 2017-02-16 10:38:39.206
LEye coords (268.3694, 51.0352), REye coords (385.8961, 39.3512), timeStamp: 2017-02-16 10:38:39.250
LEye coords (264.1577, 51.7821), REye coords (384.0369, 38.5043), timeStamp: 2017-02-16 10:38:39.284
LEye coords (257.0114, 46.1639), REye coords (382.1391, 38.1244), timeStamp: 2017-02-16 10:38:39.317
LEye coords (250.226, 45.1618), REye coords (380.9395, 37.6564), timeStamp: 2017-02-16 10:38:39.360
LEye coords (144.7629, 6.0912), REye coords (379.6545, 37.207), timeStamp: 2017-02-16 10:38:39.394
LEye coords (235.4232, 42.1508), REye coords (377.83, 36.8551), timeStamp: 2017-02-16 10:38:39.427
LEye coords (235.176, 40.3438), REye coords (376.2578, 36.2265), timeStamp: 2017-02-16 10:38:39.472
LEye coords (247.2407, 50.6025), REye coords (374.829, 35.0769), timeStamp: 2017-02-16 10:38:39.505
LEye coords (241.0684, 48.3195), REye coords (373.6223, 34.6475), timeStamp: 2017-02-16 10:38:39.538
LEye coords (233.2453, 45.2731), REye coords (371.7343, 34.427), timeStamp: 2017-02-16 10:38:39.582
LEye coords (230.0566, 44.8674), REye coords (370.0747, 34.5589), timeStamp: 2017-02-16 10:38:39.615
LEye coords (229.2853, 45.7486), REye coords (369.5906, 33.131), timeStamp: 2017-02-16 10:38:39.649
LEye coords (222.5369, 44.2084), REye coords (368.7991, 32.7196), timeStamp: 2017-02-16 10:38:39.691
LEye coords (219.7913, 45.3381), REye coords (367.5515, 31.3655), timeStamp: 2017-02-16 10:38:39.724
LEye coords (214.0468, 41.9709), REye coords (366.6196, 30.4782), timeStamp: 2017-02-16 10:38:39.768
LEye coords (218.223, 45.3354), REye coords (365.2994, 29.3203), timeStamp: 2017-02-16 10:38:39.803
LEye coords (221.5591, 46.3385), REye coords (364.9958, 31.376), timeStamp: 2017-02-16 10:38:39.836
LEye coords (223.735, 45.9007), REye coords (365.1829, 32.6793), timeStamp: 2017-02-16 10:38:39.870
LEye coords (224.2821, 46.0718), REye coords (365.6901, 34.0725), timeStamp: 2017-02-16 10:38:39.914
LEye coords (223.7854, 45.3297), REye coords (366.1421, 34.7888), timeStamp: 2017-02-16 10:38:39.949
LEye coords (223.1326, 44.9755), REye coords (366.7407, 34.1392), timeStamp: 2017-02-16 10:38:39.982
LEye coords (225.0312, 45.0631), REye coords (368.0269, 35.818), timeStamp: 2017-02-16 10:38:40.026
LEye coords (223.3473, 42.9343), REye coords (369.6629, 37.9386), timeStamp: 2017-02-16 10:38:40.059
LEye coords (227.1298, 42.4755), REye coords (371.0349, 40.2358), timeStamp: 2017-02-16 10:38:40.094
LEye coords (227.564, 42.1519), REye coords (372.3752, 43.1161), timeStamp: 2017-02-16 10:38:40.138
LEye coords (228.7296, 42.2006), REye coords (373.2954, 44.8607), timeStamp: 2017-02-16 10:38:40.171
LEye coords (228.8942, 41.7353), REye coords (374.4283, 47.7852), timeStamp: 2017-02-16 10:38:40.204
LEye coords (229.1675, 41.5768), REye coords (375.74, 50.6075), timeStamp: 2017-02-16 10:38:40.248
LEye coords (229.5834, 40.815), REye coords (376.6784, 50.6359), timeStamp: 2017-02-16 10:38:40.284
LEye coords (232.1971, 39.6029), REye coords (377.4836, 51.1678), timeStamp: 2017-02-16 10:38:40.316
LEye coords (238.818, 41.642), REye coords (378.4921, 53.1399), timeStamp: 2017-02-16 10:38:40.361
LEye coords (238.1106, 40.3894), REye coords (379.5783, 53.5072), timeStamp: 2017-02-16 10:38:40.393
LEye coords (340.4884, 81.8012), REye coords (380.4851, 55.0046), timeStamp: 2017-02-16 10:38:40.427
LEye coords (322.4772, 68.0), REye coords (381.1013, 56.8002), timeStamp: 2017-02-16 10:38:40.471
LEye coords (283.6872, 51.412), REye coords (381.6295, 56.6175), timeStamp: 2017-02-16 10:38:40.504
LEye coords (304.1409, 62.2677), REye coords (382.5459, 56.0659), timeStamp: 2017-02-16 10:38:40.538
LEye coords (309.4759, 65.3683), REye coords (383.1607, 55.1822), timeStamp: 2017-02-16 10:38:40.581
LEye coords (317.2707, 72.0377), REye coords (384.0894, 54.665), timeStamp: 2017-02-16 10:38:40.614
LEye coords (321.4568, 74.1048), REye coords (384.6277, 51.9558), timeStamp: 2017-02-16 10:38:40.648
LEye coords (324.7507, 75.0717), REye coords (385.2319, 52.2008), timeStamp: 2017-02-16 10:38:40.693
LEye coords (189.3523, 7.1842), REye coords (385.2586, 51.0468), timeStamp: 2017-02-16 10:38:40.727
LEye coords (339.4481, 74.481), REye coords (385.3759, 49.096), timeStamp: 2017-02-16 10:38:40.760
LEye coords (335.4157, 71.387), REye coords (385.4354, 48.3509), timeStamp: 2017-02-16 10:38:40.804
LEye coords (307.3028, 63.4752), REye coords (385.7234, 46.9855), timeStamp: 2017-02-16 10:38:40.838
LEye coords (291.148, 48.45), REye coords (385.4404, 46.2004), timeStamp: 2017-02-16 10:38:40.871
LEye coords (274.2996, 38.657), REye coords (385.6592, 45.2742), timeStamp: 2017-02-16 10:38:40.915
LEye coords (268.732, 34.129), REye coords (386.1598, 44.1415), timeStamp: 2017-02-16 10:38:40.949
LEye coords (278.2988, 41.4348), REye coords (386.5347, 43.0845), timeStamp: 2017-02-16 10:38:40.983
LEye coords (267.4413, 38.5794), REye coords (386.5993, 43.4374), timeStamp: 2017-02-16 10:38:41.017
LEye coords (275.0594, 43.4876), REye coords (386.8965, 41.8381), timeStamp: 2017-02-16 10:38:41.061
LEye coords (278.9193, 43.595), REye coords (387.7556, 41.7956), timeStamp: 2017-02-16 10:38:41.095
LEye coords (275.1794, 43.2747), REye coords (388.3712, 41.3496), timeStamp: 2017-02-16 10:38:41.130
LEye coords (266.4933, 42.0761), REye coords (388.877, 41.5686), timeStamp: 2017-02-16 10:38:41.174
LEye coords (267.2637, 42.2483), REye coords (389.7498, 41.4957), timeStamp: 2017-02-16 10:38:41.208
LEye coords (263.5958, 42.2687), REye coords (389.9078, 40.6576), timeStamp: 2017-02-16 10:38:41.242
LEye coords (260.2627, 41.1162), REye coords (389.5264, 41.2563), timeStamp: 2017-02-16 10:38:41.275
LEye coords (260.6024, 40.9732), REye coords (389.7735, 41.5361), timeStamp: 2017-02-16 10:38:41.319
