LEye coords (608.0431, 413.2727), REye coords (606.4047, 396.7473), timeStamp: 2017-02-16 10:38:48.939
LEye coords (608.0251, 412.5503), REye coords (607.3774, 396.9493), timeStamp: 2017-02-16 10:38:48.983
LEye coords (608.193, 412.5181), REye coords (608.0331, 396.1377), timeStamp: 2017-02-16 10:38:49.016
LEye coords (608.3572, 411.9047), REye coords (609.0363, 395.2749), timeStamp: 2017-02-16 10:38:49.049
LEye coords (608.863, 411.461), REye coords (609.6503, 395.3497), timeStamp: 2017-02-16 10:38:49.093
LEye coords (609.1063, 410.6761), REye coords (610.6934, 395.6915), timeStamp: 2017-02-16 10:38:49.127
LEye coords (609.1229, 410.2837), REye coords (610.7772, 396.7911), timeStamp: 2017-02-16 10:38:49.159
LEye coords (610.8027, 411.4566), REye coords (610.9901, 397.6573), timeStamp: 2017-02-16 10:38:49.203
LEye coords (611.1981, 411.6955), REye coords (611.4908, 399.0954), timeStamp: 2017-02-16 10:38:49.237
LEye coords (611.4572, 410.7842), REye coords (611.6373, 399.8694), timeStamp: 2017-02-16 10:38:49.271
LEye coords (612.191, 411.4333), REye coords (612.2791, 400.3427), timeStamp: 2017-02-16 10:38:49.315
LEye coords (614.5511, 410.6926), REye coords (614.7575, 400.8474), timeStamp: 2017-02-16 10:38:49.349
LEye coords (790.6181, 395.0614), REye coords (797.0075, 434.2701), timeStamp: 2017-02-16 10:38:49.383
LEye coords (804.2036, 420.7207), REye coords (797.6991, 431.5163), timeStamp: 2017-02-16 10:38:49.427
LEye coords (804.2121, 427.2604), REye coords (798.0575, 434.8772), timeStamp: 2017-02-16 10:38:49.460
LEye coords (803.7775, 422.1378), REye coords (800.1636, 432.8149), timeStamp: 2017-02-16 10:38:49.493
LEye coords (805.1253, 419.2836), REye coords (803.1828, 426.3777), timeStamp: 2017-02-16 10:38:49.537
LEye coords (807.6067, 409.3319), REye coords (803.0943, 425.8513), timeStamp: 2017-02-16 10:38:49.571
LEye coords (811.9373, 416.9413), REye coords (795.3536, 422.0225), timeStamp: 2017-02-16 10:38:49.604
LEye coords (814.6461, 420.172), REye coords (792.7468, 427.7337), timeStamp: 2017-02-16 10:38:49.648
LEye coords (814.5646, 419.6925), REye coords (797.3605, 427.7875), timeStamp: 2017-02-16 10:38:49.681
LEye coords (813.8061, 417.7379), REye coords (799.5724, 419.8006), timeStamp: 2017-02-16 10:38:49.723
LEye coords (814.177, 416.3147), REye coords (800.3115, 416.9145), timeStamp: 2017-02-16 10:38:49.757
LEye coords (811.1321, 415.9118), REye coords (800.9276, 414.2245), timeStamp: 2017-02-16 10:38:49.790
LEye coords (811.5631, 415.1898), REye coords (800.8094, 415.4535), timeStamp: 2017-02-16 10:38:49.835
LEye coords (810.6575, 415.5978), REye coords (803.6431, 413.4782), timeStamp: 2017-02-16 10:38:49.868
LEye coords (815.717, 417.2297), REye coords (809.0049, 416.3215), timeStamp: 2017-02-16 10:38:49.901
LEye coords (821.2383, 418.592), REye coords (813.5775, 419.2364), timeStamp: 2017-02-16 10:38:49.944
LEye coords (824.1004, 419.6829), REye coords (817.9679, 419.6184), timeStamp: 2017-02-16 10:38:49.978
LEye coords (828.1578, 420.8406), REye coords (820.1675, 422.3946), timeStamp: 2017-02-16 10:38:50.012
LEye coords (830.6155, 422.3818), REye coords (823.5183, 423.2903), timeStamp: 2017-02-16 10:38:50.055
LEye coords (833.2457, 423.1307), REye coords (826.0682, 423.9171), timeStamp: 2017-02-16 10:38:50.088
LEye coords (835.2217, 424.4899), REye coords (828.5722, 424.9221), timeStamp: 2017-02-16 10:38:50.121
LEye coords (837.1953, 425.5197), REye coords (830.2841, 425.7816), timeStamp: 2017-02-16 10:38:50.166
LEye coords (838.9941, 427.3208), REye coords (832.3204, 425.8673), timeStamp: 2017-02-16 10:38:50.200
LEye coords (840.7098, 428.6077), REye coords (835.2078, 426.0045), timeStamp: 2017-02-16 10:38:50.233
LEye coords (841.97, 429.3521), REye coords (836.4365, 426.0272), timeStamp: 2017-02-16 10:38:50.277
LEye coords (843.7789, 430.0152), REye coords (838.4147, 426.6831), timeStamp: 2017-02-16 10:38:50.311
LEye coords (844.6891, 431.3192), REye coords (840.1987, 427.0057), timeStamp: 2017-02-16 10:38:50.344
LEye coords (845.6024, 432.553), REye coords (841.5413, 427.3821), timeStamp: 2017-02-16 10:38:50.388
LEye coords (847.6344, 434.4469), REye coords (843.6683, 427.3939), timeStamp: 2017-02-16 10:38:50.423
LEye coords (848.3315, 434.3872), REye coords (845.4703, 427.3887), timeStamp: 2017-02-16 10:38:50.456
LEye coords (849.3062, 435.3988), REye coords (846.8246, 427.5695), timeStamp: 2017-02-16 10:38:50.499
LEye coords (850.3887, 436.19), REye coords (847.596, 428.4636), timeStamp: 2017-02-16 10:38:50.532
LEye coords (851.6761, 437.5764), REye coords (849.0881, 428.6266), timeStamp: 2017-02-16 10:38:50.566
LEye coords (853.0419, 439.1327), REye coords (850.1341, 429.7636), timeStamp: 2017-02-16 10:38:50.609
LEye coords (853.256, 440.6326), REye coords (850.6003, 430.8414), timeStamp: 2017-02-16 10:38:50.642
LEye coords (853.9882, 441.9762), REye coords (850.7094, 431.4293), timeStamp: 2017-02-16 10:38:50.676
LEye coords (852.9809, 442.6956), REye coords (850.8917, 431.7645), timeStamp: 2017-02-16 10:38:50.720
LEye coords (851.3264, 442.6208), REye coords (851.559, 431.414), timeStamp: 2017-02-16 10:38:50.753
LEye coords (851.09, 443.0381), REye coords (851.0558, 432.891), timeStamp: 2017-02-16 10:38:50.797
LEye coords (849.7859, 443.7018), REye coords (851.2234, 433.049), timeStamp: 2017-02-16 10:38:50.831
LEye coords (849.0983, 443.9821), REye coords (850.6094, 433.974), timeStamp: 2017-02-16 10:38:50.865
LEye coords (849.9872, 445.4964), REye coords (851.7181, 434.6122), timeStamp: 2017-02-16 10:38:50.898
LEye coords (851.3821, 447.1374), REye coords (853.0295, 434.5843), timeStamp: 2017-02-16 10:38:50.942
LEye coords (853.0298, 448.4985), REye coords (855.0854, 436.0003), timeStamp: 2017-02-16 10:38:50.975
LEye coords (854.6478, 449.5399), REye coords (856.1348, 437.818), timeStamp: 2017-02-16 10:38:51.018
LEye coords (855.9579, 451.1748), REye coords (857.3983, 438.2337), timeStamp: 2017-02-16 10:38:51.051
LEye coords (856.6581, 453.5418), REye coords (858.5792, 439.5944), timeStamp: 2017-02-16 10:38:51.084
LEye coords (858.05, 454.7422), REye coords (859.0549, 440.7912), timeStamp: 2017-02-16 10:38:51.127
LEye coords (859.6193, 456.1697), REye coords (859.8168, 441.6648), timeStamp: 2017-02-16 10:38:51.161
LEye coords (860.8397, 457.3733), REye coords (860.8683, 442.5272), timeStamp: 2017-02-16 10:38:51.196
LEye coords (862.1242, 458.3971), REye coords (861.2739, 442.7036), timeStamp: 2017-02-16 10:38:51.239
LEye coords (863.395, 461.2144), REye coords (861.9619, 443.8486), timeStamp: 2017-02-16 10:38:51.272
LEye coords (865.2887, 462.1186), REye coords (862.3053, 444.9225), timeStamp: 2017-02-16 10:38:51.316
LEye coords (866.268, 463.1242), REye coords (863.9829, 444.8536), timeStamp: 2017-02-16 10:38:51.349
LEye coords (866.5868, 463.2177), REye coords (864.1612, 446.0612), timeStamp: 2017-02-16 10:38:51.383
LEye coords (868.035, 464.1351), REye coords (864.2381, 447.6024), timeStamp: 2017-02-16 10:38:51.428
LEye coords (868.8453, 464.9962), REye coords (865.5214, 448.6532), timeStamp: 2017-02-16 10:38:51.460
LEye coords (870.1064, 465.6792), REye coords (866.3764, 449.5847), timeStamp: 2017-02-16 10:38:51.493
LEye coords (871.4084, 466.4314), REye coords (866.9075, 450.1267), timeStamp: 2017-02-16 10:38:51.537
LEye coords (872.4752, 467.1696), REye coords (866.8777, 450.9889), timeStamp: 2017-02-16 10:38:51.570
LEye coords (872.2183, 467.9539), REye coords (867.5261, 451.6901), timeStamp: 2017-02-16 10:38:51.604
LEye coords (872.8087, 467.851), REye coords (868.2436, 452.0721), timeStamp: 2017-02-16 10:38:51.647
LEye coords (873.8303, 467.8994), REye coords (868.4698, 452.1505), timeStamp: 2017-02-16 10:38:51.680
LEye coords (874.3554, 467.6789), REye coords (868.3777, 452.5787), timeStamp: 2017-02-16 10:38:51.714
LEye coords (874.2333, 468.0227), REye coords (868.1685, 453.1015), timeStamp: 2017-02-16 10:38:51.758
LEye coords (874.0322, 468.3688), REye coords (868.2437, 453.5752), timeStamp: 2017-02-16 10:38:51.791
LEye coords (874.0224, 468.1299), REye coords (868.1766, 454.1215), timeStamp: 2017-02-16 10:38:51.825
LEye coords (873.4033, 467.1502), REye coords (867.8642, 455.7337), timeStamp: 2017-02-16 10:38:51.869
LEye coords (873.7203, 466.5036), REye coords (868.0289, 455.8229), timeStamp: 2017-02-16 10:38:51.902
LEye coords (873.8314, 466.6425), REye coords (868.6161, 456.1339), timeStamp: 2017-02-16 10:38:51.935
LEye coords (874.2112, 466.2468), REye coords (869.4311, 456.0097), timeStamp: 2017-02-16 10:38:51.979
LEye coords (874.5474, 466.6782), REye coords (869.5395, 456.4466), timeStamp: 2017-02-16 10:38:52.012
LEye coords (874.8475, 467.0044), REye coords (869.3592, 457.6336), timeStamp: 2017-02-16 10:38:52.046
LEye coords (875.5234, 467.2224), REye coords (868.6891, 458.1314), timeStamp: 2017-02-16 10:38:52.090
LEye coords (875.5964, 468.2171), REye coords (868.3234, 458.8022), timeStamp: 2017-02-16 10:38:52.123
LEye coords (876.0218, 468.5781), REye coords (867.7738, 460.0086), timeStamp: 2017-02-16 10:38:52.157
LEye coords (876.5302, 469.0527), REye coords (867.684, 460.2722), timeStamp: 2017-02-16 10:38:52.200
LEye coords (876.8766, 469.0355), REye coords (867.3069, 461.0672), timeStamp: 2017-02-16 10:38:52.233
LEye coords (877.2245, 468.9181), REye coords (867.3417, 461.0654), timeStamp: 2017-02-16 10:38:52.277
LEye coords (877.5331, 469.5621), REye coords (867.0176, 461.8097), timeStamp: 2017-02-16 10:38:52.310
LEye coords (878.0863, 470.0697), REye coords (866.9739, 462.4286), timeStamp: 2017-02-16 10:38:52.343
LEye coords (879.4323, 469.8786), REye coords (866.739, 462.4793), timeStamp: 2017-02-16 10:38:52.386
LEye coords (879.9136, 469.3246), REye coords (866.7964, 463.3799), timeStamp: 2017-02-16 10:38:52.420
LEye coords (879.5774, 470.2903), REye coords (865.9147, 464.8821), timeStamp: 2017-02-16 10:38:52.463
LEye coords (876.7939, 471.2219), REye coords (864.5455, 466.6736), timeStamp: 2017-02-16 10:38:52.496
LEye coords (874.0154, 471.3672), REye coords (863.554, 468.2295), timeStamp: 2017-02-16 10:38:52.530
LEye coords (871.294, 471.8), REye coords (862.0165, 469.4635), timeStamp: 2017-02-16 10:38:52.574
LEye coords (868.9543, 471.6581), REye coords (860.7791, 470.5724), timeStamp: 2017-02-16 10:38:52.607
LEye coords (866.6513, 472.1187), REye coords (860.0138, 470.7378), timeStamp: 2017-02-16 10:38:52.640
LEye coords (864.4968, 472.9375), REye coords (859.2094, 471.8342), timeStamp: 2017-02-16 10:38:52.683
LEye coords (862.6154, 473.6332), REye coords (858.3124, 473.0441), timeStamp: 2017-02-16 10:38:52.716
LEye coords (860.6279, 475.1397), REye coords (857.7043, 474.4149), timeStamp: 2017-02-16 10:38:52.749
LEye coords (858.0415, 476.1549), REye coords (855.9515, 475.9531), timeStamp: 2017-02-16 10:38:52.793
LEye coords (855.6964, 476.9177), REye coords (854.5854, 477.1715), timeStamp: 2017-02-16 10:38:52.827
LEye coords (856.4035, 476.7314), REye coords (854.8354, 476.6785), timeStamp: 2017-02-16 10:38:52.861
LEye coords (856.3167, 476.7328), REye coords (855.6885, 475.7026), timeStamp: 2017-02-16 10:38:52.905
LEye coords (856.8494, 477.1583), REye coords (857.0811, 475.1264), timeStamp: 2017-02-16 10:38:52.940
LEye coords (857.7159, 477.6214), REye coords (857.7549, 474.5406), timeStamp: 2017-02-16 10:38:52.974
LEye coords (858.6925, 477.8351), REye coords (858.2953, 474.2067), timeStamp: 2017-02-16 10:38:53.018
LEye coords (859.66, 478.3763), REye coords (860.0953, 472.9574), timeStamp: 2017-02-16 10:38:53.051
LEye coords (860.9448, 479.849), REye coords (860.8564, 471.6847), timeStamp: 2017-02-16 10:38:53.084
LEye coords (861.7139, 480.457), REye coords (861.9308, 468.9328), timeStamp: 2017-02-16 10:38:53.128
LEye coords (861.7808, 481.5632), REye coords (862.6618, 467.5595), timeStamp: 2017-02-16 10:38:53.161
LEye coords (862.0435, 482.28), REye coords (862.9821, 466.7019), timeStamp: 2017-02-16 10:38:53.194
LEye coords (862.9058, 483.1478), REye coords (864.4622, 465.6388), timeStamp: 2017-02-16 10:38:53.237
LEye coords (862.6698, 484.3648), REye coords (865.9561, 463.7724), timeStamp: 2017-02-16 10:38:53.270
LEye coords (864.3856, 484.3629), REye coords (866.5965, 462.7982), timeStamp: 2017-02-16 10:38:53.314
LEye coords (865.5241, 485.5747), REye coords (867.5562, 461.7321), timeStamp: 2017-02-16 10:38:53.346
LEye coords (866.2345, 485.8936), REye coords (868.3572, 460.8783), timeStamp: 2017-02-16 10:38:53.380
LEye coords (867.5887, 486.8204), REye coords (868.9781, 460.3615), timeStamp: 2017-02-16 10:38:53.423
LEye coords (867.7261, 487.5098), REye coords (868.7784, 461.082), timeStamp: 2017-02-16 10:38:53.456
LEye coords (869.062, 487.9037), REye coords (869.9922, 460.0571), timeStamp: 2017-02-16 10:38:53.489
LEye coords (869.5315, 488.37), REye coords (870.4716, 459.9595), timeStamp: 2017-02-16 10:38:53.532
LEye coords (869.595, 489.0391), REye coords (871.6745, 459.0915), timeStamp: 2017-02-16 10:38:53.565
LEye coords (870.6059, 489.2691), REye coords (872.4396, 458.6439), timeStamp: 2017-02-16 10:38:53.608
LEye coords (870.8785, 488.3762), REye coords (872.7571, 458.8101), timeStamp: 2017-02-16 10:38:53.642
LEye coords (871.1207, 488.794), REye coords (872.1669, 459.6649), timeStamp: 2017-02-16 10:38:53.675
LEye coords (871.0665, 489.5849), REye coords (872.0365, 460.5402), timeStamp: 2017-02-16 10:38:53.719
