LEye coords (871.1874, 489.79), REye coords (872.0319, 461.1157), timeStamp: 2017-02-16 10:38:53.752
LEye coords (871.0597, 490.2922), REye coords (872.1385, 461.337), timeStamp: 2017-02-16 10:38:53.787
LEye coords (870.7425, 490.1101), REye coords (871.4824, 462.2485), timeStamp: 2017-02-16 10:38:53.829
LEye coords (870.8681, 489.3298), REye coords (871.3099, 462.2542), timeStamp: 2017-02-16 10:38:53.863
LEye coords (870.289, 489.0822), REye coords (871.4209, 462.1741), timeStamp: 2017-02-16 10:38:53.906
LEye coords (869.9629, 488.6003), REye coords (871.3223, 463.7694), timeStamp: 2017-02-16 10:38:53.940
LEye coords (869.0913, 488.0149), REye coords (870.685, 465.1418), timeStamp: 2017-02-16 10:38:53.974
LEye coords (869.4873, 487.6047), REye coords (870.518, 466.7848), timeStamp: 2017-02-16 10:38:54.017
LEye coords (869.3768, 486.7124), REye coords (869.8772, 467.7705), timeStamp: 2017-02-16 10:38:54.050
LEye coords (870.0992, 485.9802), REye coords (869.7231, 468.2381), timeStamp: 2017-02-16 10:38:54.084
LEye coords (621.9788, 463.9995), REye coords (631.5362, 445.2729), timeStamp: 2017-02-16 10:38:54.128
LEye coords (542.5131, 476.4876), REye coords (548.1038, 453.2015), timeStamp: 2017-02-16 10:38:54.161
LEye coords (543.7947, 473.0412), REye coords (545.9935, 454.3232), timeStamp: 2017-02-16 10:38:54.195
LEye coords (547.9155, 470.7487), REye coords (544.1357, 457.7753), timeStamp: 2017-02-16 10:38:54.239
LEye coords (549.003, 471.8983), REye coords (545.1053, 457.4565), timeStamp: 2017-02-16 10:38:54.271
LEye coords (630.1682, 457.2995), REye coords (643.9739, 466.3862), timeStamp: 2017-02-16 10:38:54.306
LEye coords (1237.2501, 443.4977), REye coords (1181.7017, 439.8535), timeStamp: 2017-02-16 10:38:54.349
LEye coords (1212.473, 441.6029), REye coords (1178.7688, 433.6319), timeStamp: 2017-02-16 10:38:54.382
LEye coords (1203.4508, 443.0834), REye coords (1176.1228, 429.8987), timeStamp: 2017-02-16 10:38:54.415
LEye coords (1196.326, 446.0506), REye coords (1173.7274, 430.9586), timeStamp: 2017-02-16 10:38:54.459
LEye coords (1177.6107, 444.4196), REye coords (1180.0858, 426.8966), timeStamp: 2017-02-16 10:38:54.492
LEye coords (1181.4653, 448.9183), REye coords (1178.9359, 446.527), timeStamp: 2017-02-16 10:38:54.526
LEye coords (1174.2986, 444.3), REye coords (1174.8362, 442.2269), timeStamp: 2017-02-16 10:38:54.570
LEye coords (1179.8169, 445.3719), REye coords (1175.9774, 440.2374), timeStamp: 2017-02-16 10:38:54.603
LEye coords (1179.8597, 443.4529), REye coords (1175.3608, 438.8355), timeStamp: 2017-02-16 10:38:54.646
LEye coords (1182.5089, 444.4977), REye coords (0.0, 0.0), timeStamp: 2017-02-16 10:38:54.679
LEye coords (1182.5281, 444.4062), REye coords (1176.3207, 439.4996), timeStamp: 2017-02-16 10:38:54.712
LEye coords (1182.102, 444.8174), REye coords (1177.7961, 438.8326), timeStamp: 2017-02-16 10:38:54.755
LEye coords (1183.1799, 445.2905), REye coords (1177.3029, 440.684), timeStamp: 2017-02-16 10:38:54.789
LEye coords (1184.0071, 444.9928), REye coords (1176.6865, 441.9515), timeStamp: 2017-02-16 10:38:54.831
LEye coords (1183.6942, 444.6562), REye coords (1177.7954, 441.6403), timeStamp: 2017-02-16 10:38:54.864
LEye coords (1183.964, 445.3985), REye coords (1178.9469, 441.5886), timeStamp: 2017-02-16 10:38:54.898
LEye coords (1184.411, 444.5587), REye coords (1179.4503, 441.5947), timeStamp: 2017-02-16 10:38:54.932
LEye coords (1184.2728, 444.4192), REye coords (1180.4296, 440.826), timeStamp: 2017-02-16 10:38:54.975
LEye coords (0.0, 0.0), REye coords (0.0, 0.0), timeStamp: 2017-02-16 10:38:55.008
LEye coords (0.0, 0.0), REye coords (0.0, 0.0), timeStamp: 2017-02-16 10:38:55.052
LEye coords (0.0, 0.0), REye coords (1386.1082, 903.4665), timeStamp: 2017-02-16 10:38:55.085
LEye coords (0.0, 0.0), REye coords (1254.1923, 555.7444), timeStamp: 2017-02-16 10:38:55.119
LEye coords (1243.2903, 560.2141), REye coords (1249.1357, 510.1505), timeStamp: 2017-02-16 10:38:55.163
LEye coords (1233.2972, 500.4401), REye coords (1248.5128, 479.2193), timeStamp: 2017-02-16 10:38:55.197
LEye coords (1216.3088, 485.4134), REye coords (1246.5786, 470.8968), timeStamp: 2017-02-16 10:38:55.230
LEye coords (1211.5604, 488.6198), REye coords (1242.2675, 463.6852), timeStamp: 2017-02-16 10:38:55.275
LEye coords (1208.741, 481.0663), REye coords (1206.6995, 436.5399), timeStamp: 2017-02-16 10:38:55.307
LEye coords (1213.7913, 475.8331), REye coords (1244.2102, 411.9506), timeStamp: 2017-02-16 10:38:55.340
LEye coords (1216.5098, 471.4117), REye coords (1229.8496, 409.2274), timeStamp: 2017-02-16 10:38:55.383
LEye coords (1217.1039, 466.0369), REye coords (1229.9663, 410.5085), timeStamp: 2017-02-16 10:38:55.417
LEye coords (1219.2188, 460.3841), REye coords (1228.0493, 413.0018), timeStamp: 2017-02-16 10:38:55.461
LEye coords (1219.7542, 456.8458), REye coords (1229.2811, 413.3539), timeStamp: 2017-02-16 10:38:55.495
LEye coords (1220.5284, 454.2078), REye coords (1230.851, 414.7004), timeStamp: 2017-02-16 10:38:55.529
LEye coords (1222.1416, 449.9243), REye coords (1232.112, 415.3263), timeStamp: 2017-02-16 10:38:55.562
LEye coords (1223.1342, 448.3685), REye coords (1234.3197, 417.1229), timeStamp: 2017-02-16 10:38:55.606
LEye coords (1222.0122, 445.5537), REye coords (1235.5581, 418.0746), timeStamp: 2017-02-16 10:38:55.640
LEye coords (1224.0558, 447.8981), REye coords (1237.5369, 425.8636), timeStamp: 2017-02-16 10:38:55.674
LEye coords (1226.0286, 449.6292), REye coords (1239.2091, 431.7725), timeStamp: 2017-02-16 10:38:55.718
LEye coords (1227.8499, 451.4437), REye coords (1240.0184, 437.7943), timeStamp: 2017-02-16 10:38:55.750
LEye coords (1229.6584, 452.1152), REye coords (1241.5208, 444.825), timeStamp: 2017-02-16 10:38:55.793
LEye coords (1231.7196, 452.8399), REye coords (1242.39, 449.2213), timeStamp: 2017-02-16 10:38:55.827
LEye coords (1232.1233, 452.0045), REye coords (1243.0105, 452.0948), timeStamp: 2017-02-16 10:38:55.860
LEye coords (1227.8809, 455.307), REye coords (0.0, 0.0), timeStamp: 2017-02-16 10:38:55.903
LEye coords (1224.3091, 459.3536), REye coords (0.0, 0.0), timeStamp: 2017-02-16 10:38:55.937
LEye coords (1221.4276, 463.1748), REye coords (1238.5697, 456.6405), timeStamp: 2017-02-16 10:38:55.970
LEye coords (1219.1532, 466.6144), REye coords (1234.9894, 460.4497), timeStamp: 2017-02-16 10:38:56.015
LEye coords (1216.9066, 470.5629), REye coords (1232.0271, 463.5661), timeStamp: 2017-02-16 10:38:56.049
LEye coords (1214.2384, 473.5304), REye coords (1228.5276, 466.3131), timeStamp: 2017-02-16 10:38:56.082
LEye coords (1212.088, 477.488), REye coords (0.0, 0.0), timeStamp: 2017-02-16 10:38:56.125
LEye coords (1209.3551, 481.5735), REye coords (0.0, 0.0), timeStamp: 2017-02-16 10:38:56.158
LEye coords (1206.924, 485.2757), REye coords (0.0, 0.0), timeStamp: 2017-02-16 10:38:56.192
LEye coords (1204.6589, 488.904), REye coords (0.0, 0.0), timeStamp: 2017-02-16 10:38:56.235
LEye coords (1202.2627, 492.3485), REye coords (0.0, 0.0), timeStamp: 2017-02-16 10:38:56.268
LEye coords (1200.7855, 495.7432), REye coords (0.0, 0.0), timeStamp: 2017-02-16 10:38:56.312
LEye coords (1198.9927, 498.5133), REye coords (0.0, 0.0), timeStamp: 2017-02-16 10:38:56.345
LEye coords (1197.2622, 501.6577), REye coords (0.0, 0.0), timeStamp: 2017-02-16 10:38:56.379
LEye coords (1195.6891, 504.337), REye coords (0.0, 0.0), timeStamp: 2017-02-16 10:38:56.423
LEye coords (1194.6263, 507.2493), REye coords (0.0, 0.0), timeStamp: 2017-02-16 10:38:56.456
LEye coords (1192.6152, 508.2585), REye coords (0.0, 0.0), timeStamp: 2017-02-16 10:38:56.488
LEye coords (1191.2217, 509.6356), REye coords (0.0, 0.0), timeStamp: 2017-02-16 10:38:56.531
LEye coords (1189.5424, 511.4874), REye coords (0.0, 0.0), timeStamp: 2017-02-16 10:38:56.565
LEye coords (1187.7913, 512.8024), REye coords (0.0, 0.0), timeStamp: 2017-02-16 10:38:56.608
LEye coords (1185.7039, 513.9578), REye coords (0.0, 0.0), timeStamp: 2017-02-16 10:38:56.641
LEye coords (1184.1829, 515.9865), REye coords (0.0, 0.0), timeStamp: 2017-02-16 10:38:56.674
LEye coords (1183.835, 515.9125), REye coords (0.0, 0.0), timeStamp: 2017-02-16 10:38:56.719
LEye coords (1184.0361, 515.074), REye coords (0.0, 0.0), timeStamp: 2017-02-16 10:38:56.752
LEye coords (1182.7534, 514.7011), REye coords (0.0, 0.0), timeStamp: 2017-02-16 10:38:56.784
LEye coords (1181.9454, 513.8231), REye coords (0.0, 0.0), timeStamp: 2017-02-16 10:38:56.829
LEye coords (1180.846, 513.3164), REye coords (0.0, 0.0), timeStamp: 2017-02-16 10:38:56.861
LEye coords (1179.7893, 512.4842), REye coords (0.0, 0.0), timeStamp: 2017-02-16 10:38:56.895
LEye coords (1179.3514, 512.2581), REye coords (0.0, 0.0), timeStamp: 2017-02-16 10:38:56.938
LEye coords (1178.9247, 511.626), REye coords (0.0, 0.0), timeStamp: 2017-02-16 10:38:56.971
LEye coords (1178.56, 511.5731), REye coords (0.0, 0.0), timeStamp: 2017-02-16 10:38:57.005
LEye coords (1177.881, 511.2847), REye coords (0.0, 0.0), timeStamp: 2017-02-16 10:38:57.048
LEye coords (1177.6039, 510.7259), REye coords (0.0, 0.0), timeStamp: 2017-02-16 10:38:57.081
LEye coords (1176.6034, 510.1529), REye coords (0.0, 0.0), timeStamp: 2017-02-16 10:38:57.125
LEye coords (1175.6523, 510.0748), REye coords (0.0, 0.0), timeStamp: 2017-02-16 10:38:57.159
LEye coords (1174.6641, 510.2752), REye coords (0.0, 0.0), timeStamp: 2017-02-16 10:38:57.192
LEye coords (1173.781, 509.8509), REye coords (0.0, 0.0), timeStamp: 2017-02-16 10:38:57.237
LEye coords (1173.344, 509.4662), REye coords (0.0, 0.0), timeStamp: 2017-02-16 10:38:57.270
LEye coords (1173.1423, 508.8625), REye coords (0.0, 0.0), timeStamp: 2017-02-16 10:38:57.303
LEye coords (1172.4656, 508.6299), REye coords (0.0, 0.0), timeStamp: 2017-02-16 10:38:57.348
LEye coords (1171.4932, 507.817), REye coords (0.0, 0.0), timeStamp: 2017-02-16 10:38:57.381
LEye coords (1170.9359, 507.1893), REye coords (1225.2816, 470.9839), timeStamp: 2017-02-16 10:38:57.414
LEye coords (1170.2032, 505.9966), REye coords (1222.8982, 473.9568), timeStamp: 2017-02-16 10:38:57.458
LEye coords (1169.0027, 505.1349), REye coords (1220.2632, 477.6272), timeStamp: 2017-02-16 10:38:57.490
LEye coords (1168.5947, 504.5036), REye coords (1217.7224, 482.0442), timeStamp: 2017-02-16 10:38:57.524
LEye coords (1168.4248, 504.1564), REye coords (1215.2041, 486.1809), timeStamp: 2017-02-16 10:38:57.568
LEye coords (1167.6151, 503.7706), REye coords (1213.0746, 488.8667), timeStamp: 2017-02-16 10:38:57.601
LEye coords (1167.1025, 503.0739), REye coords (1210.83, 492.2681), timeStamp: 2017-02-16 10:38:57.644
LEye coords (1166.4696, 502.1372), REye coords (1208.4318, 495.0108), timeStamp: 2017-02-16 10:38:57.677
LEye coords (1166.2316, 501.6629), REye coords (1206.6368, 496.8941), timeStamp: 2017-02-16 10:38:57.711
LEye coords (1166.1516, 501.0031), REye coords (1203.6702, 499.8991), timeStamp: 2017-02-16 10:38:57.753
LEye coords (1165.908, 500.9835), REye coords (1201.9935, 502.5035), timeStamp: 2017-02-16 10:38:57.786
LEye coords (1165.838, 500.1862), REye coords (1200.0077, 504.2393), timeStamp: 2017-02-16 10:38:57.820
LEye coords (1165.7919, 499.9606), REye coords (1198.541, 504.8122), timeStamp: 2017-02-16 10:38:57.863
LEye coords (1165.1047, 500.0631), REye coords (1197.2417, 505.248), timeStamp: 2017-02-16 10:38:57.897
LEye coords (1164.8683, 500.2531), REye coords (1196.3702, 505.3157), timeStamp: 2017-02-16 10:38:57.931
LEye coords (1165.2987, 499.8148), REye coords (1194.0994, 505.9365), timeStamp: 2017-02-16 10:38:57.974
LEye coords (1165.9353, 500.0528), REye coords (1191.9596, 507.7519), timeStamp: 2017-02-16 10:38:58.009
LEye coords (1166.4462, 499.9727), REye coords (1190.6245, 509.956), timeStamp: 2017-02-16 10:38:58.052
LEye coords (1167.4506, 500.5082), REye coords (1190.1659, 510.7301), timeStamp: 2017-02-16 10:38:58.085
LEye coords (1168.92, 501.0074), REye coords (1190.644, 511.9994), timeStamp: 2017-02-16 10:38:58.119
LEye coords (1169.3395, 503.7289), REye coords (1191.1672, 514.769), timeStamp: 2017-02-16 10:38:58.162
LEye coords (1170.3892, 506.162), REye coords (1191.5051, 517.3574), timeStamp: 2017-02-16 10:38:58.196
LEye coords (1171.0897, 509.3802), REye coords (1191.7942, 517.7053), timeStamp: 2017-02-16 10:38:58.230
LEye coords (1172.4427, 511.8863), REye coords (1190.6095, 519.4775), timeStamp: 2017-02-16 10:38:58.274
LEye coords (1173.5323, 514.0086), REye coords (1189.342, 521.4463), timeStamp: 2017-02-16 10:38:58.307
LEye coords (1174.3329, 516.5942), REye coords (1187.7999, 522.9472), timeStamp: 2017-02-16 10:38:58.341
LEye coords (1174.8171, 518.7396), REye coords (1187.6174, 525.4307), timeStamp: 2017-02-16 10:38:58.383
LEye coords (1174.516, 518.5129), REye coords (1184.2974, 526.3228), timeStamp: 2017-02-16 10:38:58.417
LEye coords (1173.4564, 516.9816), REye coords (1180.972, 527.3187), timeStamp: 2017-02-16 10:38:58.451
LEye coords (1172.2015, 516.6116), REye coords (1178.411, 528.2318), timeStamp: 2017-02-16 10:38:58.495
LEye coords (1170.865, 516.3937), REye coords (1175.3163, 528.5119), timeStamp: 2017-02-16 10:38:58.527
LEye coords (1169.7015, 515.7567), REye coords (1172.979, 529.501), timeStamp: 2017-02-16 10:38:58.560
LEye coords (1168.6968, 515.2897), REye coords (1170.8197, 527.8775), timeStamp: 2017-02-16 10:38:58.604
LEye coords (1167.129, 515.0869), REye coords (1168.4706, 527.7619), timeStamp: 2017-02-16 10:38:58.637
LEye coords (1165.9487, 513.935), REye coords (1165.4985, 528.8905), timeStamp: 2017-02-16 10:38:58.671
LEye coords (1164.6127, 513.101), REye coords (1162.7834, 530.265), timeStamp: 2017-02-16 10:38:58.714
LEye coords (1163.2305, 511.8737), REye coords (1159.7288, 531.0189), timeStamp: 2017-02-16 10:38:58.747
LEye coords (1161.5049, 510.8783), REye coords (1158.246, 530.7862), timeStamp: 2017-02-16 10:38:58.791
LEye coords (1160.3317, 510.2694), REye coords (1156.9341, 530.5413), timeStamp: 2017-02-16 10:38:58.824
LEye coords (1159.3229, 509.1297), REye coords (1155.0052, 531.215), timeStamp: 2017-02-16 10:38:58.858
LEye coords (1157.0101, 508.2325), REye coords (1153.8856, 531.8252), timeStamp: 2017-02-16 10:38:58.901
LEye coords (1155.2697, 507.2047), REye coords (1152.3876, 532.9672), timeStamp: 2017-02-16 10:38:58.933
LEye coords (1154.2196, 505.4262), REye coords (1151.1377, 532.3531), timeStamp: 2017-02-16 10:38:58.977
LEye coords (1151.7562, 503.91), REye coords (1149.4648, 532.5569), timeStamp: 2017-02-16 10:38:59.011
LEye coords (1150.6943, 502.0236), REye coords (1148.1084, 533.6717), timeStamp: 2017-02-16 10:38:59.046
LEye coords (1149.8029, 500.5977), REye coords (1147.1454, 533.2697), timeStamp: 2017-02-16 10:38:59.079
LEye coords (1148.4324, 499.3294), REye coords (1146.4365, 532.3773), timeStamp: 2017-02-16 10:38:59.122
LEye coords (1146.762, 498.6076), REye coords (1145.1881, 533.4109), timeStamp: 2017-02-16 10:38:59.155
LEye coords (1145.8441, 497.2469), REye coords (1144.4054, 532.627), timeStamp: 2017-02-16 10:38:59.190
LEye coords (1145.4692, 497.4401), REye coords (1144.1428, 533.4219), timeStamp: 2017-02-16 10:38:59.233
LEye coords (1145.7041, 498.409), REye coords (1144.0042, 534.4908), timeStamp: 2017-02-16 10:38:59.267
LEye coords (1144.981, 498.78), REye coords (1143.6858, 535.0743), timeStamp: 2017-02-16 10:38:59.300
LEye coords (1144.5679, 498.1271), REye coords (1143.1068, 535.6989), timeStamp: 2017-02-16 10:38:59.344
