LEye coords (633.2581, 438.7458), REye coords (610.4075, 512.075), timeStamp: 2017-02-16 10:39:06.897
LEye coords (633.2756, 437.9541), REye coords (609.9103, 512.3672), timeStamp: 2017-02-16 10:39:06.930
LEye coords (637.8377, 437.241), REye coords (614.8798, 511.9372), timeStamp: 2017-02-16 10:39:06.964
LEye coords (1100.9939, 371.527), REye coords (1087.7333, 443.4771), timeStamp: 2017-02-16 10:39:06.998
LEye coords (1081.8662, 375.9625), REye coords (1071.0521, 479.4063), timeStamp: 2017-02-16 10:39:07.042
LEye coords (1080.9578, 379.7717), REye coords (1079.7081, 463.6795), timeStamp: 2017-02-16 10:39:07.075
LEye coords (1082.5464, 382.6465), REye coords (1081.3638, 455.7659), timeStamp: 2017-02-16 10:39:07.109
LEye coords (1081.9565, 383.5301), REye coords (1083.6338, 453.2421), timeStamp: 2017-02-16 10:39:07.153
LEye coords (1014.4961, 401.2708), REye coords (1042.5211, 450.0599), timeStamp: 2017-02-16 10:39:07.187
LEye coords (698.3923, 425.6903), REye coords (704.5923, 512.5594), timeStamp: 2017-02-16 10:39:07.220
LEye coords (698.7904, 428.6345), REye coords (682.5525, 518.9573), timeStamp: 2017-02-16 10:39:07.263
LEye coords (702.4174, 432.8163), REye coords (688.3049, 506.8086), timeStamp: 2017-02-16 10:39:07.296
LEye coords (701.7491, 435.4465), REye coords (686.55, 500.5309), timeStamp: 2017-02-16 10:39:07.339
LEye coords (705.1845, 429.938), REye coords (669.1624, 511.6529), timeStamp: 2017-02-16 10:39:07.372
LEye coords (697.9739, 420.1139), REye coords (0.0, 0.0), timeStamp: 2017-02-16 10:39:07.415
LEye coords (712.4664, 498.6154), REye coords (673.0706, 524.6421), timeStamp: 2017-02-16 10:39:07.448
LEye coords (0.0, 0.0), REye coords (0.0, 0.0), timeStamp: 2017-02-16 10:39:07.481
LEye coords (0.0, 0.0), REye coords (0.0, 0.0), timeStamp: 2017-02-16 10:39:07.524
LEye coords (0.0, 0.0), REye coords (0.0, 0.0), timeStamp: 2017-02-16 10:39:07.557
LEye coords (713.4354, 616.5022), REye coords (722.222, 599.8322), timeStamp: 2017-02-16 10:39:07.600
LEye coords (709.9509, 634.6656), REye coords (726.517, 598.8271), timeStamp: 2017-02-16 10:39:07.633
LEye coords (712.342, 613.785), REye coords (730.4496, 597.682), timeStamp: 2017-02-16 10:39:07.667
LEye coords (720.2811, 622.1933), REye coords (747.2698, 575.509), timeStamp: 2017-02-16 10:39:07.710
LEye coords (720.2866, 612.0995), REye coords (741.4476, 575.0405), timeStamp: 2017-02-16 10:39:07.744
LEye coords (721.3344, 611.1891), REye coords (736.7969, 582.6988), timeStamp: 2017-02-16 10:39:07.777
LEye coords (721.1597, 607.5131), REye coords (737.7303, 584.1602), timeStamp: 2017-02-16 10:39:07.820
LEye coords (722.3359, 608.8146), REye coords (737.3763, 586.1855), timeStamp: 2017-02-16 10:39:07.853
LEye coords (722.0435, 610.0558), REye coords (738.544, 587.2441), timeStamp: 2017-02-16 10:39:07.888
LEye coords (721.4984, 609.5891), REye coords (738.6101, 585.0311), timeStamp: 2017-02-16 10:39:07.931
LEye coords (720.8809, 610.1627), REye coords (738.4644, 583.775), timeStamp: 2017-02-16 10:39:07.965
LEye coords (722.4352, 611.7271), REye coords (739.4752, 584.0985), timeStamp: 2017-02-16 10:39:07.999
LEye coords (727.2182, 613.7972), REye coords (744.9143, 587.8938), timeStamp: 2017-02-16 10:39:08.043
LEye coords (731.873, 614.727), REye coords (750.4541, 591.4978), timeStamp: 2017-02-16 10:39:08.076
LEye coords (736.5348, 616.6641), REye coords (755.534, 593.3511), timeStamp: 2017-02-16 10:39:08.109
LEye coords (740.2629, 618.0422), REye coords (760.3889, 594.0308), timeStamp: 2017-02-16 10:39:08.153
LEye coords (743.7367, 620.2338), REye coords (764.3067, 594.7022), timeStamp: 2017-02-16 10:39:08.187
LEye coords (747.2308, 621.7141), REye coords (766.8704, 595.4096), timeStamp: 2017-02-16 10:39:08.220
LEye coords (750.1511, 623.7873), REye coords (769.3739, 596.0895), timeStamp: 2017-02-16 10:39:08.264
LEye coords (752.7084, 625.7009), REye coords (771.5264, 596.6888), timeStamp: 2017-02-16 10:39:08.297
LEye coords (755.9394, 627.673), REye coords (774.2526, 596.6614), timeStamp: 2017-02-16 10:39:08.331
LEye coords (758.475, 629.6488), REye coords (776.0209, 597.3738), timeStamp: 2017-02-16 10:39:08.375
LEye coords (761.2924, 632.6087), REye coords (778.55, 597.7968), timeStamp: 2017-02-16 10:39:08.407
LEye coords (764.0372, 634.6862), REye coords (780.6043, 597.6475), timeStamp: 2017-02-16 10:39:08.451
LEye coords (765.9562, 637.3639), REye coords (782.1326, 598.4048), timeStamp: 2017-02-16 10:39:08.485
LEye coords (768.1207, 639.4402), REye coords (783.8644, 599.3527), timeStamp: 2017-02-16 10:39:08.518
LEye coords (770.8546, 641.4139), REye coords (786.3195, 599.9501), timeStamp: 2017-02-16 10:39:08.561
LEye coords (773.6761, 644.1499), REye coords (788.8734, 601.0862), timeStamp: 2017-02-16 10:39:08.594
LEye coords (776.5504, 647.59), REye coords (791.3098, 601.7012), timeStamp: 2017-02-16 10:39:08.627
LEye coords (778.8644, 649.7961), REye coords (794.0123, 601.157), timeStamp: 2017-02-16 10:39:08.672
LEye coords (780.6147, 650.5344), REye coords (795.8651, 601.2255), timeStamp: 2017-02-16 10:39:08.706
LEye coords (782.1633, 653.4832), REye coords (797.9926, 601.3983), timeStamp: 2017-02-16 10:39:08.739
LEye coords (784.8604, 655.4113), REye coords (799.2148, 602.7138), timeStamp: 2017-02-16 10:39:08.784
LEye coords (786.382, 656.8188), REye coords (800.3948, 603.705), timeStamp: 2017-02-16 10:39:08.817
LEye coords (786.6945, 658.6778), REye coords (800.5879, 602.7562), timeStamp: 2017-02-16 10:39:08.850
LEye coords (786.3792, 660.1961), REye coords (800.626, 602.1246), timeStamp: 2017-02-16 10:39:08.893
LEye coords (786.3233, 661.1208), REye coords (800.8029, 601.921), timeStamp: 2017-02-16 10:39:08.927
LEye coords (787.1986, 662.0417), REye coords (800.968, 602.6439), timeStamp: 2017-02-16 10:39:08.961
LEye coords (787.0179, 663.4067), REye coords (801.4156, 603.1234), timeStamp: 2017-02-16 10:39:09.006
LEye coords (786.5898, 663.8671), REye coords (802.4303, 604.0551), timeStamp: 2017-02-16 10:39:09.040
LEye coords (785.3669, 663.6407), REye coords (802.0054, 605.7669), timeStamp: 2017-02-16 10:39:09.073
LEye coords (785.1243, 664.2933), REye coords (802.5035, 605.0455), timeStamp: 2017-02-16 10:39:09.116
LEye coords (784.3231, 664.0022), REye coords (802.1777, 605.4042), timeStamp: 2017-02-16 10:39:09.150
LEye coords (779.4625, 661.8834), REye coords (801.5336, 604.7957), timeStamp: 2017-02-16 10:39:09.184
LEye coords (674.9384, 637.1597), REye coords (800.2011, 603.6365), timeStamp: 2017-02-16 10:39:09.226
LEye coords (756.965, 660.358), REye coords (798.9323, 602.7748), timeStamp: 2017-02-16 10:39:09.259
LEye coords (0.0, 0.0), REye coords (797.7806, 602.5629), timeStamp: 2017-02-16 10:39:09.303
LEye coords (720.2679, 634.8826), REye coords (796.2812, 601.8754), timeStamp: 2017-02-16 10:39:09.336
LEye coords (734.6944, 634.9152), REye coords (795.2271, 601.6776), timeStamp: 2017-02-16 10:39:09.370
LEye coords (740.3438, 638.9679), REye coords (793.345, 601.4814), timeStamp: 2017-02-16 10:39:09.414
LEye coords (746.6219, 638.4159), REye coords (792.1464, 600.5951), timeStamp: 2017-02-16 10:39:09.448
LEye coords (749.5648, 640.0411), REye coords (791.3442, 599.6667), timeStamp: 2017-02-16 10:39:09.481
LEye coords (749.6611, 641.4644), REye coords (790.3195, 598.5956), timeStamp: 2017-02-16 10:39:09.525
LEye coords (749.8899, 642.825), REye coords (788.5557, 598.0125), timeStamp: 2017-02-16 10:39:09.559
LEye coords (750.6954, 644.5985), REye coords (788.2306, 597.16), timeStamp: 2017-02-16 10:39:09.592
LEye coords (752.3846, 645.3983), REye coords (787.1082, 596.6088), timeStamp: 2017-02-16 10:39:09.636
LEye coords (753.3736, 644.5191), REye coords (786.0839, 595.2643), timeStamp: 2017-02-16 10:39:09.669
LEye coords (755.5327, 646.4061), REye coords (785.0792, 596.0883), timeStamp: 2017-02-16 10:39:09.702
LEye coords (755.8355, 649.4723), REye coords (784.0378, 595.7211), timeStamp: 2017-02-16 10:39:09.746
LEye coords (756.291, 649.2215), REye coords (783.1542, 595.0259), timeStamp: 2017-02-16 10:39:09.779
LEye coords (756.665, 650.6873), REye coords (782.1439, 595.1745), timeStamp: 2017-02-16 10:39:09.812
LEye coords (757.2574, 651.0889), REye coords (780.5563, 595.5399), timeStamp: 2017-02-16 10:39:09.856
LEye coords (757.5736, 652.061), REye coords (779.5333, 594.5432), timeStamp: 2017-02-16 10:39:09.890
LEye coords (757.8948, 652.2485), REye coords (778.0695, 595.5164), timeStamp: 2017-02-16 10:39:09.924
LEye coords (758.3244, 652.2236), REye coords (776.7142, 596.433), timeStamp: 2017-02-16 10:39:09.969
LEye coords (758.6067, 653.2487), REye coords (776.0513, 597.5891), timeStamp: 2017-02-16 10:39:10.002
LEye coords (758.6363, 653.6818), REye coords (775.4495, 598.907), timeStamp: 2017-02-16 10:39:10.036
LEye coords (759.3245, 654.6746), REye coords (775.049, 599.3743), timeStamp: 2017-02-16 10:39:10.079
LEye coords (759.8475, 655.3895), REye coords (774.1075, 600.3162), timeStamp: 2017-02-16 10:39:10.112
LEye coords (761.3253, 656.5211), REye coords (773.9399, 601.0821), timeStamp: 2017-02-16 10:39:10.147
