LEye coords (614.0593, 629.6412), REye coords (677.395, 612.6918), timeStamp: 2017-02-16 10:39:32.989
LEye coords (627.8586, 642.5146), REye coords (676.2645, 614.3641), timeStamp: 2017-02-16 10:39:33.022
LEye coords (669.8302, 682.5416), REye coords (676.649, 614.5709), timeStamp: 2017-02-16 10:39:33.055
LEye coords (677.303, 692.2083), REye coords (676.5702, 615.4897), timeStamp: 2017-02-16 10:39:33.098
LEye coords (675.9487, 683.4572), REye coords (675.9161, 617.097), timeStamp: 2017-02-16 10:39:33.131
LEye coords (678.9457, 685.0818), REye coords (676.2354, 617.0076), timeStamp: 2017-02-16 10:39:33.173
LEye coords (678.342, 688.8173), REye coords (676.3484, 618.4089), timeStamp: 2017-02-16 10:39:33.207
LEye coords (694.6141, 551.3438), REye coords (678.4266, 613.1578), timeStamp: 2017-02-16 10:39:33.241
LEye coords (718.4287, 445.4706), REye coords (0.0, 0.0), timeStamp: 2017-02-16 10:39:33.284
LEye coords (719.6032, 436.7361), REye coords (0.0, 0.0), timeStamp: 2017-02-16 10:39:33.318
LEye coords (719.6943, 431.6796), REye coords (0.0, 0.0), timeStamp: 2017-02-16 10:39:33.351
LEye coords (721.3988, 427.8205), REye coords (0.0, 0.0), timeStamp: 2017-02-16 10:39:33.394
LEye coords (670.9615, 422.305), REye coords (655.7086, 458.2093), timeStamp: 2017-02-16 10:39:33.428
LEye coords (330.5226, 287.1526), REye coords (294.2716, 377.214), timeStamp: 2017-02-16 10:39:33.462
LEye coords (293.2674, 240.1709), REye coords (289.0238, 373.392), timeStamp: 2017-02-16 10:39:33.507
LEye coords (300.6308, 255.8692), REye coords (288.347, 374.8676), timeStamp: 2017-02-16 10:39:33.542
LEye coords (304.2813, 268.304), REye coords (289.9431, 375.5315), timeStamp: 2017-02-16 10:39:33.574
LEye coords (317.8459, 298.2147), REye coords (282.7955, 372.0315), timeStamp: 2017-02-16 10:39:33.617
LEye coords (306.8277, 282.4599), REye coords (287.3602, 387.7904), timeStamp: 2017-02-16 10:39:33.650
LEye coords (289.3504, 255.869), REye coords (284.4687, 379.5715), timeStamp: 2017-02-16 10:39:33.684
LEye coords (300.175, 270.3596), REye coords (287.3446, 357.8408), timeStamp: 2017-02-16 10:39:33.727
LEye coords (321.3749, 279.4777), REye coords (299.1846, 352.4529), timeStamp: 2017-02-16 10:39:33.761
LEye coords (330.0383, 277.4437), REye coords (307.8756, 357.3232), timeStamp: 2017-02-16 10:39:33.794
LEye coords (339.3538, 281.1559), REye coords (311.624, 354.8848), timeStamp: 2017-02-16 10:39:33.838
LEye coords (345.35, 283.0316), REye coords (315.0597, 353.8687), timeStamp: 2017-02-16 10:39:33.872
LEye coords (345.8033, 279.9027), REye coords (319.1705, 350.7496), timeStamp: 2017-02-16 10:39:33.906
LEye coords (347.5328, 278.0941), REye coords (323.4664, 352.9164), timeStamp: 2017-02-16 10:39:33.950
LEye coords (347.2456, 276.5476), REye coords (326.8053, 349.3892), timeStamp: 2017-02-16 10:39:33.984
LEye coords (342.9406, 271.0729), REye coords (330.7175, 353.025), timeStamp: 2017-02-16 10:39:34.017
LEye coords (343.3047, 269.5732), REye coords (334.3952, 356.2273), timeStamp: 2017-02-16 10:39:34.060
LEye coords (337.4871, 263.8275), REye coords (337.1202, 359.48), timeStamp: 2017-02-16 10:39:34.093
LEye coords (339.4286, 265.559), REye coords (339.066, 357.2918), timeStamp: 2017-02-16 10:39:34.137
LEye coords (173.8301, 150.0159), REye coords (340.0544, 360.3684), timeStamp: 2017-02-16 10:39:34.171
LEye coords (326.7128, 223.6505), REye coords (340.3549, 359.8242), timeStamp: 2017-02-16 10:39:34.204
LEye coords (340.5456, 237.8577), REye coords (340.4731, 361.2458), timeStamp: 2017-02-16 10:39:34.247
LEye coords (338.7226, 245.8386), REye coords (340.0803, 362.8011), timeStamp: 2017-02-16 10:39:34.281
LEye coords (363.6947, 283.8279), REye coords (431.9335, 450.8079), timeStamp: 2017-02-16 10:39:34.315
LEye coords (382.1401, 408.029), REye coords (442.2339, 470.0726), timeStamp: 2017-02-16 10:39:34.359
LEye coords (336.2606, 358.017), REye coords (450.5068, 467.7722), timeStamp: 2017-02-16 10:39:34.392
LEye coords (340.3369, 344.9747), REye coords (448.9937, 464.2276), timeStamp: 2017-02-16 10:39:34.425
LEye coords (345.3435, 348.144), REye coords (448.8379, 465.4876), timeStamp: 2017-02-16 10:39:34.468
LEye coords (353.6049, 349.4713), REye coords (448.1562, 481.7816), timeStamp: 2017-02-16 10:39:34.501
LEye coords (359.1, 355.7831), REye coords (438.3786, 470.2054), timeStamp: 2017-02-16 10:39:34.535
LEye coords (358.712, 349.311), REye coords (419.5533, 470.7906), timeStamp: 2017-02-16 10:39:34.579
LEye coords (353.3936, 344.18), REye coords (415.2751, 472.8415), timeStamp: 2017-02-16 10:39:34.612
LEye coords (351.1154, 341.2545), REye coords (415.9794, 475.1146), timeStamp: 2017-02-16 10:39:34.655
LEye coords (349.0617, 342.9156), REye coords (418.1522, 475.325), timeStamp: 2017-02-16 10:39:34.687
LEye coords (344.8416, 337.9448), REye coords (417.8287, 477.6452), timeStamp: 2017-02-16 10:39:34.721
LEye coords (323.5446, 311.2581), REye coords (417.6711, 474.8585), timeStamp: 2017-02-16 10:39:34.765
LEye coords (320.1114, 330.541), REye coords (417.6837, 473.6237), timeStamp: 2017-02-16 10:39:34.799
LEye coords (324.2632, 319.3987), REye coords (417.7225, 472.4085), timeStamp: 2017-02-16 10:39:34.832
LEye coords (327.2869, 324.0031), REye coords (416.4734, 471.5443), timeStamp: 2017-02-16 10:39:34.876
LEye coords (319.7966, 315.8971), REye coords (416.6709, 470.3169), timeStamp: 2017-02-16 10:39:34.909
LEye coords (318.2856, 313.1349), REye coords (414.5044, 467.5195), timeStamp: 2017-02-16 10:39:34.944
LEye coords (320.038, 305.9811), REye coords (0.0, 0.0), timeStamp: 2017-02-16 10:39:34.988
LEye coords (313.5077, 302.305), REye coords (0.0, 0.0), timeStamp: 2017-02-16 10:39:35.021
LEye coords (318.5089, 304.8314), REye coords (411.971, 465.4234), timeStamp: 2017-02-16 10:39:35.055
LEye coords (318.5239, 300.6093), REye coords (409.1948, 461.8389), timeStamp: 2017-02-16 10:39:35.099
LEye coords (323.737, 302.526), REye coords (407.1686, 459.1553), timeStamp: 2017-02-16 10:39:35.132
LEye coords (327.3094, 306.56), REye coords (406.4418, 458.0361), timeStamp: 2017-02-16 10:39:35.166
LEye coords (324.1278, 304.8218), REye coords (405.8511, 457.2974), timeStamp: 2017-02-16 10:39:35.210
LEye coords (328.6223, 308.7193), REye coords (403.7393, 456.1089), timeStamp: 2017-02-16 10:39:35.243
LEye coords (329.0397, 306.9064), REye coords (402.9831, 455.1565), timeStamp: 2017-02-16 10:39:35.277
LEye coords (333.2893, 308.0651), REye coords (0.0, 0.0), timeStamp: 2017-02-16 10:39:35.320
LEye coords (337.7749, 306.2684), REye coords (404.2077, 453.6001), timeStamp: 2017-02-16 10:39:35.352
LEye coords (343.7169, 305.6812), REye coords (405.8324, 451.4157), timeStamp: 2017-02-16 10:39:35.386
LEye coords (349.8842, 305.0635), REye coords (406.6061, 449.4084), timeStamp: 2017-02-16 10:39:35.431
LEye coords (355.6491, 304.9633), REye coords (407.4843, 447.094), timeStamp: 2017-02-16 10:39:35.463
LEye coords (357.9719, 304.1378), REye coords (408.3532, 445.2), timeStamp: 2017-02-16 10:39:35.497
LEye coords (360.875, 302.7717), REye coords (408.9733, 442.4666), timeStamp: 2017-02-16 10:39:35.540
LEye coords (364.7974, 303.5096), REye coords (409.7763, 441.0153), timeStamp: 2017-02-16 10:39:35.573
LEye coords (369.5465, 302.3005), REye coords (410.2898, 439.9634), timeStamp: 2017-02-16 10:39:35.617
LEye coords (372.929, 300.7811), REye coords (410.5333, 437.4133), timeStamp: 2017-02-16 10:39:35.650
LEye coords (378.883, 300.9245), REye coords (410.904, 435.8725), timeStamp: 2017-02-16 10:39:35.684
LEye coords (381.1437, 299.9389), REye coords (411.2912, 434.3031), timeStamp: 2017-02-16 10:39:35.728
LEye coords (384.1354, 301.0453), REye coords (411.9453, 431.4072), timeStamp: 2017-02-16 10:39:35.762
LEye coords (387.1484, 305.2554), REye coords (414.7019, 432.2666), timeStamp: 2017-02-16 10:39:35.795
LEye coords (391.2637, 309.852), REye coords (417.5889, 433.9646), timeStamp: 2017-02-16 10:39:35.839
LEye coords (467.7632, 375.5191), REye coords (421.2724, 436.1083), timeStamp: 2017-02-16 10:39:35.873
LEye coords (474.8519, 391.9084), REye coords (424.9801, 437.9589), timeStamp: 2017-02-16 10:39:35.906
LEye coords (472.4554, 391.4929), REye coords (428.5299, 439.9984), timeStamp: 2017-02-16 10:39:35.941
LEye coords (451.8071, 388.3462), REye coords (431.7919, 442.507), timeStamp: 2017-02-16 10:39:35.984
LEye coords (457.1546, 394.6088), REye coords (434.0413, 444.8057), timeStamp: 2017-02-16 10:39:36.018
LEye coords (441.4376, 372.0923), REye coords (436.387, 447.4721), timeStamp: 2017-02-16 10:39:36.062
LEye coords (479.6122, 390.7495), REye coords (439.364, 450.9162), timeStamp: 2017-02-16 10:39:36.095
LEye coords (452.4221, 360.8755), REye coords (441.852, 452.8344), timeStamp: 2017-02-16 10:39:36.127
LEye coords (463.1392, 374.2157), REye coords (443.362, 454.9451), timeStamp: 2017-02-16 10:39:36.171
LEye coords (467.2541, 380.5627), REye coords (444.5051, 457.0269), timeStamp: 2017-02-16 10:39:36.205
LEye coords (457.5743, 369.6709), REye coords (446.1892, 459.6809), timeStamp: 2017-02-16 10:39:36.239
LEye coords (451.1474, 374.033), REye coords (448.0955, 462.3744), timeStamp: 2017-02-16 10:39:36.282
LEye coords (446.501, 373.353), REye coords (450.1594, 464.3407), timeStamp: 2017-02-16 10:39:36.315
LEye coords (451.6183, 378.07), REye coords (451.9582, 467.3623), timeStamp: 2017-02-16 10:39:36.349
LEye coords (448.0082, 375.5348), REye coords (453.5634, 469.7754), timeStamp: 2017-02-16 10:39:36.392
LEye coords (449.9019, 378.5179), REye coords (455.9374, 471.3449), timeStamp: 2017-02-16 10:39:36.424
LEye coords (447.771, 373.5147), REye coords (457.4306, 473.9004), timeStamp: 2017-02-16 10:39:36.467
LEye coords (444.3143, 371.7302), REye coords (459.0233, 476.053), timeStamp: 2017-02-16 10:39:36.500
LEye coords (441.0067, 370.2777), REye coords (460.4039, 478.2048), timeStamp: 2017-02-16 10:39:36.533
LEye coords (438.7813, 366.552), REye coords (461.1634, 480.114), timeStamp: 2017-02-16 10:39:36.577
LEye coords (437.148, 365.2278), REye coords (461.9986, 480.6902), timeStamp: 2017-02-16 10:39:36.610
LEye coords (438.8439, 366.5573), REye coords (462.897, 480.9887), timeStamp: 2017-02-16 10:39:36.653
LEye coords (435.6126, 361.5031), REye coords (462.4491, 481.4018), timeStamp: 2017-02-16 10:39:36.687
LEye coords (431.8554, 359.8816), REye coords (462.7533, 479.4589), timeStamp: 2017-02-16 10:39:36.722
LEye coords (431.5399, 358.988), REye coords (462.5954, 478.193), timeStamp: 2017-02-16 10:39:36.765
LEye coords (433.2691, 359.9734), REye coords (461.6565, 477.6359), timeStamp: 2017-02-16 10:39:36.799
LEye coords (430.9839, 358.6616), REye coords (461.348, 477.0367), timeStamp: 2017-02-16 10:39:36.832
LEye coords (427.2995, 355.0826), REye coords (460.9527, 475.5365), timeStamp: 2017-02-16 10:39:36.876
LEye coords (427.9236, 355.9398), REye coords (460.4664, 474.0244), timeStamp: 2017-02-16 10:39:36.910
LEye coords (429.782, 357.0356), REye coords (459.6267, 473.1682), timeStamp: 2017-02-16 10:39:36.943
LEye coords (431.4317, 358.1234), REye coords (459.3412, 471.9284), timeStamp: 2017-02-16 10:39:36.976
LEye coords (433.2709, 359.8325), REye coords (458.9272, 470.4467), timeStamp: 2017-02-16 10:39:37.020
LEye coords (436.6605, 362.4513), REye coords (457.5292, 468.6174), timeStamp: 2017-02-16 10:39:37.054
LEye coords (439.5277, 363.3136), REye coords (456.7202, 466.8643), timeStamp: 2017-02-16 10:39:37.097
LEye coords (442.7684, 365.2999), REye coords (456.1786, 465.1274), timeStamp: 2017-02-16 10:39:37.131
LEye coords (443.8333, 364.7928), REye coords (455.8739, 463.4946), timeStamp: 2017-02-16 10:39:37.164
LEye coords (447.969, 367.4534), REye coords (455.1518, 461.9429), timeStamp: 2017-02-16 10:39:37.209
LEye coords (450.0781, 368.8867), REye coords (454.4236, 460.7617), timeStamp: 2017-02-16 10:39:37.241
LEye coords (454.3325, 372.4997), REye coords (454.2977, 459.7167), timeStamp: 2017-02-16 10:39:37.275
LEye coords (455.3146, 372.6991), REye coords (453.7563, 458.8743), timeStamp: 2017-02-16 10:39:37.319
LEye coords (456.8544, 374.4214), REye coords (453.725, 457.859), timeStamp: 2017-02-16 10:39:37.352
LEye coords (460.344, 378.0681), REye coords (452.4953, 456.9036), timeStamp: 2017-02-16 10:39:37.385
LEye coords (463.1896, 380.2437), REye coords (450.9098, 456.1191), timeStamp: 2017-02-16 10:39:37.430
LEye coords (465.1843, 383.0986), REye coords (449.8239, 454.8157), timeStamp: 2017-02-16 10:39:37.462
LEye coords (468.1686, 385.7273), REye coords (448.8741, 453.5439), timeStamp: 2017-02-16 10:39:37.496
LEye coords (472.6841, 410.3505), REye coords (448.1474, 453.4954), timeStamp: 2017-02-16 10:39:37.541
LEye coords (475.0919, 383.3809), REye coords (447.478, 453.2549), timeStamp: 2017-02-16 10:39:37.575
LEye coords (482.8443, 382.5708), REye coords (447.2892, 453.7206), timeStamp: 2017-02-16 10:39:37.608
LEye coords (471.6373, 377.6053), REye coords (446.6861, 453.8222), timeStamp: 2017-02-16 10:39:37.651
LEye coords (457.3596, 363.2383), REye coords (446.4256, 453.3054), timeStamp: 2017-02-16 10:39:37.684
LEye coords (443.155, 356.1996), REye coords (446.1948, 453.1299), timeStamp: 2017-02-16 10:39:37.717
LEye coords (437.0202, 347.1531), REye coords (445.568, 453.0871), timeStamp: 2017-02-16 10:39:37.761
LEye coords (432.8266, 345.5929), REye coords (445.5462, 453.5898), timeStamp: 2017-02-16 10:39:37.793
LEye coords (435.9135, 347.8894), REye coords (445.6722, 453.8893), timeStamp: 2017-02-16 10:39:37.837
LEye coords (430.3051, 348.1449), REye coords (446.2213, 454.1623), timeStamp: 2017-02-16 10:39:37.870
LEye coords (434.3544, 351.7809), REye coords (446.9356, 454.3984), timeStamp: 2017-02-16 10:39:37.903
LEye coords (434.4203, 355.9654), REye coords (447.5615, 455.0359), timeStamp: 2017-02-16 10:39:37.946
LEye coords (432.9593, 356.5399), REye coords (448.5423, 454.8927), timeStamp: 2017-02-16 10:39:37.978
LEye coords (433.0925, 357.0374), REye coords (449.5154, 454.8676), timeStamp: 2017-02-16 10:39:38.022
LEye coords (435.624, 359.8883), REye coords (449.8188, 454.9882), timeStamp: 2017-02-16 10:39:38.055
LEye coords (438.4278, 362.9251), REye coords (450.7478, 455.0487), timeStamp: 2017-02-16 10:39:38.087
LEye coords (441.4157, 364.4632), REye coords (451.4975, 454.7417), timeStamp: 2017-02-16 10:39:38.133
LEye coords (437.8524, 362.3674), REye coords (450.5378, 454.9185), timeStamp: 2017-02-16 10:39:38.166
LEye coords (434.8487, 361.5404), REye coords (449.847, 455.2976), timeStamp: 2017-02-16 10:39:38.199
LEye coords (432.4819, 358.9047), REye coords (449.1772, 455.8757), timeStamp: 2017-02-16 10:39:38.243
LEye coords (431.6131, 358.5889), REye coords (448.3913, 455.9354), timeStamp: 2017-02-16 10:39:38.276
LEye coords (429.4201, 356.0739), REye coords (447.8683, 457.442), timeStamp: 2017-02-16 10:39:38.319
LEye coords (432.1063, 358.1743), REye coords (446.8905, 459.0913), timeStamp: 2017-02-16 10:39:38.352
LEye coords (433.4839, 358.5399), REye coords (446.6573, 459.4626), timeStamp: 2017-02-16 10:39:38.385
LEye coords (434.5526, 359.6688), REye coords (446.4135, 459.0809), timeStamp: 2017-02-16 10:39:38.430
LEye coords (436.8334, 361.2402), REye coords (446.0269, 458.1892), timeStamp: 2017-02-16 10:39:38.463
LEye coords (440.6859, 365.2264), REye coords (445.5767, 458.0504), timeStamp: 2017-02-16 10:39:38.497
LEye coords (443.9022, 367.1662), REye coords (445.8208, 457.1717), timeStamp: 2017-02-16 10:39:38.541
