LEye coords (821.7642, 318.1331), REye coords (792.9036, 408.6892), timeStamp: 2017-02-16 10:39:58.043
LEye coords (822.262, 320.0171), REye coords (792.84, 408.7856), timeStamp: 2017-02-16 10:39:58.077
LEye coords (822.8119, 321.1628), REye coords (792.6667, 409.622), timeStamp: 2017-02-16 10:39:58.111
LEye coords (822.771, 322.006), REye coords (792.501, 410.6293), timeStamp: 2017-02-16 10:39:58.154
LEye coords (822.1734, 322.6968), REye coords (793.3684, 409.9473), timeStamp: 2017-02-16 10:39:58.187
LEye coords (822.5676, 323.6027), REye coords (794.7074, 409.6764), timeStamp: 2017-02-16 10:39:58.231
LEye coords (822.3074, 324.6148), REye coords (795.7352, 409.3883), timeStamp: 2017-02-16 10:39:58.264
LEye coords (823.395, 325.3033), REye coords (796.9427, 409.3961), timeStamp: 2017-02-16 10:39:58.298
LEye coords (542.2202, 323.1274), REye coords (490.1901, 442.2199), timeStamp: 2017-02-16 10:39:58.342
LEye coords (520.3915, 311.4496), REye coords (476.5404, 434.287), timeStamp: 2017-02-16 10:39:58.375
LEye coords (518.8549, 310.8483), REye coords (477.8214, 425.445), timeStamp: 2017-02-16 10:39:58.408
LEye coords (521.1099, 316.0541), REye coords (473.5296, 431.6689), timeStamp: 2017-02-16 10:39:58.452
LEye coords (523.0876, 319.8996), REye coords (471.7629, 426.5154), timeStamp: 2017-02-16 10:39:58.485
LEye coords (653.2627, 315.9358), REye coords (597.3077, 409.5604), timeStamp: 2017-02-16 10:39:58.518
LEye coords (645.1609, 306.6232), REye coords (583.2954, 411.2298), timeStamp: 2017-02-16 10:39:58.562
LEye coords (642.5326, 311.2174), REye coords (593.2147, 410.3556), timeStamp: 2017-02-16 10:39:58.595
LEye coords (641.3943, 308.5909), REye coords (594.6768, 411.6541), timeStamp: 2017-02-16 10:39:58.638
LEye coords (641.743, 307.4034), REye coords (593.3823, 413.4337), timeStamp: 2017-02-16 10:39:58.671
LEye coords (642.3245, 306.1932), REye coords (582.0637, 402.6003), timeStamp: 2017-02-16 10:39:58.704
LEye coords (641.8998, 306.1193), REye coords (585.547, 420.0485), timeStamp: 2017-02-16 10:39:58.748
LEye coords (641.2369, 306.7678), REye coords (582.3525, 420.1222), timeStamp: 2017-02-16 10:39:58.781
LEye coords (644.6835, 300.0233), REye coords (580.0377, 420.4321), timeStamp: 2017-02-16 10:39:58.815
LEye coords (638.8574, 315.5056), REye coords (579.7249, 423.5395), timeStamp: 2017-02-16 10:39:58.859
LEye coords (641.7462, 312.4066), REye coords (578.4239, 423.5008), timeStamp: 2017-02-16 10:39:58.893
LEye coords (640.7661, 309.1907), REye coords (576.0955, 425.6264), timeStamp: 2017-02-16 10:39:58.927
LEye coords (639.429, 303.0515), REye coords (575.0988, 425.1126), timeStamp: 2017-02-16 10:39:58.970
LEye coords (639.4416, 302.8827), REye coords (575.0971, 424.1183), timeStamp: 2017-02-16 10:39:59.003
LEye coords (638.1948, 301.9184), REye coords (575.199, 422.9324), timeStamp: 2017-02-16 10:39:59.036
LEye coords (637.3221, 299.1555), REye coords (575.6818, 423.4073), timeStamp: 2017-02-16 10:39:59.080
LEye coords (636.3966, 300.1374), REye coords (574.6933, 423.1582), timeStamp: 2017-02-16 10:39:59.114
LEye coords (636.3805, 298.4083), REye coords (576.463, 421.7092), timeStamp: 2017-02-16 10:39:59.147
LEye coords (635.7838, 298.75), REye coords (577.0142, 422.0448), timeStamp: 2017-02-16 10:39:59.191
LEye coords (634.3796, 295.7659), REye coords (577.0378, 421.9389), timeStamp: 2017-02-16 10:39:59.225
LEye coords (633.0318, 296.3207), REye coords (578.3763, 421.295), timeStamp: 2017-02-16 10:39:59.258
LEye coords (631.9398, 295.6804), REye coords (578.4059, 421.3707), timeStamp: 2017-02-16 10:39:59.302
LEye coords (631.7217, 295.4565), REye coords (578.7479, 421.5063), timeStamp: 2017-02-16 10:39:59.334
LEye coords (632.5801, 297.1403), REye coords (578.9089, 421.6715), timeStamp: 2017-02-16 10:39:59.377
LEye coords (632.7905, 297.4976), REye coords (579.0752, 421.2338), timeStamp: 2017-02-16 10:39:59.410
LEye coords (633.4712, 298.1528), REye coords (578.8221, 422.1369), timeStamp: 2017-02-16 10:39:59.444
LEye coords (633.2614, 297.4458), REye coords (578.8435, 422.0178), timeStamp: 2017-02-16 10:39:59.489
LEye coords (633.6885, 297.7878), REye coords (579.4485, 421.1707), timeStamp: 2017-02-16 10:39:59.523
LEye coords (633.2634, 297.6208), REye coords (579.3678, 420.3218), timeStamp: 2017-02-16 10:39:59.555
LEye coords (633.3873, 297.9178), REye coords (579.3343, 420.1473), timeStamp: 2017-02-16 10:39:59.599
LEye coords (633.2341, 297.8643), REye coords (579.4495, 420.1943), timeStamp: 2017-02-16 10:39:59.633
LEye coords (633.6801, 297.3963), REye coords (579.7657, 418.721), timeStamp: 2017-02-16 10:39:59.666
LEye coords (633.178, 297.1154), REye coords (579.7423, 418.0117), timeStamp: 2017-02-16 10:39:59.709
LEye coords (633.3047, 297.2719), REye coords (578.9401, 418.0075), timeStamp: 2017-02-16 10:39:59.743
LEye coords (633.6189, 297.5844), REye coords (578.6036, 418.06), timeStamp: 2017-02-16 10:39:59.776
LEye coords (633.7457, 297.4003), REye coords (579.1157, 417.5936), timeStamp: 2017-02-16 10:39:59.819
LEye coords (634.4412, 297.5032), REye coords (578.6113, 418.5085), timeStamp: 2017-02-16 10:39:59.853
LEye coords (634.4547, 297.6183), REye coords (577.6732, 419.0131), timeStamp: 2017-02-16 10:39:59.897
LEye coords (634.1703, 296.7805), REye coords (578.3365, 418.4121), timeStamp: 2017-02-16 10:39:59.930
LEye coords (634.0228, 295.6486), REye coords (578.0554, 417.464), timeStamp: 2017-02-16 10:39:59.964
LEye coords (633.2999, 294.6376), REye coords (577.5416, 418.3624), timeStamp: 2017-02-16 10:40:00.007
LEye coords (633.7691, 295.3409), REye coords (577.3342, 418.5407), timeStamp: 2017-02-16 10:40:00.041
LEye coords (634.2555, 295.2494), REye coords (577.5237, 418.5686), timeStamp: 2017-02-16 10:40:00.074
LEye coords (634.5759, 295.7787), REye coords (577.8856, 418.9396), timeStamp: 2017-02-16 10:40:00.118
LEye coords (634.5704, 294.9427), REye coords (577.079, 419.232), timeStamp: 2017-02-16 10:40:00.151
LEye coords (634.8626, 295.3435), REye coords (577.4444, 419.0759), timeStamp: 2017-02-16 10:40:00.185
LEye coords (634.613, 295.7675), REye coords (577.8005, 419.3286), timeStamp: 2017-02-16 10:40:00.228
LEye coords (635.0799, 295.6921), REye coords (577.3849, 419.1322), timeStamp: 2017-02-16 10:40:00.261
LEye coords (634.5743, 294.5126), REye coords (577.3688, 419.4102), timeStamp: 2017-02-16 10:40:00.295
LEye coords (634.4688, 295.8921), REye coords (577.1315, 419.046), timeStamp: 2017-02-16 10:40:00.338
LEye coords (633.8572, 295.3276), REye coords (577.0423, 419.1413), timeStamp: 2017-02-16 10:40:00.371
LEye coords (633.7748, 295.6123), REye coords (576.5253, 419.7899), timeStamp: 2017-02-16 10:40:00.406
LEye coords (633.1013, 295.4937), REye coords (576.9005, 420.3766), timeStamp: 2017-02-16 10:40:00.449
LEye coords (632.7969, 295.421), REye coords (577.1313, 421.843), timeStamp: 2017-02-16 10:40:00.482
LEye coords (633.0798, 297.046), REye coords (577.3309, 422.2942), timeStamp: 2017-02-16 10:40:00.516
LEye coords (633.159, 298.3407), REye coords (577.8113, 423.2053), timeStamp: 2017-02-16 10:40:00.559
LEye coords (633.108, 298.9175), REye coords (578.022, 423.8754), timeStamp: 2017-02-16 10:40:00.593
LEye coords (632.9235, 300.2127), REye coords (577.7024, 424.7729), timeStamp: 2017-02-16 10:40:00.628
LEye coords (632.728, 300.704), REye coords (577.9952, 425.1746), timeStamp: 2017-02-16 10:40:00.671
LEye coords (633.149, 301.8148), REye coords (578.0732, 424.8811), timeStamp: 2017-02-16 10:40:00.704
LEye coords (633.0413, 302.484), REye coords (578.4563, 424.635), timeStamp: 2017-02-16 10:40:00.748
LEye coords (632.862, 302.9103), REye coords (579.1503, 425.9409), timeStamp: 2017-02-16 10:40:00.782
LEye coords (633.0649, 303.5504), REye coords (579.8188, 426.1089), timeStamp: 2017-02-16 10:40:00.815
LEye coords (632.8839, 303.91), REye coords (580.5161, 426.5964), timeStamp: 2017-02-16 10:40:00.849
LEye coords (633.7448, 305.7125), REye coords (581.0323, 427.4093), timeStamp: 2017-02-16 10:40:00.892
LEye coords (634.3765, 305.9665), REye coords (581.5466, 426.4897), timeStamp: 2017-02-16 10:40:00.926
LEye coords (635.0165, 306.9086), REye coords (582.0678, 426.3569), timeStamp: 2017-02-16 10:40:00.969
LEye coords (635.3513, 308.1216), REye coords (581.705, 427.5082), timeStamp: 2017-02-16 10:40:01.003
LEye coords (636.3127, 309.545), REye coords (582.1894, 427.8029), timeStamp: 2017-02-16 10:40:01.037
LEye coords (636.7467, 311.1205), REye coords (582.5157, 427.309), timeStamp: 2017-02-16 10:40:01.081
LEye coords (637.6362, 313.0677), REye coords (583.6429, 426.5714), timeStamp: 2017-02-16 10:40:01.114
LEye coords (638.4753, 314.2809), REye coords (583.1205, 427.4046), timeStamp: 2017-02-16 10:40:01.146
LEye coords (639.7612, 315.3889), REye coords (582.8261, 427.6143), timeStamp: 2017-02-16 10:40:01.190
LEye coords (641.1469, 316.7813), REye coords (582.2557, 427.9587), timeStamp: 2017-02-16 10:40:01.224
LEye coords (642.2042, 317.8186), REye coords (582.0984, 427.5714), timeStamp: 2017-02-16 10:40:01.258
LEye coords (642.7951, 318.6213), REye coords (581.4371, 426.8702), timeStamp: 2017-02-16 10:40:01.303
LEye coords (643.6017, 319.4662), REye coords (580.9288, 426.9336), timeStamp: 2017-02-16 10:40:01.336
LEye coords (643.8885, 319.4813), REye coords (579.7277, 426.9802), timeStamp: 2017-02-16 10:40:01.370
LEye coords (643.8168, 319.6991), REye coords (579.6137, 427.5718), timeStamp: 2017-02-16 10:40:01.405
LEye coords (644.3341, 320.1284), REye coords (579.3472, 428.3437), timeStamp: 2017-02-16 10:40:01.448
LEye coords (644.2747, 319.7818), REye coords (578.9529, 428.217), timeStamp: 2017-02-16 10:40:01.482
LEye coords (645.0625, 319.5302), REye coords (577.941, 429.5432), timeStamp: 2017-02-16 10:40:01.515
LEye coords (645.9003, 320.6724), REye coords (576.6998, 430.9571), timeStamp: 2017-02-16 10:40:01.559
LEye coords (646.7695, 321.897), REye coords (575.8359, 431.2686), timeStamp: 2017-02-16 10:40:01.593
LEye coords (647.0731, 322.2833), REye coords (575.1042, 431.5694), timeStamp: 2017-02-16 10:40:01.627
LEye coords (646.8242, 321.5779), REye coords (574.8304, 431.5225), timeStamp: 2017-02-16 10:40:01.670
LEye coords (645.3239, 320.5169), REye coords (574.0762, 432.0497), timeStamp: 2017-02-16 10:40:01.703
LEye coords (644.6047, 320.2349), REye coords (573.7395, 431.9841), timeStamp: 2017-02-16 10:40:01.738
LEye coords (644.4937, 320.1678), REye coords (573.524, 432.8319), timeStamp: 2017-02-16 10:40:01.783
LEye coords (644.6771, 319.9825), REye coords (573.5854, 432.7248), timeStamp: 2017-02-16 10:40:01.817
LEye coords (644.9661, 318.9614), REye coords (573.2264, 433.3696), timeStamp: 2017-02-16 10:40:01.850
LEye coords (645.1794, 318.1525), REye coords (573.2153, 434.4932), timeStamp: 2017-02-16 10:40:01.894
LEye coords (644.8092, 317.9895), REye coords (573.4694, 435.7081), timeStamp: 2017-02-16 10:40:01.927
LEye coords (644.6222, 316.9188), REye coords (574.6177, 435.2856), timeStamp: 2017-02-16 10:40:01.961
LEye coords (644.5553, 316.9111), REye coords (575.6001, 435.5426), timeStamp: 2017-02-16 10:40:02.005
LEye coords (644.1253, 316.6181), REye coords (576.5035, 435.4489), timeStamp: 2017-02-16 10:40:02.038
LEye coords (643.8686, 315.9648), REye coords (577.6868, 434.3701), timeStamp: 2017-02-16 10:40:02.071
LEye coords (643.7599, 316.2382), REye coords (578.7741, 434.1905), timeStamp: 2017-02-16 10:40:02.114
LEye coords (644.8514, 315.5586), REye coords (580.4637, 435.1108), timeStamp: 2017-02-16 10:40:02.148
LEye coords (645.7558, 315.6737), REye coords (582.9156, 435.0249), timeStamp: 2017-02-16 10:40:02.181
LEye coords (646.5316, 315.17), REye coords (586.0431, 433.3472), timeStamp: 2017-02-16 10:40:02.224
LEye coords (647.1788, 315.298), REye coords (587.8867, 434.1246), timeStamp: 2017-02-16 10:40:02.258
LEye coords (647.191, 313.7937), REye coords (589.8008, 435.1584), timeStamp: 2017-02-16 10:40:02.300
LEye coords (647.5891, 312.7708), REye coords (591.3904, 435.2408), timeStamp: 2017-02-16 10:40:02.334
LEye coords (648.062, 311.2204), REye coords (593.3503, 435.5818), timeStamp: 2017-02-16 10:40:02.367
LEye coords (648.5044, 310.1857), REye coords (594.7614, 435.0974), timeStamp: 2017-02-16 10:40:02.411
LEye coords (648.3934, 308.8029), REye coords (595.6137, 436.2774), timeStamp: 2017-02-16 10:40:02.444
