LEye coords (1172.818, 462.5829), REye coords (1181.4379, 473.0537), timeStamp: 2017-02-16 10:40:11.068
LEye coords (1172.9539, 462.2467), REye coords (1181.5519, 472.6594), timeStamp: 2017-02-16 10:40:11.101
LEye coords (1172.8898, 462.1257), REye coords (1182.3878, 471.6472), timeStamp: 2017-02-16 10:40:11.145
LEye coords (1172.6517, 461.8697), REye coords (1182.4723, 470.7969), timeStamp: 2017-02-16 10:40:11.179
LEye coords (1173.233, 461.4576), REye coords (1183.1492, 469.8149), timeStamp: 2017-02-16 10:40:11.212
LEye coords (1173.3667, 461.5466), REye coords (1183.5737, 468.979), timeStamp: 2017-02-16 10:40:11.256
LEye coords (1172.8513, 461.2087), REye coords (1183.2261, 468.1772), timeStamp: 2017-02-16 10:40:11.290
LEye coords (1169.0178, 462.8809), REye coords (1179.586, 468.539), timeStamp: 2017-02-16 10:40:11.333
LEye coords (715.1778, 650.7032), REye coords (707.196, 622.8241), timeStamp: 2017-02-16 10:40:11.366
LEye coords (705.199, 653.1449), REye coords (706.4825, 621.5419), timeStamp: 2017-02-16 10:40:11.398
LEye coords (706.7977, 653.7546), REye coords (702.7986, 622.6548), timeStamp: 2017-02-16 10:40:11.442
LEye coords (703.4943, 649.7209), REye coords (702.7631, 620.4948), timeStamp: 2017-02-16 10:40:11.475
LEye coords (701.8737, 651.1389), REye coords (701.165, 621.2321), timeStamp: 2017-02-16 10:40:11.518
LEye coords (700.868, 658.6141), REye coords (693.0696, 627.162), timeStamp: 2017-02-16 10:40:11.552
LEye coords (779.9731, 685.846), REye coords (816.9297, 663.7216), timeStamp: 2017-02-16 10:40:11.585
LEye coords (782.3461, 685.4343), REye coords (812.7391, 664.0916), timeStamp: 2017-02-16 10:40:11.628
LEye coords (782.1974, 687.227), REye coords (809.5526, 664.1541), timeStamp: 2017-02-16 10:40:11.662
LEye coords (781.8208, 693.4815), REye coords (811.2473, 662.1277), timeStamp: 2017-02-16 10:40:11.696
LEye coords (784.2368, 693.2587), REye coords (811.7182, 662.9313), timeStamp: 2017-02-16 10:40:11.739
LEye coords (784.1229, 695.3273), REye coords (810.8952, 658.6669), timeStamp: 2017-02-16 10:40:11.773
LEye coords (785.4697, 695.8505), REye coords (809.4664, 656.0984), timeStamp: 2017-02-16 10:40:11.807
LEye coords (784.7051, 694.8471), REye coords (808.0366, 653.0095), timeStamp: 2017-02-16 10:40:11.851
LEye coords (783.6712, 694.0322), REye coords (807.0931, 655.4968), timeStamp: 2017-02-16 10:40:11.884
LEye coords (783.6045, 695.3306), REye coords (805.6705, 657.5886), timeStamp: 2017-02-16 10:40:11.917
LEye coords (783.6111, 696.593), REye coords (806.1417, 656.8832), timeStamp: 2017-02-16 10:40:11.960
LEye coords (783.2862, 696.2983), REye coords (806.0999, 656.1254), timeStamp: 2017-02-16 10:40:11.992
LEye coords (782.83, 696.2659), REye coords (805.1542, 655.2532), timeStamp: 2017-02-16 10:40:12.036
LEye coords (782.5287, 696.3124), REye coords (804.3872, 654.9261), timeStamp: 2017-02-16 10:40:12.069
LEye coords (781.8976, 695.427), REye coords (803.7528, 655.9951), timeStamp: 2017-02-16 10:40:12.104
LEye coords (782.0886, 695.3544), REye coords (804.4934, 655.5397), timeStamp: 2017-02-16 10:40:12.148
LEye coords (781.6963, 695.1826), REye coords (804.7758, 655.2816), timeStamp: 2017-02-16 10:40:12.181
LEye coords (781.4948, 695.0778), REye coords (804.5077, 653.4875), timeStamp: 2017-02-16 10:40:12.213
LEye coords (782.0711, 694.0667), REye coords (804.2935, 652.9629), timeStamp: 2017-02-16 10:40:12.257
LEye coords (782.2689, 693.8376), REye coords (804.4452, 652.8264), timeStamp: 2017-02-16 10:40:12.290
LEye coords (781.6815, 694.1236), REye coords (804.5897, 653.4822), timeStamp: 2017-02-16 10:40:12.323
LEye coords (781.8972, 693.7203), REye coords (805.506, 653.7451), timeStamp: 2017-02-16 10:40:12.366
LEye coords (781.6633, 694.6359), REye coords (806.5947, 653.4554), timeStamp: 2017-02-16 10:40:12.399
LEye coords (781.9564, 695.7465), REye coords (806.8354, 653.443), timeStamp: 2017-02-16 10:40:12.443
LEye coords (781.5628, 695.934), REye coords (807.069, 653.749), timeStamp: 2017-02-16 10:40:12.476
LEye coords (781.2324, 696.3701), REye coords (806.7147, 653.8896), timeStamp: 2017-02-16 10:40:12.509
LEye coords (780.5862, 697.5911), REye coords (806.8555, 653.5074), timeStamp: 2017-02-16 10:40:12.553
LEye coords (780.3256, 698.4387), REye coords (806.9481, 654.3596), timeStamp: 2017-02-16 10:40:12.587
LEye coords (780.0795, 698.3036), REye coords (807.8102, 654.4854), timeStamp: 2017-02-16 10:40:12.622
LEye coords (780.5533, 698.9442), REye coords (808.8475, 653.73), timeStamp: 2017-02-16 10:40:12.655
LEye coords (781.8661, 698.8577), REye coords (809.1471, 653.6659), timeStamp: 2017-02-16 10:40:12.699
LEye coords (782.4562, 698.7982), REye coords (809.9194, 653.3363), timeStamp: 2017-02-16 10:40:12.733
LEye coords (782.8295, 698.6797), REye coords (810.3149, 653.2801), timeStamp: 2017-02-16 10:40:12.767
LEye coords (782.9943, 699.6263), REye coords (811.099, 652.6101), timeStamp: 2017-02-16 10:40:12.811
LEye coords (783.5154, 700.1262), REye coords (812.8353, 652.9531), timeStamp: 2017-02-16 10:40:12.845
LEye coords (784.0638, 700.2727), REye coords (813.9854, 652.5929), timeStamp: 2017-02-16 10:40:12.878
LEye coords (784.5986, 701.0066), REye coords (814.2704, 652.9199), timeStamp: 2017-02-16 10:40:12.922
LEye coords (784.2444, 702.4497), REye coords (814.563, 653.7176), timeStamp: 2017-02-16 10:40:12.956
LEye coords (784.231, 703.0035), REye coords (815.5875, 654.6907), timeStamp: 2017-02-16 10:40:12.989
LEye coords (784.6252, 703.7204), REye coords (815.1879, 655.4471), timeStamp: 2017-02-16 10:40:13.033
LEye coords (785.0648, 704.3134), REye coords (815.9891, 655.2372), timeStamp: 2017-02-16 10:40:13.066
LEye coords (785.3571, 705.2081), REye coords (817.0638, 655.3745), timeStamp: 2017-02-16 10:40:13.110
LEye coords (785.9095, 705.3871), REye coords (817.4972, 655.3672), timeStamp: 2017-02-16 10:40:13.143
LEye coords (786.384, 706.4214), REye coords (818.1956, 655.9194), timeStamp: 2017-02-16 10:40:13.177
LEye coords (786.5283, 707.3471), REye coords (818.8021, 655.5866), timeStamp: 2017-02-16 10:40:13.211
LEye coords (785.8412, 706.6329), REye coords (819.2048, 655.963), timeStamp: 2017-02-16 10:40:13.254
LEye coords (785.9889, 706.3976), REye coords (820.4111, 656.0313), timeStamp: 2017-02-16 10:40:13.288
LEye coords (785.3907, 706.8842), REye coords (821.0504, 657.0483), timeStamp: 2017-02-16 10:40:13.322
LEye coords (785.276, 706.7272), REye coords (821.8251, 658.1082), timeStamp: 2017-02-16 10:40:13.366
LEye coords (785.4136, 706.7171), REye coords (822.2548, 658.5836), timeStamp: 2017-02-16 10:40:13.399
LEye coords (785.9149, 707.2831), REye coords (822.446, 659.6058), timeStamp: 2017-02-16 10:40:13.433
LEye coords (785.6989, 707.2148), REye coords (822.5549, 660.7645), timeStamp: 2017-02-16 10:40:13.477
LEye coords (785.8589, 707.4347), REye coords (822.8847, 661.929), timeStamp: 2017-02-16 10:40:13.511
LEye coords (786.1669, 706.8616), REye coords (822.5798, 663.2129), timeStamp: 2017-02-16 10:40:13.545
LEye coords (786.4553, 706.0821), REye coords (822.7084, 663.6591), timeStamp: 2017-02-16 10:40:13.589
LEye coords (782.3234, 706.066), REye coords (818.5297, 666.0751), timeStamp: 2017-02-16 10:40:13.622
LEye coords (779.6208, 707.5953), REye coords (814.5779, 669.5245), timeStamp: 2017-02-16 10:40:13.656
LEye coords (776.6504, 709.1708), REye coords (811.1803, 671.6371), timeStamp: 2017-02-16 10:40:13.700
LEye coords (773.7692, 710.4761), REye coords (807.9466, 673.6757), timeStamp: 2017-02-16 10:40:13.733
LEye coords (771.2109, 712.416), REye coords (804.5766, 675.4599), timeStamp: 2017-02-16 10:40:13.767
LEye coords (768.7881, 714.2911), REye coords (801.2563, 677.0731), timeStamp: 2017-02-16 10:40:13.811
LEye coords (766.3845, 716.6083), REye coords (799.3372, 678.387), timeStamp: 2017-02-16 10:40:13.844
LEye coords (763.874, 718.6162), REye coords (796.554, 680.8122), timeStamp: 2017-02-16 10:40:13.878
LEye coords (761.2842, 720.2751), REye coords (792.7224, 682.6025), timeStamp: 2017-02-16 10:40:13.921
LEye coords (759.9626, 721.3132), REye coords (789.603, 684.5004), timeStamp: 2017-02-16 10:40:13.954
LEye coords (757.2775, 721.3722), REye coords (786.9832, 685.5903), timeStamp: 2017-02-16 10:40:13.988
LEye coords (755.2386, 722.2397), REye coords (784.3461, 687.9308), timeStamp: 2017-02-16 10:40:14.033
LEye coords (753.3079, 723.7), REye coords (782.0494, 688.6729), timeStamp: 2017-02-16 10:40:14.066
LEye coords (752.174, 725.248), REye coords (779.8134, 689.3436), timeStamp: 2017-02-16 10:40:14.100
LEye coords (750.7054, 724.7711), REye coords (778.7857, 689.2376), timeStamp: 2017-02-16 10:40:14.144
LEye coords (749.237, 725.393), REye coords (777.532, 690.0426), timeStamp: 2017-02-16 10:40:14.179
LEye coords (747.6534, 726.1296), REye coords (775.8823, 690.6207), timeStamp: 2017-02-16 10:40:14.211
LEye coords (746.5988, 727.1614), REye coords (774.9504, 690.4489), timeStamp: 2017-02-16 10:40:14.258
LEye coords (746.4175, 727.5029), REye coords (773.8789, 691.309), timeStamp: 2017-02-16 10:40:14.290
LEye coords (745.6812, 729.082), REye coords (773.5511, 691.1168), timeStamp: 2017-02-16 10:40:14.323
LEye coords (746.6419, 730.7283), REye coords (773.6932, 691.2651), timeStamp: 2017-02-16 10:40:14.368
LEye coords (747.7812, 732.0737), REye coords (773.3459, 691.0605), timeStamp: 2017-02-16 10:40:14.400
LEye coords (749.7648, 733.3655), REye coords (775.0246, 690.8892), timeStamp: 2017-02-16 10:40:14.433
LEye coords (753.229, 731.5117), REye coords (778.4446, 688.2681), timeStamp: 2017-02-16 10:40:14.477
LEye coords (756.0031, 729.7298), REye coords (780.421, 686.305), timeStamp: 2017-02-16 10:40:14.511
LEye coords (758.8558, 728.23), REye coords (782.9098, 685.1251), timeStamp: 2017-02-16 10:40:14.544
LEye coords (761.4837, 726.6057), REye coords (785.1503, 684.2903), timeStamp: 2017-02-16 10:40:14.589
LEye coords (764.3736, 724.8976), REye coords (787.3279, 682.5508), timeStamp: 2017-02-16 10:40:14.622
LEye coords (766.9614, 722.5201), REye coords (788.566, 680.3958), timeStamp: 2017-02-16 10:40:14.657
LEye coords (769.5606, 720.0458), REye coords (790.9518, 678.903), timeStamp: 2017-02-16 10:40:14.691
LEye coords (771.5483, 719.2699), REye coords (792.9363, 678.2216), timeStamp: 2017-02-16 10:40:14.736
LEye coords (772.5411, 717.7523), REye coords (794.9833, 677.0915), timeStamp: 2017-02-16 10:40:14.770
LEye coords (775.1135, 717.18), REye coords (797.2192, 675.9623), timeStamp: 2017-02-16 10:40:14.805
LEye coords (776.2468, 716.5599), REye coords (798.8039, 674.9148), timeStamp: 2017-02-16 10:40:14.848
LEye coords (777.0583, 715.0161), REye coords (800.6645, 673.6136), timeStamp: 2017-02-16 10:40:14.882
LEye coords (778.0031, 713.9431), REye coords (802.4736, 673.2247), timeStamp: 2017-02-16 10:40:14.916
LEye coords (779.6476, 712.4157), REye coords (803.6426, 671.6523), timeStamp: 2017-02-16 10:40:14.960
LEye coords (780.6235, 712.2021), REye coords (805.2028, 669.4067), timeStamp: 2017-02-16 10:40:14.994
LEye coords (782.1796, 711.9886), REye coords (806.5812, 668.344), timeStamp: 2017-02-16 10:40:15.027
LEye coords (783.9037, 711.9591), REye coords (808.181, 667.4495), timeStamp: 2017-02-16 10:40:15.071
LEye coords (784.9567, 712.436), REye coords (809.6124, 666.1251), timeStamp: 2017-02-16 10:40:15.104
LEye coords (786.317, 711.5984), REye coords (810.8757, 664.912), timeStamp: 2017-02-16 10:40:15.138
