LEye coords (649.3632, 308.2282), REye coords (596.8685, 435.7019), timeStamp: 2017-02-16 10:40:02.487
LEye coords (649.9308, 307.1671), REye coords (599.9679, 431.8188), timeStamp: 2017-02-16 10:40:02.520
LEye coords (650.8238, 305.8546), REye coords (601.5321, 430.823), timeStamp: 2017-02-16 10:40:02.554
LEye coords (651.6552, 304.433), REye coords (603.093, 429.9499), timeStamp: 2017-02-16 10:40:02.600
LEye coords (651.7643, 302.7091), REye coords (605.428, 425.2744), timeStamp: 2017-02-16 10:40:02.633
LEye coords (651.2341, 301.3291), REye coords (607.222, 423.8522), timeStamp: 2017-02-16 10:40:02.665
LEye coords (651.5349, 299.6707), REye coords (607.8763, 423.6522), timeStamp: 2017-02-16 10:40:02.700
LEye coords (652.3613, 299.9861), REye coords (609.9149, 420.3537), timeStamp: 2017-02-16 10:40:02.744
LEye coords (653.369, 301.0139), REye coords (611.0651, 419.7451), timeStamp: 2017-02-16 10:40:02.779
LEye coords (653.9713, 300.6709), REye coords (611.8467, 419.1219), timeStamp: 2017-02-16 10:40:02.812
LEye coords (954.9557, 151.4062), REye coords (937.1069, 199.2881), timeStamp: 2017-02-16 10:40:02.856
LEye coords (943.6757, 168.1976), REye coords (949.8707, 192.345), timeStamp: 2017-02-16 10:40:02.890
LEye coords (942.9695, 166.0665), REye coords (949.8839, 186.7278), timeStamp: 2017-02-16 10:40:02.924
LEye coords (946.1822, 165.5209), REye coords (949.6389, 186.2208), timeStamp: 2017-02-16 10:40:02.967
LEye coords (946.7651, 166.3276), REye coords (949.7723, 187.4656), timeStamp: 2017-02-16 10:40:03.001
LEye coords (944.5667, 156.7242), REye coords (966.2709, 153.21), timeStamp: 2017-02-16 10:40:03.035
LEye coords (954.2357, 158.1704), REye coords (954.4125, 176.5044), timeStamp: 2017-02-16 10:40:03.080
LEye coords (952.4913, 158.4421), REye coords (952.0904, 177.2068), timeStamp: 2017-02-16 10:40:03.113
LEye coords (938.5578, 156.2466), REye coords (941.8766, 159.3987), timeStamp: 2017-02-16 10:40:03.146
LEye coords (906.7325, 154.0305), REye coords (898.9061, 137.6494), timeStamp: 2017-02-16 10:40:03.189
LEye coords (885.8993, 152.91), REye coords (754.3194, 75.6), timeStamp: 2017-02-16 10:40:03.223
LEye coords (872.2797, 151.7832), REye coords (751.531, 88.7899), timeStamp: 2017-02-16 10:40:03.256
LEye coords (861.3229, 151.8057), REye coords (752.6894, 86.8867), timeStamp: 2017-02-16 10:40:03.299
LEye coords (853.476, 150.8541), REye coords (753.8158, 86.7968), timeStamp: 2017-02-16 10:40:03.332
LEye coords (847.9052, 149.7087), REye coords (752.753, 86.9577), timeStamp: 2017-02-16 10:40:03.366
LEye coords (843.1605, 149.1479), REye coords (752.9498, 87.1578), timeStamp: 2017-02-16 10:40:03.409
LEye coords (767.2748, 166.7429), REye coords (754.778, 87.3251), timeStamp: 2017-02-16 10:40:03.443
LEye coords (0.0, 0.0), REye coords (0.0, 0.0), timeStamp: 2017-02-16 10:40:03.477
LEye coords (0.0, 0.0), REye coords (0.0, 0.0), timeStamp: 2017-02-16 10:40:03.521
LEye coords (0.0, 0.0), REye coords (0.0, 0.0), timeStamp: 2017-02-16 10:40:03.555
LEye coords (912.1735, 176.2765), REye coords (886.7324, 45.3156), timeStamp: 2017-02-16 10:40:03.589
LEye coords (897.4442, 116.729), REye coords (867.4214, 41.4156), timeStamp: 2017-02-16 10:40:03.632
LEye coords (894.8536, 104.2507), REye coords (873.951, 36.9136), timeStamp: 2017-02-16 10:40:03.666
LEye coords (893.1953, 96.549), REye coords (873.3023, 40.7176), timeStamp: 2017-02-16 10:40:03.698
LEye coords (892.681, 94.2624), REye coords (874.0084, 40.5062), timeStamp: 2017-02-16 10:40:03.742
LEye coords (892.4377, 90.341), REye coords (875.5815, 42.5791), timeStamp: 2017-02-16 10:40:03.776
LEye coords (892.0972, 89.1102), REye coords (876.9731, 38.6419), timeStamp: 2017-02-16 10:40:03.810
LEye coords (893.3878, 90.4663), REye coords (879.5647, 55.3373), timeStamp: 2017-02-16 10:40:03.853
LEye coords (894.0891, 90.2441), REye coords (880.3165, 52.3426), timeStamp: 2017-02-16 10:40:03.887
LEye coords (894.1451, 89.5), REye coords (885.046, 51.6515), timeStamp: 2017-02-16 10:40:03.921
LEye coords (894.2341, 90.0299), REye coords (885.0665, 51.1184), timeStamp: 2017-02-16 10:40:03.964
LEye coords (894.4187, 91.0481), REye coords (884.515, 50.7701), timeStamp: 2017-02-16 10:40:03.997
LEye coords (895.8017, 91.0112), REye coords (885.8713, 50.3545), timeStamp: 2017-02-16 10:40:04.040
LEye coords (896.4185, 90.827), REye coords (885.4041, 51.5083), timeStamp: 2017-02-16 10:40:04.074
LEye coords (897.5023, 91.8309), REye coords (885.446, 51.7629), timeStamp: 2017-02-16 10:40:04.107
LEye coords (898.6146, 91.7072), REye coords (886.8295, 51.1603), timeStamp: 2017-02-16 10:40:04.151
LEye coords (899.4445, 91.7803), REye coords (887.1832, 51.3187), timeStamp: 2017-02-16 10:40:04.184
LEye coords (901.0969, 91.5528), REye coords (886.1511, 52.2175), timeStamp: 2017-02-16 10:40:04.217
LEye coords (902.0118, 91.6111), REye coords (885.7301, 51.9139), timeStamp: 2017-02-16 10:40:04.262
LEye coords (903.6081, 92.0589), REye coords (885.2522, 52.6195), timeStamp: 2017-02-16 10:40:04.295
LEye coords (904.5194, 91.3967), REye coords (885.2933, 53.6287), timeStamp: 2017-02-16 10:40:04.337
LEye coords (906.3814, 88.9319), REye coords (885.5035, 54.2917), timeStamp: 2017-02-16 10:40:04.370
LEye coords (913.9167, 94.4585), REye coords (886.1334, 54.7836), timeStamp: 2017-02-16 10:40:04.403
LEye coords (916.4788, 95.8792), REye coords (886.4245, 55.2915), timeStamp: 2017-02-16 10:40:04.447
LEye coords (915.3973, 97.4327), REye coords (886.8672, 55.8802), timeStamp: 2017-02-16 10:40:04.480
LEye coords (916.947, 98.3501), REye coords (887.0642, 56.3304), timeStamp: 2017-02-16 10:40:04.513
LEye coords (917.9371, 98.2623), REye coords (887.3756, 57.0358), timeStamp: 2017-02-16 10:40:04.556
LEye coords (918.4052, 99.061), REye coords (886.8148, 57.7688), timeStamp: 2017-02-16 10:40:04.589
LEye coords (919.3952, 96.6969), REye coords (886.6619, 58.1285), timeStamp: 2017-02-16 10:40:04.633
LEye coords (919.9146, 95.9285), REye coords (886.539, 58.8688), timeStamp: 2017-02-16 10:40:04.666
LEye coords (921.6124, 95.8849), REye coords (886.2917, 59.6937), timeStamp: 2017-02-16 10:40:04.701
LEye coords (925.5593, 96.9897), REye coords (887.8735, 60.4861), timeStamp: 2017-02-16 10:40:04.745
LEye coords (928.1855, 97.4103), REye coords (889.5065, 61.4407), timeStamp: 2017-02-16 10:40:04.778
LEye coords (929.8585, 98.2613), REye coords (890.8192, 63.0282), timeStamp: 2017-02-16 10:40:04.811
LEye coords (932.0077, 98.8514), REye coords (892.7672, 64.4392), timeStamp: 2017-02-16 10:40:04.853
LEye coords (933.5807, 98.8938), REye coords (893.6796, 65.994), timeStamp: 2017-02-16 10:40:04.887
LEye coords (934.8978, 99.7178), REye coords (895.2567, 67.2144), timeStamp: 2017-02-16 10:40:04.921
LEye coords (936.5692, 99.8391), REye coords (896.5765, 68.1728), timeStamp: 2017-02-16 10:40:04.964
LEye coords (938.0368, 99.9924), REye coords (898.1621, 69.4249), timeStamp: 2017-02-16 10:40:04.998
LEye coords (939.2903, 100.1939), REye coords (900.3672, 70.0536), timeStamp: 2017-02-16 10:40:05.032
LEye coords (939.8957, 101.0659), REye coords (902.4407, 71.3101), timeStamp: 2017-02-16 10:40:05.074
LEye coords (941.01, 100.8404), REye coords (902.8207, 73.5643), timeStamp: 2017-02-16 10:40:05.108
LEye coords (941.6995, 101.1364), REye coords (904.7888, 74.1053), timeStamp: 2017-02-16 10:40:05.152
LEye coords (942.8562, 101.6347), REye coords (907.02, 74.6914), timeStamp: 2017-02-16 10:40:05.185
LEye coords (943.4514, 101.415), REye coords (908.3965, 75.035), timeStamp: 2017-02-16 10:40:05.218
LEye coords (944.439, 101.8275), REye coords (909.2643, 77.0424), timeStamp: 2017-02-16 10:40:05.261
LEye coords (945.4613, 102.3792), REye coords (910.119, 78.7999), timeStamp: 2017-02-16 10:40:05.294
LEye coords (945.9786, 102.403), REye coords (911.3522, 80.2929), timeStamp: 2017-02-16 10:40:05.327
LEye coords (947.5001, 102.5871), REye coords (912.7297, 81.3899), timeStamp: 2017-02-16 10:40:05.371
LEye coords (948.3879, 102.2039), REye coords (914.201, 82.5163), timeStamp: 2017-02-16 10:40:05.404
LEye coords (948.8276, 102.8257), REye coords (914.9116, 83.5853), timeStamp: 2017-02-16 10:40:05.447
LEye coords (948.8917, 103.0717), REye coords (914.7309, 85.1997), timeStamp: 2017-02-16 10:40:05.481
LEye coords (948.9166, 103.1048), REye coords (915.7097, 85.5445), timeStamp: 2017-02-16 10:40:05.514
LEye coords (948.3959, 103.5219), REye coords (915.1697, 86.5597), timeStamp: 2017-02-16 10:40:05.557
LEye coords (948.7726, 103.7701), REye coords (915.6453, 87.2549), timeStamp: 2017-02-16 10:40:05.590
LEye coords (949.4644, 104.3851), REye coords (915.3083, 87.8175), timeStamp: 2017-02-16 10:40:05.624
LEye coords (949.1559, 104.6806), REye coords (914.8408, 88.7858), timeStamp: 2017-02-16 10:40:05.668
LEye coords (948.7656, 105.3648), REye coords (914.6232, 89.4334), timeStamp: 2017-02-16 10:40:05.701
LEye coords (948.8906, 106.7949), REye coords (914.7372, 90.2908), timeStamp: 2017-02-16 10:40:05.744
LEye coords (949.2148, 107.7859), REye coords (915.0019, 91.6215), timeStamp: 2017-02-16 10:40:05.778
LEye coords (949.099, 108.6977), REye coords (915.1029, 92.5157), timeStamp: 2017-02-16 10:40:05.810
LEye coords (949.4249, 108.9129), REye coords (915.0568, 93.1959), timeStamp: 2017-02-16 10:40:05.853
LEye coords (949.9673, 110.0542), REye coords (915.8354, 93.8284), timeStamp: 2017-02-16 10:40:05.886
LEye coords (949.4761, 110.5972), REye coords (916.7802, 93.6498), timeStamp: 2017-02-16 10:40:05.929
LEye coords (949.5072, 111.0878), REye coords (916.5178, 95.9143), timeStamp: 2017-02-16 10:40:05.963
LEye coords (949.1551, 110.6609), REye coords (916.4636, 96.5672), timeStamp: 2017-02-16 10:40:05.996
LEye coords (949.0977, 111.4607), REye coords (916.2886, 97.9035), timeStamp: 2017-02-16 10:40:06.030
LEye coords (948.6867, 111.605), REye coords (916.9351, 97.7743), timeStamp: 2017-02-16 10:40:06.074
LEye coords (949.0971, 113.3018), REye coords (918.6353, 97.1541), timeStamp: 2017-02-16 10:40:06.108
LEye coords (949.2906, 114.3785), REye coords (918.6682, 97.2536), timeStamp: 2017-02-16 10:40:06.142
LEye coords (949.0333, 115.7312), REye coords (918.6328, 96.9995), timeStamp: 2017-02-16 10:40:06.188
LEye coords (949.0975, 117.0116), REye coords (918.4413, 97.5023), timeStamp: 2017-02-16 10:40:06.221
LEye coords (948.9174, 118.1646), REye coords (918.4777, 98.1149), timeStamp: 2017-02-16 10:40:06.256
LEye coords (949.6392, 119.6991), REye coords (918.8982, 98.5476), timeStamp: 2017-02-16 10:40:06.299
LEye coords (949.6671, 119.966), REye coords (919.6784, 99.2049), timeStamp: 2017-02-16 10:40:06.332
LEye coords (949.8227, 120.5318), REye coords (920.5743, 99.7311), timeStamp: 2017-02-16 10:40:06.364
LEye coords (950.1639, 121.9129), REye coords (921.3981, 100.1611), timeStamp: 2017-02-16 10:40:06.407
LEye coords (0.0, 0.0), REye coords (921.5507, 100.2953), timeStamp: 2017-02-16 10:40:06.441
LEye coords (947.0712, 121.6467), REye coords (918.7833, 98.7314), timeStamp: 2017-02-16 10:40:06.484
LEye coords (944.0453, 122.2773), REye coords (916.2141, 97.2978), timeStamp: 2017-02-16 10:40:06.517
LEye coords (941.5348, 122.9874), REye coords (913.0601, 96.186), timeStamp: 2017-02-16 10:40:06.550
LEye coords (938.8074, 123.2959), REye coords (910.1565, 95.1321), timeStamp: 2017-02-16 10:40:06.595
LEye coords (936.0153, 124.2703), REye coords (906.6438, 94.5758), timeStamp: 2017-02-16 10:40:06.629
LEye coords (933.2686, 123.5759), REye coords (902.5403, 94.252), timeStamp: 2017-02-16 10:40:06.661
LEye coords (930.3109, 124.3276), REye coords (899.149, 93.7422), timeStamp: 2017-02-16 10:40:06.706
LEye coords (927.3358, 123.5758), REye coords (894.8144, 93.3802), timeStamp: 2017-02-16 10:40:06.739
LEye coords (924.1736, 122.5771), REye coords (890.8613, 93.1954), timeStamp: 2017-02-16 10:40:06.772
LEye coords (922.2822, 121.2503), REye coords (887.7894, 93.3805), timeStamp: 2017-02-16 10:40:06.815
