LEye coords (460.7643, 318.9483), REye coords (579.9282, 369.237), timeStamp: 2017-02-16 10:41:06.397
LEye coords (462.0605, 317.565), REye coords (578.6248, 368.2732), timeStamp: 2017-02-16 10:41:06.441
LEye coords (460.956, 316.2787), REye coords (577.6332, 368.5315), timeStamp: 2017-02-16 10:41:06.474
LEye coords (462.2953, 315.0106), REye coords (575.7501, 368.6933), timeStamp: 2017-02-16 10:41:06.507
LEye coords (461.3783, 314.2485), REye coords (573.8234, 370.398), timeStamp: 2017-02-16 10:41:06.552
LEye coords (457.5166, 308.6219), REye coords (572.0501, 372.1158), timeStamp: 2017-02-16 10:41:06.586
LEye coords (357.3036, 215.6644), REye coords (570.8363, 373.3751), timeStamp: 2017-02-16 10:41:06.621
LEye coords (378.6393, 243.1057), REye coords (569.2677, 373.5752), timeStamp: 2017-02-16 10:41:06.655
LEye coords (409.0254, 276.9326), REye coords (567.5985, 374.7164), timeStamp: 2017-02-16 10:41:06.699
LEye coords (421.7333, 277.5429), REye coords (566.1888, 376.1839), timeStamp: 2017-02-16 10:41:06.732
LEye coords (464.7347, 294.2237), REye coords (565.7559, 375.5252), timeStamp: 2017-02-16 10:41:06.766
LEye coords (381.5262, 248.6043), REye coords (562.5461, 372.9135), timeStamp: 2017-02-16 10:41:06.809
LEye coords (456.7354, 242.4576), REye coords (559.4224, 370.8096), timeStamp: 2017-02-16 10:41:06.843
LEye coords (410.1674, 227.6293), REye coords (556.6074, 367.1727), timeStamp: 2017-02-16 10:41:06.886
LEye coords (396.8178, 226.0005), REye coords (523.0232, 252.8821), timeStamp: 2017-02-16 10:41:06.919
LEye coords (432.5441, 247.2925), REye coords (519.0762, 314.3578), timeStamp: 2017-02-16 10:41:06.952
LEye coords (531.4301, 297.4779), REye coords (517.3463, 321.2634), timeStamp: 2017-02-16 10:41:06.997
LEye coords (754.0063, 441.8167), REye coords (595.4338, 400.8006), timeStamp: 2017-02-16 10:41:07.030
LEye coords (806.0178, 546.5418), REye coords (662.926, 462.1008), timeStamp: 2017-02-16 10:41:07.064
LEye coords (823.4809, 579.0455), REye coords (872.8041, 644.8182), timeStamp: 2017-02-16 10:41:07.108
LEye coords (833.8026, 596.6455), REye coords (866.8562, 638.629), timeStamp: 2017-02-16 10:41:07.142
LEye coords (860.1181, 646.1995), REye coords (863.4722, 650.1927), timeStamp: 2017-02-16 10:41:07.176
LEye coords (855.4244, 635.338), REye coords (857.6812, 654.3242), timeStamp: 2017-02-16 10:41:07.209
LEye coords (856.4333, 630.532), REye coords (857.281, 656.2305), timeStamp: 2017-02-16 10:41:07.253
LEye coords (858.9792, 638.8643), REye coords (857.7061, 657.7927), timeStamp: 2017-02-16 10:41:07.285
LEye coords (857.8069, 643.9045), REye coords (858.7742, 654.4932), timeStamp: 2017-02-16 10:41:07.320
LEye coords (836.7956, 655.615), REye coords (846.5193, 660.593), timeStamp: 2017-02-16 10:41:07.364
LEye coords (98.1538, 962.9058), REye coords (108.776, 867.8732), timeStamp: 2017-02-16 10:41:07.396
LEye coords (72.8127, 987.2097), REye coords (70.8774, 864.7861), timeStamp: 2017-02-16 10:41:07.440
LEye coords (72.333, 995.8175), REye coords (72.6283, 863.005), timeStamp: 2017-02-16 10:41:07.473
LEye coords (72.7932, 994.4183), REye coords (76.3024, 861.5878), timeStamp: 2017-02-16 10:41:07.506
LEye coords (72.9725, 988.9594), REye coords (74.0984, 863.8579), timeStamp: 2017-02-16 10:41:07.550
LEye coords (57.7468, 970.6349), REye coords (-71.9796, 872.635), timeStamp: 2017-02-16 10:41:07.584
LEye coords (-20.1646, 990.1569), REye coords (-65.6457, 866.887), timeStamp: 2017-02-16 10:41:07.617
LEye coords (-22.6466, 994.5928), REye coords (-60.971, 867.2061), timeStamp: 2017-02-16 10:41:07.660
LEye coords (-26.6609, 997.8719), REye coords (-73.9019, 872.1581), timeStamp: 2017-02-16 10:41:07.694
LEye coords (-25.8677, 995.261), REye coords (-72.2716, 873.813), timeStamp: 2017-02-16 10:41:07.727
LEye coords (-23.8299, 995.2575), REye coords (-72.8921, 876.9189), timeStamp: 2017-02-16 10:41:07.772
LEye coords (-24.1846, 997.7929), REye coords (-78.2694, 881.7271), timeStamp: 2017-02-16 10:41:07.805
LEye coords (-23.2723, 1000.3337), REye coords (-70.1559, 882.8512), timeStamp: 2017-02-16 10:41:07.839
LEye coords (-23.6196, 1002.7328), REye coords (-66.8797, 883.7923), timeStamp: 2017-02-16 10:41:07.883
LEye coords (138.3256, 871.2195), REye coords (1.9188, 856.8591), timeStamp: 2017-02-16 10:41:07.917
LEye coords (500.1557, 603.5969), REye coords (497.7975, 604.9405), timeStamp: 2017-02-16 10:41:07.951
LEye coords (494.5421, 603.0442), REye coords (497.1291, 594.2833), timeStamp: 2017-02-16 10:41:07.994
LEye coords (494.8997, 599.9766), REye coords (496.0549, 592.3988), timeStamp: 2017-02-16 10:41:08.028
LEye coords (494.6505, 595.8627), REye coords (493.4411, 593.184), timeStamp: 2017-02-16 10:41:08.062
LEye coords (491.9332, 585.2195), REye coords (494.6751, 593.5706), timeStamp: 2017-02-16 10:41:08.105
LEye coords (589.2239, 450.5764), REye coords (573.5144, 490.4126), timeStamp: 2017-02-16 10:41:08.139
LEye coords (598.5704, 441.1751), REye coords (592.9125, 494.4201), timeStamp: 2017-02-16 10:41:08.172
LEye coords (601.4436, 442.8316), REye coords (596.5483, 489.6809), timeStamp: 2017-02-16 10:41:08.217
LEye coords (606.1458, 441.0346), REye coords (572.8943, 515.6465), timeStamp: 2017-02-16 10:41:08.251
LEye coords (619.969, 431.8549), REye coords (576.6566, 514.062), timeStamp: 2017-02-16 10:41:08.284
LEye coords (615.9893, 424.1179), REye coords (579.1786, 510.5002), timeStamp: 2017-02-16 10:41:08.328
LEye coords (615.9813, 437.1761), REye coords (606.0587, 491.3581), timeStamp: 2017-02-16 10:41:08.361
LEye coords (615.3527, 441.4606), REye coords (579.4963, 509.033), timeStamp: 2017-02-16 10:41:08.395
LEye coords (412.9671, 306.0342), REye coords (418.9396, 301.5547), timeStamp: 2017-02-16 10:42:40.337
LEye coords (413.2019, 306.313), REye coords (420.1329, 301.856), timeStamp: 2017-02-16 10:42:40.370
LEye coords (414.6179, 308.1218), REye coords (420.578, 303.7526), timeStamp: 2017-02-16 10:42:40.403
LEye coords (415.5698, 309.4254), REye coords (420.7603, 304.2701), timeStamp: 2017-02-16 10:42:40.448
LEye coords (414.8038, 308.3959), REye coords (421.3566, 304.2785), timeStamp: 2017-02-16 10:42:40.482
LEye coords (417.0833, 310.8444), REye coords (422.5468, 306.669), timeStamp: 2017-02-16 10:42:40.516
LEye coords (419.0698, 313.7181), REye coords (424.1518, 307.5968), timeStamp: 2017-02-16 10:42:40.561
LEye coords (420.8472, 316.3446), REye coords (425.296, 307.9647), timeStamp: 2017-02-16 10:42:40.594
LEye coords (422.6713, 318.593), REye coords (426.4452, 310.1898), timeStamp: 2017-02-16 10:42:40.629
LEye coords (424.2527, 320.6047), REye coords (427.628, 310.8459), timeStamp: 2017-02-16 10:42:40.663
LEye coords (425.9521, 322.9826), REye coords (430.0453, 312.1351), timeStamp: 2017-02-16 10:42:40.707
LEye coords (428.0385, 325.9669), REye coords (430.9127, 314.4826), timeStamp: 2017-02-16 10:42:40.742
LEye coords (429.7441, 328.9276), REye coords (431.9482, 316.8963), timeStamp: 2017-02-16 10:42:40.774
LEye coords (540.0403, 620.0087), REye coords (540.4303, 635.6095), timeStamp: 2017-02-16 10:42:40.820
LEye coords (0.0, 0.0), REye coords (557.2233, 682.1419), timeStamp: 2017-02-16 10:42:40.854
LEye coords (0.0, 0.0), REye coords (0.0, 0.0), timeStamp: 2017-02-16 10:42:40.887
LEye coords (528.6856, 646.4812), REye coords (554.0285, 674.9346), timeStamp: 2017-02-16 10:42:40.921
LEye coords (530.7129, 643.5851), REye coords (555.79, 667.0219), timeStamp: 2017-02-16 10:42:40.966
LEye coords (536.4288, 644.7783), REye coords (558.0151, 662.6172), timeStamp: 2017-02-16 10:42:40.999
LEye coords (622.0999, 658.4762), REye coords (873.3746, 691.8163), timeStamp: 2017-02-16 10:42:41.033
LEye coords (929.8978, 713.6169), REye coords (937.1001, 714.1251), timeStamp: 2017-02-16 10:42:41.076
LEye coords (930.0358, 709.1426), REye coords (933.4442, 717.6809), timeStamp: 2017-02-16 10:42:41.109
LEye coords (930.7242, 710.3164), REye coords (934.2574, 717.9848), timeStamp: 2017-02-16 10:42:41.143
LEye coords (926.4232, 711.1329), REye coords (931.9055, 718.672), timeStamp: 2017-02-16 10:42:41.188
LEye coords (926.512, 711.8749), REye coords (922.303, 719.4705), timeStamp: 2017-02-16 10:42:41.221
LEye coords (925.9326, 711.9454), REye coords (925.3854, 721.1097), timeStamp: 2017-02-16 10:42:41.254
LEye coords (924.8079, 712.3616), REye coords (924.801, 721.1061), timeStamp: 2017-02-16 10:42:41.300
LEye coords (923.4993, 712.8199), REye coords (923.2269, 722.4229), timeStamp: 2017-02-16 10:42:41.333
LEye coords (1056.4342, 713.5785), REye coords (955.1654, 725.1711), timeStamp: 2017-02-16 10:42:41.365
LEye coords (1052.2897, 725.6623), REye coords (975.9, 725.6322), timeStamp: 2017-02-16 10:42:41.410
LEye coords (1053.2584, 723.3448), REye coords (989.2408, 726.3264), timeStamp: 2017-02-16 10:42:41.443
LEye coords (1051.554, 722.0549), REye coords (997.9913, 728.17), timeStamp: 2017-02-16 10:42:41.477
LEye coords (1052.7941, 723.8945), REye coords (1004.1188, 728.1578), timeStamp: 2017-02-16 10:42:41.521
LEye coords (1057.7164, 725.5319), REye coords (1011.356, 727.7708), timeStamp: 2017-02-16 10:42:41.555
LEye coords (1055.0399, 730.4559), REye coords (1015.9995, 727.8269), timeStamp: 2017-02-16 10:42:41.589
LEye coords (1060.9614, 736.0667), REye coords (1020.3253, 728.2081), timeStamp: 2017-02-16 10:42:41.633
LEye coords (1057.4521, 736.6292), REye coords (1023.2298, 728.4253), timeStamp: 2017-02-16 10:42:41.666
LEye coords (1056.0118, 736.1521), REye coords (1026.8351, 727.9721), timeStamp: 2017-02-16 10:42:41.701
LEye coords (1055.3074, 735.5808), REye coords (1028.7708, 728.3249), timeStamp: 2017-02-16 10:42:41.745
LEye coords (1054.565, 733.4192), REye coords (1031.8348, 728.411), timeStamp: 2017-02-16 10:42:41.778
LEye coords (1063.0057, 735.6956), REye coords (1122.258, 724.8273), timeStamp: 2017-02-16 10:42:41.812
LEye coords (1069.6958, 736.9821), REye coords (1114.0989, 734.228), timeStamp: 2017-02-16 10:42:41.856
LEye coords (1074.0809, 736.7423), REye coords (1117.3037, 723.6151), timeStamp: 2017-02-16 10:42:41.890
LEye coords (1077.778, 738.066), REye coords (1114.0133, 726.9707), timeStamp: 2017-02-16 10:42:41.925
LEye coords (1080.6173, 736.7604), REye coords (1115.9363, 725.0026), timeStamp: 2017-02-16 10:42:41.959
LEye coords (1082.7972, 736.4438), REye coords (1118.5188, 723.8707), timeStamp: 2017-02-16 10:42:42.003
LEye coords (1084.1809, 736.81), REye coords (1118.799, 723.5212), timeStamp: 2017-02-16 10:42:42.037
LEye coords (1086.3196, 736.7045), REye coords (1120.2008, 722.2736), timeStamp: 2017-02-16 10:42:42.071
LEye coords (1088.4551, 736.4798), REye coords (1118.9803, 722.1038), timeStamp: 2017-02-16 10:42:42.115
LEye coords (1090.5671, 737.2229), REye coords (1119.0724, 720.3759), timeStamp: 2017-02-16 10:42:42.149
LEye coords (1091.4583, 737.8979), REye coords (1118.486, 720.7216), timeStamp: 2017-02-16 10:42:42.182
LEye coords (1093.0946, 737.9684), REye coords (1118.9896, 719.9664), timeStamp: 2017-02-16 10:42:42.227
LEye coords (1094.0319, 737.9955), REye coords (1119.4797, 720.907), timeStamp: 2017-02-16 10:42:42.260
LEye coords (1095.0848, 738.1939), REye coords (1120.6486, 720.3348), timeStamp: 2017-02-16 10:42:42.293
LEye coords (1096.2775, 738.3926), REye coords (1121.1421, 719.2795), timeStamp: 2017-02-16 10:42:42.338
LEye coords (1097.659, 738.6866), REye coords (1121.578, 717.8728), timeStamp: 2017-02-16 10:42:42.372
LEye coords (1099.7865, 739.4837), REye coords (1121.2845, 717.9525), timeStamp: 2017-02-16 10:42:42.406
LEye coords (1100.9966, 740.3746), REye coords (1120.6311, 717.968), timeStamp: 2017-02-16 10:42:42.440
LEye coords (1102.2285, 741.7711), REye coords (1120.9775, 717.0909), timeStamp: 2017-02-16 10:42:42.484
LEye coords (1104.0054, 742.5767), REye coords (1120.6545, 716.2184), timeStamp: 2017-02-16 10:42:42.517
LEye coords (1105.6437, 743.8615), REye coords (1120.7161, 715.1703), timeStamp: 2017-02-16 10:42:42.551
LEye coords (1106.5254, 744.2023), REye coords (1120.7415, 714.9091), timeStamp: 2017-02-16 10:42:42.594
LEye coords (1106.3613, 744.933), REye coords (1121.0905, 714.0516), timeStamp: 2017-02-16 10:42:42.628
LEye coords (1106.2142, 745.5176), REye coords (1121.3026, 714.7415), timeStamp: 2017-02-16 10:42:42.661
LEye coords (1106.4229, 746.812), REye coords (1121.4325, 714.9684), timeStamp: 2017-02-16 10:42:42.706
LEye coords (1105.8441, 747.1074), REye coords (1121.559, 714.9756), timeStamp: 2017-02-16 10:42:42.740
LEye coords (1106.2357, 748.5527), REye coords (1121.6383, 715.5825), timeStamp: 2017-02-16 10:42:42.775
LEye coords (1106.8947, 749.9263), REye coords (1121.0416, 716.3337), timeStamp: 2017-02-16 10:42:42.809
LEye coords (1106.8453, 751.9031), REye coords (1120.829, 716.5942), timeStamp: 2017-02-16 10:42:42.853
LEye coords (1106.8204, 753.2082), REye coords (1120.6116, 716.3707), timeStamp: 2017-02-16 10:42:42.887
LEye coords (1106.8975, 754.5623), REye coords (1121.4967, 715.6622), timeStamp: 2017-02-16 10:42:42.921
LEye coords (1107.2507, 755.1229), REye coords (1121.8475, 716.1118), timeStamp: 2017-02-16 10:42:42.964
LEye coords (1105.8252, 754.8926), REye coords (1121.0426, 715.2914), timeStamp: 2017-02-16 10:42:42.997
LEye coords (1104.7148, 755.2299), REye coords (1119.6179, 714.8471), timeStamp: 2017-02-16 10:42:43.031
LEye coords (1103.7645, 755.6133), REye coords (1119.2821, 714.6544), timeStamp: 2017-02-16 10:42:43.075
LEye coords (1102.7947, 755.4691), REye coords (1118.2152, 713.5353), timeStamp: 2017-02-16 10:42:43.108
LEye coords (1102.0354, 756.0964), REye coords (1117.5411, 713.699), timeStamp: 2017-02-16 10:42:43.142
LEye coords (1100.3005, 756.3375), REye coords (1116.8492, 713.3748), timeStamp: 2017-02-16 10:42:43.187
LEye coords (1098.703, 756.1702), REye coords (1116.2866, 712.2354), timeStamp: 2017-02-16 10:42:43.220
LEye coords (1097.5011, 755.8211), REye coords (1115.6908, 711.7246), timeStamp: 2017-02-16 10:42:43.253
LEye coords (1096.9286, 754.811), REye coords (1115.5399, 711.8944), timeStamp: 2017-02-16 10:42:43.298
LEye coords (1095.9496, 754.781), REye coords (1114.5359, 711.5706), timeStamp: 2017-02-16 10:42:43.332
LEye coords (1095.0726, 754.8749), REye coords (1113.8259, 711.6495), timeStamp: 2017-02-16 10:42:43.366
LEye coords (1095.0354, 754.847), REye coords (1113.7482, 711.1119), timeStamp: 2017-02-16 10:42:43.410
LEye coords (1095.0197, 755.4217), REye coords (1112.94, 711.85), timeStamp: 2017-02-16 10:42:43.444
LEye coords (1095.2499, 754.9201), REye coords (1113.1053, 711.1788), timeStamp: 2017-02-16 10:42:43.478
LEye coords (1095.0745, 754.7819), REye coords (1112.6777, 711.4922), timeStamp: 2017-02-16 10:42:43.512
LEye coords (1095.7133, 754.7685), REye coords (1112.4147, 710.5), timeStamp: 2017-02-16 10:42:43.556
LEye coords (1096.6453, 754.1004), REye coords (1111.4032, 710.7847), timeStamp: 2017-02-16 10:42:43.591
LEye coords (1097.3074, 753.9302), REye coords (1111.2405, 710.4391), timeStamp: 2017-02-16 10:42:43.625
LEye coords (1097.7584, 754.3609), REye coords (1111.2026, 709.7538), timeStamp: 2017-02-16 10:42:43.669
LEye coords (1098.7697, 753.7734), REye coords (1111.196, 710.0445), timeStamp: 2017-02-16 10:42:43.703
LEye coords (1098.8206, 753.7162), REye coords (1110.8885, 710.24), timeStamp: 2017-02-16 10:42:43.736
LEye coords (1099.6904, 753.61), REye coords (1111.0894, 710.5469), timeStamp: 2017-02-16 10:42:43.780
LEye coords (1100.443, 754.139), REye coords (1111.3528, 710.8601), timeStamp: 2017-02-16 10:42:43.814
LEye coords (1100.6625, 754.8029), REye coords (1111.3926, 711.6387), timeStamp: 2017-02-16 10:42:43.849
LEye coords (1101.6836, 754.8607), REye coords (1110.5986, 712.0926), timeStamp: 2017-02-16 10:42:43.882
LEye coords (1101.6914, 755.1377), REye coords (1110.6177, 712.7275), timeStamp: 2017-02-16 10:42:43.926
LEye coords (1101.6907, 755.7005), REye coords (1111.226, 712.7286), timeStamp: 2017-02-16 10:42:43.961
LEye coords (1102.4373, 755.4342), REye coords (1110.791, 713.439), timeStamp: 2017-02-16 10:42:43.995
