LEye coords (459.0273, 457.7083), REye coords (453.6581, 401.6073), timeStamp: 2017-02-16 10:42:59.880
LEye coords (458.5718, 457.4138), REye coords (453.3179, 401.0164), timeStamp: 2017-02-16 10:42:59.914
LEye coords (457.8374, 456.746), REye coords (454.0674, 401.2078), timeStamp: 2017-02-16 10:42:59.948
LEye coords (457.0807, 456.0673), REye coords (454.1434, 401.2637), timeStamp: 2017-02-16 10:42:59.982
LEye coords (457.753, 456.6686), REye coords (454.5244, 401.4989), timeStamp: 2017-02-16 10:43:00.027
LEye coords (457.6862, 456.342), REye coords (455.1003, 402.2494), timeStamp: 2017-02-16 10:43:00.062
LEye coords (457.2982, 456.5498), REye coords (455.5203, 402.8388), timeStamp: 2017-02-16 10:43:00.096
LEye coords (457.3098, 456.9598), REye coords (456.0977, 402.2935), timeStamp: 2017-02-16 10:43:00.139
LEye coords (586.1781, 425.717), REye coords (595.2939, 425.5344), timeStamp: 2017-02-16 10:43:00.172
LEye coords (670.0623, 443.1954), REye coords (694.584, 433.4606), timeStamp: 2017-02-16 10:43:00.207
LEye coords (673.517, 438.5372), REye coords (696.8978, 433.8294), timeStamp: 2017-02-16 10:43:00.240
LEye coords (675.918, 434.6603), REye coords (698.5833, 429.7459), timeStamp: 2017-02-16 10:43:00.286
LEye coords (671.8433, 431.1013), REye coords (691.2559, 433.4377), timeStamp: 2017-02-16 10:43:00.320
LEye coords (555.5372, 481.9008), REye coords (605.1874, 483.648), timeStamp: 2017-02-16 10:43:00.353
LEye coords (575.9975, 469.5106), REye coords (589.0726, 488.0446), timeStamp: 2017-02-16 10:43:00.397
LEye coords (558.8187, 452.5666), REye coords (586.2026, 492.8602), timeStamp: 2017-02-16 10:43:00.430
LEye coords (562.5436, 465.2492), REye coords (586.8683, 492.2146), timeStamp: 2017-02-16 10:43:00.464
LEye coords (563.0597, 472.355), REye coords (586.6915, 488.7799), timeStamp: 2017-02-16 10:43:00.507
LEye coords (564.5054, 477.0606), REye coords (586.5724, 486.3367), timeStamp: 2017-02-16 10:43:00.541
LEye coords (567.9202, 480.2133), REye coords (586.9679, 485.4865), timeStamp: 2017-02-16 10:43:00.573
LEye coords (570.7487, 481.0928), REye coords (588.5625, 485.1203), timeStamp: 2017-02-16 10:43:00.617
LEye coords (573.8094, 484.8083), REye coords (589.683, 484.3169), timeStamp: 2017-02-16 10:43:00.651
LEye coords (575.2517, 490.4363), REye coords (591.743, 487.7098), timeStamp: 2017-02-16 10:43:00.685
LEye coords (576.2313, 494.9633), REye coords (592.6827, 490.6996), timeStamp: 2017-02-16 10:43:00.729
LEye coords (586.8327, 534.9651), REye coords (595.3952, 493.1589), timeStamp: 2017-02-16 10:43:00.763
LEye coords (587.993, 526.2619), REye coords (596.8967, 494.9689), timeStamp: 2017-02-16 10:43:00.797
LEye coords (580.8378, 530.1705), REye coords (598.0657, 496.6233), timeStamp: 2017-02-16 10:43:00.843
LEye coords (582.8878, 531.0953), REye coords (597.8786, 497.73), timeStamp: 2017-02-16 10:43:00.877
LEye coords (580.1262, 532.8443), REye coords (599.2707, 498.1104), timeStamp: 2017-02-16 10:43:00.911
LEye coords (579.0842, 536.9062), REye coords (600.4892, 498.8233), timeStamp: 2017-02-16 10:43:00.944
LEye coords (578.5941, 535.5901), REye coords (600.9784, 499.9184), timeStamp: 2017-02-16 10:43:00.989
LEye coords (578.9501, 534.7609), REye coords (601.4478, 501.5694), timeStamp: 2017-02-16 10:43:01.022
LEye coords (578.6302, 535.0391), REye coords (601.6237, 502.9341), timeStamp: 2017-02-16 10:43:01.055
LEye coords (579.5447, 536.478), REye coords (601.939, 503.6934), timeStamp: 2017-02-16 10:43:01.100
LEye coords (580.5255, 538.1227), REye coords (602.5842, 504.6963), timeStamp: 2017-02-16 10:43:01.134
LEye coords (580.8137, 538.1292), REye coords (602.9946, 505.8826), timeStamp: 2017-02-16 10:43:01.168
LEye coords (581.1701, 539.1331), REye coords (603.7624, 507.3476), timeStamp: 2017-02-16 10:43:01.213
LEye coords (581.8237, 541.1841), REye coords (604.7255, 508.0777), timeStamp: 2017-02-16 10:43:01.246
LEye coords (582.7073, 543.8575), REye coords (605.4686, 508.8723), timeStamp: 2017-02-16 10:43:01.280
LEye coords (582.531, 547.3364), REye coords (605.4464, 510.5396), timeStamp: 2017-02-16 10:43:01.314
LEye coords (584.0964, 549.3989), REye coords (605.5108, 511.4007), timeStamp: 2017-02-16 10:43:01.358
LEye coords (583.5773, 550.4798), REye coords (606.1207, 512.2865), timeStamp: 2017-02-16 10:43:01.392
LEye coords (582.9755, 550.4365), REye coords (606.3593, 513.4765), timeStamp: 2017-02-16 10:43:01.425
LEye coords (583.4191, 552.6562), REye coords (606.2583, 514.3453), timeStamp: 2017-02-16 10:43:01.469
LEye coords (583.1464, 554.0468), REye coords (605.1352, 515.4935), timeStamp: 2017-02-16 10:43:01.503
LEye coords (582.0842, 556.1409), REye coords (604.8164, 515.7032), timeStamp: 2017-02-16 10:43:01.536
LEye coords (582.614, 557.9684), REye coords (604.1672, 516.088), timeStamp: 2017-02-16 10:43:01.580
LEye coords (581.2687, 558.6409), REye coords (603.7212, 516.8472), timeStamp: 2017-02-16 10:43:01.613
LEye coords (581.3756, 559.2092), REye coords (602.9299, 517.9284), timeStamp: 2017-02-16 10:43:01.647
LEye coords (580.8176, 559.3554), REye coords (601.9213, 519.2397), timeStamp: 2017-02-16 10:43:01.691
LEye coords (579.9415, 562.1435), REye coords (599.3884, 522.3699), timeStamp: 2017-02-16 10:43:01.725
LEye coords (577.9161, 564.3276), REye coords (596.8813, 525.8698), timeStamp: 2017-02-16 10:43:01.759
LEye coords (576.1309, 567.332), REye coords (595.0886, 528.2221), timeStamp: 2017-02-16 10:43:01.803
LEye coords (574.1806, 569.2169), REye coords (592.7938, 530.5264), timeStamp: 2017-02-16 10:43:01.837
LEye coords (572.7046, 570.7194), REye coords (590.3569, 532.9083), timeStamp: 2017-02-16 10:43:01.871
LEye coords (570.8893, 572.603), REye coords (588.6008, 535.3715), timeStamp: 2017-02-16 10:43:01.915
LEye coords (568.9622, 572.819), REye coords (586.9186, 537.6667), timeStamp: 2017-02-16 10:43:01.948
LEye coords (567.252, 574.0565), REye coords (584.6929, 540.0854), timeStamp: 2017-02-16 10:43:01.983
LEye coords (566.3239, 575.3429), REye coords (582.702, 541.8774), timeStamp: 2017-02-16 10:43:02.026
LEye coords (565.5848, 576.0842), REye coords (580.7314, 543.8695), timeStamp: 2017-02-16 10:43:02.059
LEye coords (564.3068, 576.3171), REye coords (578.9506, 545.717), timeStamp: 2017-02-16 10:43:02.093
LEye coords (563.266, 576.7252), REye coords (578.0123, 546.8091), timeStamp: 2017-02-16 10:43:02.138
LEye coords (561.6432, 576.7398), REye coords (576.584, 548.5535), timeStamp: 2017-02-16 10:43:02.170
LEye coords (560.6461, 577.3759), REye coords (574.9583, 550.2469), timeStamp: 2017-02-16 10:43:02.204
LEye coords (558.1861, 578.2731), REye coords (573.2621, 550.0452), timeStamp: 2017-02-16 10:43:02.248
LEye coords (556.9453, 577.9979), REye coords (571.3741, 549.942), timeStamp: 2017-02-16 10:43:02.282
LEye coords (557.1773, 577.8819), REye coords (570.283, 549.8343), timeStamp: 2017-02-16 10:43:02.315
LEye coords (557.3069, 577.7572), REye coords (568.9452, 550.2038), timeStamp: 2017-02-16 10:43:02.360
LEye coords (555.6641, 576.1694), REye coords (568.1556, 549.959), timeStamp: 2017-02-16 10:43:02.393
LEye coords (553.9174, 576.302), REye coords (567.3482, 549.5037), timeStamp: 2017-02-16 10:43:02.426
LEye coords (552.9006, 576.9901), REye coords (566.6722, 549.1415), timeStamp: 2017-02-16 10:43:02.471
LEye coords (551.4203, 577.4946), REye coords (565.8643, 548.7301), timeStamp: 2017-02-16 10:43:02.505
LEye coords (550.0823, 576.2445), REye coords (565.6359, 547.6343), timeStamp: 2017-02-16 10:43:02.538
LEye coords (549.4812, 575.4769), REye coords (565.3776, 546.6354), timeStamp: 2017-02-16 10:43:02.582
LEye coords (547.4911, 574.6967), REye coords (564.6028, 546.0265), timeStamp: 2017-02-16 10:43:02.617
LEye coords (546.3298, 574.4597), REye coords (564.6053, 544.908), timeStamp: 2017-02-16 10:43:02.651
LEye coords (546.3902, 573.8112), REye coords (564.3795, 543.6344), timeStamp: 2017-02-16 10:43:02.684
LEye coords (547.5486, 573.1844), REye coords (565.2803, 543.3197), timeStamp: 2017-02-16 10:43:02.729
LEye coords (549.0038, 574.1135), REye coords (567.0101, 542.9205), timeStamp: 2017-02-16 10:43:02.762
LEye coords (551.2299, 573.7792), REye coords (568.3223, 542.3341), timeStamp: 2017-02-16 10:43:02.796
LEye coords (554.3964, 574.4706), REye coords (569.8645, 542.3504), timeStamp: 2017-02-16 10:43:02.839
LEye coords (555.3782, 575.3488), REye coords (570.629, 542.9193), timeStamp: 2017-02-16 10:43:02.873
LEye coords (558.5801, 576.9032), REye coords (571.535, 543.1178), timeStamp: 2017-02-16 10:43:02.907
LEye coords (560.6015, 577.9157), REye coords (572.8973, 543.8035), timeStamp: 2017-02-16 10:43:02.951
LEye coords (562.4654, 578.8202), REye coords (574.3015, 544.3235), timeStamp: 2017-02-16 10:43:02.984
LEye coords (564.2211, 579.243), REye coords (574.8356, 544.2072), timeStamp: 2017-02-16 10:43:03.017
LEye coords (566.9189, 580.4322), REye coords (576.2675, 544.7678), timeStamp: 2017-02-16 10:43:03.062
LEye coords (569.9178, 581.5516), REye coords (577.6371, 545.4955), timeStamp: 2017-02-16 10:43:03.096
LEye coords (571.5143, 582.079), REye coords (578.6505, 545.9607), timeStamp: 2017-02-16 10:43:03.130
LEye coords (572.0986, 582.4725), REye coords (579.2076, 546.7053), timeStamp: 2017-02-16 10:43:03.165
LEye coords (572.9251, 583.6608), REye coords (580.0981, 547.0767), timeStamp: 2017-02-16 10:43:03.208
LEye coords (575.4848, 585.008), REye coords (580.4596, 547.6039), timeStamp: 2017-02-16 10:43:03.243
LEye coords (576.212, 586.0737), REye coords (580.9016, 547.7819), timeStamp: 2017-02-16 10:43:03.276
LEye coords (577.6436, 587.5736), REye coords (581.1115, 548.5042), timeStamp: 2017-02-16 10:43:03.320
LEye coords (579.5905, 588.8995), REye coords (582.043, 547.8496), timeStamp: 2017-02-16 10:43:03.353
LEye coords (581.0015, 590.0546), REye coords (582.4179, 547.7962), timeStamp: 2017-02-16 10:43:03.388
LEye coords (583.3558, 590.5988), REye coords (583.0064, 547.4393), timeStamp: 2017-02-16 10:43:03.433
LEye coords (585.1176, 591.108), REye coords (583.1512, 547.7676), timeStamp: 2017-02-16 10:43:03.467
LEye coords (585.7906, 590.8928), REye coords (583.8637, 547.6617), timeStamp: 2017-02-16 10:43:03.501
LEye coords (585.5665, 592.4951), REye coords (583.7556, 548.0803), timeStamp: 2017-02-16 10:43:03.545
LEye coords (585.6403, 593.3751), REye coords (583.9251, 548.0705), timeStamp: 2017-02-16 10:43:03.579
LEye coords (586.0902, 594.3661), REye coords (583.851, 547.632), timeStamp: 2017-02-16 10:43:03.611
LEye coords (586.7905, 595.3156), REye coords (583.5787, 547.4794), timeStamp: 2017-02-16 10:43:03.646
LEye coords (585.9584, 596.8642), REye coords (581.3768, 546.6169), timeStamp: 2017-02-16 10:43:03.691
LEye coords (583.9327, 597.6561), REye coords (578.7758, 546.3879), timeStamp: 2017-02-16 10:43:03.725
LEye coords (582.5915, 597.6022), REye coords (576.3076, 546.1061), timeStamp: 2017-02-16 10:43:03.759
LEye coords (581.8, 599.1833), REye coords (573.4666, 545.7263), timeStamp: 2017-02-16 10:43:03.793
LEye coords (580.0284, 600.5574), REye coords (571.7925, 545.1909), timeStamp: 2017-02-16 10:43:03.838
LEye coords (578.4459, 601.3741), REye coords (569.8852, 545.3662), timeStamp: 2017-02-16 10:43:03.872
LEye coords (576.7033, 602.0109), REye coords (567.7923, 545.9288), timeStamp: 2017-02-16 10:43:03.906
LEye coords (575.0145, 602.6278), REye coords (566.0889, 546.4584), timeStamp: 2017-02-16 10:43:03.951
LEye coords (573.7507, 603.4442), REye coords (564.0717, 546.5855), timeStamp: 2017-02-16 10:43:03.985
LEye coords (572.2953, 602.687), REye coords (562.6418, 547.2944), timeStamp: 2017-02-16 10:43:04.018
LEye coords (570.5427, 601.1512), REye coords (560.928, 548.0534), timeStamp: 2017-02-16 10:43:04.052
LEye coords (569.5687, 600.5637), REye coords (559.1513, 548.92), timeStamp: 2017-02-16 10:43:04.096
LEye coords (569.3645, 600.7214), REye coords (557.8629, 549.4356), timeStamp: 2017-02-16 10:43:04.131
LEye coords (567.6488, 599.8771), REye coords (556.603, 549.7637), timeStamp: 2017-02-16 10:43:04.165
LEye coords (566.7537, 599.5598), REye coords (556.0585, 549.9124), timeStamp: 2017-02-16 10:43:04.211
LEye coords (565.3434, 599.1912), REye coords (555.4601, 550.0399), timeStamp: 2017-02-16 10:43:04.244
LEye coords (565.3229, 598.5868), REye coords (555.2516, 549.3845), timeStamp: 2017-02-16 10:43:04.278
LEye coords (564.0381, 599.128), REye coords (554.8885, 549.4597), timeStamp: 2017-02-16 10:43:04.322
LEye coords (563.8395, 598.4236), REye coords (554.8074, 549.1813), timeStamp: 2017-02-16 10:43:04.356
LEye coords (562.882, 598.0826), REye coords (553.7924, 549.7296), timeStamp: 2017-02-16 10:43:04.390
LEye coords (561.2398, 596.4308), REye coords (553.4678, 549.3841), timeStamp: 2017-02-16 10:43:04.425
LEye coords (559.8004, 593.8696), REye coords (552.92, 548.2268), timeStamp: 2017-02-16 10:43:04.470
LEye coords (559.4914, 592.0681), REye coords (553.741, 547.6329), timeStamp: 2017-02-16 10:43:04.503
LEye coords (558.3647, 589.0899), REye coords (554.124, 546.8691), timeStamp: 2017-02-16 10:43:04.536
LEye coords (557.1772, 586.3575), REye coords (554.4913, 545.8735), timeStamp: 2017-02-16 10:43:04.580
LEye coords (555.902, 583.1685), REye coords (555.1167, 545.5175), timeStamp: 2017-02-16 10:43:04.615
LEye coords (554.302, 579.601), REye coords (556.2546, 544.2352), timeStamp: 2017-02-16 10:43:04.648
LEye coords (552.7869, 576.1932), REye coords (556.5994, 543.2797), timeStamp: 2017-02-16 10:43:04.683
LEye coords (550.2967, 572.6738), REye coords (557.1066, 542.5336), timeStamp: 2017-02-16 10:43:04.727
LEye coords (548.4218, 570.5128), REye coords (557.2353, 541.9827), timeStamp: 2017-02-16 10:43:04.760
LEye coords (546.904, 568.2182), REye coords (557.3669, 541.2197), timeStamp: 2017-02-16 10:43:04.793
LEye coords (545.8345, 564.7128), REye coords (558.0437, 540.2682), timeStamp: 2017-02-16 10:43:04.838
LEye coords (544.7073, 562.7842), REye coords (558.0909, 539.3204), timeStamp: 2017-02-16 10:43:04.872
LEye coords (544.2275, 561.8745), REye coords (558.4468, 539.0417), timeStamp: 2017-02-16 10:43:04.906
LEye coords (544.012, 560.2646), REye coords (558.4491, 538.6169), timeStamp: 2017-02-16 10:43:04.950
LEye coords (543.7864, 559.9657), REye coords (558.4532, 537.7778), timeStamp: 2017-02-16 10:43:04.984
LEye coords (544.2023, 559.6251), REye coords (558.7553, 537.8904), timeStamp: 2017-02-16 10:43:05.017
LEye coords (542.8545, 559.2241), REye coords (558.8393, 538.1169), timeStamp: 2017-02-16 10:43:05.061
LEye coords (543.1099, 559.4036), REye coords (558.4875, 537.8195), timeStamp: 2017-02-16 10:43:05.095
LEye coords (543.3018, 557.9033), REye coords (558.8635, 538.0826), timeStamp: 2017-02-16 10:43:05.129
LEye coords (543.9467, 558.2711), REye coords (558.7629, 537.7307), timeStamp: 2017-02-16 10:43:05.173
LEye coords (544.5046, 558.5323), REye coords (559.0813, 537.8383), timeStamp: 2017-02-16 10:43:05.206
LEye coords (544.0881, 557.5649), REye coords (559.7946, 537.6078), timeStamp: 2017-02-16 10:43:05.240
LEye coords (545.4996, 557.887), REye coords (560.3415, 537.5587), timeStamp: 2017-02-16 10:43:05.283
LEye coords (546.4462, 559.7188), REye coords (560.3461, 538.3739), timeStamp: 2017-02-16 10:43:05.317
LEye coords (546.3647, 561.8786), REye coords (559.6046, 540.1599), timeStamp: 2017-02-16 10:43:05.350
LEye coords (545.663, 562.0269), REye coords (559.7722, 541.3631), timeStamp: 2017-02-16 10:43:05.395
LEye coords (545.0106, 562.583), REye coords (559.4645, 542.4785), timeStamp: 2017-02-16 10:43:05.429
LEye coords (544.4855, 563.809), REye coords (559.0662, 543.7195), timeStamp: 2017-02-16 10:43:05.463
LEye coords (544.1743, 564.6898), REye coords (559.3917, 544.5189), timeStamp: 2017-02-16 10:43:05.496
LEye coords (543.8409, 566.4162), REye coords (558.9372, 545.5067), timeStamp: 2017-02-16 10:43:05.541
LEye coords (543.9501, 567.6102), REye coords (559.117, 546.076), timeStamp: 2017-02-16 10:43:05.575
LEye coords (543.4921, 568.2009), REye coords (558.9947, 546.7654), timeStamp: 2017-02-16 10:43:05.608
LEye coords (543.4426, 569.6241), REye coords (559.4609, 547.5128), timeStamp: 2017-02-16 10:43:05.651
LEye coords (543.2133, 570.0587), REye coords (559.0255, 548.1763), timeStamp: 2017-02-16 10:43:05.686
LEye coords (542.6542, 571.1359), REye coords (558.5294, 548.5688), timeStamp: 2017-02-16 10:43:05.720
LEye coords (541.7493, 571.9634), REye coords (558.7237, 548.64), timeStamp: 2017-02-16 10:43:05.763
LEye coords (541.65, 571.5253), REye coords (558.6849, 549.0621), timeStamp: 2017-02-16 10:43:05.797
LEye coords (541.6356, 571.7787), REye coords (558.4375, 549.5084), timeStamp: 2017-02-16 10:43:05.831
LEye coords (542.3927, 572.3259), REye coords (558.3721, 550.1537), timeStamp: 2017-02-16 10:43:05.876
LEye coords (541.3787, 573.1503), REye coords (559.0409, 550.5539), timeStamp: 2017-02-16 10:43:05.910
LEye coords (541.3049, 573.3865), REye coords (559.5666, 551.2044), timeStamp: 2017-02-16 10:43:05.944
LEye coords (541.1644, 574.4531), REye coords (559.6028, 551.6935), timeStamp: 2017-02-16 10:43:05.978
