LEye coords (636.1343, 482.1384), REye coords (669.0679, 444.8757), timeStamp: 2017-02-16 10:43:28.517
LEye coords (636.8739, 482.5984), REye coords (668.374, 445.6928), timeStamp: 2017-02-16 10:43:28.561
LEye coords (637.8075, 482.2036), REye coords (668.5374, 445.4354), timeStamp: 2017-02-16 10:43:28.594
LEye coords (638.4146, 483.6208), REye coords (668.5617, 446.0451), timeStamp: 2017-02-16 10:43:28.637
LEye coords (638.2523, 483.4344), REye coords (668.5684, 446.743), timeStamp: 2017-02-16 10:43:28.670
LEye coords (638.7195, 483.8827), REye coords (668.6313, 446.9429), timeStamp: 2017-02-16 10:43:28.704
LEye coords (639.9677, 484.1961), REye coords (668.8964, 447.353), timeStamp: 2017-02-16 10:43:28.749
LEye coords (640.0782, 484.1054), REye coords (668.9712, 447.417), timeStamp: 2017-02-16 10:43:28.783
LEye coords (641.6827, 485.7442), REye coords (669.0231, 447.5077), timeStamp: 2017-02-16 10:43:28.816
LEye coords (648.3438, 348.8737), REye coords (669.9332, 441.6982), timeStamp: 2017-02-16 10:43:28.850
LEye coords (638.7865, 368.5971), REye coords (670.8271, 436.0969), timeStamp: 2017-02-16 10:43:28.893
LEye coords (638.4537, 361.4683), REye coords (672.0926, 430.8833), timeStamp: 2017-02-16 10:43:28.926
LEye coords (645.8864, 363.9759), REye coords (672.6108, 425.5744), timeStamp: 2017-02-16 10:43:28.969
LEye coords (644.2003, 362.6122), REye coords (671.2272, 419.5197), timeStamp: 2017-02-16 10:43:29.003
LEye coords (485.65, 385.6214), REye coords (515.0507, 392.9866), timeStamp: 2017-02-16 10:43:29.037
LEye coords (479.4761, 366.8257), REye coords (504.9822, 394.8787), timeStamp: 2017-02-16 10:43:29.082
LEye coords (476.302, 368.7635), REye coords (503.6166, 387.6545), timeStamp: 2017-02-16 10:43:29.115
LEye coords (480.8769, 370.0244), REye coords (506.6117, 383.8767), timeStamp: 2017-02-16 10:43:29.148
LEye coords (484.8137, 366.0759), REye coords (507.3691, 382.2869), timeStamp: 2017-02-16 10:43:29.192
LEye coords (445.7667, 320.6043), REye coords (511.1002, 384.0811), timeStamp: 2017-02-16 10:43:29.226
LEye coords (411.0587, 281.6448), REye coords (512.3203, 382.1353), timeStamp: 2017-02-16 10:43:29.259
LEye coords (435.8014, 310.5023), REye coords (506.8942, 380.6192), timeStamp: 2017-02-16 10:43:29.302
LEye coords (421.0067, 314.5508), REye coords (480.5439, 375.5733), timeStamp: 2017-02-16 10:43:29.336
LEye coords (407.68, 305.185), REye coords (466.4254, 358.0235), timeStamp: 2017-02-16 10:43:29.370
LEye coords (402.7347, 303.4163), REye coords (458.0167, 345.1684), timeStamp: 2017-02-16 10:43:29.416
LEye coords (396.571, 303.6737), REye coords (453.9113, 348.9464), timeStamp: 2017-02-16 10:43:29.449
LEye coords (393.5055, 302.7218), REye coords (450.8966, 340.0491), timeStamp: 2017-02-16 10:43:29.481
LEye coords (397.4421, 310.3231), REye coords (448.9249, 340.7091), timeStamp: 2017-02-16 10:43:29.525
LEye coords (399.5377, 314.3382), REye coords (445.443, 335.8734), timeStamp: 2017-02-16 10:43:29.558
LEye coords (401.9454, 320.8156), REye coords (444.2029, 339.7184), timeStamp: 2017-02-16 10:43:29.591
LEye coords (399.249, 320.8798), REye coords (443.151, 335.5359), timeStamp: 2017-02-16 10:43:29.635
LEye coords (397.9427, 319.9135), REye coords (442.7691, 331.6445), timeStamp: 2017-02-16 10:43:29.668
LEye coords (396.9346, 319.7991), REye coords (441.4041, 333.6961), timeStamp: 2017-02-16 10:43:29.701
LEye coords (397.9602, 322.7555), REye coords (439.6783, 335.0466), timeStamp: 2017-02-16 10:43:29.745
LEye coords (398.3446, 323.976), REye coords (438.719, 336.5209), timeStamp: 2017-02-16 10:43:29.778
LEye coords (398.4589, 323.9512), REye coords (438.1044, 336.3368), timeStamp: 2017-02-16 10:43:29.812
LEye coords (398.6596, 325.1761), REye coords (437.3428, 337.728), timeStamp: 2017-02-16 10:43:29.856
LEye coords (398.3224, 325.4942), REye coords (436.9541, 337.9213), timeStamp: 2017-02-16 10:43:29.891
LEye coords (395.4028, 326.0195), REye coords (436.4531, 339.0511), timeStamp: 2017-02-16 10:43:29.924
LEye coords (394.6234, 329.3887), REye coords (436.35, 339.7418), timeStamp: 2017-02-16 10:43:29.967
LEye coords (394.5931, 332.3123), REye coords (435.6532, 341.5773), timeStamp: 2017-02-16 10:43:30.002
LEye coords (395.0469, 335.1374), REye coords (434.7478, 343.4315), timeStamp: 2017-02-16 10:43:30.035
LEye coords (395.11, 340.5542), REye coords (432.617, 344.2252), timeStamp: 2017-02-16 10:43:30.078
LEye coords (393.7282, 344.1151), REye coords (431.2194, 346.3564), timeStamp: 2017-02-16 10:43:30.113
LEye coords (395.0096, 349.5137), REye coords (430.4325, 347.6682), timeStamp: 2017-02-16 10:43:30.146
LEye coords (396.9731, 355.5115), REye coords (430.0137, 349.5161), timeStamp: 2017-02-16 10:43:30.190
LEye coords (396.5968, 359.1443), REye coords (430.0497, 351.2257), timeStamp: 2017-02-16 10:43:30.223
LEye coords (398.9538, 363.6855), REye coords (430.11, 353.543), timeStamp: 2017-02-16 10:43:30.266
LEye coords (400.1402, 368.4798), REye coords (430.2478, 356.328), timeStamp: 2017-02-16 10:43:30.300
LEye coords (400.2365, 372.0369), REye coords (430.0301, 358.0211), timeStamp: 2017-02-16 10:43:30.332
LEye coords (400.379, 375.6648), REye coords (428.4064, 360.9058), timeStamp: 2017-02-16 10:43:30.376
LEye coords (398.0309, 379.0711), REye coords (425.7791, 362.955), timeStamp: 2017-02-16 10:43:30.410
LEye coords (397.6173, 382.7867), REye coords (423.5294, 366.7921), timeStamp: 2017-02-16 10:43:30.442
LEye coords (396.7208, 387.1336), REye coords (421.7834, 369.8768), timeStamp: 2017-02-16 10:43:30.486
LEye coords (396.0902, 390.2326), REye coords (0.0, 0.0), timeStamp: 2017-02-16 10:43:30.519
LEye coords (395.2009, 393.3958), REye coords (0.0, 0.0), timeStamp: 2017-02-16 10:43:30.552
LEye coords (394.8493, 397.2223), REye coords (0.0, 0.0), timeStamp: 2017-02-16 10:43:30.596
LEye coords (394.5814, 399.9529), REye coords (0.0, 0.0), timeStamp: 2017-02-16 10:43:30.630
LEye coords (393.2618, 403.0341), REye coords (0.0, 0.0), timeStamp: 2017-02-16 10:43:30.673
LEye coords (393.0759, 406.5515), REye coords (420.7535, 372.0609), timeStamp: 2017-02-16 10:43:30.707
LEye coords (393.7187, 409.4951), REye coords (420.3897, 374.5363), timeStamp: 2017-02-16 10:43:30.740
LEye coords (395.6781, 411.3182), REye coords (419.0018, 377.5581), timeStamp: 2017-02-16 10:43:30.785
LEye coords (396.6241, 412.5324), REye coords (418.0565, 379.6971), timeStamp: 2017-02-16 10:43:30.819
LEye coords (396.331, 414.1177), REye coords (416.8833, 381.8182), timeStamp: 2017-02-16 10:43:30.851
LEye coords (396.0157, 415.4201), REye coords (416.3234, 383.8013), timeStamp: 2017-02-16 10:43:30.885
LEye coords (396.113, 417.2903), REye coords (415.3575, 384.7882), timeStamp: 2017-02-16 10:43:30.928
LEye coords (396.1925, 417.78), REye coords (414.7565, 386.1781), timeStamp: 2017-02-16 10:43:30.963
LEye coords (395.3332, 418.3806), REye coords (415.3101, 386.0647), timeStamp: 2017-02-16 10:43:31.007
LEye coords (396.6203, 419.405), REye coords (415.0513, 387.5847), timeStamp: 2017-02-16 10:43:31.040
LEye coords (397.1796, 420.1582), REye coords (414.7515, 388.9515), timeStamp: 2017-02-16 10:43:31.074
LEye coords (398.1975, 420.7105), REye coords (414.2115, 390.9092), timeStamp: 2017-02-16 10:43:31.118
LEye coords (397.8593, 420.8992), REye coords (414.1443, 392.5823), timeStamp: 2017-02-16 10:43:31.151
LEye coords (398.5127, 419.7937), REye coords (414.1471, 394.2875), timeStamp: 2017-02-16 10:43:31.184
LEye coords (395.5023, 420.2925), REye coords (413.912, 396.068), timeStamp: 2017-02-16 10:43:31.227
LEye coords (393.3206, 420.2924), REye coords (413.6884, 396.3886), timeStamp: 2017-02-16 10:43:31.260
LEye coords (261.6824, 358.1969), REye coords (413.8916, 397.6057), timeStamp: 2017-02-16 10:43:31.295
LEye coords (368.0017, 461.9732), REye coords (413.9998, 399.0488), timeStamp: 2017-02-16 10:43:31.338
LEye coords (343.556, 444.5869), REye coords (414.5789, 400.3777), timeStamp: 2017-02-16 10:43:31.371
LEye coords (339.6067, 433.5474), REye coords (415.5057, 400.8523), timeStamp: 2017-02-16 10:43:31.405
LEye coords (352.7271, 435.3005), REye coords (415.6727, 401.2697), timeStamp: 2017-02-16 10:43:31.448
LEye coords (362.7802, 433.5941), REye coords (416.0256, 401.159), timeStamp: 2017-02-16 10:43:31.481
LEye coords (371.317, 438.4723), REye coords (416.9793, 402.065), timeStamp: 2017-02-16 10:43:31.514
LEye coords (376.9106, 441.4121), REye coords (417.4542, 402.3561), timeStamp: 2017-02-16 10:43:31.558
LEye coords (382.8582, 445.497), REye coords (417.9917, 403.4028), timeStamp: 2017-02-16 10:43:31.592
LEye coords (387.3401, 446.4528), REye coords (418.2499, 404.8399), timeStamp: 2017-02-16 10:43:31.635
LEye coords (390.9594, 450.6121), REye coords (418.1276, 406.066), timeStamp: 2017-02-16 10:43:31.669
LEye coords (393.279, 452.9137), REye coords (417.5054, 406.6434), timeStamp: 2017-02-16 10:43:31.702
LEye coords (395.4829, 455.3261), REye coords (417.9939, 407.3766), timeStamp: 2017-02-16 10:43:31.745
LEye coords (398.1612, 457.4336), REye coords (417.6375, 407.9692), timeStamp: 2017-02-16 10:43:31.779
LEye coords (400.614, 460.3599), REye coords (417.1736, 408.837), timeStamp: 2017-02-16 10:43:31.812
LEye coords (402.6422, 462.9364), REye coords (416.5536, 409.5287), timeStamp: 2017-02-16 10:43:31.855
LEye coords (401.8338, 463.2681), REye coords (416.0698, 410.1899), timeStamp: 2017-02-16 10:43:31.888
LEye coords (402.962, 464.6573), REye coords (415.9089, 410.0903), timeStamp: 2017-02-16 10:43:31.931
LEye coords (401.3897, 464.6814), REye coords (416.039, 410.1568), timeStamp: 2017-02-16 10:43:31.965
LEye coords (402.729, 463.9052), REye coords (415.5793, 410.808), timeStamp: 2017-02-16 10:43:31.998
LEye coords (402.8551, 464.0951), REye coords (415.1429, 410.9094), timeStamp: 2017-02-16 10:43:32.042
LEye coords (404.1467, 462.0243), REye coords (416.5266, 410.873), timeStamp: 2017-02-16 10:43:32.076
LEye coords (403.7594, 461.2836), REye coords (418.1089, 410.7578), timeStamp: 2017-02-16 10:43:32.109
LEye coords (403.3757, 460.0314), REye coords (419.4865, 410.026), timeStamp: 2017-02-16 10:43:32.153
LEye coords (404.32, 459.6091), REye coords (420.5789, 408.9656), timeStamp: 2017-02-16 10:43:32.187
LEye coords (405.8619, 460.6433), REye coords (421.4814, 408.1249), timeStamp: 2017-02-16 10:43:32.220
LEye coords (405.2619, 460.9113), REye coords (423.1289, 406.6173), timeStamp: 2017-02-16 10:43:32.264
LEye coords (402.188, 458.5864), REye coords (424.1198, 405.5683), timeStamp: 2017-02-16 10:43:32.298
LEye coords (402.2587, 458.8307), REye coords (425.4849, 404.5655), timeStamp: 2017-02-16 10:43:32.331
LEye coords (402.7582, 457.8766), REye coords (425.717, 403.7528), timeStamp: 2017-02-16 10:43:32.374
LEye coords (405.1772, 458.7101), REye coords (426.6427, 403.0763), timeStamp: 2017-02-16 10:43:32.407
LEye coords (401.6671, 456.6917), REye coords (427.5658, 401.443), timeStamp: 2017-02-16 10:43:32.441
LEye coords (397.455, 454.3151), REye coords (428.6409, 401.1934), timeStamp: 2017-02-16 10:43:32.486
LEye coords (399.972, 455.0847), REye coords (429.2092, 400.9126), timeStamp: 2017-02-16 10:43:32.519
LEye coords (401.772, 455.8613), REye coords (429.6886, 400.7274), timeStamp: 2017-02-16 10:43:32.552
LEye coords (404.1224, 456.0398), REye coords (430.4567, 400.1236), timeStamp: 2017-02-16 10:43:32.595
LEye coords (405.6965, 456.1516), REye coords (431.5321, 400.3452), timeStamp: 2017-02-16 10:43:32.629
LEye coords (409.173, 457.0128), REye coords (433.3914, 398.9278), timeStamp: 2017-02-16 10:43:32.662
LEye coords (412.6527, 456.8272), REye coords (435.455, 396.091), timeStamp: 2017-02-16 10:43:32.706
LEye coords (415.0576, 455.7487), REye coords (437.0086, 394.644), timeStamp: 2017-02-16 10:43:32.739
LEye coords (418.6462, 455.1754), REye coords (438.7358, 393.1299), timeStamp: 2017-02-16 10:43:32.773
LEye coords (421.4302, 456.3101), REye coords (440.2087, 391.2477), timeStamp: 2017-02-16 10:43:32.815
LEye coords (424.0301, 456.5855), REye coords (441.7393, 390.7495), timeStamp: 2017-02-16 10:43:32.849
LEye coords (426.5825, 456.7158), REye coords (442.2545, 390.0683), timeStamp: 2017-02-16 10:43:32.893
LEye coords (428.6108, 456.4214), REye coords (442.9698, 389.364), timeStamp: 2017-02-16 10:43:32.926
LEye coords (431.6898, 456.623), REye coords (443.5945, 388.9623), timeStamp: 2017-02-16 10:43:32.960
LEye coords (434.0281, 457.4544), REye coords (444.1374, 389.3044), timeStamp: 2017-02-16 10:43:33.005
LEye coords (433.9664, 460.3683), REye coords (441.8183, 389.6117), timeStamp: 2017-02-16 10:43:33.039
LEye coords (432.7099, 463.1462), REye coords (439.6778, 390.2693), timeStamp: 2017-02-16 10:43:33.072
LEye coords (433.4847, 467.8133), REye coords (437.5263, 391.937), timeStamp: 2017-02-16 10:43:33.116
LEye coords (432.2172, 469.2798), REye coords (435.0912, 392.7757), timeStamp: 2017-02-16 10:43:33.150
LEye coords (430.7585, 471.7567), REye coords (433.0727, 393.3593), timeStamp: 2017-02-16 10:43:33.183
LEye coords (428.0209, 473.8585), REye coords (431.3535, 394.409), timeStamp: 2017-02-16 10:43:33.227
LEye coords (428.1786, 476.7033), REye coords (429.6851, 395.3689), timeStamp: 2017-02-16 10:43:33.260
LEye coords (427.351, 479.1611), REye coords (427.971, 396.8346), timeStamp: 2017-02-16 10:43:33.293
LEye coords (425.8248, 480.2921), REye coords (426.7136, 398.1701), timeStamp: 2017-02-16 10:43:33.336
LEye coords (424.1277, 482.1461), REye coords (425.6368, 399.2349), timeStamp: 2017-02-16 10:43:33.369
LEye coords (421.8154, 483.3058), REye coords (425.125, 400.5273), timeStamp: 2017-02-16 10:43:33.402
LEye coords (421.0674, 485.5106), REye coords (424.3565, 401.7799), timeStamp: 2017-02-16 10:43:33.448
LEye coords (419.2414, 486.684), REye coords (422.9398, 402.9247), timeStamp: 2017-02-16 10:43:33.480
LEye coords (418.468, 489.5314), REye coords (421.3642, 404.9541), timeStamp: 2017-02-16 10:43:33.515
LEye coords (416.6873, 491.2495), REye coords (419.6135, 406.325), timeStamp: 2017-02-16 10:43:33.559
LEye coords (415.1655, 492.0872), REye coords (417.6834, 404.9817), timeStamp: 2017-02-16 10:43:33.592
LEye coords (413.0567, 491.8811), REye coords (415.8626, 403.0695), timeStamp: 2017-02-16 10:43:33.625
LEye coords (410.7487, 489.9084), REye coords (413.8506, 401.1358), timeStamp: 2017-02-16 10:43:33.670
LEye coords (408.889, 489.8294), REye coords (411.8118, 399.6109), timeStamp: 2017-02-16 10:43:33.705
LEye coords (407.9765, 489.4456), REye coords (409.2544, 398.8399), timeStamp: 2017-02-16 10:43:33.738
LEye coords (406.9651, 487.437), REye coords (406.9596, 398.2217), timeStamp: 2017-02-16 10:43:33.781
LEye coords (405.4374, 485.2143), REye coords (404.8604, 397.0101), timeStamp: 2017-02-16 10:43:33.814
LEye coords (403.8839, 481.2727), REye coords (403.225, 396.116), timeStamp: 2017-02-16 10:43:33.847
LEye coords (403.3997, 477.7507), REye coords (401.7467, 394.2548), timeStamp: 2017-02-16 10:43:33.891
LEye coords (402.6042, 474.4248), REye coords (400.5073, 393.0324), timeStamp: 2017-02-16 10:43:33.924
LEye coords (401.7193, 471.7755), REye coords (398.9887, 391.8419), timeStamp: 2017-02-16 10:43:33.958
LEye coords (400.7222, 469.5136), REye coords (398.4395, 391.1498), timeStamp: 2017-02-16 10:43:34.002
LEye coords (399.3372, 466.5866), REye coords (398.1115, 389.7236), timeStamp: 2017-02-16 10:43:34.035
LEye coords (397.8112, 464.4938), REye coords (396.8678, 389.2796), timeStamp: 2017-02-16 10:43:34.078
LEye coords (395.5785, 461.5005), REye coords (395.6862, 388.0358), timeStamp: 2017-02-16 10:43:34.113
LEye coords (393.7071, 459.8614), REye coords (395.0781, 386.8737), timeStamp: 2017-02-16 10:43:34.147
LEye coords (391.0858, 457.0677), REye coords (393.5631, 386.9955), timeStamp: 2017-02-16 10:43:34.181
LEye coords (390.3115, 456.1632), REye coords (392.5551, 385.6856), timeStamp: 2017-02-16 10:43:34.223
LEye coords (388.1287, 454.0621), REye coords (392.0039, 384.4324), timeStamp: 2017-02-16 10:43:34.257
LEye coords (386.1497, 452.0052), REye coords (390.9524, 384.2534), timeStamp: 2017-02-16 10:43:34.290
LEye coords (385.5471, 450.1129), REye coords (389.9951, 382.7878), timeStamp: 2017-02-16 10:43:34.333
LEye coords (385.2624, 447.5379), REye coords (389.5923, 381.4439), timeStamp: 2017-02-16 10:43:34.366
LEye coords (383.9489, 446.0695), REye coords (389.9948, 381.6819), timeStamp: 2017-02-16 10:43:34.409
LEye coords (382.7823, 444.9798), REye coords (390.4025, 381.4062), timeStamp: 2017-02-16 10:43:34.442
LEye coords (382.0063, 444.2262), REye coords (390.9775, 380.2634), timeStamp: 2017-02-16 10:43:34.476
LEye coords (381.4864, 443.5035), REye coords (390.971, 380.6174), timeStamp: 2017-02-16 10:43:34.520
LEye coords (381.5275, 443.09), REye coords (391.4397, 379.5308), timeStamp: 2017-02-16 10:43:34.553
LEye coords (381.3613, 444.4225), REye coords (391.0616, 378.7931), timeStamp: 2017-02-16 10:43:34.586
LEye coords (380.4381, 445.3257), REye coords (390.9499, 378.5683), timeStamp: 2017-02-16 10:43:34.630
LEye coords (379.0447, 446.6367), REye coords (0.0, 0.0), timeStamp: 2017-02-16 10:43:34.663
LEye coords (379.2216, 448.7556), REye coords (0.0, 0.0), timeStamp: 2017-02-16 10:43:34.706
LEye coords (378.6299, 449.3479), REye coords (0.0, 0.0), timeStamp: 2017-02-16 10:43:34.739
LEye coords (379.8177, 451.7097), REye coords (0.0, 0.0), timeStamp: 2017-02-16 10:43:34.773
LEye coords (378.7759, 453.1887), REye coords (391.3533, 377.2595), timeStamp: 2017-02-16 10:43:34.816
LEye coords (380.3196, 456.0844), REye coords (0.0, 0.0), timeStamp: 2017-02-16 10:43:34.850
LEye coords (382.1017, 457.0179), REye coords (0.0, 0.0), timeStamp: 2017-02-16 10:43:34.883
LEye coords (383.6793, 460.0092), REye coords (0.0, 0.0), timeStamp: 2017-02-16 10:43:34.928
LEye coords (385.3637, 462.6906), REye coords (391.6691, 377.2631), timeStamp: 2017-02-16 10:43:34.960
LEye coords (387.1882, 466.0672), REye coords (391.6901, 377.5559), timeStamp: 2017-02-16 10:43:34.994
LEye coords (387.5068, 468.4467), REye coords (392.2289, 377.1014), timeStamp: 2017-02-16 10:43:35.037
LEye coords (389.0681, 469.8785), REye coords (392.7007, 375.6156), timeStamp: 2017-02-16 10:43:35.071
LEye coords (390.5248, 472.4459), REye coords (393.9034, 375.3094), timeStamp: 2017-02-16 10:43:35.114
LEye coords (391.4487, 473.6245), REye coords (394.718, 375.011), timeStamp: 2017-02-16 10:43:35.148
LEye coords (391.1772, 474.8399), REye coords (395.8512, 374.5383), timeStamp: 2017-02-16 10:43:35.180
LEye coords (391.3459, 476.01), REye coords (397.0584, 374.0855), timeStamp: 2017-02-16 10:43:35.224
LEye coords (389.0713, 476.0429), REye coords (0.0, 0.0), timeStamp: 2017-02-16 10:43:35.257
LEye coords (389.7376, 477.8498), REye coords (0.0, 0.0), timeStamp: 2017-02-16 10:43:35.290
LEye coords (390.3926, 478.6584), REye coords (0.0, 0.0), timeStamp: 2017-02-16 10:43:35.335
LEye coords (388.8791, 479.1599), REye coords (0.0, 0.0), timeStamp: 2017-02-16 10:43:35.368
LEye coords (389.0224, 479.6379), REye coords (0.0, 0.0), timeStamp: 2017-02-16 10:43:35.401
LEye coords (389.2994, 480.9059), REye coords (0.0, 0.0), timeStamp: 2017-02-16 10:43:35.445
LEye coords (390.4497, 481.8987), REye coords (0.0, 0.0), timeStamp: 2017-02-16 10:43:35.478
LEye coords (390.175, 481.3036), REye coords (0.0, 0.0), timeStamp: 2017-02-16 10:43:35.522
LEye coords (391.0367, 482.6131), REye coords (0.0, 0.0), timeStamp: 2017-02-16 10:43:35.555
LEye coords (391.6652, 483.9377), REye coords (0.0, 0.0), timeStamp: 2017-02-16 10:43:35.589
LEye coords (392.1923, 484.7521), REye coords (0.0, 0.0), timeStamp: 2017-02-16 10:43:35.633
LEye coords (391.5954, 484.8986), REye coords (0.0, 0.0), timeStamp: 2017-02-16 10:43:35.666
LEye coords (391.6784, 485.4137), REye coords (0.0, 0.0), timeStamp: 2017-02-16 10:43:35.699
LEye coords (391.9766, 486.0422), REye coords (0.0, 0.0), timeStamp: 2017-02-16 10:43:35.742
LEye coords (391.6752, 486.2236), REye coords (0.0, 0.0), timeStamp: 2017-02-16 10:43:35.776
