LEye coords (531.4785, 439.3321), REye coords (513.1764, 388.5882), timeStamp: 2017-02-16 10:43:41.368
LEye coords (532.0452, 439.2171), REye coords (514.2065, 386.6031), timeStamp: 2017-02-16 10:43:41.402
LEye coords (533.1982, 439.8717), REye coords (514.9359, 385.6137), timeStamp: 2017-02-16 10:43:41.434
LEye coords (534.7203, 440.5911), REye coords (515.3587, 384.6416), timeStamp: 2017-02-16 10:43:41.477
LEye coords (536.7303, 441.0251), REye coords (515.7203, 383.7617), timeStamp: 2017-02-16 10:43:41.510
LEye coords (538.4293, 442.2769), REye coords (516.0925, 382.3725), timeStamp: 2017-02-16 10:43:41.553
LEye coords (539.595, 442.7191), REye coords (516.595, 381.6996), timeStamp: 2017-02-16 10:43:41.587
LEye coords (541.1006, 445.0236), REye coords (517.0466, 381.6308), timeStamp: 2017-02-16 10:43:41.621
LEye coords (542.3521, 446.7628), REye coords (517.7327, 381.0633), timeStamp: 2017-02-16 10:43:41.666
LEye coords (542.4218, 447.6161), REye coords (518.2795, 379.9966), timeStamp: 2017-02-16 10:43:41.700
LEye coords (542.8986, 448.223), REye coords (519.5643, 379.3773), timeStamp: 2017-02-16 10:43:41.733
LEye coords (542.8657, 448.1893), REye coords (520.4478, 378.7384), timeStamp: 2017-02-16 10:43:41.767
LEye coords (761.9404, 407.9529), REye coords (789.8887, 370.8933), timeStamp: 2017-02-16 10:43:41.811
LEye coords (869.6333, 411.9184), REye coords (873.4897, 389.2838), timeStamp: 2017-02-16 10:43:41.846
LEye coords (879.6441, 400.2679), REye coords (876.4213, 384.6599), timeStamp: 2017-02-16 10:43:41.879
LEye coords (880.4107, 393.4304), REye coords (878.9298, 384.9952), timeStamp: 2017-02-16 10:43:41.923
LEye coords (876.8539, 390.1342), REye coords (880.7298, 383.584), timeStamp: 2017-02-16 10:43:41.956
LEye coords (880.3577, 389.5814), REye coords (885.8367, 393.7353), timeStamp: 2017-02-16 10:43:41.990
LEye coords (876.8726, 371.4517), REye coords (880.9921, 382.3236), timeStamp: 2017-02-16 10:43:42.036
LEye coords (874.9032, 377.3997), REye coords (881.6838, 386.0073), timeStamp: 2017-02-16 10:43:42.069
LEye coords (814.8269, 383.2065), REye coords (835.0096, 377.259), timeStamp: 2017-02-16 10:43:42.102
LEye coords (648.3586, 388.2122), REye coords (0.0, 0.0), timeStamp: 2017-02-16 10:43:42.145
LEye coords (179.2529, 403.1615), REye coords (666.8335, 369.1282), timeStamp: 2017-02-16 10:43:42.177
LEye coords (182.6292, 390.5244), REye coords (169.8291, 360.3376), timeStamp: 2017-02-16 10:43:42.220
LEye coords (177.312, 399.814), REye coords (184.0123, 359.4569), timeStamp: 2017-02-16 10:43:42.254
LEye coords (178.5614, 397.6101), REye coords (183.0216, 363.0386), timeStamp: 2017-02-16 10:43:42.288
LEye coords (179.5648, 396.8572), REye coords (179.514, 358.997), timeStamp: 2017-02-16 10:43:42.322
LEye coords (179.3013, 398.2809), REye coords (178.0177, 359.0276), timeStamp: 2017-02-16 10:43:42.366
LEye coords (179.5462, 396.9309), REye coords (177.5794, 358.9048), timeStamp: 2017-02-16 10:43:42.400
LEye coords (178.4672, 396.5154), REye coords (178.3836, 358.744), timeStamp: 2017-02-16 10:43:42.433
LEye coords (0.0, 0.0), REye coords (0.0, 0.0), timeStamp: 2017-02-16 10:43:42.476
LEye coords (430.4847, 352.8), REye coords (430.596, 355.8695), timeStamp: 2017-02-16 10:43:42.508
LEye coords (429.2705, 355.2866), REye coords (417.4829, 364.5235), timeStamp: 2017-02-16 10:43:42.554
LEye coords (431.8358, 365.1552), REye coords (415.4157, 363.5033), timeStamp: 2017-02-16 10:43:42.587
LEye coords (432.7139, 367.6271), REye coords (417.7371, 364.2633), timeStamp: 2017-02-16 10:43:42.621
LEye coords (432.8877, 369.2861), REye coords (416.5432, 367.2871), timeStamp: 2017-02-16 10:43:42.664
LEye coords (429.6747, 361.9278), REye coords (411.8257, 378.3412), timeStamp: 2017-02-16 10:43:42.697
LEye coords (420.6644, 347.15), REye coords (416.2888, 366.3799), timeStamp: 2017-02-16 10:43:42.731
LEye coords (519.6735, 374.9864), REye coords (540.6652, 396.705), timeStamp: 2017-02-16 10:43:42.775
LEye coords (756.504, 440.1723), REye coords (769.142, 423.628), timeStamp: 2017-02-16 10:43:42.808
LEye coords (873.5291, 474.2202), REye coords (887.1947, 441.1469), timeStamp: 2017-02-16 10:43:42.841
LEye coords (1214.406, 572.4152), REye coords (1217.5809, 502.6906), timeStamp: 2017-02-16 10:43:42.886
LEye coords (1212.9149, 577.8205), REye coords (1212.1023, 508.9164), timeStamp: 2017-02-16 10:43:42.919
LEye coords (1215.9521, 570.994), REye coords (1212.6313, 509.9887), timeStamp: 2017-02-16 10:43:42.952
LEye coords (1218.1664, 568.8362), REye coords (1213.4628, 511.6544), timeStamp: 2017-02-16 10:43:42.996
LEye coords (1218.9132, 567.4141), REye coords (1212.3821, 512.3036), timeStamp: 2017-02-16 10:43:43.029
LEye coords (1042.8304, 378.7123), REye coords (1079.7505, 331.4402), timeStamp: 2017-02-16 10:43:43.064
LEye coords (1047.919, 364.1301), REye coords (1059.7052, 356.681), timeStamp: 2017-02-16 10:43:43.108
LEye coords (1046.6967, 363.9279), REye coords (1058.0295, 352.7436), timeStamp: 2017-02-16 10:43:43.141
LEye coords (1050.2826, 361.8984), REye coords (1061.8522, 351.5913), timeStamp: 2017-02-16 10:43:43.174
LEye coords (1052.5978, 362.0673), REye coords (1062.8834, 351.6928), timeStamp: 2017-02-16 10:43:43.218
LEye coords (1062.8369, 366.7399), REye coords (1063.9366, 359.6618), timeStamp: 2017-02-16 10:43:43.251
LEye coords (1053.5262, 363.8417), REye coords (1074.9186, 350.5421), timeStamp: 2017-02-16 10:43:43.283
LEye coords (1036.4518, 361.0589), REye coords (1059.6646, 353.8878), timeStamp: 2017-02-16 10:43:43.328
LEye coords (952.7861, 337.8036), REye coords (968.1721, 336.3925), timeStamp: 2017-02-16 10:43:43.361
LEye coords (911.8878, 330.5312), REye coords (0.0, 0.0), timeStamp: 2017-02-16 10:43:43.405
LEye coords (787.4594, 299.466), REye coords (0.0, 0.0), timeStamp: 2017-02-16 10:43:43.438
LEye coords (790.5948, 296.1839), REye coords (0.0, 0.0), timeStamp: 2017-02-16 10:43:43.471
LEye coords (791.2365, 297.2547), REye coords (0.0, 0.0), timeStamp: 2017-02-16 10:43:43.516
LEye coords (792.2294, 299.9467), REye coords (0.0, 0.0), timeStamp: 2017-02-16 10:43:43.550
LEye coords (792.8939, 302.1596), REye coords (0.0, 0.0), timeStamp: 2017-02-16 10:43:43.584
LEye coords (793.6964, 302.3504), REye coords (0.0, 0.0), timeStamp: 2017-02-16 10:43:43.618
LEye coords (796.8325, 298.3872), REye coords (927.642, 331.6347), timeStamp: 2017-02-16 10:43:43.662
LEye coords (1133.9686, 171.4945), REye coords (1139.5497, 183.9516), timeStamp: 2017-02-16 10:43:43.696
LEye coords (1127.3875, 188.2221), REye coords (1134.785, 194.7312), timeStamp: 2017-02-16 10:43:43.729
LEye coords (1122.8809, 183.7979), REye coords (1137.7618, 189.1837), timeStamp: 2017-02-16 10:43:43.773
LEye coords (0.0, 0.0), REye coords (954.8484, 230.6074), timeStamp: 2017-02-16 10:43:43.806
LEye coords (779.0995, 263.243), REye coords (736.5982, 268.9546), timeStamp: 2017-02-16 10:43:43.840
LEye coords (608.7654, 306.4591), REye coords (77.6512, 371.0525), timeStamp: 2017-02-16 10:43:43.884
LEye coords (107.2764, 448.3671), REye coords (84.2056, 369.2975), timeStamp: 2017-02-16 10:43:43.917
LEye coords (102.9538, 445.1408), REye coords (76.0613, 373.303), timeStamp: 2017-02-16 10:43:43.950
LEye coords (106.4979, 448.4642), REye coords (76.8973, 376.4055), timeStamp: 2017-02-16 10:43:43.994
LEye coords (104.9067, 446.8387), REye coords (74.9096, 377.4939), timeStamp: 2017-02-16 10:43:44.027
LEye coords (106.9668, 446.2375), REye coords (76.3371, 380.2428), timeStamp: 2017-02-16 10:43:44.070
LEye coords (107.969, 441.563), REye coords (76.6809, 380.6666), timeStamp: 2017-02-16 10:43:44.103
LEye coords (0.0, 0.0), REye coords (0.0, 0.0), timeStamp: 2017-02-16 10:43:44.136
LEye coords (124.0127, 435.9167), REye coords (209.6514, 351.1128), timeStamp: 2017-02-16 10:43:44.180
LEye coords (139.2673, 432.492), REye coords (211.5008, 357.1642), timeStamp: 2017-02-16 10:43:44.213
LEye coords (149.9326, 428.8203), REye coords (213.1658, 354.4954), timeStamp: 2017-02-16 10:43:44.246
LEye coords (158.7552, 425.6317), REye coords (211.2614, 349.565), timeStamp: 2017-02-16 10:43:44.290
LEye coords (165.0655, 422.0859), REye coords (207.2745, 350.7609), timeStamp: 2017-02-16 10:43:44.324
LEye coords (170.0369, 419.131), REye coords (201.7812, 359.1534), timeStamp: 2017-02-16 10:43:44.358
LEye coords (175.9758, 417.2401), REye coords (190.4706, 355.7132), timeStamp: 2017-02-16 10:43:44.400
LEye coords (179.8345, 415.2658), REye coords (184.7774, 353.0218), timeStamp: 2017-02-16 10:43:44.433
LEye coords (184.0341, 413.695), REye coords (187.7521, 355.5683), timeStamp: 2017-02-16 10:43:44.477
LEye coords (187.7896, 412.522), REye coords (188.3685, 358.9291), timeStamp: 2017-02-16 10:43:44.510
LEye coords (191.0758, 410.7488), REye coords (190.1815, 361.5355), timeStamp: 2017-02-16 10:43:44.544
LEye coords (193.7545, 409.8321), REye coords (188.4009, 364.1972), timeStamp: 2017-02-16 10:43:44.589
LEye coords (194.1996, 408.1537), REye coords (185.1465, 366.5882), timeStamp: 2017-02-16 10:43:44.622
LEye coords (189.5626, 406.1461), REye coords (0.0, 0.0), timeStamp: 2017-02-16 10:43:44.655
LEye coords (184.9074, 404.3427), REye coords (0.0, 0.0), timeStamp: 2017-02-16 10:43:44.698
LEye coords (180.8837, 402.127), REye coords (0.0, 0.0), timeStamp: 2017-02-16 10:43:44.732
LEye coords (176.9631, 400.7752), REye coords (0.0, 0.0), timeStamp: 2017-02-16 10:43:44.765
LEye coords (174.6999, 398.6094), REye coords (0.0, 0.0), timeStamp: 2017-02-16 10:43:44.811
LEye coords (171.3939, 395.6097), REye coords (0.0, 0.0), timeStamp: 2017-02-16 10:43:44.845
LEye coords (166.2959, 396.924), REye coords (48.2964, 429.8114), timeStamp: 2017-02-16 10:43:44.878
LEye coords (160.623, 399.3361), REye coords (68.6223, 444.9246), timeStamp: 2017-02-16 10:43:44.922
LEye coords (155.3304, 402.4187), REye coords (69.9193, 446.8213), timeStamp: 2017-02-16 10:43:44.956
LEye coords (147.941, 406.177), REye coords (72.1546, 450.1582), timeStamp: 2017-02-16 10:43:44.988
LEye coords (140.4823, 409.8904), REye coords (71.5097, 447.6323), timeStamp: 2017-02-16 10:43:45.033
LEye coords (133.7905, 413.3094), REye coords (69.9626, 448.8193), timeStamp: 2017-02-16 10:43:45.066
LEye coords (126.7451, 414.9226), REye coords (68.7968, 448.1886), timeStamp: 2017-02-16 10:43:45.099
LEye coords (120.3203, 415.7302), REye coords (70.267, 445.7747), timeStamp: 2017-02-16 10:43:45.143
LEye coords (113.9378, 416.4876), REye coords (49.8835, 414.5504), timeStamp: 2017-02-16 10:43:45.177
LEye coords (107.6872, 417.9356), REye coords (52.2824, 408.4817), timeStamp: 2017-02-16 10:43:45.211
LEye coords (102.3369, 419.8038), REye coords (52.6387, 407.6259), timeStamp: 2017-02-16 10:43:45.245
LEye coords (97.0192, 421.2733), REye coords (51.3927, 410.2386), timeStamp: 2017-02-16 10:43:45.289
LEye coords (92.2676, 422.6541), REye coords (56.5899, 413.0579), timeStamp: 2017-02-16 10:43:45.324
LEye coords (75.7292, 426.8978), REye coords (56.2917, 414.2787), timeStamp: 2017-02-16 10:43:45.358
LEye coords (63.6457, 392.0087), REye coords (57.9752, 412.0217), timeStamp: 2017-02-16 10:43:45.403
LEye coords (81.1508, 337.8478), REye coords (69.8029, 270.3518), timeStamp: 2017-02-16 10:43:45.436
LEye coords (90.9623, 321.1248), REye coords (55.4112, 323.4838), timeStamp: 2017-02-16 10:43:45.469
LEye coords (94.8139, 309.6781), REye coords (60.791, 297.9353), timeStamp: 2017-02-16 10:43:45.512
LEye coords (96.2531, 249.6941), REye coords (66.8638, 289.8259), timeStamp: 2017-02-16 10:43:45.546
LEye coords (99.1551, 256.8564), REye coords (70.0674, 285.0694), timeStamp: 2017-02-16 10:43:45.579
LEye coords (98.0238, 261.0711), REye coords (69.9393, 284.3025), timeStamp: 2017-02-16 10:43:45.623
LEye coords (98.625, 265.3102), REye coords (68.4868, 281.5581), timeStamp: 2017-02-16 10:43:45.656
LEye coords (99.4357, 263.7673), REye coords (89.8793, 269.4723), timeStamp: 2017-02-16 10:43:45.699
LEye coords (98.7142, 264.0986), REye coords (79.7431, 295.525), timeStamp: 2017-02-16 10:43:45.733
LEye coords (97.8688, 265.9704), REye coords (75.0192, 279.5712), timeStamp: 2017-02-16 10:43:45.766
LEye coords (97.0417, 267.9547), REye coords (76.2359, 280.7982), timeStamp: 2017-02-16 10:43:45.810
LEye coords (98.6329, 269.4707), REye coords (76.8005, 277.2796), timeStamp: 2017-02-16 10:43:45.843
LEye coords (237.9606, 323.7541), REye coords (0.0, 0.0), timeStamp: 2017-02-16 10:43:45.877
LEye coords (233.9183, 329.0681), REye coords (0.0, 0.0), timeStamp: 2017-02-16 10:43:45.921
LEye coords (240.4424, 330.3408), REye coords (0.0, 0.0), timeStamp: 2017-02-16 10:43:45.955
LEye coords (241.2585, 331.4428), REye coords (0.0, 0.0), timeStamp: 2017-02-16 10:43:45.987
LEye coords (240.2733, 330.0362), REye coords (0.0, 0.0), timeStamp: 2017-02-16 10:43:46.031
LEye coords (226.5582, 315.2975), REye coords (0.0, 0.0), timeStamp: 2017-02-16 10:43:46.065
LEye coords (482.4677, 366.3443), REye coords (531.8033, 419.506), timeStamp: 2017-02-16 10:43:46.098
LEye coords (652.2429, 379.5262), REye coords (823.8038, 453.8243), timeStamp: 2017-02-16 10:43:46.142
LEye coords (715.8572, 389.826), REye coords (833.0282, 453.0396), timeStamp: 2017-02-16 10:43:46.176
LEye coords (746.5472, 398.2926), REye coords (835.7812, 448.6624), timeStamp: 2017-02-16 10:43:46.211
LEye coords (829.2783, 424.7884), REye coords (839.0241, 445.1352), timeStamp: 2017-02-16 10:43:46.254
LEye coords (831.5928, 413.6509), REye coords (838.2789, 440.1037), timeStamp: 2017-02-16 10:43:46.288
LEye coords (833.9824, 419.3951), REye coords (844.2849, 437.9583), timeStamp: 2017-02-16 10:43:46.321
LEye coords (832.1208, 420.3987), REye coords (837.5973, 442.6), timeStamp: 2017-02-16 10:43:46.356
LEye coords (831.0927, 416.7538), REye coords (838.1395, 441.2809), timeStamp: 2017-02-16 10:43:46.399
LEye coords (831.1677, 416.5706), REye coords (840.2563, 443.3612), timeStamp: 2017-02-16 10:43:46.433
LEye coords (833.2469, 417.9083), REye coords (843.2883, 442.2281), timeStamp: 2017-02-16 10:43:46.467
LEye coords (833.9396, 418.3335), REye coords (842.6895, 443.0693), timeStamp: 2017-02-16 10:43:46.512
LEye coords (495.1623, 449.4177), REye coords (525.3469, 468.5282), timeStamp: 2017-02-16 10:43:46.546
LEye coords (117.5114, 507.7529), REye coords (115.0234, 436.7281), timeStamp: 2017-02-16 10:43:46.580
LEye coords (125.9662, 498.5425), REye coords (0.0, 0.0), timeStamp: 2017-02-16 10:43:46.623
LEye coords (125.6845, 493.808), REye coords (0.0, 0.0), timeStamp: 2017-02-16 10:43:46.657
LEye coords (125.8698, 489.1862), REye coords (0.0, 0.0), timeStamp: 2017-02-16 10:43:46.690
LEye coords (125.2148, 499.3931), REye coords (123.9173, 446.3937), timeStamp: 2017-02-16 10:43:46.734
LEye coords (120.709, 456.4357), REye coords (117.7154, 439.7455), timeStamp: 2017-02-16 10:43:46.767
LEye coords (138.5594, 460.1982), REye coords (113.7823, 437.052), timeStamp: 2017-02-16 10:43:46.800
LEye coords (131.3795, 455.2227), REye coords (112.3962, 428.5385), timeStamp: 2017-02-16 10:43:46.845
LEye coords (126.4595, 452.7744), REye coords (112.4479, 439.4441), timeStamp: 2017-02-16 10:43:46.879
LEye coords (122.1646, 453.3089), REye coords (113.8818, 435.1272), timeStamp: 2017-02-16 10:43:46.912
LEye coords (117.4662, 445.0616), REye coords (113.0376, 431.0377), timeStamp: 2017-02-16 10:43:46.955
LEye coords (116.486, 446.2107), REye coords (112.5271, 427.4978), timeStamp: 2017-02-16 10:43:46.989
LEye coords (115.8376, 445.7709), REye coords (112.138, 428.2538), timeStamp: 2017-02-16 10:43:47.022
LEye coords (115.4235, 446.1925), REye coords (110.4288, 427.4953), timeStamp: 2017-02-16 10:43:47.066
LEye coords (116.1453, 447.6242), REye coords (109.5288, 427.3556), timeStamp: 2017-02-16 10:43:47.100
LEye coords (114.8475, 446.0258), REye coords (109.4812, 427.1718), timeStamp: 2017-02-16 10:43:47.133
LEye coords (115.2373, 447.1975), REye coords (108.7553, 427.4041), timeStamp: 2017-02-16 10:43:47.177
LEye coords (114.6307, 447.3082), REye coords (108.7668, 428.3257), timeStamp: 2017-02-16 10:43:47.210
LEye coords (115.0007, 448.5179), REye coords (107.3353, 427.6877), timeStamp: 2017-02-16 10:43:47.244
LEye coords (114.5258, 448.2778), REye coords (107.6928, 428.4348), timeStamp: 2017-02-16 10:43:47.288
LEye coords (113.8229, 447.4232), REye coords (107.3749, 427.2169), timeStamp: 2017-02-16 10:43:47.322
LEye coords (114.0088, 447.1281), REye coords (106.7284, 426.8949), timeStamp: 2017-02-16 10:43:47.356
LEye coords (113.9249, 446.2906), REye coords (106.4838, 426.7721), timeStamp: 2017-02-16 10:43:47.400
LEye coords (112.4295, 447.5413), REye coords (103.0106, 427.3152), timeStamp: 2017-02-16 10:43:47.432
LEye coords (110.8783, 449.108), REye coords (99.2165, 427.6685), timeStamp: 2017-02-16 10:43:47.475
LEye coords (109.1926, 449.7567), REye coords (96.7183, 428.2226), timeStamp: 2017-02-16 10:43:47.508
LEye coords (107.7812, 450.5782), REye coords (93.9569, 428.6857), timeStamp: 2017-02-16 10:43:47.541
LEye coords (105.8697, 450.7646), REye coords (91.0674, 429.2244), timeStamp: 2017-02-16 10:43:47.585
LEye coords (103.8135, 451.4406), REye coords (88.4058, 430.1957), timeStamp: 2017-02-16 10:43:47.618
LEye coords (102.1098, 451.6878), REye coords (85.3757, 430.7308), timeStamp: 2017-02-16 10:43:47.652
LEye coords (100.4976, 452.2184), REye coords (83.0306, 431.0516), timeStamp: 2017-02-16 10:43:47.696
LEye coords (99.2782, 453.3372), REye coords (80.2778, 431.497), timeStamp: 2017-02-16 10:43:47.730
LEye coords (98.5771, 454.598), REye coords (78.6645, 431.4786), timeStamp: 2017-02-16 10:43:47.762
LEye coords (97.3359, 454.7281), REye coords (76.3556, 432.4079), timeStamp: 2017-02-16 10:43:47.806
LEye coords (96.0094, 454.9738), REye coords (74.633, 432.8269), timeStamp: 2017-02-16 10:43:47.841
LEye coords (95.8933, 456.1436), REye coords (72.9264, 432.8549), timeStamp: 2017-02-16 10:43:47.874
LEye coords (95.2304, 456.7261), REye coords (70.9806, 433.0194), timeStamp: 2017-02-16 10:43:47.918
LEye coords (94.5071, 457.5038), REye coords (69.3361, 433.3485), timeStamp: 2017-02-16 10:43:47.952
LEye coords (93.9252, 457.8553), REye coords (68.2566, 433.5613), timeStamp: 2017-02-16 10:43:47.985
LEye coords (92.7099, 459.0611), REye coords (67.7339, 433.6489), timeStamp: 2017-02-16 10:43:48.028
LEye coords (92.1576, 459.6001), REye coords (66.9184, 433.4827), timeStamp: 2017-02-16 10:43:48.060
LEye coords (91.946, 462.5688), REye coords (65.9413, 433.3035), timeStamp: 2017-02-16 10:43:48.105
LEye coords (91.37, 465.1578), REye coords (65.785, 432.9134), timeStamp: 2017-02-16 10:43:48.138
LEye coords (90.435, 467.634), REye coords (65.7356, 432.6821), timeStamp: 2017-02-16 10:43:48.171
LEye coords (89.0905, 469.8726), REye coords (65.2705, 432.2995), timeStamp: 2017-02-16 10:43:48.215
LEye coords (88.4691, 471.9724), REye coords (65.5151, 431.5164), timeStamp: 2017-02-16 10:43:48.248
LEye coords (88.6108, 474.1984), REye coords (66.8422, 430.2599), timeStamp: 2017-02-16 10:43:48.281
LEye coords (87.4975, 475.666), REye coords (66.9433, 430.0566), timeStamp: 2017-02-16 10:43:48.324
LEye coords (87.3169, 476.706), REye coords (67.0526, 429.7843), timeStamp: 2017-02-16 10:43:48.358
LEye coords (85.7343, 478.636), REye coords (67.2422, 429.2813), timeStamp: 2017-02-16 10:43:48.392
LEye coords (84.1856, 479.1346), REye coords (68.0198, 427.8723), timeStamp: 2017-02-16 10:43:48.435
LEye coords (83.6707, 480.5502), REye coords (67.9689, 426.5445), timeStamp: 2017-02-16 10:43:48.470
LEye coords (82.9962, 481.3014), REye coords (67.4093, 425.7959), timeStamp: 2017-02-16 10:43:48.504
LEye coords (82.5031, 480.185), REye coords (67.6608, 425.6149), timeStamp: 2017-02-16 10:43:48.549
LEye coords (81.9413, 480.015), REye coords (67.4918, 425.6325), timeStamp: 2017-02-16 10:43:48.582
LEye coords (80.4577, 479.6841), REye coords (66.7288, 424.7413), timeStamp: 2017-02-16 10:43:48.615
LEye coords (79.1995, 478.0703), REye coords (65.6367, 424.3511), timeStamp: 2017-02-16 10:43:48.660
LEye coords (78.2659, 477.5353), REye coords (65.2048, 424.4457), timeStamp: 2017-02-16 10:43:48.693
LEye coords (77.324, 476.1461), REye coords (64.995, 423.7134), timeStamp: 2017-02-16 10:43:48.727
LEye coords (77.0396, 474.5981), REye coords (64.9263, 423.3937), timeStamp: 2017-02-16 10:43:48.771
LEye coords (76.4369, 474.1326), REye coords (65.0343, 423.5471), timeStamp: 2017-02-16 10:43:48.805
LEye coords (76.3795, 474.535), REye coords (65.1157, 423.7489), timeStamp: 2017-02-16 10:43:48.838
LEye coords (75.8281, 474.6747), REye coords (65.4081, 424.2066), timeStamp: 2017-02-16 10:43:48.882
LEye coords (75.5802, 473.7116), REye coords (65.8545, 424.1381), timeStamp: 2017-02-16 10:43:48.915
LEye coords (75.2894, 473.3314), REye coords (65.9848, 425.0714), timeStamp: 2017-02-16 10:43:48.948
LEye coords (76.1783, 472.8473), REye coords (65.9668, 424.8481), timeStamp: 2017-02-16 10:43:48.992
LEye coords (75.4596, 472.2223), REye coords (65.7953, 425.4096), timeStamp: 2017-02-16 10:43:49.025
LEye coords (75.2184, 471.6836), REye coords (65.9216, 426.1551), timeStamp: 2017-02-16 10:43:49.060
LEye coords (75.4288, 471.721), REye coords (65.7592, 427.7766), timeStamp: 2017-02-16 10:43:49.103
LEye coords (76.1665, 471.4894), REye coords (66.4875, 428.6129), timeStamp: 2017-02-16 10:43:49.137
LEye coords (75.5927, 472.1866), REye coords (67.241, 428.8982), timeStamp: 2017-02-16 10:43:49.170
LEye coords (76.2624, 473.0565), REye coords (67.9541, 429.5065), timeStamp: 2017-02-16 10:43:49.215
