LEye coords (0.0, 0.0), REye coords (1152.4893, 214.3019), timeStamp: 2017-02-16 10:44:14.122
LEye coords (0.0, 0.0), REye coords (1151.8175, 215.4578), timeStamp: 2017-02-16 10:44:14.156
LEye coords (0.0, 0.0), REye coords (1151.2056, 215.856), timeStamp: 2017-02-16 10:44:14.189
LEye coords (0.0, 0.0), REye coords (1151.223, 216.0293), timeStamp: 2017-02-16 10:44:14.234
LEye coords (0.0, 0.0), REye coords (1149.8196, 217.5407), timeStamp: 2017-02-16 10:44:14.268
LEye coords (1139.6213, 176.1593), REye coords (1147.1365, 218.6732), timeStamp: 2017-02-16 10:44:14.301
LEye coords (588.6111, 391.8224), REye coords (583.7667, 405.8756), timeStamp: 2017-02-16 10:44:14.344
LEye coords (563.9185, 395.8276), REye coords (559.9978, 423.2658), timeStamp: 2017-02-16 10:44:14.379
LEye coords (571.8059, 400.9165), REye coords (556.237, 420.4983), timeStamp: 2017-02-16 10:44:14.412
LEye coords (578.032, 405.2238), REye coords (556.5242, 422.994), timeStamp: 2017-02-16 10:44:14.456
LEye coords (576.8421, 406.9272), REye coords (556.97, 427.0276), timeStamp: 2017-02-16 10:44:14.490
LEye coords (572.4799, 403.1231), REye coords (569.3578, 433.198), timeStamp: 2017-02-16 10:44:14.523
LEye coords (577.8545, 414.0062), REye coords (564.3726, 433.7774), timeStamp: 2017-02-16 10:44:14.566
LEye coords (580.1562, 412.6931), REye coords (568.0899, 431.1378), timeStamp: 2017-02-16 10:44:14.601
LEye coords (579.4743, 411.8039), REye coords (566.4869, 434.049), timeStamp: 2017-02-16 10:44:14.634
LEye coords (576.9846, 410.0336), REye coords (564.9256, 433.8738), timeStamp: 2017-02-16 10:44:14.679
LEye coords (572.4071, 410.078), REye coords (564.8705, 433.9788), timeStamp: 2017-02-16 10:44:14.712
LEye coords (571.5679, 410.5788), REye coords (565.045, 433.1616), timeStamp: 2017-02-16 10:44:14.746
LEye coords (569.3956, 412.3621), REye coords (564.9764, 432.3067), timeStamp: 2017-02-16 10:44:14.791
LEye coords (567.3585, 411.0502), REye coords (564.1286, 432.1604), timeStamp: 2017-02-16 10:44:14.823
LEye coords (565.9662, 410.0511), REye coords (564.8025, 431.5703), timeStamp: 2017-02-16 10:44:14.857
LEye coords (571.6791, 404.4171), REye coords (570.4611, 426.962), timeStamp: 2017-02-16 10:44:14.899
LEye coords (575.842, 399.734), REye coords (575.9599, 423.7547), timeStamp: 2017-02-16 10:44:14.932
LEye coords (579.0438, 396.8719), REye coords (580.3069, 420.3457), timeStamp: 2017-02-16 10:44:14.965
LEye coords (581.9762, 393.5663), REye coords (583.932, 417.448), timeStamp: 2017-02-16 10:44:15.009
LEye coords (585.0463, 391.0507), REye coords (586.9066, 414.9621), timeStamp: 2017-02-16 10:44:15.043
LEye coords (587.6638, 390.0), REye coords (589.194, 413.1946), timeStamp: 2017-02-16 10:44:15.077
LEye coords (590.1664, 387.776), REye coords (592.2548, 412.1708), timeStamp: 2017-02-16 10:44:15.121
LEye coords (0.0, 0.0), REye coords (594.879, 410.6273), timeStamp: 2017-02-16 10:44:15.155
LEye coords (0.0, 0.0), REye coords (596.9323, 409.1676), timeStamp: 2017-02-16 10:44:15.189
LEye coords (591.3937, 385.2829), REye coords (598.5342, 408.4521), timeStamp: 2017-02-16 10:44:15.233
LEye coords (592.4455, 383.9424), REye coords (599.7744, 407.797), timeStamp: 2017-02-16 10:44:15.265
LEye coords (592.1901, 381.3065), REye coords (602.1617, 406.6098), timeStamp: 2017-02-16 10:44:15.299
LEye coords (592.437, 379.7408), REye coords (604.5381, 405.6259), timeStamp: 2017-02-16 10:44:15.343
LEye coords (593.5815, 379.1994), REye coords (607.2055, 404.1122), timeStamp: 2017-02-16 10:44:15.375
LEye coords (593.9423, 377.1804), REye coords (609.0951, 402.9973), timeStamp: 2017-02-16 10:44:15.418
LEye coords (594.8832, 375.7188), REye coords (611.4179, 401.5991), timeStamp: 2017-02-16 10:44:15.452
LEye coords (595.9922, 374.1551), REye coords (613.4879, 400.0257), timeStamp: 2017-02-16 10:44:15.485
LEye coords (597.3716, 371.643), REye coords (615.1992, 398.8098), timeStamp: 2017-02-16 10:44:15.529
LEye coords (598.3394, 370.6839), REye coords (616.6703, 397.9217), timeStamp: 2017-02-16 10:44:15.563
LEye coords (600.139, 369.5797), REye coords (618.4079, 397.6844), timeStamp: 2017-02-16 10:44:15.596
LEye coords (601.9663, 369.5569), REye coords (619.9902, 397.7743), timeStamp: 2017-02-16 10:44:15.640
LEye coords (604.0887, 370.5767), REye coords (621.544, 397.6411), timeStamp: 2017-02-16 10:44:15.673
LEye coords (605.9972, 372.2168), REye coords (623.3217, 397.6921), timeStamp: 2017-02-16 10:44:15.707
LEye coords (607.1017, 373.0167), REye coords (623.387, 398.4131), timeStamp: 2017-02-16 10:44:15.751
LEye coords (605.6856, 373.8458), REye coords (623.4719, 399.9221), timeStamp: 2017-02-16 10:44:15.785
LEye coords (533.0945, 287.572), REye coords (623.999, 400.4405), timeStamp: 2017-02-16 10:44:15.818
LEye coords (569.6544, 362.0503), REye coords (624.959, 400.5763), timeStamp: 2017-02-16 10:44:15.862
LEye coords (570.0319, 361.9804), REye coords (625.3815, 401.4808), timeStamp: 2017-02-16 10:44:15.895
LEye coords (577.9435, 348.4546), REye coords (627.2402, 401.2228), timeStamp: 2017-02-16 10:44:15.928
LEye coords (578.8297, 340.9606), REye coords (628.2385, 400.965), timeStamp: 2017-02-16 10:44:15.972
LEye coords (581.5869, 341.1873), REye coords (629.422, 400.3647), timeStamp: 2017-02-16 10:44:16.006
LEye coords (582.0341, 345.9045), REye coords (631.144, 400.6038), timeStamp: 2017-02-16 10:44:16.039
LEye coords (579.0291, 345.804), REye coords (632.1879, 400.4028), timeStamp: 2017-02-16 10:44:16.084
LEye coords (577.5068, 342.2791), REye coords (634.1476, 399.4845), timeStamp: 2017-02-16 10:44:16.118
LEye coords (583.6218, 349.4049), REye coords (634.8137, 399.8872), timeStamp: 2017-02-16 10:44:16.151
LEye coords (586.5327, 357.68), REye coords (635.2099, 400.712), timeStamp: 2017-02-16 10:44:16.196
LEye coords (591.6443, 367.4655), REye coords (634.6786, 402.6284), timeStamp: 2017-02-16 10:44:16.229
LEye coords (593.5458, 375.752), REye coords (634.701, 403.8097), timeStamp: 2017-02-16 10:44:16.262
LEye coords (594.8231, 382.3171), REye coords (635.1077, 405.2582), timeStamp: 2017-02-16 10:44:16.307
LEye coords (596.2856, 387.2419), REye coords (635.1557, 406.8506), timeStamp: 2017-02-16 10:44:16.341
LEye coords (599.9988, 388.4936), REye coords (635.5056, 407.2583), timeStamp: 2017-02-16 10:44:16.375
LEye coords (600.0428, 390.1657), REye coords (636.1295, 408.28), timeStamp: 2017-02-16 10:44:16.409
LEye coords (602.9557, 392.069), REye coords (636.3017, 409.6371), timeStamp: 2017-02-16 10:44:16.453
LEye coords (605.2798, 394.1493), REye coords (636.8553, 410.2441), timeStamp: 2017-02-16 10:44:16.487
LEye coords (607.4136, 395.5407), REye coords (636.8942, 410.3458), timeStamp: 2017-02-16 10:44:16.520
LEye coords (607.4727, 396.3819), REye coords (637.471, 411.1742), timeStamp: 2017-02-16 10:44:16.564
LEye coords (609.6006, 398.3163), REye coords (637.9006, 412.1398), timeStamp: 2017-02-16 10:44:16.597
LEye coords (612.1661, 399.8264), REye coords (638.3981, 413.3908), timeStamp: 2017-02-16 10:44:16.641
LEye coords (613.7228, 401.3886), REye coords (638.91, 414.0002), timeStamp: 2017-02-16 10:44:16.675
LEye coords (614.5942, 403.9184), REye coords (639.5143, 414.309), timeStamp: 2017-02-16 10:44:16.709
LEye coords (613.8561, 407.4373), REye coords (638.3148, 414.3858), timeStamp: 2017-02-16 10:44:16.742
LEye coords (613.4161, 410.082), REye coords (0.0, 0.0), timeStamp: 2017-02-16 10:44:16.785
LEye coords (610.4293, 410.7425), REye coords (0.0, 0.0), timeStamp: 2017-02-16 10:44:16.817
LEye coords (609.9575, 412.0104), REye coords (0.0, 0.0), timeStamp: 2017-02-16 10:44:16.861
LEye coords (609.9858, 412.3699), REye coords (0.0, 0.0), timeStamp: 2017-02-16 10:44:16.894
LEye coords (609.3275, 413.9115), REye coords (0.0, 0.0), timeStamp: 2017-02-16 10:44:16.928
LEye coords (606.1161, 411.6077), REye coords (0.0, 0.0), timeStamp: 2017-02-16 10:44:16.971
LEye coords (602.9453, 409.1614), REye coords (638.0162, 414.7596), timeStamp: 2017-02-16 10:44:17.004
LEye coords (602.5031, 406.5867), REye coords (637.3469, 415.6318), timeStamp: 2017-02-16 10:44:17.047
LEye coords (600.509, 402.3506), REye coords (637.6636, 414.9944), timeStamp: 2017-02-16 10:44:17.082
LEye coords (599.3025, 399.5481), REye coords (638.7545, 414.069), timeStamp: 2017-02-16 10:44:17.115
LEye coords (598.1146, 395.8932), REye coords (639.2684, 413.9747), timeStamp: 2017-02-16 10:44:17.148
LEye coords (596.5045, 391.7518), REye coords (640.0112, 413.1293), timeStamp: 2017-02-16 10:44:17.193
LEye coords (597.6371, 390.9163), REye coords (640.9862, 411.8477), timeStamp: 2017-02-16 10:44:17.226
LEye coords (595.551, 388.3078), REye coords (642.3679, 411.2125), timeStamp: 2017-02-16 10:44:17.260
LEye coords (592.1797, 385.5513), REye coords (640.3398, 409.7284), timeStamp: 2017-02-16 10:44:17.303
LEye coords (589.3029, 381.1046), REye coords (638.7312, 408.7753), timeStamp: 2017-02-16 10:44:17.336
LEye coords (587.147, 377.7383), REye coords (637.9708, 406.8331), timeStamp: 2017-02-16 10:44:17.380
LEye coords (583.937, 372.804), REye coords (636.7356, 405.7157), timeStamp: 2017-02-16 10:44:17.412
LEye coords (582.2058, 368.8116), REye coords (635.2383, 404.9849), timeStamp: 2017-02-16 10:44:17.446
LEye coords (582.4667, 366.8), REye coords (632.4436, 404.5626), timeStamp: 2017-02-16 10:44:17.491
LEye coords (583.8373, 365.53), REye coords (630.7413, 403.8636), timeStamp: 2017-02-16 10:44:17.524
LEye coords (585.8031, 364.5851), REye coords (630.1368, 402.3552), timeStamp: 2017-02-16 10:44:17.558
LEye coords (586.7191, 363.0196), REye coords (628.1714, 402.3884), timeStamp: 2017-02-16 10:44:17.602
LEye coords (587.7812, 363.519), REye coords (626.7986, 401.6535), timeStamp: 2017-02-16 10:44:17.636
LEye coords (587.8434, 363.0617), REye coords (625.7352, 400.0982), timeStamp: 2017-02-16 10:44:17.670
LEye coords (588.7947, 363.0169), REye coords (625.1759, 397.6618), timeStamp: 2017-02-16 10:44:17.713
LEye coords (588.5865, 363.4798), REye coords (624.6469, 395.9825), timeStamp: 2017-02-16 10:44:17.746
LEye coords (590.2961, 364.5757), REye coords (624.8411, 393.9166), timeStamp: 2017-02-16 10:44:17.780
LEye coords (591.1186, 366.1349), REye coords (623.0821, 393.144), timeStamp: 2017-02-16 10:44:17.824
LEye coords (591.6255, 367.6317), REye coords (623.6589, 391.1387), timeStamp: 2017-02-16 10:44:17.858
LEye coords (592.7682, 368.222), REye coords (622.6281, 390.5573), timeStamp: 2017-02-16 10:44:17.892
LEye coords (593.3627, 369.2959), REye coords (622.3569, 389.8231), timeStamp: 2017-02-16 10:44:17.925
LEye coords (594.6633, 370.9773), REye coords (622.0441, 389.2692), timeStamp: 2017-02-16 10:44:17.970
LEye coords (594.6919, 372.8252), REye coords (621.5577, 388.8323), timeStamp: 2017-02-16 10:44:18.005
LEye coords (593.7394, 373.1367), REye coords (621.2954, 388.1681), timeStamp: 2017-02-16 10:44:18.039
LEye coords (593.8716, 373.4479), REye coords (621.2145, 387.0571), timeStamp: 2017-02-16 10:44:18.083
LEye coords (594.4189, 373.4841), REye coords (621.3258, 386.7455), timeStamp: 2017-02-16 10:44:18.117
LEye coords (595.3215, 374.1216), REye coords (621.3396, 385.7128), timeStamp: 2017-02-16 10:44:18.150
LEye coords (595.1495, 373.2367), REye coords (621.0026, 385.543), timeStamp: 2017-02-16 10:44:18.194
LEye coords (592.8641, 373.457), REye coords (621.0539, 385.5279), timeStamp: 2017-02-16 10:44:18.227
LEye coords (592.207, 373.7444), REye coords (620.8945, 385.226), timeStamp: 2017-02-16 10:44:18.261
LEye coords (591.0427, 371.5886), REye coords (620.5297, 385.611), timeStamp: 2017-02-16 10:44:18.307
LEye coords (590.4107, 370.0905), REye coords (620.4645, 384.9705), timeStamp: 2017-02-16 10:44:18.341
LEye coords (586.9138, 367.7177), REye coords (0.0, 0.0), timeStamp: 2017-02-16 10:44:18.374
LEye coords (586.3223, 368.774), REye coords (0.0, 0.0), timeStamp: 2017-02-16 10:44:18.408
LEye coords (585.7216, 372.2612), REye coords (619.6012, 387.3379), timeStamp: 2017-02-16 10:44:18.451
LEye coords (587.279, 377.9561), REye coords (618.9918, 392.0063), timeStamp: 2017-02-16 10:44:18.484
LEye coords (588.5489, 384.128), REye coords (618.1114, 396.4916), timeStamp: 2017-02-16 10:44:18.528
LEye coords (587.2569, 385.6087), REye coords (0.0, 0.0), timeStamp: 2017-02-16 10:44:18.562
LEye coords (587.7131, 387.1295), REye coords (0.0, 0.0), timeStamp: 2017-02-16 10:44:18.596
LEye coords (588.3191, 388.4394), REye coords (0.0, 0.0), timeStamp: 2017-02-16 10:44:18.629
LEye coords (589.2724, 389.6674), REye coords (0.0, 0.0), timeStamp: 2017-02-16 10:44:18.673
LEye coords (589.702, 390.8763), REye coords (0.0, 0.0), timeStamp: 2017-02-16 10:44:18.706
LEye coords (591.1208, 392.177), REye coords (0.0, 0.0), timeStamp: 2017-02-16 10:44:18.749
LEye coords (591.7401, 393.9673), REye coords (0.0, 0.0), timeStamp: 2017-02-16 10:44:18.782
LEye coords (590.4198, 392.803), REye coords (0.0, 0.0), timeStamp: 2017-02-16 10:44:18.817
LEye coords (590.8186, 393.2129), REye coords (0.0, 0.0), timeStamp: 2017-02-16 10:44:18.860
LEye coords (591.4016, 393.4807), REye coords (0.0, 0.0), timeStamp: 2017-02-16 10:44:18.893
LEye coords (591.7798, 394.3519), REye coords (0.0, 0.0), timeStamp: 2017-02-16 10:44:18.927
LEye coords (592.3577, 395.5048), REye coords (0.0, 0.0), timeStamp: 2017-02-16 10:44:18.972
LEye coords (594.205, 397.5934), REye coords (0.0, 0.0), timeStamp: 2017-02-16 10:44:19.005
LEye coords (596.6718, 398.559), REye coords (0.0, 0.0), timeStamp: 2017-02-16 10:44:19.040
LEye coords (599.319, 399.834), REye coords (0.0, 0.0), timeStamp: 2017-02-16 10:44:19.073
LEye coords (602.5557, 401.7142), REye coords (619.1166, 396.5678), timeStamp: 2017-02-16 10:44:19.118
LEye coords (605.9957, 403.5639), REye coords (620.163, 398.4499), timeStamp: 2017-02-16 10:44:19.151
LEye coords (610.2742, 404.8061), REye coords (621.0046, 399.7951), timeStamp: 2017-02-16 10:44:19.195
LEye coords (612.9949, 404.9292), REye coords (621.6015, 401.0724), timeStamp: 2017-02-16 10:44:19.229
LEye coords (615.8308, 403.3161), REye coords (0.0, 0.0), timeStamp: 2017-02-16 10:44:19.262
LEye coords (617.5552, 401.1558), REye coords (0.0, 0.0), timeStamp: 2017-02-16 10:44:19.295
LEye coords (618.703, 398.3829), REye coords (0.0, 0.0), timeStamp: 2017-02-16 10:44:19.339
LEye coords (621.4592, 398.0798), REye coords (0.0, 0.0), timeStamp: 2017-02-16 10:44:19.373
LEye coords (623.0524, 399.0743), REye coords (0.0, 0.0), timeStamp: 2017-02-16 10:44:19.416
LEye coords (623.983, 398.7859), REye coords (0.0, 0.0), timeStamp: 2017-02-16 10:44:19.449
LEye coords (623.3292, 398.4171), REye coords (0.0, 0.0), timeStamp: 2017-02-16 10:44:19.483
LEye coords (622.0254, 397.4336), REye coords (0.0, 0.0), timeStamp: 2017-02-16 10:44:19.526
LEye coords (622.7955, 397.4932), REye coords (0.0, 0.0), timeStamp: 2017-02-16 10:44:19.560
LEye coords (624.2846, 398.0264), REye coords (0.0, 0.0), timeStamp: 2017-02-16 10:44:19.593
LEye coords (623.768, 398.953), REye coords (0.0, 0.0), timeStamp: 2017-02-16 10:44:19.637
LEye coords (624.7337, 399.9153), REye coords (0.0, 0.0), timeStamp: 2017-02-16 10:44:19.670
LEye coords (622.8305, 399.0706), REye coords (0.0, 0.0), timeStamp: 2017-02-16 10:44:19.703
LEye coords (623.5281, 399.8813), REye coords (0.0, 0.0), timeStamp: 2017-02-16 10:44:19.746
LEye coords (621.9198, 398.7438), REye coords (0.0, 0.0), timeStamp: 2017-02-16 10:44:19.780
LEye coords (622.0656, 399.4064), REye coords (0.0, 0.0), timeStamp: 2017-02-16 10:44:19.813
LEye coords (620.7001, 400.3297), REye coords (0.0, 0.0), timeStamp: 2017-02-16 10:44:19.857
LEye coords (620.6942, 399.5121), REye coords (0.0, 0.0), timeStamp: 2017-02-16 10:44:19.890
LEye coords (621.2261, 400.1855), REye coords (0.0, 0.0), timeStamp: 2017-02-16 10:44:19.933
LEye coords (621.7411, 399.2161), REye coords (0.0, 0.0), timeStamp: 2017-02-16 10:44:19.965
LEye coords (621.6911, 399.0805), REye coords (0.0, 0.0), timeStamp: 2017-02-16 10:44:19.998
LEye coords (622.7024, 399.2753), REye coords (0.0, 0.0), timeStamp: 2017-02-16 10:44:20.043
LEye coords (621.4753, 399.2977), REye coords (0.0, 0.0), timeStamp: 2017-02-16 10:44:20.076
LEye coords (622.7229, 399.5396), REye coords (0.0, 0.0), timeStamp: 2017-02-16 10:44:20.119
LEye coords (519.1155, 352.2243), REye coords (0.0, 0.0), timeStamp: 2017-02-16 10:44:20.153
LEye coords (568.3488, 331.8758), REye coords (0.0, 0.0), timeStamp: 2017-02-16 10:44:20.187
LEye coords (568.2194, 334.0486), REye coords (0.0, 0.0), timeStamp: 2017-02-16 10:44:20.231
LEye coords (568.238, 341.5845), REye coords (0.0, 0.0), timeStamp: 2017-02-16 10:44:20.265
LEye coords (570.3213, 347.5463), REye coords (0.0, 0.0), timeStamp: 2017-02-16 10:44:20.299
LEye coords (571.9268, 350.7386), REye coords (0.0, 0.0), timeStamp: 2017-02-16 10:44:20.333
LEye coords (570.8611, 353.1195), REye coords (0.0, 0.0), timeStamp: 2017-02-16 10:44:20.376
LEye coords (573.0547, 360.5503), REye coords (622.7486, 402.5463), timeStamp: 2017-02-16 10:44:20.409
LEye coords (573.3699, 368.0613), REye coords (622.9241, 404.2113), timeStamp: 2017-02-16 10:44:20.453
LEye coords (576.6719, 375.3372), REye coords (623.287, 405.8285), timeStamp: 2017-02-16 10:44:20.486
LEye coords (579.2188, 378.8411), REye coords (624.5809, 406.3303), timeStamp: 2017-02-16 10:44:20.518
LEye coords (581.3123, 380.5434), REye coords (625.3015, 406.217), timeStamp: 2017-02-16 10:44:20.561
LEye coords (583.4418, 380.847), REye coords (626.7729, 406.4544), timeStamp: 2017-02-16 10:44:20.596
LEye coords (582.605, 384.2998), REye coords (0.0, 0.0), timeStamp: 2017-02-16 10:44:20.629
LEye coords (581.6803, 386.4036), REye coords (0.0, 0.0), timeStamp: 2017-02-16 10:44:20.671
LEye coords (582.7361, 384.7102), REye coords (0.0, 0.0), timeStamp: 2017-02-16 10:44:20.704
LEye coords (582.5634, 383.0221), REye coords (0.0, 0.0), timeStamp: 2017-02-16 10:44:20.747
LEye coords (583.3516, 383.3034), REye coords (0.0, 0.0), timeStamp: 2017-02-16 10:44:20.780
LEye coords (583.2999, 384.4426), REye coords (0.0, 0.0), timeStamp: 2017-02-16 10:44:20.814
LEye coords (582.5215, 386.2025), REye coords (627.0829, 407.7906), timeStamp: 2017-02-16 10:44:20.859
LEye coords (582.1876, 390.01), REye coords (625.9177, 410.7207), timeStamp: 2017-02-16 10:44:20.892
LEye coords (581.3787, 393.3138), REye coords (625.0702, 412.7994), timeStamp: 2017-02-16 10:44:20.926
LEye coords (579.821, 396.9043), REye coords (623.9889, 415.4713), timeStamp: 2017-02-16 10:44:20.970
LEye coords (578.295, 399.6188), REye coords (622.403, 418.3575), timeStamp: 2017-02-16 10:44:21.003
LEye coords (577.8483, 403.6911), REye coords (620.7412, 420.8521), timeStamp: 2017-02-16 10:44:21.037
LEye coords (576.4933, 407.4107), REye coords (618.7509, 423.5036), timeStamp: 2017-02-16 10:44:21.081
LEye coords (575.8436, 410.0946), REye coords (618.067, 424.9281), timeStamp: 2017-02-16 10:44:21.115
LEye coords (577.2258, 413.0899), REye coords (616.8169, 426.9774), timeStamp: 2017-02-16 10:44:21.147
LEye coords (578.1396, 416.7884), REye coords (615.4646, 427.5058), timeStamp: 2017-02-16 10:44:21.191
LEye coords (578.8251, 419.7583), REye coords (614.0345, 427.6807), timeStamp: 2017-02-16 10:44:21.223
LEye coords (579.6793, 422.1169), REye coords (612.728, 427.8743), timeStamp: 2017-02-16 10:44:21.268
LEye coords (579.9738, 423.6613), REye coords (611.3698, 429.7348), timeStamp: 2017-02-16 10:44:21.301
LEye coords (580.6953, 425.7791), REye coords (610.019, 431.1557), timeStamp: 2017-02-16 10:44:21.334
LEye coords (580.5944, 427.1715), REye coords (609.1633, 431.3789), timeStamp: 2017-02-16 10:44:21.376
LEye coords (580.0839, 428.0188), REye coords (609.0159, 431.4793), timeStamp: 2017-02-16 10:44:21.411
LEye coords (581.6057, 430.1875), REye coords (608.5112, 431.2451), timeStamp: 2017-02-16 10:44:21.445
LEye coords (582.1617, 430.4356), REye coords (607.9388, 432.4787), timeStamp: 2017-02-16 10:44:21.488
LEye coords (580.3733, 433.0282), REye coords (607.6731, 433.6609), timeStamp: 2017-02-16 10:44:21.521
LEye coords (579.8766, 434.6228), REye coords (606.9633, 434.6197), timeStamp: 2017-02-16 10:44:21.554
LEye coords (578.1198, 433.8094), REye coords (607.1542, 435.2007), timeStamp: 2017-02-16 10:44:21.598
LEye coords (578.7421, 434.1792), REye coords (607.3219, 435.226), timeStamp: 2017-02-16 10:44:21.631
LEye coords (579.1373, 434.9973), REye coords (606.7651, 435.6332), timeStamp: 2017-02-16 10:44:21.674
LEye coords (579.2756, 433.4873), REye coords (606.8702, 435.835), timeStamp: 2017-02-16 10:44:21.708
LEye coords (579.1448, 433.6417), REye coords (607.3247, 435.1204), timeStamp: 2017-02-16 10:44:21.742
LEye coords (579.3159, 432.278), REye coords (608.1749, 434.2925), timeStamp: 2017-02-16 10:44:21.775
LEye coords (580.9198, 432.4912), REye coords (609.3063, 433.4255), timeStamp: 2017-02-16 10:44:21.819
LEye coords (581.3244, 429.5768), REye coords (610.7994, 431.0614), timeStamp: 2017-02-16 10:44:21.852
LEye coords (580.9233, 428.12), REye coords (612.3584, 429.632), timeStamp: 2017-02-16 10:44:21.896
LEye coords (581.0375, 425.9675), REye coords (613.0009, 428.9273), timeStamp: 2017-02-16 10:44:21.929
LEye coords (579.6667, 424.0695), REye coords (613.4372, 427.7447), timeStamp: 2017-02-16 10:44:21.963
LEye coords (579.6672, 421.2856), REye coords (613.8807, 427.1495), timeStamp: 2017-02-16 10:44:22.006
LEye coords (578.2848, 419.57), REye coords (614.1843, 426.055), timeStamp: 2017-02-16 10:44:22.040
LEye coords (577.2502, 417.5897), REye coords (615.5701, 424.111), timeStamp: 2017-02-16 10:44:22.073
LEye coords (576.3592, 415.4393), REye coords (0.0, 0.0), timeStamp: 2017-02-16 10:44:22.117
LEye coords (576.0257, 412.0896), REye coords (0.0, 0.0), timeStamp: 2017-02-16 10:44:22.151
LEye coords (574.2803, 409.0884), REye coords (0.0, 0.0), timeStamp: 2017-02-16 10:44:22.184
LEye coords (574.1329, 406.0294), REye coords (0.0, 0.0), timeStamp: 2017-02-16 10:44:22.228
LEye coords (574.6085, 404.953), REye coords (0.0, 0.0), timeStamp: 2017-02-16 10:44:22.262
LEye coords (574.457, 402.7286), REye coords (0.0, 0.0), timeStamp: 2017-02-16 10:44:22.295
LEye coords (575.2513, 400.0641), REye coords (0.0, 0.0), timeStamp: 2017-02-16 10:44:22.340
LEye coords (574.715, 398.7708), REye coords (0.0, 0.0), timeStamp: 2017-02-16 10:44:22.374
LEye coords (575.5355, 397.5418), REye coords (0.0, 0.0), timeStamp: 2017-02-16 10:44:22.407
LEye coords (574.0527, 395.3253), REye coords (0.0, 0.0), timeStamp: 2017-02-16 10:44:22.442
LEye coords (574.9614, 396.1051), REye coords (0.0, 0.0), timeStamp: 2017-02-16 10:44:22.487
LEye coords (575.0184, 398.1274), REye coords (0.0, 0.0), timeStamp: 2017-02-16 10:44:22.520
LEye coords (574.9715, 397.5009), REye coords (0.0, 0.0), timeStamp: 2017-02-16 10:44:22.554
LEye coords (576.5239, 397.0585), REye coords (0.0, 0.0), timeStamp: 2017-02-16 10:44:22.597
LEye coords (576.7777, 396.7009), REye coords (0.0, 0.0), timeStamp: 2017-02-16 10:44:22.632
LEye coords (578.6289, 400.1153), REye coords (0.0, 0.0), timeStamp: 2017-02-16 10:44:22.665
LEye coords (579.9993, 401.5502), REye coords (0.0, 0.0), timeStamp: 2017-02-16 10:44:22.708
LEye coords (581.7371, 402.4852), REye coords (0.0, 0.0), timeStamp: 2017-02-16 10:44:22.742
LEye coords (583.8892, 403.8361), REye coords (0.0, 0.0), timeStamp: 2017-02-16 10:44:22.776
LEye coords (585.2787, 406.5716), REye coords (0.0, 0.0), timeStamp: 2017-02-16 10:44:22.820
LEye coords (587.4739, 408.6544), REye coords (0.0, 0.0), timeStamp: 2017-02-16 10:44:22.853
LEye coords (588.6043, 409.6066), REye coords (0.0, 0.0), timeStamp: 2017-02-16 10:44:22.887
LEye coords (588.9859, 412.7408), REye coords (0.0, 0.0), timeStamp: 2017-02-16 10:44:22.931
LEye coords (589.7185, 414.3506), REye coords (0.0, 0.0), timeStamp: 2017-02-16 10:44:22.964
LEye coords (592.0577, 418.6124), REye coords (0.0, 0.0), timeStamp: 2017-02-16 10:44:22.998
LEye coords (593.0883, 419.767), REye coords (0.0, 0.0), timeStamp: 2017-02-16 10:44:23.043
LEye coords (594.0327, 420.9262), REye coords (0.0, 0.0), timeStamp: 2017-02-16 10:44:23.077
LEye coords (595.5881, 421.6389), REye coords (0.0, 0.0), timeStamp: 2017-02-16 10:44:23.111
LEye coords (596.1823, 422.7466), REye coords (0.0, 0.0), timeStamp: 2017-02-16 10:44:23.154
LEye coords (597.3, 424.0161), REye coords (0.0, 0.0), timeStamp: 2017-02-16 10:44:23.188
LEye coords (598.6288, 426.4963), REye coords (0.0, 0.0), timeStamp: 2017-02-16 10:44:23.221
LEye coords (598.6252, 428.3682), REye coords (0.0, 0.0), timeStamp: 2017-02-16 10:44:23.265
LEye coords (598.4517, 429.8104), REye coords (0.0, 0.0), timeStamp: 2017-02-16 10:44:23.298
LEye coords (599.019, 431.5079), REye coords (0.0, 0.0), timeStamp: 2017-02-16 10:44:23.331
LEye coords (600.1245, 432.6687), REye coords (0.0, 0.0), timeStamp: 2017-02-16 10:44:23.374
LEye coords (600.5485, 433.1168), REye coords (0.0, 0.0), timeStamp: 2017-02-16 10:44:23.408
LEye coords (601.1617, 434.8291), REye coords (0.0, 0.0), timeStamp: 2017-02-16 10:44:23.440
