LEye coords (387.8293, 524.9006), REye coords (514.4651, 432.2699), timeStamp: 2017-02-16 10:44:41.580
LEye coords (403.5642, 513.2765), REye coords (514.449, 432.4701), timeStamp: 2017-02-16 10:44:41.614
LEye coords (410.1274, 503.7184), REye coords (514.0356, 434.1541), timeStamp: 2017-02-16 10:44:41.657
LEye coords (421.3921, 508.3672), REye coords (513.1642, 435.8642), timeStamp: 2017-02-16 10:44:41.692
LEye coords (404.3604, 507.3288), REye coords (513.2354, 437.2728), timeStamp: 2017-02-16 10:44:41.726
LEye coords (411.7159, 508.7183), REye coords (512.9238, 437.7462), timeStamp: 2017-02-16 10:44:41.768
LEye coords (422.3515, 499.9542), REye coords (513.7141, 436.6515), timeStamp: 2017-02-16 10:44:41.802
LEye coords (433.7504, 495.0332), REye coords (514.0911, 437.2392), timeStamp: 2017-02-16 10:44:41.835
LEye coords (511.2969, 467.3912), REye coords (514.5717, 437.829), timeStamp: 2017-02-16 10:44:41.879
LEye coords (501.4256, 424.2225), REye coords (515.0168, 438.1234), timeStamp: 2017-02-16 10:44:41.913
LEye coords (504.6465, 438.0834), REye coords (515.0444, 438.3454), timeStamp: 2017-02-16 10:44:41.947
LEye coords (508.4813, 445.3397), REye coords (514.9689, 439.386), timeStamp: 2017-02-16 10:44:41.990
LEye coords (534.9141, 436.5152), REye coords (665.8226, 434.0136), timeStamp: 2017-02-16 10:44:42.024
LEye coords (554.8925, 424.7738), REye coords (752.5526, 470.8979), timeStamp: 2017-02-16 10:44:42.059
LEye coords (666.9891, 386.2014), REye coords (740.3582, 472.4682), timeStamp: 2017-02-16 10:44:42.104
LEye coords (739.8293, 409.2964), REye coords (751.6896, 459.4402), timeStamp: 2017-02-16 10:44:42.138
LEye coords (741.6282, 413.3782), REye coords (756.1987, 457.1673), timeStamp: 2017-02-16 10:44:42.171
LEye coords (741.4066, 416.8485), REye coords (771.5012, 446.1986), timeStamp: 2017-02-16 10:44:42.215
LEye coords (746.3534, 418.4716), REye coords (763.1984, 456.7762), timeStamp: 2017-02-16 10:44:42.248
LEye coords (747.5522, 415.1662), REye coords (761.5822, 454.687), timeStamp: 2017-02-16 10:44:42.281
LEye coords (749.1217, 427.2314), REye coords (764.561, 453.8509), timeStamp: 2017-02-16 10:44:42.324
LEye coords (834.6174, 402.8569), REye coords (778.8026, 447.1519), timeStamp: 2017-02-16 10:44:42.357
LEye coords (840.5417, 396.1234), REye coords (790.9941, 444.1107), timeStamp: 2017-02-16 10:44:42.391
LEye coords (838.1726, 386.3692), REye coords (798.119, 442.8308), timeStamp: 2017-02-16 10:44:42.435
LEye coords (842.5727, 391.7953), REye coords (804.5078, 442.1758), timeStamp: 2017-02-16 10:44:42.468
LEye coords (840.4609, 391.094), REye coords (809.8145, 439.8918), timeStamp: 2017-02-16 10:44:42.512
LEye coords (843.1852, 393.5409), REye coords (812.9404, 439.129), timeStamp: 2017-02-16 10:44:42.545
LEye coords (845.571, 395.0602), REye coords (815.9454, 438.7127), timeStamp: 2017-02-16 10:44:42.577
LEye coords (847.1299, 396.0758), REye coords (818.1578, 438.0119), timeStamp: 2017-02-16 10:44:42.621
LEye coords (846.8165, 395.0101), REye coords (820.6645, 437.5374), timeStamp: 2017-02-16 10:44:42.655
LEye coords (847.1406, 395.4661), REye coords (822.4055, 437.2614), timeStamp: 2017-02-16 10:44:42.689
LEye coords (846.8204, 397.6531), REye coords (824.6926, 436.4104), timeStamp: 2017-02-16 10:44:42.733
LEye coords (847.6278, 397.9848), REye coords (827.1788, 436.1566), timeStamp: 2017-02-16 10:44:42.766
LEye coords (846.8167, 398.5853), REye coords (829.0657, 434.8461), timeStamp: 2017-02-16 10:44:42.799
LEye coords (852.6002, 397.7912), REye coords (835.5613, 434.4769), timeStamp: 2017-02-16 10:44:42.842
LEye coords (857.4011, 397.5683), REye coords (840.8118, 433.4414), timeStamp: 2017-02-16 10:44:42.875
LEye coords (861.575, 396.2961), REye coords (847.3697, 431.3361), timeStamp: 2017-02-16 10:44:42.909
LEye coords (906.4046, 390.0022), REye coords (852.12, 430.7249), timeStamp: 2017-02-16 10:44:42.953
LEye coords (921.4594, 378.3004), REye coords (856.9187, 429.8818), timeStamp: 2017-02-16 10:44:42.986
LEye coords (920.3296, 379.981), REye coords (862.0478, 429.0469), timeStamp: 2017-02-16 10:44:43.029
LEye coords (922.1949, 382.2946), REye coords (868.2919, 427.4853), timeStamp: 2017-02-16 10:44:43.063
LEye coords (922.121, 386.0713), REye coords (874.5635, 426.8563), timeStamp: 2017-02-16 10:44:43.096
LEye coords (921.9254, 389.8651), REye coords (880.8923, 426.0596), timeStamp: 2017-02-16 10:44:43.131
LEye coords (922.4502, 391.8179), REye coords (885.858, 425.7945), timeStamp: 2017-02-16 10:44:43.174
LEye coords (923.2344, 390.8935), REye coords (922.7784, 427.0336), timeStamp: 2017-02-16 10:44:43.207
LEye coords (923.2245, 391.7899), REye coords (920.4672, 431.3773), timeStamp: 2017-02-16 10:44:43.241
LEye coords (922.5647, 393.1482), REye coords (921.3624, 432.1747), timeStamp: 2017-02-16 10:44:43.285
LEye coords (926.248, 398.1306), REye coords (932.6588, 437.6581), timeStamp: 2017-02-16 10:44:43.318
LEye coords (929.5533, 403.1804), REye coords (940.1131, 439.3027), timeStamp: 2017-02-16 10:44:43.362
LEye coords (929.9531, 407.3421), REye coords (944.4484, 441.1254), timeStamp: 2017-02-16 10:44:43.395
LEye coords (931.3817, 410.6775), REye coords (945.6143, 442.6837), timeStamp: 2017-02-16 10:44:43.429
LEye coords (933.4078, 413.1378), REye coords (947.1295, 443.971), timeStamp: 2017-02-16 10:44:43.473
LEye coords (934.9619, 414.8756), REye coords (947.4559, 444.6778), timeStamp: 2017-02-16 10:44:43.506
LEye coords (935.3583, 415.451), REye coords (948.3167, 443.6058), timeStamp: 2017-02-16 10:44:43.539
LEye coords (936.4193, 416.3435), REye coords (948.1254, 442.6461), timeStamp: 2017-02-16 10:44:43.584
LEye coords (936.7432, 418.0642), REye coords (949.7868, 440.4946), timeStamp: 2017-02-16 10:44:43.617
LEye coords (937.5413, 417.9057), REye coords (950.4191, 439.1572), timeStamp: 2017-02-16 10:44:43.650
LEye coords (939.0303, 418.0535), REye coords (951.0899, 438.4034), timeStamp: 2017-02-16 10:44:43.693
LEye coords (939.7841, 418.1288), REye coords (950.5663, 438.5059), timeStamp: 2017-02-16 10:44:43.726
LEye coords (939.8405, 417.5538), REye coords (950.1071, 438.9004), timeStamp: 2017-02-16 10:44:43.760
LEye coords (940.6251, 417.5469), REye coords (949.997, 438.9326), timeStamp: 2017-02-16 10:44:43.804
LEye coords (941.2767, 417.2382), REye coords (949.6946, 438.3736), timeStamp: 2017-02-16 10:44:43.838
LEye coords (941.9726, 417.2954), REye coords (949.0851, 437.5411), timeStamp: 2017-02-16 10:44:43.871
LEye coords (942.5772, 416.6643), REye coords (949.0666, 436.8687), timeStamp: 2017-02-16 10:44:43.915
LEye coords (943.0395, 415.4874), REye coords (948.8316, 436.9652), timeStamp: 2017-02-16 10:44:43.950
LEye coords (942.8644, 414.7185), REye coords (948.1481, 437.0508), timeStamp: 2017-02-16 10:44:43.983
LEye coords (941.4914, 414.5692), REye coords (945.5536, 437.5443), timeStamp: 2017-02-16 10:44:44.026
LEye coords (939.6126, 414.0525), REye coords (944.2474, 437.5251), timeStamp: 2017-02-16 10:44:44.060
LEye coords (938.4229, 413.6664), REye coords (941.9988, 437.5503), timeStamp: 2017-02-16 10:44:44.093
LEye coords (936.0733, 412.6267), REye coords (939.4368, 437.32), timeStamp: 2017-02-16 10:44:44.138
LEye coords (933.1264, 411.369), REye coords (936.9939, 436.6925), timeStamp: 2017-02-16 10:44:44.172
LEye coords (930.7545, 409.6608), REye coords (934.2702, 435.5784), timeStamp: 2017-02-16 10:44:44.205
LEye coords (928.2281, 408.6707), REye coords (932.0438, 435.8697), timeStamp: 2017-02-16 10:44:44.249
LEye coords (925.5408, 408.4698), REye coords (930.3076, 435.4165), timeStamp: 2017-02-16 10:44:44.282
LEye coords (923.6877, 408.8343), REye coords (928.6189, 435.9496), timeStamp: 2017-02-16 10:44:44.317
LEye coords (922.525, 409.3091), REye coords (928.258, 435.4569), timeStamp: 2017-02-16 10:44:44.361
LEye coords (921.1864, 410.6175), REye coords (927.7941, 435.0534), timeStamp: 2017-02-16 10:44:44.394
LEye coords (918.8289, 413.2695), REye coords (926.5059, 437.699), timeStamp: 2017-02-16 10:44:44.428
LEye coords (915.0926, 418.8056), REye coords (925.7686, 440.2717), timeStamp: 2017-02-16 10:44:44.471
LEye coords (913.2371, 422.9142), REye coords (924.9581, 440.8022), timeStamp: 2017-02-16 10:44:44.504
LEye coords (908.4839, 424.8912), REye coords (924.9007, 440.5479), timeStamp: 2017-02-16 10:44:44.536
LEye coords (907.2645, 426.4211), REye coords (925.1346, 440.5091), timeStamp: 2017-02-16 10:44:44.581
LEye coords (905.4474, 427.6302), REye coords (924.206, 442.1589), timeStamp: 2017-02-16 10:44:44.614
LEye coords (905.0517, 428.9615), REye coords (923.8057, 442.8445), timeStamp: 2017-02-16 10:44:44.658
LEye coords (903.6683, 430.0593), REye coords (923.6229, 443.6711), timeStamp: 2017-02-16 10:44:44.691
LEye coords (902.442, 429.9923), REye coords (923.3829, 443.8946), timeStamp: 2017-02-16 10:44:44.725
LEye coords (900.8295, 430.5777), REye coords (922.4871, 443.778), timeStamp: 2017-02-16 10:44:44.768
LEye coords (900.5967, 430.5665), REye coords (922.3992, 442.6546), timeStamp: 2017-02-16 10:44:44.801
LEye coords (900.6326, 430.8327), REye coords (922.9411, 440.1646), timeStamp: 2017-02-16 10:44:44.835
LEye coords (900.5762, 430.9112), REye coords (923.0406, 438.8548), timeStamp: 2017-02-16 10:44:44.879
LEye coords (900.3226, 429.8604), REye coords (923.5585, 437.6258), timeStamp: 2017-02-16 10:44:44.912
LEye coords (900.2094, 429.4758), REye coords (923.9782, 436.3192), timeStamp: 2017-02-16 10:44:44.946
LEye coords (899.9478, 429.5269), REye coords (924.5176, 435.1153), timeStamp: 2017-02-16 10:44:44.990
LEye coords (899.9473, 430.4922), REye coords (925.1581, 435.0476), timeStamp: 2017-02-16 10:44:45.024
LEye coords (899.8314, 431.0869), REye coords (926.041, 433.6425), timeStamp: 2017-02-16 10:44:45.057
LEye coords (900.1167, 431.5346), REye coords (926.9079, 431.101), timeStamp: 2017-02-16 10:44:45.101
LEye coords (900.4059, 431.5161), REye coords (926.8784, 430.6981), timeStamp: 2017-02-16 10:44:45.134
LEye coords (899.9612, 431.1404), REye coords (926.0549, 430.7985), timeStamp: 2017-02-16 10:44:45.168
LEye coords (900.0616, 429.6983), REye coords (925.6842, 429.8154), timeStamp: 2017-02-16 10:44:45.211
LEye coords (900.6398, 429.2487), REye coords (925.4686, 429.9573), timeStamp: 2017-02-16 10:44:45.245
LEye coords (901.5181, 426.7828), REye coords (924.8945, 428.8334), timeStamp: 2017-02-16 10:44:45.278
LEye coords (901.7613, 425.2201), REye coords (923.8638, 428.8358), timeStamp: 2017-02-16 10:44:45.321
LEye coords (902.4699, 423.6983), REye coords (922.0927, 429.8774), timeStamp: 2017-02-16 10:44:45.354
LEye coords (902.7836, 422.832), REye coords (921.1856, 429.2981), timeStamp: 2017-02-16 10:44:45.388
LEye coords (902.3391, 421.856), REye coords (920.2531, 429.3624), timeStamp: 2017-02-16 10:44:45.432
LEye coords (902.1464, 419.8074), REye coords (919.1895, 429.7303), timeStamp: 2017-02-16 10:44:45.467
LEye coords (901.7557, 418.1523), REye coords (919.0524, 429.9665), timeStamp: 2017-02-16 10:44:45.501
LEye coords (902.1962, 416.2743), REye coords (919.403, 428.7911), timeStamp: 2017-02-16 10:44:45.544
LEye coords (902.5789, 414.6733), REye coords (918.5931, 429.5365), timeStamp: 2017-02-16 10:44:45.579
LEye coords (902.4113, 411.878), REye coords (918.8959, 429.6176), timeStamp: 2017-02-16 10:44:45.613
LEye coords (903.042, 410.5226), REye coords (918.858, 429.6729), timeStamp: 2017-02-16 10:44:45.647
LEye coords (902.8384, 409.4601), REye coords (918.6522, 429.6591), timeStamp: 2017-02-16 10:44:45.690
LEye coords (902.8522, 406.2982), REye coords (918.2954, 428.9149), timeStamp: 2017-02-16 10:44:45.723
LEye coords (903.7867, 405.711), REye coords (918.3806, 427.7065), timeStamp: 2017-02-16 10:44:45.767
LEye coords (904.1461, 405.8905), REye coords (918.1723, 427.8221), timeStamp: 2017-02-16 10:44:45.800
LEye coords (904.5237, 404.7047), REye coords (917.8931, 427.6979), timeStamp: 2017-02-16 10:44:45.834
LEye coords (904.7134, 403.7629), REye coords (917.5629, 428.0671), timeStamp: 2017-02-16 10:44:45.878
LEye coords (903.8692, 403.5352), REye coords (915.8079, 428.004), timeStamp: 2017-02-16 10:44:45.911
LEye coords (903.2259, 403.1136), REye coords (915.0486, 427.5649), timeStamp: 2017-02-16 10:44:45.945
LEye coords (902.4388, 401.9424), REye coords (914.3068, 427.6889), timeStamp: 2017-02-16 10:44:45.990
LEye coords (901.5269, 401.3312), REye coords (913.2921, 427.5168), timeStamp: 2017-02-16 10:44:46.023
LEye coords (900.7241, 401.3551), REye coords (911.0205, 428.4682), timeStamp: 2017-02-16 10:44:46.057
LEye coords (899.9467, 400.7222), REye coords (910.3047, 428.3427), timeStamp: 2017-02-16 10:44:46.101
LEye coords (899.5107, 401.4894), REye coords (909.5391, 428.2987), timeStamp: 2017-02-16 10:44:46.133
LEye coords (898.6082, 402.0551), REye coords (908.7363, 426.8492), timeStamp: 2017-02-16 10:44:46.167
LEye coords (897.6667, 403.2267), REye coords (907.9476, 426.7923), timeStamp: 2017-02-16 10:44:46.211
LEye coords (896.7215, 403.0479), REye coords (907.7151, 425.7433), timeStamp: 2017-02-16 10:44:46.246
LEye coords (897.0829, 404.5402), REye coords (906.0482, 426.0711), timeStamp: 2017-02-16 10:44:46.279
LEye coords (896.3826, 405.3198), REye coords (904.8497, 426.9422), timeStamp: 2017-02-16 10:44:46.314
LEye coords (895.5555, 405.9211), REye coords (903.429, 428.9412), timeStamp: 2017-02-16 10:44:46.358
LEye coords (894.8168, 406.0692), REye coords (903.0862, 429.5959), timeStamp: 2017-02-16 10:44:46.392
LEye coords (894.0132, 407.6702), REye coords (901.9976, 430.1755), timeStamp: 2017-02-16 10:44:46.425
LEye coords (893.1483, 409.8037), REye coords (900.2962, 431.6579), timeStamp: 2017-02-16 10:44:46.467
LEye coords (892.3963, 410.7706), REye coords (900.1081, 431.7533), timeStamp: 2017-02-16 10:44:46.501
LEye coords (891.0384, 413.1953), REye coords (899.8574, 433.266), timeStamp: 2017-02-16 10:44:46.544
LEye coords (890.2733, 416.1991), REye coords (899.3996, 433.9518), timeStamp: 2017-02-16 10:44:46.577
LEye coords (889.2247, 419.0919), REye coords (899.0931, 434.2092), timeStamp: 2017-02-16 10:44:46.610
LEye coords (887.7007, 423.5169), REye coords (898.0154, 435.9655), timeStamp: 2017-02-16 10:44:46.654
LEye coords (885.4393, 426.4099), REye coords (896.9347, 436.703), timeStamp: 2017-02-16 10:44:46.687
LEye coords (884.1288, 428.591), REye coords (895.8733, 438.6032), timeStamp: 2017-02-16 10:44:46.721
LEye coords (882.9501, 430.8282), REye coords (894.584, 440.4883), timeStamp: 2017-02-16 10:44:46.765
LEye coords (882.2065, 432.9693), REye coords (893.0502, 442.071), timeStamp: 2017-02-16 10:44:46.798
LEye coords (881.1599, 433.6925), REye coords (891.5101, 444.3284), timeStamp: 2017-02-16 10:44:46.841
LEye coords (879.7849, 434.4601), REye coords (890.1603, 446.2027), timeStamp: 2017-02-16 10:44:46.875
LEye coords (878.7756, 435.8359), REye coords (888.5702, 449.2241), timeStamp: 2017-02-16 10:44:46.911
LEye coords (877.181, 436.1976), REye coords (887.0658, 451.8708), timeStamp: 2017-02-16 10:44:46.944
LEye coords (875.5807, 436.7419), REye coords (886.1048, 453.4867), timeStamp: 2017-02-16 10:44:46.987
LEye coords (874.7881, 437.1075), REye coords (885.1102, 456.1931), timeStamp: 2017-02-16 10:44:47.020
LEye coords (874.126, 437.4346), REye coords (884.0986, 458.0045), timeStamp: 2017-02-16 10:44:47.054
LEye coords (873.1533, 437.9156), REye coords (883.7198, 459.4588), timeStamp: 2017-02-16 10:44:47.098
LEye coords (871.8022, 437.7697), REye coords (882.7755, 461.4766), timeStamp: 2017-02-16 10:44:47.132
LEye coords (867.9568, 436.0253), REye coords (881.9996, 463.4628), timeStamp: 2017-02-16 10:44:47.165
LEye coords (866.4421, 435.7737), REye coords (881.1536, 464.0228), timeStamp: 2017-02-16 10:44:47.208
LEye coords (864.9535, 434.612), REye coords (880.352, 465.3052), timeStamp: 2017-02-16 10:44:47.241
LEye coords (863.6365, 433.8316), REye coords (879.7725, 466.3369), timeStamp: 2017-02-16 10:44:47.285
LEye coords (862.6525, 433.6558), REye coords (880.0771, 467.2827), timeStamp: 2017-02-16 10:44:47.320
LEye coords (861.3373, 433.275), REye coords (880.019, 468.2141), timeStamp: 2017-02-16 10:44:47.353
LEye coords (859.9908, 432.2445), REye coords (879.4948, 468.6679), timeStamp: 2017-02-16 10:44:47.396
LEye coords (859.7054, 431.3677), REye coords (879.5016, 468.7125), timeStamp: 2017-02-16 10:44:47.430
LEye coords (859.9517, 431.5185), REye coords (879.7636, 468.8206), timeStamp: 2017-02-16 10:44:47.464
LEye coords (860.7217, 431.3357), REye coords (880.0452, 468.7764), timeStamp: 2017-02-16 10:44:47.497
LEye coords (860.9745, 431.4181), REye coords (880.3819, 469.3987), timeStamp: 2017-02-16 10:44:47.541
LEye coords (862.1108, 431.5423), REye coords (880.461, 470.3607), timeStamp: 2017-02-16 10:44:47.574
LEye coords (862.4022, 431.2082), REye coords (880.4353, 470.2989), timeStamp: 2017-02-16 10:44:47.618
LEye coords (863.0394, 431.0375), REye coords (880.3519, 469.9155), timeStamp: 2017-02-16 10:44:47.651
LEye coords (863.5392, 432.1265), REye coords (880.6033, 469.9821), timeStamp: 2017-02-16 10:44:47.685
LEye coords (863.9261, 432.5125), REye coords (880.9342, 469.3242), timeStamp: 2017-02-16 10:44:47.729
LEye coords (864.55, 432.6216), REye coords (881.3857, 467.235), timeStamp: 2017-02-16 10:44:47.763
LEye coords (863.5281, 430.3926), REye coords (880.6906, 465.6288), timeStamp: 2017-02-16 10:44:47.796
LEye coords (862.6069, 428.4392), REye coords (880.1059, 463.4605), timeStamp: 2017-02-16 10:44:47.841
LEye coords (861.6383, 426.7641), REye coords (878.9924, 461.2957), timeStamp: 2017-02-16 10:44:47.873
LEye coords (861.3181, 425.0565), REye coords (878.1808, 459.3699), timeStamp: 2017-02-16 10:44:47.908
LEye coords (859.5618, 421.5305), REye coords (877.1898, 457.0605), timeStamp: 2017-02-16 10:44:47.952
LEye coords (859.8925, 419.6919), REye coords (875.7968, 455.5226), timeStamp: 2017-02-16 10:44:47.986
LEye coords (858.1508, 417.913), REye coords (874.5602, 453.7903), timeStamp: 2017-02-16 10:44:48.020
LEye coords (856.8381, 416.7597), REye coords (873.7883, 452.0786), timeStamp: 2017-02-16 10:44:48.053
LEye coords (856.0986, 414.7132), REye coords (872.8763, 450.8654), timeStamp: 2017-02-16 10:44:48.097
LEye coords (855.2039, 414.5216), REye coords (871.5571, 449.4421), timeStamp: 2017-02-16 10:44:48.130
LEye coords (854.8734, 414.5635), REye coords (871.4265, 447.82), timeStamp: 2017-02-16 10:44:48.173
LEye coords (854.4838, 414.8913), REye coords (871.02, 447.1613), timeStamp: 2017-02-16 10:44:48.206
LEye coords (854.789, 415.1817), REye coords (869.7285, 446.4831), timeStamp: 2017-02-16 10:44:48.241
LEye coords (854.6892, 416.0284), REye coords (868.7413, 445.8126), timeStamp: 2017-02-16 10:44:48.275
