LEye coords (854.4875, 415.1734), REye coords (868.5654, 445.2004), timeStamp: 2017-02-16 10:44:48.319
LEye coords (854.7755, 416.1102), REye coords (867.1878, 444.6721), timeStamp: 2017-02-16 10:44:48.352
LEye coords (854.5715, 417.4724), REye coords (866.607, 443.9501), timeStamp: 2017-02-16 10:44:48.395
LEye coords (855.5809, 417.6643), REye coords (866.0657, 443.4904), timeStamp: 2017-02-16 10:44:48.429
LEye coords (855.5984, 418.421), REye coords (866.4272, 442.3914), timeStamp: 2017-02-16 10:44:48.464
LEye coords (855.892, 418.0481), REye coords (866.0072, 440.4718), timeStamp: 2017-02-16 10:44:48.497
LEye coords (855.7369, 417.4162), REye coords (865.5621, 439.4723), timeStamp: 2017-02-16 10:44:48.541
LEye coords (855.5607, 417.3812), REye coords (865.0377, 439.5674), timeStamp: 2017-02-16 10:44:48.573
LEye coords (855.7445, 418.1235), REye coords (864.9039, 439.4395), timeStamp: 2017-02-16 10:44:48.617
LEye coords (854.1423, 419.6869), REye coords (862.1914, 440.9882), timeStamp: 2017-02-16 10:44:48.650
LEye coords (532.8218, 499.6164), REye coords (0.0, 0.0), timeStamp: 2017-02-16 10:44:48.683
LEye coords (538.1356, 512.0577), REye coords (0.0, 0.0), timeStamp: 2017-02-16 10:44:48.727
LEye coords (536.2549, 507.8476), REye coords (0.0, 0.0), timeStamp: 2017-02-16 10:44:48.760
LEye coords (522.3267, 496.7413), REye coords (0.0, 0.0), timeStamp: 2017-02-16 10:44:48.794
LEye coords (520.1433, 496.1353), REye coords (0.0, 0.0), timeStamp: 2017-02-16 10:44:48.838
LEye coords (542.1368, 510.0631), REye coords (0.0, 0.0), timeStamp: 2017-02-16 10:44:48.870
LEye coords (545.7633, 498.9543), REye coords (0.0, 0.0), timeStamp: 2017-02-16 10:44:48.904
LEye coords (549.34, 526.483), REye coords (558.8707, 553.4068), timeStamp: 2017-02-16 10:44:48.948
LEye coords (550.1102, 535.6807), REye coords (579.8374, 587.9356), timeStamp: 2017-02-16 10:44:48.983
LEye coords (555.6741, 549.9523), REye coords (573.1697, 594.2386), timeStamp: 2017-02-16 10:44:49.016
LEye coords (556.812, 555.6999), REye coords (571.3322, 597.6071), timeStamp: 2017-02-16 10:44:49.060
LEye coords (561.6634, 562.3359), REye coords (570.9987, 597.1287), timeStamp: 2017-02-16 10:44:49.094
LEye coords (472.1855, 463.3514), REye coords (561.9907, 593.5027), timeStamp: 2017-02-16 10:44:49.128
LEye coords (507.9468, 525.486), REye coords (569.0231, 579.1392), timeStamp: 2017-02-16 10:44:49.172
LEye coords (481.1235, 525.2498), REye coords (572.8147, 582.0708), timeStamp: 2017-02-16 10:44:49.206
LEye coords (488.1724, 518.7808), REye coords (574.6898, 583.3312), timeStamp: 2017-02-16 10:44:49.240
LEye coords (485.5334, 513.9808), REye coords (575.9805, 583.071), timeStamp: 2017-02-16 10:44:49.283
LEye coords (489.923, 517.8872), REye coords (576.8559, 581.7665), timeStamp: 2017-02-16 10:44:49.317
LEye coords (485.8378, 507.0003), REye coords (576.2251, 583.22), timeStamp: 2017-02-16 10:44:49.350
LEye coords (542.1525, 559.7202), REye coords (576.4907, 583.4426), timeStamp: 2017-02-16 10:44:49.394
LEye coords (518.2263, 546.6638), REye coords (576.3373, 583.7019), timeStamp: 2017-02-16 10:44:49.427
LEye coords (532.3328, 566.2925), REye coords (575.4866, 585.1128), timeStamp: 2017-02-16 10:44:49.462
LEye coords (540.972, 571.7413), REye coords (575.4167, 586.0552), timeStamp: 2017-02-16 10:44:49.497
LEye coords (545.746, 572.4345), REye coords (576.2183, 585.3795), timeStamp: 2017-02-16 10:44:49.540
LEye coords (549.3146, 573.2527), REye coords (576.2529, 585.8851), timeStamp: 2017-02-16 10:44:49.574
LEye coords (550.8957, 573.8065), REye coords (576.71, 584.6943), timeStamp: 2017-02-16 10:44:49.617
LEye coords (555.0364, 575.8314), REye coords (575.575, 584.5484), timeStamp: 2017-02-16 10:44:49.651
LEye coords (556.9133, 575.5287), REye coords (574.9058, 585.0851), timeStamp: 2017-02-16 10:44:49.684
LEye coords (559.4887, 575.8902), REye coords (575.8523, 583.7333), timeStamp: 2017-02-16 10:44:49.728
LEye coords (560.9889, 577.3228), REye coords (576.2542, 582.78), timeStamp: 2017-02-16 10:44:49.762
LEye coords (563.9402, 580.312), REye coords (576.9559, 583.3116), timeStamp: 2017-02-16 10:44:49.796
LEye coords (621.5277, 675.9933), REye coords (581.1853, 586.3904), timeStamp: 2017-02-16 10:44:49.840
LEye coords (614.4719, 649.464), REye coords (585.4968, 589.1874), timeStamp: 2017-02-16 10:44:49.874
LEye coords (607.0278, 616.3849), REye coords (587.2966, 588.4583), timeStamp: 2017-02-16 10:44:49.907
LEye coords (606.4897, 610.2996), REye coords (589.1023, 588.3245), timeStamp: 2017-02-16 10:44:49.950
LEye coords (597.0885, 606.0632), REye coords (591.1909, 588.6776), timeStamp: 2017-02-16 10:44:49.983
LEye coords (596.2288, 607.1957), REye coords (593.0645, 589.7765), timeStamp: 2017-02-16 10:44:50.017
LEye coords (596.525, 607.0413), REye coords (594.705, 589.9109), timeStamp: 2017-02-16 10:44:50.059
LEye coords (595.6218, 606.0445), REye coords (596.7216, 590.188), timeStamp: 2017-02-16 10:44:50.093
LEye coords (595.0049, 602.0927), REye coords (598.3898, 590.7817), timeStamp: 2017-02-16 10:44:50.126
LEye coords (592.4315, 601.9151), REye coords (600.312, 591.239), timeStamp: 2017-02-16 10:44:50.170
LEye coords (591.6331, 602.0997), REye coords (601.8146, 591.6773), timeStamp: 2017-02-16 10:44:50.204
LEye coords (589.8618, 601.7928), REye coords (602.0345, 592.3865), timeStamp: 2017-02-16 10:44:50.238
LEye coords (588.2689, 603.4672), REye coords (602.413, 592.5071), timeStamp: 2017-02-16 10:44:50.282
LEye coords (586.8835, 603.5612), REye coords (602.2593, 592.9182), timeStamp: 2017-02-16 10:44:50.316
LEye coords (585.3456, 605.428), REye coords (602.9812, 593.2891), timeStamp: 2017-02-16 10:44:50.349
LEye coords (585.3962, 605.3621), REye coords (603.4009, 593.3448), timeStamp: 2017-02-16 10:44:50.394
LEye coords (585.334, 606.4033), REye coords (603.4791, 594.2322), timeStamp: 2017-02-16 10:44:50.428
LEye coords (584.2958, 606.8726), REye coords (603.8436, 594.8726), timeStamp: 2017-02-16 10:44:50.462
LEye coords (584.0649, 608.3502), REye coords (604.7081, 594.8754), timeStamp: 2017-02-16 10:44:50.506
LEye coords (584.567, 609.7703), REye coords (604.7933, 595.5618), timeStamp: 2017-02-16 10:44:50.538
LEye coords (582.1793, 610.619), REye coords (605.0305, 596.293), timeStamp: 2017-02-16 10:44:50.571
LEye coords (582.7471, 611.3419), REye coords (604.7108, 596.8112), timeStamp: 2017-02-16 10:44:50.615
LEye coords (582.6829, 613.4947), REye coords (603.2946, 596.274), timeStamp: 2017-02-16 10:44:50.649
LEye coords (581.0946, 612.803), REye coords (602.371, 595.2509), timeStamp: 2017-02-16 10:44:50.682
LEye coords (580.5627, 613.8968), REye coords (602.5457, 595.647), timeStamp: 2017-02-16 10:44:50.726
LEye coords (581.2833, 614.559), REye coords (601.9287, 596.1096), timeStamp: 2017-02-16 10:44:50.761
LEye coords (581.3633, 616.526), REye coords (601.1475, 596.1896), timeStamp: 2017-02-16 10:44:50.794
LEye coords (580.6531, 617.967), REye coords (600.394, 595.4044), timeStamp: 2017-02-16 10:44:50.837
LEye coords (582.3046, 621.0377), REye coords (599.1858, 595.1105), timeStamp: 2017-02-16 10:44:50.871
LEye coords (583.4423, 622.1801), REye coords (598.008, 595.2775), timeStamp: 2017-02-16 10:44:50.904
LEye coords (583.5993, 623.4384), REye coords (598.0716, 594.7412), timeStamp: 2017-02-16 10:44:50.949
LEye coords (584.1056, 624.9246), REye coords (597.0122, 594.1454), timeStamp: 2017-02-16 10:44:50.982
LEye coords (585.369, 625.5479), REye coords (596.742, 593.347), timeStamp: 2017-02-16 10:44:51.015
LEye coords (585.7469, 626.2612), REye coords (597.4231, 592.3811), timeStamp: 2017-02-16 10:44:51.058
LEye coords (586.9427, 626.6954), REye coords (0.0, 0.0), timeStamp: 2017-02-16 10:44:51.092
LEye coords (586.7306, 626.0518), REye coords (598.0085, 590.4514), timeStamp: 2017-02-16 10:44:51.126
LEye coords (586.9923, 626.2303), REye coords (598.4257, 589.3754), timeStamp: 2017-02-16 10:44:51.171
LEye coords (588.2346, 627.8958), REye coords (598.0891, 587.4144), timeStamp: 2017-02-16 10:44:51.203
LEye coords (587.2642, 625.3432), REye coords (598.0064, 586.569), timeStamp: 2017-02-16 10:44:51.236
LEye coords (587.6775, 625.6515), REye coords (598.2922, 585.8527), timeStamp: 2017-02-16 10:44:51.281
LEye coords (588.2107, 624.8583), REye coords (598.282, 585.0422), timeStamp: 2017-02-16 10:44:51.314
LEye coords (587.8972, 624.3246), REye coords (597.8993, 584.7871), timeStamp: 2017-02-16 10:44:51.347
LEye coords (590.0384, 624.8607), REye coords (598.6656, 584.3566), timeStamp: 2017-02-16 10:44:51.391
LEye coords (590.6574, 624.7383), REye coords (598.4737, 584.7203), timeStamp: 2017-02-16 10:44:51.423
LEye coords (589.7946, 624.0587), REye coords (597.7047, 582.5561), timeStamp: 2017-02-16 10:44:51.466
LEye coords (589.8648, 623.3906), REye coords (597.0366, 582.0804), timeStamp: 2017-02-16 10:44:51.501
LEye coords (589.8663, 622.3905), REye coords (597.0092, 581.0861), timeStamp: 2017-02-16 10:44:51.534
LEye coords (589.6096, 621.4366), REye coords (596.9204, 579.8232), timeStamp: 2017-02-16 10:44:51.577
LEye coords (587.7335, 619.4188), REye coords (597.3286, 578.7552), timeStamp: 2017-02-16 10:44:51.610
LEye coords (588.5031, 618.178), REye coords (597.0812, 577.9227), timeStamp: 2017-02-16 10:44:51.644
LEye coords (586.5242, 616.9146), REye coords (596.8215, 576.5789), timeStamp: 2017-02-16 10:44:51.688
LEye coords (586.2463, 615.598), REye coords (596.5829, 575.6274), timeStamp: 2017-02-16 10:44:51.722
LEye coords (585.9473, 613.5645), REye coords (595.7492, 574.8606), timeStamp: 2017-02-16 10:44:51.756
LEye coords (585.5383, 611.7901), REye coords (595.2386, 573.5667), timeStamp: 2017-02-16 10:44:51.800
LEye coords (585.9478, 611.9467), REye coords (594.9199, 572.5305), timeStamp: 2017-02-16 10:44:51.833
LEye coords (586.4178, 611.5917), REye coords (594.4125, 572.5557), timeStamp: 2017-02-16 10:44:51.867
LEye coords (585.6534, 610.4918), REye coords (594.066, 571.7789), timeStamp: 2017-02-16 10:44:51.911
LEye coords (584.2479, 608.1041), REye coords (593.9387, 571.9191), timeStamp: 2017-02-16 10:44:51.945
LEye coords (584.5758, 607.2504), REye coords (593.9345, 570.7982), timeStamp: 2017-02-16 10:44:51.978
LEye coords (584.3595, 606.1162), REye coords (594.416, 569.7494), timeStamp: 2017-02-16 10:44:52.021
LEye coords (584.002, 606.6041), REye coords (594.7804, 568.6909), timeStamp: 2017-02-16 10:44:52.056
LEye coords (583.7983, 605.8891), REye coords (594.5334, 567.0822), timeStamp: 2017-02-16 10:44:52.088
LEye coords (583.5488, 608.7353), REye coords (593.6974, 569.2072), timeStamp: 2017-02-16 10:44:52.132
LEye coords (583.1833, 610.1887), REye coords (593.9871, 570.6696), timeStamp: 2017-02-16 10:44:52.165
LEye coords (582.3152, 611.0141), REye coords (593.8927, 571.1103), timeStamp: 2017-02-16 10:44:52.208
LEye coords (581.8224, 612.2792), REye coords (594.4006, 571.9421), timeStamp: 2017-02-16 10:44:52.241
LEye coords (581.671, 613.6062), REye coords (595.2726, 572.931), timeStamp: 2017-02-16 10:44:52.275
LEye coords (581.1805, 615.6476), REye coords (594.9177, 574.5411), timeStamp: 2017-02-16 10:44:52.309
LEye coords (580.5989, 617.2851), REye coords (594.9048, 575.8672), timeStamp: 2017-02-16 10:44:52.353
LEye coords (580.4001, 618.897), REye coords (594.5839, 577.2774), timeStamp: 2017-02-16 10:44:52.386
LEye coords (580.9794, 620.4933), REye coords (595.1911, 579.363), timeStamp: 2017-02-16 10:44:52.420
LEye coords (582.3295, 622.801), REye coords (596.1641, 580.7217), timeStamp: 2017-02-16 10:44:52.463
LEye coords (583.9788, 624.1291), REye coords (596.7914, 582.7512), timeStamp: 2017-02-16 10:44:52.496
LEye coords (585.9987, 625.7892), REye coords (597.3062, 584.6094), timeStamp: 2017-02-16 10:44:52.540
LEye coords (587.7404, 628.4242), REye coords (598.7747, 585.3599), timeStamp: 2017-02-16 10:44:52.573
LEye coords (589.313, 630.7679), REye coords (599.7692, 586.6194), timeStamp: 2017-02-16 10:44:52.607
LEye coords (589.9629, 630.881), REye coords (600.2924, 588.7257), timeStamp: 2017-02-16 10:44:52.651
LEye coords (589.4999, 631.5217), REye coords (601.2398, 590.9223), timeStamp: 2017-02-16 10:44:52.684
LEye coords (590.1937, 633.0421), REye coords (602.0373, 591.8576), timeStamp: 2017-02-16 10:44:52.717
LEye coords (590.0435, 633.7652), REye coords (602.785, 593.0872), timeStamp: 2017-02-16 10:44:52.760
LEye coords (589.1458, 633.9164), REye coords (603.118, 594.8987), timeStamp: 2017-02-16 10:44:52.794
LEye coords (587.5911, 633.9637), REye coords (601.5942, 593.8107), timeStamp: 2017-02-16 10:44:52.827
LEye coords (586.3234, 633.3571), REye coords (600.5992, 593.6258), timeStamp: 2017-02-16 10:44:52.871
LEye coords (586.2812, 633.9252), REye coords (599.5275, 593.8681), timeStamp: 2017-02-16 10:44:52.904
LEye coords (584.395, 633.6456), REye coords (598.4545, 593.3533), timeStamp: 2017-02-16 10:44:52.949
LEye coords (581.6926, 633.5594), REye coords (597.7803, 593.6081), timeStamp: 2017-02-16 10:44:52.983
LEye coords (580.0294, 633.1376), REye coords (596.9926, 593.5567), timeStamp: 2017-02-16 10:44:53.016
LEye coords (578.6431, 633.1415), REye coords (596.4354, 593.3874), timeStamp: 2017-02-16 10:44:53.049
LEye coords (576.054, 633.0759), REye coords (594.9919, 594.5019), timeStamp: 2017-02-16 10:44:53.094
LEye coords (575.2173, 632.9639), REye coords (594.5685, 595.0285), timeStamp: 2017-02-16 10:44:53.127
LEye coords (573.9069, 631.8005), REye coords (592.8161, 595.4891), timeStamp: 2017-02-16 10:44:53.170
LEye coords (573.0602, 631.9044), REye coords (591.6907, 596.2196), timeStamp: 2017-02-16 10:44:53.203
LEye coords (570.8502, 630.9099), REye coords (590.0419, 597.263), timeStamp: 2017-02-16 10:44:53.237
LEye coords (567.3832, 628.7811), REye coords (589.2043, 598.1648), timeStamp: 2017-02-16 10:44:53.280
LEye coords (564.8424, 627.6452), REye coords (589.1438, 597.6182), timeStamp: 2017-02-16 10:44:53.313
LEye coords (562.9445, 627.7188), REye coords (588.3964, 598.6355), timeStamp: 2017-02-16 10:44:53.347
LEye coords (561.8483, 628.298), REye coords (588.7721, 598.4042), timeStamp: 2017-02-16 10:44:53.391
LEye coords (559.1057, 628.0019), REye coords (588.5637, 598.8952), timeStamp: 2017-02-16 10:44:53.425
LEye coords (559.4265, 628.2976), REye coords (587.9045, 599.3495), timeStamp: 2017-02-16 10:44:53.458
LEye coords (559.5287, 627.5233), REye coords (587.203, 599.8337), timeStamp: 2017-02-16 10:44:53.503
LEye coords (559.5247, 629.035), REye coords (586.9615, 600.0315), timeStamp: 2017-02-16 10:44:53.537
LEye coords (559.8043, 629.3454), REye coords (586.6267, 601.1522), timeStamp: 2017-02-16 10:44:53.571
LEye coords (560.954, 630.9551), REye coords (586.3186, 601.0195), timeStamp: 2017-02-16 10:44:53.615
LEye coords (562.3245, 632.7402), REye coords (586.8675, 602.2191), timeStamp: 2017-02-16 10:44:53.648
LEye coords (561.7954, 635.0309), REye coords (587.5771, 602.3684), timeStamp: 2017-02-16 10:44:53.682
LEye coords (562.1862, 636.1815), REye coords (588.0913, 603.1541), timeStamp: 2017-02-16 10:44:53.717
LEye coords (562.7264, 637.0846), REye coords (589.1597, 603.3871), timeStamp: 2017-02-16 10:44:53.761
