LEye coords (154.0263, 381.2356), REye coords (150.6824, 374.8479), timeStamp: 2017-02-16 10:50:34.179
LEye coords (153.8562, 379.1184), REye coords (150.9454, 374.6802), timeStamp: 2017-02-16 10:50:34.224
LEye coords (153.5027, 377.6211), REye coords (151.4351, 374.7695), timeStamp: 2017-02-16 10:50:34.257
LEye coords (153.1822, 375.0696), REye coords (152.8727, 374.741), timeStamp: 2017-02-16 10:50:34.291
LEye coords (155.5553, 373.1077), REye coords (156.361, 374.9244), timeStamp: 2017-02-16 10:50:34.334
LEye coords (158.2233, 370.12), REye coords (159.7482, 375.4888), timeStamp: 2017-02-16 10:50:34.367
LEye coords (161.5029, 367.9632), REye coords (163.8354, 375.8006), timeStamp: 2017-02-16 10:50:34.401
LEye coords (164.7425, 366.2033), REye coords (168.3359, 375.746), timeStamp: 2017-02-16 10:50:34.447
LEye coords (351.5585, 306.009), REye coords (375.8163, 318.4427), timeStamp: 2017-02-16 10:50:34.480
LEye coords (0.0, 0.0), REye coords (393.8762, 304.5101), timeStamp: 2017-02-16 10:50:34.514
LEye coords (0.0, 0.0), REye coords (395.7953, 303.5962), timeStamp: 2017-02-16 10:50:34.547
LEye coords (0.0, 0.0), REye coords (399.344, 303.5564), timeStamp: 2017-02-16 10:50:34.591
LEye coords (0.0, 0.0), REye coords (399.213, 300.2891), timeStamp: 2017-02-16 10:50:34.624
LEye coords (0.0, 0.0), REye coords (395.2371, 284.1215), timeStamp: 2017-02-16 10:50:34.668
LEye coords (0.0, 0.0), REye coords (394.5379, 288.3521), timeStamp: 2017-02-16 10:50:34.701
LEye coords (394.0641, 317.747), REye coords (396.9071, 286.7682), timeStamp: 2017-02-16 10:50:34.734
LEye coords (0.0, 0.0), REye coords (398.9418, 287.4256), timeStamp: 2017-02-16 10:50:34.777
LEye coords (0.0, 0.0), REye coords (398.4639, 278.478), timeStamp: 2017-02-16 10:50:34.810
LEye coords (0.0, 0.0), REye coords (397.8006, 279.0597), timeStamp: 2017-02-16 10:50:34.844
LEye coords (0.0, 0.0), REye coords (398.1464, 270.6696), timeStamp: 2017-02-16 10:50:34.888
LEye coords (383.3505, 292.8125), REye coords (395.9686, 259.1172), timeStamp: 2017-02-16 10:50:34.922
LEye coords (381.2823, 288.6998), REye coords (393.0984, 250.4635), timeStamp: 2017-02-16 10:50:34.955
LEye coords (382.6404, 286.3703), REye coords (390.6758, 242.421), timeStamp: 2017-02-16 10:50:34.999
LEye coords (375.2591, 269.8774), REye coords (389.6082, 237.4324), timeStamp: 2017-02-16 10:50:35.033
LEye coords (379.1957, 271.9066), REye coords (387.2499, 232.2386), timeStamp: 2017-02-16 10:50:35.066
LEye coords (375.595, 272.7455), REye coords (386.9576, 228.3023), timeStamp: 2017-02-16 10:50:35.110
LEye coords (373.6445, 271.4838), REye coords (387.2988, 228.0444), timeStamp: 2017-02-16 10:50:35.143
LEye coords (365.8894, 260.3389), REye coords (385.8676, 225.3922), timeStamp: 2017-02-16 10:50:35.177
LEye coords (367.0462, 258.2732), REye coords (386.1549, 222.8028), timeStamp: 2017-02-16 10:50:35.221
LEye coords (365.5301, 253.4334), REye coords (385.9392, 219.8974), timeStamp: 2017-02-16 10:50:35.253
LEye coords (364.7669, 251.2947), REye coords (385.8315, 217.8478), timeStamp: 2017-02-16 10:50:35.297
LEye coords (364.6606, 246.5801), REye coords (385.0942, 215.3696), timeStamp: 2017-02-16 10:50:35.331
LEye coords (364.8579, 244.7173), REye coords (384.0989, 214.4137), timeStamp: 2017-02-16 10:50:35.365
LEye coords (363.7556, 241.1329), REye coords (384.228, 215.5921), timeStamp: 2017-02-16 10:50:35.408
LEye coords (360.7907, 238.1896), REye coords (384.4347, 215.8527), timeStamp: 2017-02-16 10:50:35.442
LEye coords (358.8323, 237.0061), REye coords (384.5031, 214.1843), timeStamp: 2017-02-16 10:50:35.475
LEye coords (357.0705, 236.1402), REye coords (384.1167, 214.4476), timeStamp: 2017-02-16 10:50:35.519
LEye coords (353.9575, 235.8662), REye coords (384.062, 215.6512), timeStamp: 2017-02-16 10:50:35.553
LEye coords (351.5957, 233.3376), REye coords (383.8245, 213.6606), timeStamp: 2017-02-16 10:50:35.587
LEye coords (350.0096, 234.4807), REye coords (383.0032, 212.5905), timeStamp: 2017-02-16 10:50:35.620
LEye coords (348.6378, 234.2863), REye coords (382.8138, 213.5669), timeStamp: 2017-02-16 10:50:35.663
LEye coords (347.5314, 234.2221), REye coords (381.7751, 215.8368), timeStamp: 2017-02-16 10:50:35.698
LEye coords (345.596, 232.9938), REye coords (381.905, 218.5283), timeStamp: 2017-02-16 10:50:35.741
LEye coords (344.3312, 231.5939), REye coords (382.4757, 221.6324), timeStamp: 2017-02-16 10:50:35.775
LEye coords (343.2507, 230.7416), REye coords (382.6691, 224.3288), timeStamp: 2017-02-16 10:50:35.809
LEye coords (341.1138, 228.0109), REye coords (382.1537, 224.7251), timeStamp: 2017-02-16 10:50:35.852
LEye coords (339.3737, 226.4812), REye coords (382.1004, 224.5712), timeStamp: 2017-02-16 10:50:35.886
LEye coords (337.7063, 225.817), REye coords (381.9151, 226.7426), timeStamp: 2017-02-16 10:50:35.918
LEye coords (336.6068, 225.6501), REye coords (380.6457, 225.3), timeStamp: 2017-02-16 10:50:35.963
LEye coords (335.925, 224.5247), REye coords (380.802, 227.6628), timeStamp: 2017-02-16 10:50:35.997
LEye coords (0.0, 0.0), REye coords (379.9084, 226.9497), timeStamp: 2017-02-16 10:50:36.031
LEye coords (333.4711, 222.9395), REye coords (379.1787, 226.8303), timeStamp: 2017-02-16 10:50:36.064
LEye coords (333.9765, 222.3297), REye coords (382.6468, 229.7051), timeStamp: 2017-02-16 10:50:36.109
LEye coords (334.5559, 221.7263), REye coords (386.808, 229.6859), timeStamp: 2017-02-16 10:50:36.142
LEye coords (332.6567, 219.7756), REye coords (390.0006, 232.0253), timeStamp: 2017-02-16 10:50:36.175
LEye coords (335.4012, 222.2388), REye coords (393.9732, 233.9434), timeStamp: 2017-02-16 10:50:36.219
LEye coords (339.0339, 225.6688), REye coords (397.3976, 235.8721), timeStamp: 2017-02-16 10:50:36.252
LEye coords (340.181, 225.0801), REye coords (400.7403, 238.288), timeStamp: 2017-02-16 10:50:36.296
LEye coords (343.5831, 227.7647), REye coords (404.476, 240.3937), timeStamp: 2017-02-16 10:50:36.330
LEye coords (345.8686, 230.0018), REye coords (404.8572, 239.7632), timeStamp: 2017-02-16 10:50:36.363
LEye coords (348.9765, 234.2392), REye coords (404.6234, 240.938), timeStamp: 2017-02-16 10:50:36.408
LEye coords (351.9075, 238.4164), REye coords (405.6111, 241.0418), timeStamp: 2017-02-16 10:50:36.442
LEye coords (353.5326, 240.6074), REye coords (407.3391, 240.3492), timeStamp: 2017-02-16 10:50:36.476
LEye coords (355.7049, 244.5181), REye coords (408.8437, 242.5042), timeStamp: 2017-02-16 10:50:36.509
LEye coords (357.6792, 247.3894), REye coords (409.9242, 246.2616), timeStamp: 2017-02-16 10:50:36.553
LEye coords (359.1711, 250.2693), REye coords (410.2724, 248.6786), timeStamp: 2017-02-16 10:50:36.587
LEye coords (360.8387, 252.7565), REye coords (410.5156, 251.5724), timeStamp: 2017-02-16 10:50:36.620
LEye coords (362.5125, 254.2723), REye coords (411.4817, 251.5495), timeStamp: 2017-02-16 10:50:36.665
LEye coords (363.7833, 256.3267), REye coords (412.3217, 254.4921), timeStamp: 2017-02-16 10:50:36.699
LEye coords (365.7703, 259.278), REye coords (412.7302, 255.5433), timeStamp: 2017-02-16 10:50:36.733
LEye coords (366.3392, 260.4884), REye coords (413.6218, 257.8366), timeStamp: 2017-02-16 10:50:36.777
LEye coords (367.6053, 262.0065), REye coords (414.0613, 261.0005), timeStamp: 2017-02-16 10:50:36.810
LEye coords (368.8321, 265.718), REye coords (414.9751, 262.9875), timeStamp: 2017-02-16 10:50:36.845
LEye coords (369.9623, 270.1068), REye coords (415.9622, 266.8434), timeStamp: 2017-02-16 10:50:36.878
LEye coords (370.0462, 274.5158), REye coords (415.523, 269.1427), timeStamp: 2017-02-16 10:50:36.923
LEye coords (371.129, 278.6906), REye coords (415.1414, 273.7352), timeStamp: 2017-02-16 10:50:36.956
LEye coords (371.6505, 283.4307), REye coords (414.999, 276.2027), timeStamp: 2017-02-16 10:50:36.990
LEye coords (371.1704, 286.1229), REye coords (414.5288, 278.2636), timeStamp: 2017-02-16 10:50:37.032
LEye coords (369.9753, 289.1733), REye coords (414.5443, 280.0878), timeStamp: 2017-02-16 10:50:37.066
LEye coords (354.0192, 327.0018), REye coords (414.7359, 282.1553), timeStamp: 2017-02-16 10:50:37.110
LEye coords (338.9993, 302.8874), REye coords (415.6175, 284.4065), timeStamp: 2017-02-16 10:50:37.142
LEye coords (345.4569, 306.4446), REye coords (416.4826, 286.5449), timeStamp: 2017-02-16 10:50:37.177
LEye coords (344.874, 310.0686), REye coords (417.2307, 288.3007), timeStamp: 2017-02-16 10:50:37.220
LEye coords (349.4541, 309.665), REye coords (417.9652, 289.6609), timeStamp: 2017-02-16 10:50:37.254
LEye coords (355.6113, 311.5377), REye coords (417.1698, 292.2097), timeStamp: 2017-02-16 10:50:37.287
LEye coords (359.6931, 314.5898), REye coords (416.0901, 294.0989), timeStamp: 2017-02-16 10:50:37.331
LEye coords (363.5971, 317.9922), REye coords (415.9088, 295.2693), timeStamp: 2017-02-16 10:50:37.364
LEye coords (366.6086, 320.8306), REye coords (415.84, 296.2839), timeStamp: 2017-02-16 10:50:37.397
LEye coords (368.7818, 325.1585), REye coords (415.2746, 298.2085), timeStamp: 2017-02-16 10:50:37.441
LEye coords (370.9101, 325.5278), REye coords (414.5748, 301.358), timeStamp: 2017-02-16 10:50:37.474
LEye coords (372.2134, 325.9967), REye coords (413.5591, 302.0121), timeStamp: 2017-02-16 10:50:37.508
LEye coords (374.1696, 328.7504), REye coords (412.9573, 303.7723), timeStamp: 2017-02-16 10:50:37.551
LEye coords (375.2373, 328.8536), REye coords (412.856, 304.4048), timeStamp: 2017-02-16 10:50:37.584
LEye coords (376.5409, 329.9905), REye coords (411.4342, 303.21), timeStamp: 2017-02-16 10:50:37.628
LEye coords (376.5559, 328.693), REye coords (410.6024, 304.513), timeStamp: 2017-02-16 10:50:37.662
LEye coords (377.3156, 330.65), REye coords (409.4097, 306.3063), timeStamp: 2017-02-16 10:50:37.695
LEye coords (378.1092, 329.7246), REye coords (409.1833, 305.7197), timeStamp: 2017-02-16 10:50:37.739
LEye coords (378.0641, 325.9488), REye coords (408.4743, 304.0983), timeStamp: 2017-02-16 10:50:37.772
LEye coords (377.4379, 322.697), REye coords (408.0047, 302.7137), timeStamp: 2017-02-16 10:50:37.805
LEye coords (376.9142, 320.6638), REye coords (407.8631, 301.6082), timeStamp: 2017-02-16 10:50:37.848
LEye coords (376.5289, 317.6541), REye coords (407.6691, 299.622), timeStamp: 2017-02-16 10:50:37.882
LEye coords (375.564, 313.9534), REye coords (407.2105, 298.327), timeStamp: 2017-02-16 10:50:37.916
LEye coords (374.6109, 311.4221), REye coords (406.7373, 293.6118), timeStamp: 2017-02-16 10:50:37.960
LEye coords (372.8807, 307.2664), REye coords (406.1789, 289.4687), timeStamp: 2017-02-16 10:50:37.994
LEye coords (316.2657, 218.1983), REye coords (405.6738, 288.9815), timeStamp: 2017-02-16 10:50:38.027
LEye coords (320.8979, 256.7516), REye coords (404.6038, 285.2875), timeStamp: 2017-02-16 10:50:38.071
LEye coords (326.6284, 266.548), REye coords (404.1908, 284.0052), timeStamp: 2017-02-16 10:50:38.105
LEye coords (332.071, 264.9565), REye coords (404.096, 282.7053), timeStamp: 2017-02-16 10:50:38.139
LEye coords (337.4622, 264.4659), REye coords (404.0101, 280.8772), timeStamp: 2017-02-16 10:50:38.184
LEye coords (337.5554, 259.7622), REye coords (403.8937, 280.0041), timeStamp: 2017-02-16 10:50:38.218
LEye coords (338.5978, 260.106), REye coords (403.699, 274.7911), timeStamp: 2017-02-16 10:50:38.251
LEye coords (340.313, 259.6414), REye coords (403.9831, 271.0111), timeStamp: 2017-02-16 10:50:38.295
LEye coords (343.5363, 258.9586), REye coords (403.1104, 271.0176), timeStamp: 2017-02-16 10:50:38.329
LEye coords (345.7972, 261.4496), REye coords (402.938, 271.1256), timeStamp: 2017-02-16 10:50:38.362
LEye coords (344.8627, 262.6354), REye coords (402.712, 270.8563), timeStamp: 2017-02-16 10:50:38.396
LEye coords (344.3337, 264.2069), REye coords (403.0972, 271.8873), timeStamp: 2017-02-16 10:50:38.441
LEye coords (345.4344, 266.6575), REye coords (402.2562, 269.078), timeStamp: 2017-02-16 10:50:38.475
LEye coords (344.0533, 266.2253), REye coords (402.3284, 268.3799), timeStamp: 2017-02-16 10:50:38.509
LEye coords (344.793, 273.3447), REye coords (402.8296, 268.5666), timeStamp: 2017-02-16 10:50:38.553
LEye coords (346.5349, 278.6655), REye coords (403.6122, 271.071), timeStamp: 2017-02-16 10:50:38.587
LEye coords (348.6129, 283.0888), REye coords (404.1868, 273.9828), timeStamp: 2017-02-16 10:50:38.620
LEye coords (350.6172, 284.2781), REye coords (403.9343, 275.706), timeStamp: 2017-02-16 10:50:38.663
LEye coords (352.4672, 286.639), REye coords (404.2045, 277.012), timeStamp: 2017-02-16 10:50:38.697
LEye coords (353.5399, 290.1807), REye coords (404.3039, 278.7448), timeStamp: 2017-02-16 10:50:38.730
LEye coords (355.1479, 293.9955), REye coords (405.0759, 281.0234), timeStamp: 2017-02-16 10:50:38.776
LEye coords (355.7658, 297.2318), REye coords (405.893, 285.5913), timeStamp: 2017-02-16 10:50:38.808
LEye coords (356.4998, 299.4812), REye coords (406.4246, 287.4787), timeStamp: 2017-02-16 10:50:38.842
LEye coords (358.1486, 302.6066), REye coords (407.1494, 289.4775), timeStamp: 2017-02-16 10:50:38.886
LEye coords (358.4548, 304.9021), REye coords (407.8882, 290.5428), timeStamp: 2017-02-16 10:50:38.919
LEye coords (360.0966, 308.2959), REye coords (408.2035, 292.7441), timeStamp: 2017-02-16 10:50:38.952
LEye coords (361.2734, 312.5884), REye coords (408.3682, 294.922), timeStamp: 2017-02-16 10:50:38.996
LEye coords (362.3398, 316.2615), REye coords (408.6063, 297.3921), timeStamp: 2017-02-16 10:50:39.030
LEye coords (362.6203, 319.9997), REye coords (409.1909, 299.7137), timeStamp: 2017-02-16 10:50:39.063
LEye coords (364.2813, 324.8575), REye coords (409.4977, 302.6008), timeStamp: 2017-02-16 10:50:39.108
LEye coords (364.4866, 328.173), REye coords (410.3354, 304.1964), timeStamp: 2017-02-16 10:50:39.141
LEye coords (365.3432, 331.1998), REye coords (410.9854, 304.5903), timeStamp: 2017-02-16 10:50:39.175
LEye coords (366.353, 334.1877), REye coords (411.8763, 306.4761), timeStamp: 2017-02-16 10:50:39.219
LEye coords (367.5207, 336.7495), REye coords (412.9439, 307.2666), timeStamp: 2017-02-16 10:50:39.253
LEye coords (367.9535, 337.6264), REye coords (414.2917, 308.4119), timeStamp: 2017-02-16 10:50:39.288
LEye coords (367.191, 339.1926), REye coords (414.4838, 308.9996), timeStamp: 2017-02-16 10:50:39.322
LEye coords (366.4514, 337.3703), REye coords (415.174, 310.4563), timeStamp: 2017-02-16 10:50:39.367
LEye coords (366.5784, 337.8429), REye coords (415.8174, 310.6069), timeStamp: 2017-02-16 10:50:39.400
LEye coords (361.9532, 335.9225), REye coords (416.4476, 311.9394), timeStamp: 2017-02-16 10:50:39.434
LEye coords (360.29, 335.4444), REye coords (416.9798, 312.0221), timeStamp: 2017-02-16 10:50:39.479
LEye coords (358.7958, 335.9306), REye coords (417.1894, 308.4831), timeStamp: 2017-02-16 10:50:39.512
LEye coords (357.6922, 331.7215), REye coords (417.5996, 309.2303), timeStamp: 2017-02-16 10:50:39.545
LEye coords (356.994, 328.9139), REye coords (417.6822, 310.0201), timeStamp: 2017-02-16 10:50:39.589
LEye coords (354.8291, 324.4219), REye coords (418.0984, 309.0679), timeStamp: 2017-02-16 10:50:39.624
LEye coords (353.7581, 324.3525), REye coords (418.7881, 308.5123), timeStamp: 2017-02-16 10:50:39.657
LEye coords (353.4508, 325.1447), REye coords (419.0462, 307.8941), timeStamp: 2017-02-16 10:50:39.701
LEye coords (353.2503, 324.8813), REye coords (419.4674, 307.1437), timeStamp: 2017-02-16 10:50:39.734
LEye coords (353.4789, 324.7077), REye coords (419.7491, 306.4035), timeStamp: 2017-02-16 10:50:39.768
LEye coords (353.9167, 323.1184), REye coords (420.2961, 307.45), timeStamp: 2017-02-16 10:50:39.811
LEye coords (355.3368, 324.9301), REye coords (420.4223, 307.4907), timeStamp: 2017-02-16 10:50:39.843
LEye coords (355.9215, 324.8672), REye coords (420.2933, 306.6932), timeStamp: 2017-02-16 10:50:39.887
LEye coords (355.8104, 325.2667), REye coords (420.0641, 307.0702), timeStamp: 2017-02-16 10:50:39.920
LEye coords (356.6491, 326.644), REye coords (419.7692, 306.817), timeStamp: 2017-02-16 10:50:39.952
LEye coords (357.4258, 328.6149), REye coords (419.0208, 307.7355), timeStamp: 2017-02-16 10:50:39.997
LEye coords (358.0667, 330.8305), REye coords (418.7152, 308.501), timeStamp: 2017-02-16 10:50:40.030
LEye coords (357.97, 332.1674), REye coords (418.1342, 310.1832), timeStamp: 2017-02-16 10:50:40.063
LEye coords (358.8092, 335.0984), REye coords (418.2215, 311.3816), timeStamp: 2017-02-16 10:50:40.108
LEye coords (361.5522, 339.732), REye coords (419.1326, 313.4891), timeStamp: 2017-02-16 10:50:40.142
LEye coords (364.4842, 343.796), REye coords (420.3288, 314.1941), timeStamp: 2017-02-16 10:50:40.176
LEye coords (366.6509, 346.8923), REye coords (421.4755, 315.4347), timeStamp: 2017-02-16 10:50:40.209
LEye coords (368.509, 348.8096), REye coords (423.2674, 316.871), timeStamp: 2017-02-16 10:50:40.253
LEye coords (370.5951, 351.9105), REye coords (424.6985, 318.9177), timeStamp: 2017-02-16 10:50:40.286
LEye coords (372.5892, 354.8026), REye coords (426.2887, 322.4301), timeStamp: 2017-02-16 10:50:40.330
LEye coords (374.665, 357.1308), REye coords (427.9202, 323.369), timeStamp: 2017-02-16 10:50:40.364
LEye coords (375.058, 357.3489), REye coords (429.9386, 325.0539), timeStamp: 2017-02-16 10:50:40.399
LEye coords (376.8979, 357.321), REye coords (431.5681, 325.8742), timeStamp: 2017-02-16 10:50:40.432
LEye coords (378.4785, 355.7519), REye coords (432.818, 326.5607), timeStamp: 2017-02-16 10:50:40.475
LEye coords (378.6427, 352.8935), REye coords (434.2904, 327.847), timeStamp: 2017-02-16 10:50:40.509
LEye coords (380.2562, 352.463), REye coords (435.3558, 329.3129), timeStamp: 2017-02-16 10:50:40.553
LEye coords (380.4353, 351.8373), REye coords (436.3023, 330.5198), timeStamp: 2017-02-16 10:50:40.586
LEye coords (380.8754, 351.0222), REye coords (437.3692, 331.6255), timeStamp: 2017-02-16 10:50:40.618
LEye coords (379.9647, 347.8689), REye coords (438.4582, 333.0616), timeStamp: 2017-02-16 10:50:40.662
LEye coords (380.3984, 347.4359), REye coords (439.5864, 334.1992), timeStamp: 2017-02-16 10:50:40.696
LEye coords (381.4344, 346.2443), REye coords (440.5997, 334.8214), timeStamp: 2017-02-16 10:50:40.730
LEye coords (381.7579, 344.3439), REye coords (442.2029, 335.5675), timeStamp: 2017-02-16 10:50:40.773
LEye coords (381.837, 342.9024), REye coords (443.2272, 335.8244), timeStamp: 2017-02-16 10:50:40.807
LEye coords (382.7113, 342.2548), REye coords (443.6804, 337.0128), timeStamp: 2017-02-16 10:50:40.840
LEye coords (383.95, 342.4544), REye coords (444.1413, 337.6482), timeStamp: 2017-02-16 10:50:40.884
LEye coords (384.873, 341.3294), REye coords (444.6839, 337.9649), timeStamp: 2017-02-16 10:50:40.917
LEye coords (385.082, 340.932), REye coords (444.7205, 337.9769), timeStamp: 2017-02-16 10:50:40.950
LEye coords (385.7615, 342.3989), REye coords (444.8367, 337.5232), timeStamp: 2017-02-16 10:50:40.993
LEye coords (386.8047, 343.8207), REye coords (444.8413, 338.1182), timeStamp: 2017-02-16 10:50:41.026
