LEye coords (665.0043, 560.7643), REye coords (641.3575, 514.074), timeStamp: 2017-02-16 10:55:21.092
LEye coords (667.2209, 561.0528), REye coords (640.4477, 513.8051), timeStamp: 2017-02-16 10:55:21.124
LEye coords (667.625, 560.8121), REye coords (639.5876, 511.854), timeStamp: 2017-02-16 10:55:21.168
LEye coords (667.876, 560.1298), REye coords (638.3611, 512.0087), timeStamp: 2017-02-16 10:55:21.201
LEye coords (668.6241, 558.7029), REye coords (637.6752, 510.2165), timeStamp: 2017-02-16 10:55:21.234
LEye coords (670.0413, 557.6879), REye coords (636.8153, 508.9752), timeStamp: 2017-02-16 10:55:21.278
LEye coords (669.7664, 557.1304), REye coords (635.7424, 507.6858), timeStamp: 2017-02-16 10:55:21.311
LEye coords (670.5526, 556.7169), REye coords (634.6131, 506.1262), timeStamp: 2017-02-16 10:55:21.344
LEye coords (670.0859, 556.5897), REye coords (634.1755, 504.9146), timeStamp: 2017-02-16 10:55:21.388
LEye coords (669.5316, 556.4943), REye coords (634.1085, 501.9194), timeStamp: 2017-02-16 10:55:21.422
LEye coords (668.8639, 555.4667), REye coords (633.7184, 500.5666), timeStamp: 2017-02-16 10:55:21.455
LEye coords (668.699, 555.6871), REye coords (632.5302, 499.1414), timeStamp: 2017-02-16 10:55:21.498
LEye coords (669.0049, 555.4046), REye coords (632.0588, 498.7003), timeStamp: 2017-02-16 10:55:21.532
LEye coords (669.3002, 555.5457), REye coords (631.8964, 498.6315), timeStamp: 2017-02-16 10:55:21.575
LEye coords (668.8121, 554.8296), REye coords (631.6938, 497.818), timeStamp: 2017-02-16 10:55:21.607
LEye coords (503.2061, 563.1758), REye coords (469.6226, 500.3318), timeStamp: 2017-02-16 10:55:21.641
LEye coords (518.0634, 566.3568), REye coords (465.7749, 502.5139), timeStamp: 2017-02-16 10:55:21.686
LEye coords (502.8493, 556.11), REye coords (469.6852, 503.3431), timeStamp: 2017-02-16 10:55:21.718
LEye coords (498.2215, 548.3307), REye coords (468.7106, 506.8381), timeStamp: 2017-02-16 10:55:21.752
LEye coords (502.9074, 553.2347), REye coords (465.4875, 506.6909), timeStamp: 2017-02-16 10:55:21.796
LEye coords (486.9676, 557.7142), REye coords (467.8241, 513.7973), timeStamp: 2017-02-16 10:55:21.829
LEye coords (487.2531, 541.66), REye coords (460.2928, 526.054), timeStamp: 2017-02-16 10:55:21.863
LEye coords (491.6768, 536.8067), REye coords (465.4176, 523.2536), timeStamp: 2017-02-16 10:55:21.907
LEye coords (496.2048, 540.9674), REye coords (465.2973, 518.6477), timeStamp: 2017-02-16 10:55:21.940
LEye coords (497.0348, 538.7122), REye coords (465.154, 518.6966), timeStamp: 2017-02-16 10:55:21.972
LEye coords (495.4407, 538.6091), REye coords (464.65, 519.4863), timeStamp: 2017-02-16 10:55:22.016
LEye coords (305.7024, 499.5324), REye coords (282.4642, 490.549), timeStamp: 2017-02-16 10:55:22.049
LEye coords (289.7614, 519.3852), REye coords (265.1821, 488.5439), timeStamp: 2017-02-16 10:55:22.093
LEye coords (274.1881, 513.6771), REye coords (262.3305, 494.4397), timeStamp: 2017-02-16 10:55:22.126
LEye coords (268.198, 507.1735), REye coords (256.1069, 492.2306), timeStamp: 2017-02-16 10:55:22.160
LEye coords (260.9929, 506.2371), REye coords (253.9341, 492.5861), timeStamp: 2017-02-16 10:55:22.204
LEye coords (264.0494, 495.4118), REye coords (237.2109, 498.4903), timeStamp: 2017-02-16 10:55:22.238
LEye coords (257.9016, 494.3544), REye coords (241.4278, 507.3218), timeStamp: 2017-02-16 10:55:22.271
LEye coords (257.5756, 489.2739), REye coords (244.7593, 499.1295), timeStamp: 2017-02-16 10:55:22.315
LEye coords (289.2467, 482.4828), REye coords (274.3577, 494.2353), timeStamp: 2017-02-16 10:55:22.347
LEye coords (309.3521, 486.3276), REye coords (286.0377, 494.3073), timeStamp: 2017-02-16 10:55:22.382
LEye coords (320.9599, 489.6536), REye coords (295.6541, 494.5125), timeStamp: 2017-02-16 10:55:22.425
LEye coords (329.0948, 495.3034), REye coords (304.8646, 497.1156), timeStamp: 2017-02-16 10:55:22.459
LEye coords (336.5151, 497.4553), REye coords (310.5201, 496.2333), timeStamp: 2017-02-16 10:55:22.492
LEye coords (339.0531, 500.6171), REye coords (314.9331, 496.3266), timeStamp: 2017-02-16 10:55:22.535
LEye coords (341.5307, 500.5286), REye coords (317.4152, 495.8352), timeStamp: 2017-02-16 10:55:22.569
LEye coords (343.7623, 501.6493), REye coords (319.696, 495.0186), timeStamp: 2017-02-16 10:55:22.603
LEye coords (346.6783, 502.9883), REye coords (321.3767, 494.6797), timeStamp: 2017-02-16 10:55:22.647
LEye coords (348.0858, 502.8696), REye coords (323.8989, 494.9143), timeStamp: 2017-02-16 10:55:22.681
LEye coords (349.5201, 503.3494), REye coords (325.1075, 495.2732), timeStamp: 2017-02-16 10:55:22.715
LEye coords (352.1191, 502.2686), REye coords (326.8878, 494.5928), timeStamp: 2017-02-16 10:55:22.759
LEye coords (349.7437, 502.0678), REye coords (0.0, 0.0), timeStamp: 2017-02-16 10:55:22.792
LEye coords (347.601, 500.8553), REye coords (326.0731, 492.407), timeStamp: 2017-02-16 10:55:22.825
LEye coords (348.7013, 500.5285), REye coords (325.2914, 490.8113), timeStamp: 2017-02-16 10:55:22.870
LEye coords (346.2474, 500.736), REye coords (0.0, 0.0), timeStamp: 2017-02-16 10:55:22.903
LEye coords (344.968, 500.1273), REye coords (324.1397, 488.766), timeStamp: 2017-02-16 10:55:22.937
LEye coords (344.6875, 501.9441), REye coords (323.7086, 486.7308), timeStamp: 2017-02-16 10:55:22.981
LEye coords (345.0852, 503.4909), REye coords (322.8886, 486.056), timeStamp: 2017-02-16 10:55:23.014
LEye coords (346.5814, 506.0283), REye coords (0.0, 0.0), timeStamp: 2017-02-16 10:55:23.048
LEye coords (592.2528, 561.7572), REye coords (556.4538, 466.8635), timeStamp: 2017-02-16 10:55:23.091
LEye coords (594.786, 565.7449), REye coords (550.2771, 476.7313), timeStamp: 2017-02-16 10:55:23.125
LEye coords (595.0128, 559.9401), REye coords (550.1342, 477.7916), timeStamp: 2017-02-16 10:55:23.158
LEye coords (587.9608, 549.5791), REye coords (551.1417, 477.33), timeStamp: 2017-02-16 10:55:23.202
LEye coords (589.0604, 555.147), REye coords (549.8623, 479.5994), timeStamp: 2017-02-16 10:55:23.235
LEye coords (578.4963, 544.8619), REye coords (552.1876, 490.5538), timeStamp: 2017-02-16 10:55:23.268
LEye coords (586.5229, 570.5406), REye coords (562.0687, 486.064), timeStamp: 2017-02-16 10:55:23.312
LEye coords (586.6735, 564.2201), REye coords (556.1234, 491.4979), timeStamp: 2017-02-16 10:55:23.346
LEye coords (582.2034, 560.7076), REye coords (555.4562, 493.1463), timeStamp: 2017-02-16 10:55:23.379
LEye coords (581.969, 557.4926), REye coords (555.6432, 492.9858), timeStamp: 2017-02-16 10:55:23.421
LEye coords (869.1992, 474.1335), REye coords (836.621, 459.0022), timeStamp: 2017-02-16 10:55:23.455
LEye coords (845.8341, 489.4368), REye coords (829.5034, 486.7237), timeStamp: 2017-02-16 10:55:23.499
LEye coords (850.1918, 480.9711), REye coords (818.532, 477.4124), timeStamp: 2017-02-16 10:55:23.532
LEye coords (810.6447, 464.1346), REye coords (821.6326, 474.554), timeStamp: 2017-02-16 10:55:23.566
LEye coords (780.6052, 478.0591), REye coords (822.6142, 475.501), timeStamp: 2017-02-16 10:55:23.609
LEye coords (752.7576, 426.9187), REye coords (827.4493, 486.4955), timeStamp: 2017-02-16 10:55:23.643
LEye coords (814.6154, 413.7177), REye coords (836.2315, 482.071), timeStamp: 2017-02-16 10:55:23.675
LEye coords (790.4438, 436.9441), REye coords (831.8953, 477.8749), timeStamp: 2017-02-16 10:55:23.720
LEye coords (774.2249, 421.4199), REye coords (835.4908, 480.8318), timeStamp: 2017-02-16 10:55:23.753
LEye coords (783.9572, 418.6554), REye coords (836.735, 483.0148), timeStamp: 2017-02-16 10:55:23.787
LEye coords (749.8679, 455.4525), REye coords (826.2347, 484.6954), timeStamp: 2017-02-16 10:55:23.830
LEye coords (604.7266, 514.5839), REye coords (640.127, 547.3238), timeStamp: 2017-02-16 10:55:23.862
LEye coords (621.6089, 536.0948), REye coords (640.2635, 536.6142), timeStamp: 2017-02-16 10:55:23.897
LEye coords (629.1797, 541.9183), REye coords (633.6804, 545.9956), timeStamp: 2017-02-16 10:55:23.941
LEye coords (632.9471, 543.3524), REye coords (630.7501, 551.0489), timeStamp: 2017-02-16 10:55:23.974
LEye coords (637.3089, 551.8537), REye coords (632.1027, 553.4064), timeStamp: 2017-02-16 10:55:24.017
LEye coords (627.8036, 540.1229), REye coords (649.1537, 543.1774), timeStamp: 2017-02-16 10:55:24.052
LEye coords (632.5521, 545.2994), REye coords (631.1826, 558.1541), timeStamp: 2017-02-16 10:55:24.085
LEye coords (636.6083, 544.9919), REye coords (634.7495, 552.9704), timeStamp: 2017-02-16 10:55:24.128
LEye coords (636.7797, 544.8237), REye coords (634.1758, 545.7097), timeStamp: 2017-02-16 10:55:24.162
LEye coords (639.5911, 545.7922), REye coords (633.259, 543.8149), timeStamp: 2017-02-16 10:55:24.195
LEye coords (637.3413, 550.6622), REye coords (634.2036, 545.0067), timeStamp: 2017-02-16 10:55:24.239
LEye coords (635.1328, 550.358), REye coords (634.7704, 543.7907), timeStamp: 2017-02-16 10:55:24.273
LEye coords (634.3618, 551.1564), REye coords (634.6945, 542.3763), timeStamp: 2017-02-16 10:55:24.306
LEye coords (633.4661, 552.7401), REye coords (634.8535, 541.8246), timeStamp: 2017-02-16 10:55:24.349
LEye coords (634.7376, 555.5046), REye coords (634.2189, 542.3237), timeStamp: 2017-02-16 10:55:24.382
LEye coords (636.4283, 557.5688), REye coords (634.3033, 541.1794), timeStamp: 2017-02-16 10:55:24.425
LEye coords (638.1365, 560.0586), REye coords (634.1321, 541.9873), timeStamp: 2017-02-16 10:55:24.459
LEye coords (641.2167, 563.56), REye coords (634.1497, 541.3445), timeStamp: 2017-02-16 10:55:24.492
LEye coords (642.3054, 568.002), REye coords (633.1341, 542.4476), timeStamp: 2017-02-16 10:55:24.535
LEye coords (643.2426, 569.1812), REye coords (632.8514, 544.0191), timeStamp: 2017-02-16 10:55:24.570
LEye coords (644.2913, 571.0591), REye coords (632.0744, 545.0825), timeStamp: 2017-02-16 10:55:24.603
LEye coords (644.1024, 571.7525), REye coords (632.3954, 544.7689), timeStamp: 2017-02-16 10:55:24.647
LEye coords (643.4252, 575.0849), REye coords (632.0444, 544.6432), timeStamp: 2017-02-16 10:55:24.681
LEye coords (644.1572, 577.6978), REye coords (632.5789, 544.317), timeStamp: 2017-02-16 10:55:24.715
LEye coords (644.1193, 578.0992), REye coords (632.4134, 545.1881), timeStamp: 2017-02-16 10:55:24.749
LEye coords (644.7872, 580.5142), REye coords (632.5767, 545.582), timeStamp: 2017-02-16 10:55:24.792
LEye coords (645.5161, 581.2539), REye coords (631.9006, 548.0695), timeStamp: 2017-02-16 10:55:24.825
LEye coords (644.8677, 584.9558), REye coords (631.8318, 547.5717), timeStamp: 2017-02-16 10:55:24.869
LEye coords (646.3254, 587.6168), REye coords (632.252, 547.77), timeStamp: 2017-02-16 10:55:24.903
LEye coords (645.7141, 589.974), REye coords (632.3293, 547.8618), timeStamp: 2017-02-16 10:55:24.937
LEye coords (645.8501, 592.0083), REye coords (632.4692, 548.4775), timeStamp: 2017-02-16 10:55:24.972
LEye coords (645.4466, 592.9354), REye coords (632.738, 549.6315), timeStamp: 2017-02-16 10:55:25.016
LEye coords (645.3751, 594.8524), REye coords (632.471, 550.2115), timeStamp: 2017-02-16 10:55:25.049
LEye coords (646.1304, 594.3846), REye coords (631.892, 551.1375), timeStamp: 2017-02-16 10:55:25.082
LEye coords (646.8128, 594.6028), REye coords (631.3672, 551.572), timeStamp: 2017-02-16 10:55:25.126
LEye coords (645.6335, 592.3656), REye coords (630.6181, 551.6445), timeStamp: 2017-02-16 10:55:25.159
LEye coords (646.8752, 591.7228), REye coords (630.3123, 552.4185), timeStamp: 2017-02-16 10:55:25.194
LEye coords (647.2159, 591.2299), REye coords (629.5391, 553.4681), timeStamp: 2017-02-16 10:55:25.237
LEye coords (647.9067, 591.2722), REye coords (628.915, 554.8695), timeStamp: 2017-02-16 10:55:25.270
LEye coords (647.6031, 589.1421), REye coords (628.3515, 555.9594), timeStamp: 2017-02-16 10:55:25.304
LEye coords (649.0021, 588.5778), REye coords (628.1096, 556.3426), timeStamp: 2017-02-16 10:55:25.348
LEye coords (648.5377, 587.858), REye coords (627.4929, 557.78), timeStamp: 2017-02-16 10:55:25.381
LEye coords (648.317, 587.9451), REye coords (627.6075, 558.1647), timeStamp: 2017-02-16 10:55:25.424
LEye coords (649.2568, 587.8711), REye coords (627.189, 557.907), timeStamp: 2017-02-16 10:55:25.457
LEye coords (651.447, 586.1021), REye coords (626.6801, 558.9299), timeStamp: 2017-02-16 10:55:25.490
LEye coords (651.0104, 584.5755), REye coords (626.6469, 558.2859), timeStamp: 2017-02-16 10:55:25.534
LEye coords (652.468, 586.1219), REye coords (626.0549, 558.2821), timeStamp: 2017-02-16 10:55:25.568
LEye coords (652.9918, 586.5268), REye coords (625.6625, 558.196), timeStamp: 2017-02-16 10:55:25.602
LEye coords (653.0917, 586.7939), REye coords (625.7849, 557.5378), timeStamp: 2017-02-16 10:55:25.646
LEye coords (654.9843, 588.7814), REye coords (626.6006, 557.5408), timeStamp: 2017-02-16 10:55:25.679
LEye coords (655.0057, 589.4651), REye coords (626.336, 556.9758), timeStamp: 2017-02-16 10:55:25.712
LEye coords (656.5369, 590.4984), REye coords (626.7761, 556.9012), timeStamp: 2017-02-16 10:55:25.756
LEye coords (657.2968, 590.0964), REye coords (627.2739, 556.3446), timeStamp: 2017-02-16 10:55:25.791
LEye coords (657.3056, 590.6823), REye coords (627.5795, 554.2166), timeStamp: 2017-02-16 10:55:25.825
LEye coords (657.5475, 590.619), REye coords (627.1072, 554.5329), timeStamp: 2017-02-16 10:55:25.869
LEye coords (657.7433, 591.7668), REye coords (628.1546, 553.528), timeStamp: 2017-02-16 10:55:25.902
LEye coords (658.1552, 591.8654), REye coords (628.6361, 553.7015), timeStamp: 2017-02-16 10:55:25.936
LEye coords (656.5541, 591.6569), REye coords (629.5853, 552.7869), timeStamp: 2017-02-16 10:55:25.979
LEye coords (654.6555, 592.5492), REye coords (629.7586, 551.411), timeStamp: 2017-02-16 10:55:26.013
LEye coords (654.13, 591.1544), REye coords (630.9596, 549.2125), timeStamp: 2017-02-16 10:55:26.046
LEye coords (651.5403, 593.6754), REye coords (631.5182, 547.6208), timeStamp: 2017-02-16 10:55:26.090
LEye coords (650.3774, 595.8369), REye coords (632.1673, 546.2853), timeStamp: 2017-02-16 10:55:26.124
LEye coords (647.9207, 595.8489), REye coords (632.6448, 544.3876), timeStamp: 2017-02-16 10:55:26.157
LEye coords (649.2033, 597.5294), REye coords (632.7353, 543.7428), timeStamp: 2017-02-16 10:55:26.201
LEye coords (650.4041, 598.3392), REye coords (633.8391, 539.2653), timeStamp: 2017-02-16 10:55:26.234
LEye coords (650.1421, 597.9588), REye coords (635.2121, 535.566), timeStamp: 2017-02-16 10:55:26.267
LEye coords (650.836, 600.5307), REye coords (637.1647, 532.9967), timeStamp: 2017-02-16 10:55:26.310
LEye coords (650.4714, 599.9958), REye coords (637.4162, 532.1915), timeStamp: 2017-02-16 10:55:26.343
LEye coords (649.803, 599.6541), REye coords (638.3026, 529.9798), timeStamp: 2017-02-16 10:55:26.378
LEye coords (650.8136, 600.4984), REye coords (638.7734, 528.3648), timeStamp: 2017-02-16 10:55:26.422
LEye coords (651.1074, 602.3177), REye coords (639.1414, 526.6625), timeStamp: 2017-02-16 10:55:26.454
LEye coords (652.1201, 605.0424), REye coords (639.8, 524.5684), timeStamp: 2017-02-16 10:55:26.489
LEye coords (653.2781, 607.1267), REye coords (640.7025, 522.6052), timeStamp: 2017-02-16 10:55:26.531
LEye coords (666.9349, 739.8331), REye coords (640.75, 522.4825), timeStamp: 2017-02-16 10:55:26.565
LEye coords (675.7318, 598.9894), REye coords (640.6603, 521.8562), timeStamp: 2017-02-16 10:55:26.609
LEye coords (674.8498, 613.0941), REye coords (640.7629, 522.6786), timeStamp: 2017-02-16 10:55:26.643
LEye coords (668.2413, 614.5426), REye coords (642.636, 521.7389), timeStamp: 2017-02-16 10:55:26.676
LEye coords (668.647, 616.1516), REye coords (643.5619, 520.9722), timeStamp: 2017-02-16 10:55:26.720
LEye coords (668.281, 622.1478), REye coords (643.499, 521.0471), timeStamp: 2017-02-16 10:55:26.753
LEye coords (667.5638, 617.9091), REye coords (642.8211, 521.8315), timeStamp: 2017-02-16 10:55:26.788
LEye coords (666.1097, 615.7359), REye coords (641.9047, 523.4603), timeStamp: 2017-02-16 10:55:26.822
LEye coords (666.6478, 616.9141), REye coords (641.4339, 524.1976), timeStamp: 2017-02-16 10:55:26.865
LEye coords (0.0, 0.0), REye coords (641.0291, 525.4307), timeStamp: 2017-02-16 10:55:26.899
LEye coords (666.7526, 616.636), REye coords (639.6584, 527.9888), timeStamp: 2017-02-16 10:55:26.933
LEye coords (666.1425, 617.2103), REye coords (639.009, 530.7354), timeStamp: 2017-02-16 10:55:26.976
LEye coords (665.4075, 616.9138), REye coords (638.0349, 532.6671), timeStamp: 2017-02-16 10:55:27.010
LEye coords (0.0, 0.0), REye coords (636.9727, 535.5765), timeStamp: 2017-02-16 10:55:27.043
LEye coords (662.9197, 615.8531), REye coords (635.4717, 538.5566), timeStamp: 2017-02-16 10:55:27.088
LEye coords (660.7937, 615.1606), REye coords (634.0466, 540.3718), timeStamp: 2017-02-16 10:55:27.122
LEye coords (659.4699, 613.4744), REye coords (633.4662, 541.2028), timeStamp: 2017-02-16 10:55:27.155
LEye coords (657.9507, 616.0614), REye coords (632.8539, 543.5317), timeStamp: 2017-02-16 10:55:27.198
LEye coords (655.4493, 615.9549), REye coords (631.6877, 545.543), timeStamp: 2017-02-16 10:55:27.233
LEye coords (654.0654, 618.0751), REye coords (631.3761, 545.7164), timeStamp: 2017-02-16 10:55:27.266
LEye coords (652.8372, 618.574), REye coords (630.2784, 547.3525), timeStamp: 2017-02-16 10:55:27.310
LEye coords (650.8581, 619.3323), REye coords (628.93, 549.9298), timeStamp: 2017-02-16 10:55:27.343
LEye coords (649.3087, 619.3237), REye coords (627.4512, 552.8805), timeStamp: 2017-02-16 10:55:27.377
LEye coords (649.2914, 620.2932), REye coords (626.8433, 554.8777), timeStamp: 2017-02-16 10:55:27.422
LEye coords (648.1617, 620.7378), REye coords (625.9485, 556.2751), timeStamp: 2017-02-16 10:55:27.455
LEye coords (645.5115, 620.2932), REye coords (623.913, 558.7488), timeStamp: 2017-02-16 10:55:27.488
LEye coords (642.8203, 618.141), REye coords (622.33, 560.6877), timeStamp: 2017-02-16 10:55:27.533
LEye coords (642.756, 618.2309), REye coords (621.4132, 562.801), timeStamp: 2017-02-16 10:55:27.565
LEye coords (641.438, 618.2225), REye coords (620.6609, 565.262), timeStamp: 2017-02-16 10:55:27.599
LEye coords (640.3925, 617.3286), REye coords (619.7203, 567.7951), timeStamp: 2017-02-16 10:55:27.644
LEye coords (639.5329, 619.9134), REye coords (618.0657, 569.8257), timeStamp: 2017-02-16 10:55:27.676
LEye coords (639.4827, 621.6948), REye coords (617.111, 571.3539), timeStamp: 2017-02-16 10:55:27.710
LEye coords (619.9967, 858.481), REye coords (617.3345, 572.7535), timeStamp: 2017-02-16 10:55:27.755
LEye coords (650.5634, 668.9796), REye coords (617.168, 573.2722), timeStamp: 2017-02-16 10:55:27.788
LEye coords (643.9648, 666.8232), REye coords (616.791, 575.2695), timeStamp: 2017-02-16 10:55:27.821
LEye coords (652.4905, 672.7374), REye coords (616.2479, 576.1497), timeStamp: 2017-02-16 10:55:27.865
LEye coords (646.5257, 669.2095), REye coords (616.5084, 577.535), timeStamp: 2017-02-16 10:55:27.898
LEye coords (0.0, 0.0), REye coords (617.0648, 577.7026), timeStamp: 2017-02-16 10:55:27.932
LEye coords (647.7113, 665.2424), REye coords (617.1295, 577.9235), timeStamp: 2017-02-16 10:55:27.975
LEye coords (646.5945, 663.3057), REye coords (617.0135, 579.0323), timeStamp: 2017-02-16 10:55:28.007
LEye coords (644.4893, 657.2194), REye coords (617.2878, 580.3453), timeStamp: 2017-02-16 10:55:28.052
LEye coords (642.2937, 655.0095), REye coords (616.9941, 582.2107), timeStamp: 2017-02-16 10:55:28.085
LEye coords (641.1394, 654.8154), REye coords (617.7151, 582.6241), timeStamp: 2017-02-16 10:55:28.118
LEye coords (638.8624, 654.6894), REye coords (618.6039, 583.2742), timeStamp: 2017-02-16 10:55:28.163
LEye coords (638.5204, 655.6058), REye coords (619.899, 583.496), timeStamp: 2017-02-16 10:55:28.196
LEye coords (641.3701, 656.722), REye coords (620.7636, 583.3431), timeStamp: 2017-02-16 10:55:28.229
LEye coords (642.8382, 655.4644), REye coords (620.8864, 583.5569), timeStamp: 2017-02-16 10:55:28.273
LEye coords (641.4133, 656.6439), REye coords (621.7073, 583.5532), timeStamp: 2017-02-16 10:55:28.307
LEye coords (643.0355, 657.3782), REye coords (621.9199, 585.1245), timeStamp: 2017-02-16 10:55:28.340
LEye coords (644.0541, 658.5588), REye coords (621.7762, 585.7063), timeStamp: 2017-02-16 10:55:28.384
LEye coords (645.6575, 660.0607), REye coords (622.013, 584.8817), timeStamp: 2017-02-16 10:55:28.418
