LEye coords (859.1945, 1157.8425), REye coords (576.4327, 362.8858), timeStamp: 2017-02-16 10:56:28.076
LEye coords (0.0, 0.0), REye coords (574.7009, 361.1717), timeStamp: 2017-02-16 10:56:28.119
LEye coords (0.0, 0.0), REye coords (574.5451, 358.9519), timeStamp: 2017-02-16 10:56:28.152
LEye coords (0.0, 0.0), REye coords (573.2948, 358.1521), timeStamp: 2017-02-16 10:56:28.185
LEye coords (647.4127, 469.0463), REye coords (572.2617, 356.9778), timeStamp: 2017-02-16 10:56:28.228
LEye coords (602.7334, 469.6654), REye coords (570.8659, 356.3085), timeStamp: 2017-02-16 10:56:28.262
LEye coords (615.9715, 474.5496), REye coords (569.9447, 355.5641), timeStamp: 2017-02-16 10:56:28.296
LEye coords (611.2919, 465.432), REye coords (568.9841, 355.4027), timeStamp: 2017-02-16 10:56:28.341
LEye coords (610.6855, 464.4876), REye coords (568.6012, 355.5817), timeStamp: 2017-02-16 10:56:28.374
LEye coords (579.7223, 597.2845), REye coords (565.7178, 360.4117), timeStamp: 2017-02-16 10:56:28.407
LEye coords (493.1737, 716.9512), REye coords (485.3099, 611.6129), timeStamp: 2017-02-16 10:56:28.452
LEye coords (0.0, 0.0), REye coords (477.2983, 624.6519), timeStamp: 2017-02-16 10:56:28.484
LEye coords (488.5581, 700.7913), REye coords (481.3754, 637.0795), timeStamp: 2017-02-16 10:56:28.518
LEye coords (486.8195, 692.1542), REye coords (485.7988, 643.7117), timeStamp: 2017-02-16 10:56:28.562
LEye coords (482.9548, 686.2541), REye coords (485.641, 644.5308), timeStamp: 2017-02-16 10:56:28.596
LEye coords (488.3605, 662.5219), REye coords (485.4935, 638.5235), timeStamp: 2017-02-16 10:56:28.639
LEye coords (544.6063, 635.7676), REye coords (560.8072, 636.2797), timeStamp: 2017-02-16 10:56:28.672
LEye coords (551.6374, 638.8902), REye coords (562.5782, 643.584), timeStamp: 2017-02-16 10:56:28.705
LEye coords (556.2261, 637.5585), REye coords (563.746, 643.5535), timeStamp: 2017-02-16 10:56:28.749
LEye coords (552.0842, 628.54), REye coords (563.2552, 646.791), timeStamp: 2017-02-16 10:56:28.782
LEye coords (548.0326, 630.9912), REye coords (562.005, 649.4795), timeStamp: 2017-02-16 10:56:28.816
LEye coords (548.8427, 633.6825), REye coords (561.8912, 651.3647), timeStamp: 2017-02-16 10:56:28.861
LEye coords (551.6353, 633.8508), REye coords (561.472, 651.2953), timeStamp: 2017-02-16 10:56:28.895
LEye coords (551.9495, 635.7159), REye coords (561.6727, 652.2138), timeStamp: 2017-02-16 10:56:28.929
LEye coords (551.8463, 635.0213), REye coords (560.6108, 653.5081), timeStamp: 2017-02-16 10:56:28.962
LEye coords (551.9974, 634.3657), REye coords (561.0013, 652.1143), timeStamp: 2017-02-16 10:56:29.007
LEye coords (552.7942, 636.0303), REye coords (561.1595, 652.8907), timeStamp: 2017-02-16 10:56:29.040
LEye coords (553.6009, 637.0354), REye coords (561.2448, 653.4429), timeStamp: 2017-02-16 10:56:29.073
LEye coords (553.6147, 638.3006), REye coords (561.2276, 654.4785), timeStamp: 2017-02-16 10:56:29.118
LEye coords (555.2381, 639.9093), REye coords (561.0745, 654.4698), timeStamp: 2017-02-16 10:56:29.151
LEye coords (556.2156, 642.3134), REye coords (560.8349, 653.6177), timeStamp: 2017-02-16 10:56:29.185
LEye coords (557.1437, 645.1823), REye coords (561.2726, 652.9877), timeStamp: 2017-02-16 10:56:29.229
LEye coords (559.0068, 650.2131), REye coords (0.0, 0.0), timeStamp: 2017-02-16 10:56:29.261
LEye coords (561.3124, 654.6039), REye coords (0.0, 0.0), timeStamp: 2017-02-16 10:56:29.295
LEye coords (564.8984, 660.5046), REye coords (0.0, 0.0), timeStamp: 2017-02-16 10:56:29.340
LEye coords (567.2411, 665.8718), REye coords (0.0, 0.0), timeStamp: 2017-02-16 10:56:29.374
LEye coords (569.1151, 671.7194), REye coords (0.0, 0.0), timeStamp: 2017-02-16 10:56:29.406
LEye coords (570.6469, 677.4722), REye coords (0.0, 0.0), timeStamp: 2017-02-16 10:56:29.451
LEye coords (573.2807, 684.7753), REye coords (564.0184, 651.2152), timeStamp: 2017-02-16 10:56:29.484
LEye coords (579.5807, 778.7423), REye coords (565.4156, 650.8713), timeStamp: 2017-02-16 10:56:29.518
LEye coords (579.3704, 764.665), REye coords (567.8418, 650.4357), timeStamp: 2017-02-16 10:56:29.561
LEye coords (586.7713, 784.1735), REye coords (570.561, 648.8257), timeStamp: 2017-02-16 10:56:29.594
LEye coords (590.9595, 784.5512), REye coords (571.944, 649.1725), timeStamp: 2017-02-16 10:56:29.638
LEye coords (593.9783, 781.1827), REye coords (574.0073, 649.9556), timeStamp: 2017-02-16 10:56:29.671
LEye coords (598.4923, 783.7761), REye coords (576.0627, 648.7161), timeStamp: 2017-02-16 10:56:29.705
LEye coords (600.4341, 786.819), REye coords (0.0, 0.0), timeStamp: 2017-02-16 10:56:29.748
LEye coords (603.4703, 788.7337), REye coords (0.0, 0.0), timeStamp: 2017-02-16 10:56:29.781
LEye coords (606.6612, 793.0403), REye coords (0.0, 0.0), timeStamp: 2017-02-16 10:56:29.814
LEye coords (601.1269, 790.7487), REye coords (0.0, 0.0), timeStamp: 2017-02-16 10:56:29.857
LEye coords (600.4826, 786.0066), REye coords (578.478, 648.807), timeStamp: 2017-02-16 10:56:29.890
LEye coords (601.71, 784.1271), REye coords (579.9574, 649.8093), timeStamp: 2017-02-16 10:56:29.934
LEye coords (603.9701, 785.5793), REye coords (582.6977, 648.3954), timeStamp: 2017-02-16 10:56:29.968
LEye coords (601.9009, 784.1409), REye coords (584.4673, 648.0119), timeStamp: 2017-02-16 10:56:30.001
LEye coords (603.1947, 783.7792), REye coords (585.6769, 648.1833), timeStamp: 2017-02-16 10:56:30.045
LEye coords (603.6085, 781.9821), REye coords (587.1736, 646.3088), timeStamp: 2017-02-16 10:56:30.078
LEye coords (603.4565, 782.759), REye coords (589.7651, 645.6207), timeStamp: 2017-02-16 10:56:30.111
LEye coords (604.2441, 781.6276), REye coords (591.569, 644.9462), timeStamp: 2017-02-16 10:56:30.155
LEye coords (602.7532, 781.6243), REye coords (592.8575, 644.9062), timeStamp: 2017-02-16 10:56:30.188
LEye coords (602.8097, 779.6505), REye coords (593.9128, 643.5127), timeStamp: 2017-02-16 10:56:30.222
LEye coords (603.6581, 778.2303), REye coords (594.8254, 642.3735), timeStamp: 2017-02-16 10:56:30.266
LEye coords (601.1339, 778.2371), REye coords (595.445, 641.0831), timeStamp: 2017-02-16 10:56:30.299
LEye coords (600.1873, 777.2116), REye coords (596.0905, 641.1084), timeStamp: 2017-02-16 10:56:30.332
LEye coords (601.3644, 776.7222), REye coords (596.7347, 642.0313), timeStamp: 2017-02-16 10:56:30.376
LEye coords (601.1143, 774.4033), REye coords (597.4733, 640.8741), timeStamp: 2017-02-16 10:56:30.408
LEye coords (601.6566, 772.4559), REye coords (598.0467, 639.5375), timeStamp: 2017-02-16 10:56:30.442
LEye coords (596.4232, 775.6784), REye coords (599.0903, 638.465), timeStamp: 2017-02-16 10:56:30.488
LEye coords (303.6991, 857.2844), REye coords (599.6584, 638.9222), timeStamp: 2017-02-16 10:56:30.521
LEye coords (0.0, 0.0), REye coords (598.7677, 640.8821), timeStamp: 2017-02-16 10:56:30.555
LEye coords (0.0, 0.0), REye coords (599.1572, 641.5353), timeStamp: 2017-02-16 10:56:30.598
LEye coords (0.0, 0.0), REye coords (598.2658, 641.9764), timeStamp: 2017-02-16 10:56:30.631
LEye coords (0.0, 0.0), REye coords (597.97, 640.8095), timeStamp: 2017-02-16 10:56:30.664
LEye coords (0.0, 0.0), REye coords (598.7175, 641.5077), timeStamp: 2017-02-16 10:56:30.709
LEye coords (0.0, 0.0), REye coords (599.2637, 641.7802), timeStamp: 2017-02-16 10:56:30.743
LEye coords (0.0, 0.0), REye coords (600.0302, 642.0575), timeStamp: 2017-02-16 10:56:30.776
LEye coords (0.0, 0.0), REye coords (600.9355, 641.4386), timeStamp: 2017-02-16 10:56:30.821
LEye coords (635.4876, 775.3158), REye coords (602.0925, 641.1906), timeStamp: 2017-02-16 10:56:30.854
LEye coords (624.7571, 779.4122), REye coords (602.9572, 642.5312), timeStamp: 2017-02-16 10:56:30.887
LEye coords (625.2014, 776.2897), REye coords (603.9399, 641.8881), timeStamp: 2017-02-16 10:56:30.932
LEye coords (626.7523, 778.6922), REye coords (604.6747, 640.0684), timeStamp: 2017-02-16 10:56:30.965
LEye coords (626.2897, 782.9962), REye coords (605.4058, 639.9815), timeStamp: 2017-02-16 10:56:30.998
LEye coords (625.3945, 779.1649), REye coords (605.868, 639.3701), timeStamp: 2017-02-16 10:56:31.041
LEye coords (623.39, 754.0001), REye coords (606.5934, 639.3022), timeStamp: 2017-02-16 10:56:31.075
LEye coords (607.9825, 783.0309), REye coords (607.1329, 640.6501), timeStamp: 2017-02-16 10:56:31.119
LEye coords (614.5095, 780.89), REye coords (0.0, 0.0), timeStamp: 2017-02-16 10:56:31.153
LEye coords (608.4841, 817.5511), REye coords (606.0125, 645.4395), timeStamp: 2017-02-16 10:56:31.187
LEye coords (592.9836, 837.6361), REye coords (604.6246, 648.7738), timeStamp: 2017-02-16 10:56:31.221
LEye coords (585.4355, 849.0798), REye coords (603.017, 653.8814), timeStamp: 2017-02-16 10:56:31.264
LEye coords (583.5682, 856.9403), REye coords (601.4237, 659.0656), timeStamp: 2017-02-16 10:56:31.299
LEye coords (583.2188, 861.1478), REye coords (599.8549, 662.9286), timeStamp: 2017-02-16 10:56:31.333
LEye coords (578.9645, 865.6665), REye coords (597.4783, 667.4202), timeStamp: 2017-02-16 10:56:31.376
LEye coords (574.2535, 865.7123), REye coords (596.3428, 669.3522), timeStamp: 2017-02-16 10:56:31.410
LEye coords (556.8005, 883.1094), REye coords (594.9714, 672.9119), timeStamp: 2017-02-16 10:56:31.444
LEye coords (562.6958, 905.2886), REye coords (594.4007, 676.4488), timeStamp: 2017-02-16 10:56:31.487
LEye coords (585.5983, 885.065), REye coords (595.0894, 679.8194), timeStamp: 2017-02-16 10:56:31.520
LEye coords (588.215, 871.0413), REye coords (595.1434, 682.2226), timeStamp: 2017-02-16 10:56:31.554
LEye coords (592.9655, 867.9264), REye coords (595.6416, 685.8417), timeStamp: 2017-02-16 10:56:31.599
LEye coords (589.599, 865.5024), REye coords (595.7145, 688.6187), timeStamp: 2017-02-16 10:56:31.633
LEye coords (590.6841, 865.3265), REye coords (596.7189, 690.219), timeStamp: 2017-02-16 10:56:31.666
LEye coords (593.124, 864.9612), REye coords (596.6734, 690.845), timeStamp: 2017-02-16 10:56:31.710
LEye coords (595.2579, 865.798), REye coords (597.635, 692.3419), timeStamp: 2017-02-16 10:56:31.745
LEye coords (595.0651, 864.0543), REye coords (598.2831, 693.8276), timeStamp: 2017-02-16 10:56:31.778
LEye coords (594.2362, 862.239), REye coords (598.9246, 692.0576), timeStamp: 2017-02-16 10:56:31.822
LEye coords (0.0, 0.0), REye coords (598.8195, 694.8464), timeStamp: 2017-02-16 10:56:31.854
LEye coords (584.9548, 860.43), REye coords (599.8867, 695.4424), timeStamp: 2017-02-16 10:56:31.887
LEye coords (580.7851, 861.9497), REye coords (600.7019, 695.4449), timeStamp: 2017-02-16 10:56:31.930
LEye coords (572.3627, 861.783), REye coords (601.0922, 694.5935), timeStamp: 2017-02-16 10:56:31.964
LEye coords (565.8942, 860.7006), REye coords (602.2996, 692.9905), timeStamp: 2017-02-16 10:56:31.998
LEye coords (560.0497, 858.6379), REye coords (603.7952, 692.4071), timeStamp: 2017-02-16 10:56:32.041
LEye coords (557.8799, 858.8465), REye coords (605.7346, 691.8715), timeStamp: 2017-02-16 10:56:32.076
LEye coords (559.2264, 856.6566), REye coords (607.2026, 691.1003), timeStamp: 2017-02-16 10:56:32.109
LEye coords (0.0, 0.0), REye coords (607.4344, 692.3739), timeStamp: 2017-02-16 10:56:32.154
LEye coords (558.863, 857.4323), REye coords (607.8599, 691.6181), timeStamp: 2017-02-16 10:56:32.187
LEye coords (560.3707, 857.2193), REye coords (608.0017, 690.863), timeStamp: 2017-02-16 10:56:32.221
LEye coords (562.1209, 857.236), REye coords (608.4247, 687.9571), timeStamp: 2017-02-16 10:56:32.265
LEye coords (565.1028, 856.4598), REye coords (608.5403, 685.7623), timeStamp: 2017-02-16 10:56:32.299
LEye coords (566.2039, 856.0487), REye coords (608.9576, 684.999), timeStamp: 2017-02-16 10:56:32.332
LEye coords (567.3409, 855.0351), REye coords (609.769, 684.3748), timeStamp: 2017-02-16 10:56:32.376
LEye coords (0.0, 0.0), REye coords (609.843, 684.0779), timeStamp: 2017-02-16 10:56:32.409
LEye coords (568.2527, 854.1132), REye coords (609.3161, 683.1142), timeStamp: 2017-02-16 10:56:32.442
LEye coords (568.5256, 852.6711), REye coords (609.3954, 680.7334), timeStamp: 2017-02-16 10:56:32.486
LEye coords (568.924, 850.0098), REye coords (607.9678, 678.4381), timeStamp: 2017-02-16 10:56:32.520
LEye coords (569.1526, 847.4698), REye coords (606.2198, 674.7783), timeStamp: 2017-02-16 10:56:32.554
LEye coords (567.3531, 844.0995), REye coords (604.9265, 671.9487), timeStamp: 2017-02-16 10:56:32.597
LEye coords (568.1393, 839.2562), REye coords (603.5472, 671.3873), timeStamp: 2017-02-16 10:56:32.630
LEye coords (568.2101, 834.5442), REye coords (602.7014, 668.5836), timeStamp: 2017-02-16 10:56:32.665
LEye coords (566.9769, 832.6863), REye coords (601.3008, 666.1022), timeStamp: 2017-02-16 10:56:32.709
LEye coords (565.8419, 830.83), REye coords (600.9435, 663.123), timeStamp: 2017-02-16 10:56:32.742
LEye coords (567.0812, 828.1735), REye coords (600.6768, 660.1408), timeStamp: 2017-02-16 10:56:32.777
LEye coords (568.4706, 825.3428), REye coords (599.8598, 657.2781), timeStamp: 2017-02-16 10:56:32.821
LEye coords (570.4512, 823.3969), REye coords (598.4904, 656.4128), timeStamp: 2017-02-16 10:56:32.854
LEye coords (572.292, 822.0537), REye coords (596.7985, 654.1918), timeStamp: 2017-02-16 10:56:32.886
LEye coords (573.4581, 821.4106), REye coords (595.1691, 654.2332), timeStamp: 2017-02-16 10:56:32.930
LEye coords (575.2925, 819.0741), REye coords (594.9717, 653.4294), timeStamp: 2017-02-16 10:56:32.964
LEye coords (576.7464, 817.6532), REye coords (594.5832, 653.543), timeStamp: 2017-02-16 10:56:32.997
LEye coords (577.8975, 816.475), REye coords (594.7349, 653.3585), timeStamp: 2017-02-16 10:56:33.040
LEye coords (578.5761, 813.7483), REye coords (594.268, 654.1387), timeStamp: 2017-02-16 10:56:33.075
LEye coords (577.1378, 812.2314), REye coords (593.9606, 654.982), timeStamp: 2017-02-16 10:56:33.108
LEye coords (576.9393, 810.5861), REye coords (593.6746, 654.9971), timeStamp: 2017-02-16 10:56:33.152
LEye coords (578.9536, 808.3995), REye coords (593.0643, 654.0745), timeStamp: 2017-02-16 10:56:33.184
LEye coords (579.5685, 806.1806), REye coords (592.5999, 654.8611), timeStamp: 2017-02-16 10:56:33.219
LEye coords (579.8297, 804.2526), REye coords (592.3604, 654.9782), timeStamp: 2017-02-16 10:56:33.264
LEye coords (582.0878, 803.7404), REye coords (591.4385, 657.0005), timeStamp: 2017-02-16 10:56:33.296
LEye coords (583.772, 800.7081), REye coords (591.3519, 656.457), timeStamp: 2017-02-16 10:56:33.339
LEye coords (585.6215, 800.0952), REye coords (591.4443, 657.5198), timeStamp: 2017-02-16 10:56:33.373
LEye coords (588.0324, 799.5765), REye coords (591.3231, 659.4123), timeStamp: 2017-02-16 10:56:33.406
LEye coords (589.0282, 798.6098), REye coords (590.785, 659.7621), timeStamp: 2017-02-16 10:56:33.449
LEye coords (590.321, 798.0189), REye coords (590.5585, 658.9752), timeStamp: 2017-02-16 10:56:33.484
LEye coords (591.2831, 796.2712), REye coords (590.1289, 659.7069), timeStamp: 2017-02-16 10:56:33.516
LEye coords (593.1508, 794.5399), REye coords (589.2643, 660.8985), timeStamp: 2017-02-16 10:56:33.560
LEye coords (594.1378, 794.9512), REye coords (589.2786, 659.9936), timeStamp: 2017-02-16 10:56:33.593
LEye coords (594.9606, 794.4487), REye coords (588.8112, 659.1743), timeStamp: 2017-02-16 10:56:33.627
LEye coords (596.5894, 793.3387), REye coords (588.6347, 659.8055), timeStamp: 2017-02-16 10:56:33.672
LEye coords (597.2069, 793.3424), REye coords (587.7863, 660.9727), timeStamp: 2017-02-16 10:56:33.706
LEye coords (597.262, 791.6744), REye coords (587.5424, 659.8203), timeStamp: 2017-02-16 10:56:33.739
LEye coords (598.4498, 791.2942), REye coords (586.8616, 659.9905), timeStamp: 2017-02-16 10:56:33.783
LEye coords (599.1215, 789.4028), REye coords (586.4804, 659.9609), timeStamp: 2017-02-16 10:56:33.817
LEye coords (599.6201, 787.5295), REye coords (585.7661, 660.1741), timeStamp: 2017-02-16 10:56:33.850
LEye coords (600.3196, 786.6647), REye coords (584.9349, 661.4545), timeStamp: 2017-02-16 10:56:33.894
LEye coords (601.7401, 785.6655), REye coords (584.8828, 661.2969), timeStamp: 2017-02-16 10:56:33.927
LEye coords (600.709, 785.7169), REye coords (584.5982, 660.5634), timeStamp: 2017-02-16 10:56:33.961
LEye coords (600.2015, 784.9265), REye coords (582.7672, 659.7245), timeStamp: 2017-02-16 10:56:34.004
LEye coords (598.3259, 784.9119), REye coords (581.6797, 657.1733), timeStamp: 2017-02-16 10:56:34.036
LEye coords (598.8422, 784.6544), REye coords (580.1523, 656.2036), timeStamp: 2017-02-16 10:56:34.070
LEye coords (597.6833, 783.1223), REye coords (578.1912, 656.9141), timeStamp: 2017-02-16 10:56:34.114
LEye coords (597.5151, 783.6523), REye coords (576.7307, 656.6017), timeStamp: 2017-02-16 10:56:34.147
LEye coords (596.276, 781.6775), REye coords (575.9576, 655.03), timeStamp: 2017-02-16 10:56:34.181
LEye coords (595.4025, 781.9576), REye coords (574.8047, 653.5245), timeStamp: 2017-02-16 10:56:34.225
LEye coords (594.0233, 781.5892), REye coords (574.1149, 652.2073), timeStamp: 2017-02-16 10:56:34.258
LEye coords (593.8044, 779.847), REye coords (573.1509, 652.1177), timeStamp: 2017-02-16 10:56:34.293
LEye coords (593.7389, 778.0977), REye coords (571.9409, 651.9042), timeStamp: 2017-02-16 10:56:34.336
LEye coords (593.3253, 777.0012), REye coords (571.6821, 649.9758), timeStamp: 2017-02-16 10:56:34.370
LEye coords (593.5918, 774.3276), REye coords (570.7832, 649.0187), timeStamp: 2017-02-16 10:56:34.403
LEye coords (594.0555, 770.8746), REye coords (570.3617, 647.4422), timeStamp: 2017-02-16 10:56:34.448
LEye coords (592.9845, 769.1326), REye coords (569.7851, 645.5734), timeStamp: 2017-02-16 10:56:34.481
LEye coords (589.7871, 767.4153), REye coords (569.3032, 645.0632), timeStamp: 2017-02-16 10:56:34.515
LEye coords (589.2778, 766.6013), REye coords (568.2905, 644.4971), timeStamp: 2017-02-16 10:56:34.560
LEye coords (588.0188, 771.2642), REye coords (568.3945, 644.0751), timeStamp: 2017-02-16 10:56:34.594
LEye coords (586.6872, 775.687), REye coords (568.0778, 643.4079), timeStamp: 2017-02-16 10:56:34.628
LEye coords (585.285, 772.489), REye coords (568.1902, 642.2782), timeStamp: 2017-02-16 10:56:34.662
LEye coords (585.8766, 771.3649), REye coords (568.5996, 641.5801), timeStamp: 2017-02-16 10:56:34.706
LEye coords (584.178, 770.2733), REye coords (567.8844, 642.4175), timeStamp: 2017-02-16 10:56:34.739
LEye coords (584.0529, 769.0614), REye coords (568.5069, 642.911), timeStamp: 2017-02-16 10:56:34.782
LEye coords (583.4127, 766.9453), REye coords (568.9135, 643.733), timeStamp: 2017-02-16 10:56:34.815
LEye coords (582.6718, 766.006), REye coords (569.1642, 645.0683), timeStamp: 2017-02-16 10:56:34.848
LEye coords (582.5909, 765.657), REye coords (569.2141, 645.6677), timeStamp: 2017-02-16 10:56:34.892
LEye coords (583.9986, 767.0676), REye coords (570.195, 645.4048), timeStamp: 2017-02-16 10:56:34.926
LEye coords (585.7526, 767.1525), REye coords (571.1882, 645.0252), timeStamp: 2017-02-16 10:56:34.959
