LEye coords (815.1058, 319.6255), REye coords (779.3386, 308.2466), timeStamp: 2017-02-16 10:57:04.529
LEye coords (0.0, 0.0), REye coords (779.5192, 309.6316), timeStamp: 2017-02-16 10:57:04.573
LEye coords (0.0, 0.0), REye coords (779.1816, 307.5043), timeStamp: 2017-02-16 10:57:04.607
LEye coords (816.2299, 319.2945), REye coords (778.0693, 306.8762), timeStamp: 2017-02-16 10:57:04.643
LEye coords (816.773, 318.9277), REye coords (776.9059, 306.5585), timeStamp: 2017-02-16 10:57:04.687
LEye coords (0.0, 0.0), REye coords (775.9616, 305.6208), timeStamp: 2017-02-16 10:57:04.720
LEye coords (0.0, 0.0), REye coords (774.4392, 305.7625), timeStamp: 2017-02-16 10:57:04.754
LEye coords (815.9844, 318.8553), REye coords (772.5983, 305.8543), timeStamp: 2017-02-16 10:57:04.797
LEye coords (0.0, 0.0), REye coords (770.7823, 305.3696), timeStamp: 2017-02-16 10:57:04.831
LEye coords (0.0, 0.0), REye coords (769.4089, 304.2075), timeStamp: 2017-02-16 10:57:04.864
LEye coords (0.0, 0.0), REye coords (767.7098, 303.0458), timeStamp: 2017-02-16 10:57:04.908
LEye coords (473.5978, 415.3048), REye coords (399.3103, 338.0327), timeStamp: 2017-02-16 10:57:04.942
LEye coords (477.7752, 371.3371), REye coords (427.4172, 336.8422), timeStamp: 2017-02-16 10:57:04.976
LEye coords (469.044, 370.768), REye coords (425.613, 340.1561), timeStamp: 2017-02-16 10:57:05.020
LEye coords (467.6017, 362.7695), REye coords (422.0616, 340.9175), timeStamp: 2017-02-16 10:57:05.054
LEye coords (465.3322, 361.5209), REye coords (420.73, 343.8474), timeStamp: 2017-02-16 10:57:05.088
LEye coords (463.9239, 345.8994), REye coords (408.2778, 344.9698), timeStamp: 2017-02-16 10:57:05.131
LEye coords (453.8741, 350.1223), REye coords (412.2329, 354.3896), timeStamp: 2017-02-16 10:57:05.163
LEye coords (453.8689, 341.9988), REye coords (409.3608, 351.8643), timeStamp: 2017-02-16 10:57:05.196
LEye coords (458.2758, 346.1852), REye coords (409.3857, 352.6792), timeStamp: 2017-02-16 10:57:05.240
LEye coords (452.6437, 343.5603), REye coords (409.7095, 351.268), timeStamp: 2017-02-16 10:57:05.273
LEye coords (455.0369, 346.1028), REye coords (410.5816, 350.6897), timeStamp: 2017-02-16 10:57:05.307
LEye coords (455.3062, 346.3668), REye coords (412.2126, 349.1793), timeStamp: 2017-02-16 10:57:05.351
LEye coords (455.083, 346.7004), REye coords (412.3677, 347.6974), timeStamp: 2017-02-16 10:57:05.384
LEye coords (454.5757, 344.8944), REye coords (411.7507, 346.9623), timeStamp: 2017-02-16 10:57:05.418
LEye coords (453.8445, 341.8587), REye coords (413.4186, 344.3817), timeStamp: 2017-02-16 10:57:05.462
LEye coords (454.8535, 341.3399), REye coords (414.2509, 343.9313), timeStamp: 2017-02-16 10:57:05.495
LEye coords (312.584, 357.8597), REye coords (301.5495, 350.625), timeStamp: 2017-02-16 10:57:05.539
LEye coords (329.9212, 353.9054), REye coords (312.1117, 347.3649), timeStamp: 2017-02-16 10:57:05.572
LEye coords (333.6285, 351.4998), REye coords (314.8553, 345.5299), timeStamp: 2017-02-16 10:57:05.606
LEye coords (341.9411, 358.642), REye coords (312.8215, 348.1926), timeStamp: 2017-02-16 10:57:05.639
LEye coords (342.3406, 360.9806), REye coords (312.6106, 347.5218), timeStamp: 2017-02-16 10:57:05.683
LEye coords (327.3283, 356.0011), REye coords (312.7441, 349.8661), timeStamp: 2017-02-16 10:57:05.717
LEye coords (329.7859, 351.0206), REye coords (313.5745, 351.7776), timeStamp: 2017-02-16 10:57:05.760
LEye coords (340.2272, 359.2545), REye coords (313.3386, 352.3319), timeStamp: 2017-02-16 10:57:05.794
LEye coords (338.7366, 358.738), REye coords (312.5122, 351.8067), timeStamp: 2017-02-16 10:57:05.827
LEye coords (347.4335, 349.4234), REye coords (320.0793, 350.0921), timeStamp: 2017-02-16 10:57:05.871
LEye coords (356.9245, 344.8293), REye coords (326.4965, 348.2175), timeStamp: 2017-02-16 10:57:05.904
LEye coords (363.9016, 338.4749), REye coords (331.652, 346.5811), timeStamp: 2017-02-16 10:57:05.937
LEye coords (368.1357, 340.6628), REye coords (336.1441, 345.5872), timeStamp: 2017-02-16 10:57:05.980
LEye coords (370.6033, 341.6473), REye coords (339.6061, 346.3676), timeStamp: 2017-02-16 10:57:06.013
LEye coords (372.0562, 343.0889), REye coords (342.5251, 345.1857), timeStamp: 2017-02-16 10:57:06.057
LEye coords (374.7324, 344.6748), REye coords (345.6088, 345.2486), timeStamp: 2017-02-16 10:57:06.090
LEye coords (376.9503, 346.6221), REye coords (348.2645, 344.2822), timeStamp: 2017-02-16 10:57:06.123
LEye coords (377.1241, 345.4557), REye coords (350.4929, 343.4945), timeStamp: 2017-02-16 10:57:06.166
LEye coords (379.3463, 346.3229), REye coords (352.6138, 342.5251), timeStamp: 2017-02-16 10:57:06.200
LEye coords (379.8854, 346.8755), REye coords (354.4537, 341.3134), timeStamp: 2017-02-16 10:57:06.233
LEye coords (382.347, 349.145), REye coords (356.0417, 339.9107), timeStamp: 2017-02-16 10:57:06.276
LEye coords (383.8791, 351.2742), REye coords (357.5217, 339.3046), timeStamp: 2017-02-16 10:57:06.310
LEye coords (384.8499, 353.9087), REye coords (358.1143, 338.1791), timeStamp: 2017-02-16 10:57:06.345
LEye coords (385.0797, 355.2457), REye coords (360.0791, 337.795), timeStamp: 2017-02-16 10:57:06.389
LEye coords (386.2, 357.291), REye coords (361.3911, 337.9414), timeStamp: 2017-02-16 10:57:06.423
LEye coords (386.7509, 359.4971), REye coords (362.9932, 338.4781), timeStamp: 2017-02-16 10:57:06.456
LEye coords (387.7701, 362.2097), REye coords (364.4185, 338.6538), timeStamp: 2017-02-16 10:57:06.498
LEye coords (388.1218, 365.225), REye coords (364.9043, 338.2385), timeStamp: 2017-02-16 10:57:06.533
LEye coords (389.7306, 369.0149), REye coords (365.8392, 337.1795), timeStamp: 2017-02-16 10:57:06.566
LEye coords (391.1298, 374.2051), REye coords (366.4505, 336.5051), timeStamp: 2017-02-16 10:57:06.609
LEye coords (415.6808, 467.8875), REye coords (368.043, 335.4314), timeStamp: 2017-02-16 10:57:06.642
LEye coords (428.1534, 472.2917), REye coords (369.7368, 337.0591), timeStamp: 2017-02-16 10:57:06.676
LEye coords (421.7236, 476.9684), REye coords (371.3991, 337.208), timeStamp: 2017-02-16 10:57:06.720
LEye coords (417.4688, 485.7489), REye coords (373.5427, 337.255), timeStamp: 2017-02-16 10:57:06.753
LEye coords (414.1273, 487.7908), REye coords (375.3701, 338.1927), timeStamp: 2017-02-16 10:57:06.796
LEye coords (409.6299, 483.3978), REye coords (375.1458, 339.0737), timeStamp: 2017-02-16 10:57:06.829
LEye coords (409.2547, 478.5004), REye coords (376.4386, 340.3635), timeStamp: 2017-02-16 10:57:06.863
LEye coords (409.0287, 475.0675), REye coords (377.98, 342.344), timeStamp: 2017-02-16 10:57:06.906
LEye coords (402.3696, 472.3872), REye coords (379.5362, 344.2333), timeStamp: 2017-02-16 10:57:06.938
LEye coords (398.1264, 465.5759), REye coords (381.3188, 345.7251), timeStamp: 2017-02-16 10:57:06.981
LEye coords (397.5334, 461.4783), REye coords (382.3398, 348.1023), timeStamp: 2017-02-16 10:57:07.014
LEye coords (393.39, 456.1658), REye coords (383.5443, 350.0556), timeStamp: 2017-02-16 10:57:07.047
LEye coords (389.6763, 452.6275), REye coords (384.728, 352.2742), timeStamp: 2017-02-16 10:57:07.091
LEye coords (390.3973, 450.5099), REye coords (385.7691, 354.7927), timeStamp: 2017-02-16 10:57:07.125
LEye coords (390.2206, 449.7981), REye coords (387.1918, 356.1783), timeStamp: 2017-02-16 10:57:07.159
LEye coords (390.7804, 450.4651), REye coords (388.2155, 358.6338), timeStamp: 2017-02-16 10:57:07.202
LEye coords (392.5971, 451.2365), REye coords (389.5457, 361.0109), timeStamp: 2017-02-16 10:57:07.234
LEye coords (393.4099, 450.9822), REye coords (390.2404, 362.4242), timeStamp: 2017-02-16 10:57:07.278
LEye coords (396.6328, 451.4292), REye coords (392.8371, 362.1391), timeStamp: 2017-02-16 10:57:07.311
LEye coords (398.6278, 451.8405), REye coords (394.608, 362.385), timeStamp: 2017-02-16 10:57:07.345
LEye coords (400.205, 451.0259), REye coords (395.8563, 363.4358), timeStamp: 2017-02-16 10:57:07.388
LEye coords (400.6688, 451.5399), REye coords (397.3872, 363.4674), timeStamp: 2017-02-16 10:57:07.422
LEye coords (401.8031, 451.8498), REye coords (398.4778, 364.9005), timeStamp: 2017-02-16 10:57:07.456
LEye coords (403.9428, 452.2117), REye coords (398.5042, 363.9022), timeStamp: 2017-02-16 10:57:07.500
LEye coords (402.6439, 452.3601), REye coords (398.4882, 363.8963), timeStamp: 2017-02-16 10:57:07.534
LEye coords (403.8598, 451.5471), REye coords (399.4219, 363.7758), timeStamp: 2017-02-16 10:57:07.568
LEye coords (404.4573, 451.6771), REye coords (399.9897, 361.8919), timeStamp: 2017-02-16 10:57:07.601
LEye coords (406.1647, 455.9005), REye coords (400.9804, 361.8724), timeStamp: 2017-02-16 10:57:07.645
LEye coords (434.2892, 561.1324), REye coords (401.5987, 360.7552), timeStamp: 2017-02-16 10:57:07.679
LEye coords (410.8467, 551.9988), REye coords (401.252, 360.4625), timeStamp: 2017-02-16 10:57:07.713
LEye coords (402.8106, 538.4344), REye coords (401.5186, 361.3255), timeStamp: 2017-02-16 10:57:07.756
LEye coords (409.6738, 548.2167), REye coords (401.2978, 361.8237), timeStamp: 2017-02-16 10:57:07.791
LEye coords (409.2779, 547.2673), REye coords (401.1472, 361.8496), timeStamp: 2017-02-16 10:57:07.825
LEye coords (418.9734, 554.7706), REye coords (401.3376, 362.6654), timeStamp: 2017-02-16 10:57:07.868
LEye coords (419.543, 550.6035), REye coords (401.7166, 362.2513), timeStamp: 2017-02-16 10:57:07.902
LEye coords (417.6327, 549.365), REye coords (402.0004, 362.0076), timeStamp: 2017-02-16 10:57:07.935
LEye coords (419.614, 549.2561), REye coords (402.3525, 362.3355), timeStamp: 2017-02-16 10:57:07.979
LEye coords (416.9696, 547.7791), REye coords (402.6184, 362.0778), timeStamp: 2017-02-16 10:57:08.014
LEye coords (417.1473, 549.4333), REye coords (403.2716, 361.7638), timeStamp: 2017-02-16 10:57:08.047
LEye coords (419.403, 551.233), REye coords (404.2943, 361.4682), timeStamp: 2017-02-16 10:57:08.091
LEye coords (420.5834, 552.8947), REye coords (404.277, 362.0439), timeStamp: 2017-02-16 10:57:08.124
LEye coords (421.4674, 552.1303), REye coords (404.7121, 363.4701), timeStamp: 2017-02-16 10:57:08.157
LEye coords (422.8868, 552.0474), REye coords (405.7056, 363.6765), timeStamp: 2017-02-16 10:57:08.201
LEye coords (424.1216, 551.8016), REye coords (406.3011, 365.2495), timeStamp: 2017-02-16 10:57:08.234
LEye coords (423.0529, 549.3435), REye coords (403.7571, 364.633), timeStamp: 2017-02-16 10:57:08.268
LEye coords (421.2532, 543.6712), REye coords (402.2424, 366.2831), timeStamp: 2017-02-16 10:57:08.312
LEye coords (421.2046, 540.1015), REye coords (399.9054, 366.6146), timeStamp: 2017-02-16 10:57:08.346
LEye coords (420.8136, 536.8433), REye coords (397.4233, 366.9915), timeStamp: 2017-02-16 10:57:08.378
LEye coords (420.1445, 533.1661), REye coords (395.6584, 369.1649), timeStamp: 2017-02-16 10:57:08.422
LEye coords (419.1645, 530.556), REye coords (394.0501, 370.3005), timeStamp: 2017-02-16 10:57:08.454
LEye coords (417.3041, 526.0183), REye coords (391.7391, 371.4733), timeStamp: 2017-02-16 10:57:08.498
LEye coords (416.1473, 520.9766), REye coords (390.7123, 372.7056), timeStamp: 2017-02-16 10:57:08.531
LEye coords (415.8762, 516.0965), REye coords (388.5339, 372.8676), timeStamp: 2017-02-16 10:57:08.565
LEye coords (300.5792, 484.6189), REye coords (386.961, 373.4642), timeStamp: 2017-02-16 10:57:08.610
LEye coords (393.5498, 468.0717), REye coords (385.2868, 374.3656), timeStamp: 2017-02-16 10:57:08.643
LEye coords (384.081, 465.9444), REye coords (384.1535, 373.8122), timeStamp: 2017-02-16 10:57:08.676
LEye coords (388.0782, 468.5722), REye coords (382.2177, 375.155), timeStamp: 2017-02-16 10:57:08.720
LEye coords (398.2089, 475.5269), REye coords (380.5528, 375.7917), timeStamp: 2017-02-16 10:57:08.754
LEye coords (394.7583, 482.427), REye coords (380.096, 375.5897), timeStamp: 2017-02-16 10:57:08.787
LEye coords (396.3158, 487.6273), REye coords (379.2419, 376.0045), timeStamp: 2017-02-16 10:57:08.831
LEye coords (398.8199, 489.9583), REye coords (378.3044, 375.5095), timeStamp: 2017-02-16 10:57:08.864
LEye coords (401.3965, 490.836), REye coords (377.5316, 375.1429), timeStamp: 2017-02-16 10:57:08.897
LEye coords (402.513, 491.2598), REye coords (376.9545, 375.0119), timeStamp: 2017-02-16 10:57:08.940
LEye coords (404.4539, 491.9181), REye coords (376.3299, 373.2676), timeStamp: 2017-02-16 10:57:08.974
LEye coords (403.7273, 491.2704), REye coords (375.9504, 372.4018), timeStamp: 2017-02-16 10:57:09.017
LEye coords (403.8831, 492.3069), REye coords (374.7897, 371.9974), timeStamp: 2017-02-16 10:57:09.050
LEye coords (404.1073, 492.9965), REye coords (375.912, 372.4218), timeStamp: 2017-02-16 10:57:09.083
LEye coords (404.6385, 492.7471), REye coords (376.2356, 371.8807), timeStamp: 2017-02-16 10:57:09.126
LEye coords (403.0864, 490.4096), REye coords (375.0957, 370.7918), timeStamp: 2017-02-16 10:57:09.159
LEye coords (400.7389, 488.3435), REye coords (373.6627, 369.9523), timeStamp: 2017-02-16 10:57:09.193
LEye coords (400.2323, 486.3728), REye coords (372.5045, 368.7361), timeStamp: 2017-02-16 10:57:09.237
LEye coords (400.208, 486.2954), REye coords (371.7821, 366.6667), timeStamp: 2017-02-16 10:57:09.270
LEye coords (400.7176, 486.1676), REye coords (371.0011, 364.7798), timeStamp: 2017-02-16 10:57:09.305
LEye coords (296.7204, 677.5078), REye coords (265.2886, 472.5606), timeStamp: 2017-02-16 10:57:09.349
LEye coords (228.8149, 900.8225), REye coords (231.5369, 692.0294), timeStamp: 2017-02-16 10:57:09.383
LEye coords (199.1123, 894.8607), REye coords (238.162, 701.0551), timeStamp: 2017-02-16 10:57:09.415
LEye coords (177.7678, 897.311), REye coords (240.2556, 701.8665), timeStamp: 2017-02-16 10:57:09.459
LEye coords (174.2266, 887.7123), REye coords (243.3824, 710.3906), timeStamp: 2017-02-16 10:57:09.492
LEye coords (137.1343, 904.8775), REye coords (251.1107, 718.5648), timeStamp: 2017-02-16 10:57:09.536
LEye coords (179.9143, 900.3007), REye coords (237.4831, 723.5422), timeStamp: 2017-02-16 10:57:09.570
LEye coords (317.0565, 787.1113), REye coords (317.045, 581.8326), timeStamp: 2017-02-16 10:57:09.603
LEye coords (348.5273, 689.7509), REye coords (346.579, 517.4752), timeStamp: 2017-02-16 10:57:09.647
LEye coords (369.0222, 627.4899), REye coords (362.7786, 485.9734), timeStamp: 2017-02-16 10:57:09.681
LEye coords (428.71, 423.4009), REye coords (409.8111, 359.2975), timeStamp: 2017-02-16 10:57:09.714
LEye coords (450.6473, 418.429), REye coords (395.6666, 396.4308), timeStamp: 2017-02-16 10:57:09.758
LEye coords (438.7008, 407.6264), REye coords (399.304, 388.7242), timeStamp: 2017-02-16 10:57:09.792
LEye coords (437.3925, 413.7362), REye coords (402.6733, 391.1042), timeStamp: 2017-02-16 10:57:09.824
LEye coords (439.0931, 418.1706), REye coords (405.2542, 394.7345), timeStamp: 2017-02-16 10:57:09.868
LEye coords (440.4374, 414.6203), REye coords (405.849, 394.6541), timeStamp: 2017-02-16 10:57:09.901
LEye coords (442.0686, 417.1688), REye coords (406.0682, 394.7794), timeStamp: 2017-02-16 10:57:09.935
LEye coords (441.7157, 419.0582), REye coords (406.3936, 395.03), timeStamp: 2017-02-16 10:57:09.979
LEye coords (443.7203, 422.3315), REye coords (407.3289, 395.909), timeStamp: 2017-02-16 10:57:10.013
LEye coords (442.4462, 421.9847), REye coords (405.6609, 395.9881), timeStamp: 2017-02-16 10:57:10.048
LEye coords (441.5179, 420.9359), REye coords (405.4943, 396.2872), timeStamp: 2017-02-16 10:57:10.081
LEye coords (440.6737, 419.3922), REye coords (405.2742, 395.5542), timeStamp: 2017-02-16 10:57:10.126
LEye coords (440.0218, 417.6729), REye coords (404.725, 396.2772), timeStamp: 2017-02-16 10:57:10.160
LEye coords (438.705, 418.0114), REye coords (404.0691, 395.7509), timeStamp: 2017-02-16 10:57:10.194
LEye coords (554.3525, 1332.8606), REye coords (437.0479, 551.5939), timeStamp: 2017-02-16 10:57:10.237
LEye coords (0.0, 0.0), REye coords (0.0, 0.0), timeStamp: 2017-02-16 10:57:10.270
LEye coords (0.0, 0.0), REye coords (0.0, 0.0), timeStamp: 2017-02-16 10:57:10.304
LEye coords (0.0, 0.0), REye coords (0.0, 0.0), timeStamp: 2017-02-16 10:57:10.347
LEye coords (0.0, 0.0), REye coords (448.1006, 342.9441), timeStamp: 2017-02-16 10:57:10.380
LEye coords (439.491, 519.0833), REye coords (430.06, 343.3347), timeStamp: 2017-02-16 10:57:10.414
LEye coords (433.1483, 469.2856), REye coords (426.0945, 351.2555), timeStamp: 2017-02-16 10:57:10.458
LEye coords (428.2292, 437.8527), REye coords (422.8965, 357.7514), timeStamp: 2017-02-16 10:57:10.492
LEye coords (427.1827, 415.261), REye coords (419.0716, 363.8286), timeStamp: 2017-02-16 10:57:10.525
LEye coords (414.8816, 353.0244), REye coords (417.9263, 366.938), timeStamp: 2017-02-16 10:57:10.570
LEye coords (420.4123, 372.124), REye coords (417.6825, 368.2046), timeStamp: 2017-02-16 10:57:10.603
LEye coords (422.3313, 360.0599), REye coords (417.4651, 370.3399), timeStamp: 2017-02-16 10:57:10.637
LEye coords (0.0, 0.0), REye coords (416.9457, 371.6887), timeStamp: 2017-02-16 10:57:10.680
LEye coords (0.0, 0.0), REye coords (417.2566, 372.8201), timeStamp: 2017-02-16 10:57:10.713
LEye coords (382.2506, 404.2777), REye coords (310.4359, 557.2712), timeStamp: 2017-02-16 10:57:10.748
LEye coords (292.5785, 536.7087), REye coords (184.3, 989.6406), timeStamp: 2017-02-16 10:57:10.791
LEye coords (56.5836, 938.6611), REye coords (180.2593, 998.0204), timeStamp: 2017-02-16 10:57:10.824
LEye coords (60.0492, 932.92), REye coords (179.0743, 994.7499), timeStamp: 2017-02-16 10:57:10.867
LEye coords (55.283, 941.5852), REye coords (177.476, 994.5836), timeStamp: 2017-02-16 10:57:10.901
LEye coords (57.0097, 943.4648), REye coords (185.0762, 992.461), timeStamp: 2017-02-16 10:57:10.935
LEye coords (62.1953, 944.5155), REye coords (171.709, 996.4729), timeStamp: 2017-02-16 10:57:10.969
LEye coords (62.4183, 944.6391), REye coords (175.3884, 993.0984), timeStamp: 2017-02-16 10:57:11.014
LEye coords (64.5672, 939.4397), REye coords (188.7013, 988.7249), timeStamp: 2017-02-16 10:57:11.047
LEye coords (408.1163, 469.649), REye coords (252.1525, 844.5464), timeStamp: 2017-02-16 10:57:11.090
LEye coords (428.8013, 381.437), REye coords (413.6621, 472.2137), timeStamp: 2017-02-16 10:57:11.122
LEye coords (437.4782, 389.1087), REye coords (426.1313, 415.7419), timeStamp: 2017-02-16 10:57:11.155
LEye coords (433.3656, 389.0421), REye coords (424.4722, 419.3185), timeStamp: 2017-02-16 10:57:11.200
LEye coords (434.5068, 387.2719), REye coords (422.6722, 418.7467), timeStamp: 2017-02-16 10:57:11.234
LEye coords (413.052, 342.9306), REye coords (422.9107, 416.0644), timeStamp: 2017-02-16 10:57:11.268
LEye coords (438.4315, 387.492), REye coords (421.9817, 415.9904), timeStamp: 2017-02-16 10:57:11.312
LEye coords (433.9946, 383.1108), REye coords (421.7966, 415.3914), timeStamp: 2017-02-16 10:57:11.345
LEye coords (430.7992, 378.8651), REye coords (422.464, 414.962), timeStamp: 2017-02-16 10:57:11.378
LEye coords (426.3377, 369.6349), REye coords (422.9471, 414.5988), timeStamp: 2017-02-16 10:57:11.421
LEye coords (428.9538, 353.4982), REye coords (426.1614, 402.1161), timeStamp: 2017-02-16 10:57:11.456
LEye coords (430.1479, 352.8071), REye coords (425.6038, 403.501), timeStamp: 2017-02-16 10:57:11.489
LEye coords (428.4743, 347.6468), REye coords (424.2587, 404.8305), timeStamp: 2017-02-16 10:57:11.533
LEye coords (426.2164, 345.5482), REye coords (424.7588, 405.2084), timeStamp: 2017-02-16 10:57:11.566
LEye coords (424.4967, 338.8965), REye coords (414.7622, 397.9214), timeStamp: 2017-02-16 10:57:11.713
LEye coords (426.7459, 341.0477), REye coords (410.7616, 402.9082), timeStamp: 2017-02-16 10:57:11.679
LEye coords (426.1478, 344.6078), REye coords (424.6885, 406.4573), timeStamp: 2017-02-16 10:57:11.600
LEye coords (426.2859, 343.4871), REye coords (421.5187, 419.4768), timeStamp: 2017-02-16 10:57:11.644
LEye coords (442.7098, 234.6366), REye coords (465.0451, 226.1408), timeStamp: 2017-02-16 11:05:34.692
LEye coords (442.2395, 235.7747), REye coords (464.6177, 226.5063), timeStamp: 2017-02-16 11:05:34.725
LEye coords (441.8046, 235.5666), REye coords (465.3603, 227.3322), timeStamp: 2017-02-16 11:05:34.759
LEye coords (442.0097, 236.1745), REye coords (466.6147, 227.4357), timeStamp: 2017-02-16 11:05:34.804
LEye coords (440.8983, 235.9634), REye coords (467.1212, 227.9832), timeStamp: 2017-02-16 11:05:34.837
LEye coords (440.2833, 236.6839), REye coords (467.4839, 229.1936), timeStamp: 2017-02-16 11:05:34.871
LEye coords (439.8409, 237.5237), REye coords (466.9106, 228.8956), timeStamp: 2017-02-16 11:05:34.915
LEye coords (440.3081, 238.1841), REye coords (466.6298, 229.5717), timeStamp: 2017-02-16 11:05:34.949
LEye coords (439.6462, 237.7142), REye coords (466.2464, 230.2722), timeStamp: 2017-02-16 11:05:34.982
LEye coords (438.9983, 238.8374), REye coords (466.2628, 233.4611), timeStamp: 2017-02-16 11:05:35.026
LEye coords (438.1524, 238.5119), REye coords (466.2231, 234.3942), timeStamp: 2017-02-16 11:05:35.061
LEye coords (437.5419, 240.6503), REye coords (466.554, 233.9709), timeStamp: 2017-02-16 11:05:35.094
LEye coords (437.1344, 242.4527), REye coords (466.3163, 238.735), timeStamp: 2017-02-16 11:05:35.138
LEye coords (437.8025, 243.7797), REye coords (466.3275, 243.4146), timeStamp: 2017-02-16 11:05:35.172
LEye coords (489.6117, 417.8478), REye coords (513.2262, 446.1638), timeStamp: 2017-02-16 11:05:35.205
LEye coords (478.2332, 413.2653), REye coords (511.0424, 439.4393), timeStamp: 2017-02-16 11:05:35.248
LEye coords (479.8542, 415.2078), REye coords (511.2774, 438.4774), timeStamp: 2017-02-16 11:05:35.282
LEye coords (478.7568, 415.1005), REye coords (512.9517, 435.1118), timeStamp: 2017-02-16 11:05:35.317
LEye coords (476.9418, 416.5736), REye coords (511.6077, 437.6897), timeStamp: 2017-02-16 11:05:35.360
LEye coords (455.765, 400.9508), REye coords (506.4872, 440.171), timeStamp: 2017-02-16 11:05:35.394
LEye coords (471.797, 387.1269), REye coords (485.9826, 414.1496), timeStamp: 2017-02-16 11:05:35.429
LEye coords (468.3658, 385.5482), REye coords (479.0836, 415.7902), timeStamp: 2017-02-16 11:05:35.472
LEye coords (466.2054, 385.6747), REye coords (479.693, 412.7509), timeStamp: 2017-02-16 11:05:35.505
LEye coords (467.6458, 384.3697), REye coords (478.4899, 416.7358), timeStamp: 2017-02-16 11:05:35.539
LEye coords (466.5012, 381.9106), REye coords (478.3596, 414.7554), timeStamp: 2017-02-16 11:05:35.583
LEye coords (467.2929, 382.3388), REye coords (478.0034, 413.3124), timeStamp: 2017-02-16 11:05:35.616
LEye coords (467.392, 381.9148), REye coords (478.1652, 414.8927), timeStamp: 2017-02-16 11:05:35.650
LEye coords (466.5708, 381.5231), REye coords (478.8918, 415.3921), timeStamp: 2017-02-16 11:05:35.694
LEye coords (468.2101, 382.0771), REye coords (478.7665, 415.1576), timeStamp: 2017-02-16 11:05:35.727
LEye coords (469.3423, 383.9883), REye coords (478.8731, 414.396), timeStamp: 2017-02-16 11:05:35.762
LEye coords (468.9838, 382.9632), REye coords (478.5183, 415.0778), timeStamp: 2017-02-16 11:05:35.796
LEye coords (467.6838, 381.1037), REye coords (478.2234, 414.625), timeStamp: 2017-02-16 11:05:35.842
LEye coords (464.9964, 377.5321), REye coords (478.1954, 414.32), timeStamp: 2017-02-16 11:05:35.876
LEye coords (465.3279, 378.0853), REye coords (477.689, 415.2932), timeStamp: 2017-02-16 11:05:35.910
LEye coords (456.815, 378.2503), REye coords (0.0, 0.0), timeStamp: 2017-02-16 11:05:35.945
LEye coords (450.7368, 377.3981), REye coords (474.5485, 415.5061), timeStamp: 2017-02-16 11:05:35.989
LEye coords (346.6773, 349.6376), REye coords (471.5568, 414.7433), timeStamp: 2017-02-16 11:05:36.023
LEye coords (398.8443, 380.5702), REye coords (468.3865, 413.8335), timeStamp: 2017-02-16 11:05:36.058
LEye coords (404.109, 387.5555), REye coords (465.6554, 413.9261), timeStamp: 2017-02-16 11:05:36.092
LEye coords (394.8708, 378.1645), REye coords (463.7568, 414.2524), timeStamp: 2017-02-16 11:05:36.135
LEye coords (404.4748, 382.4413), REye coords (461.764, 414.5354), timeStamp: 2017-02-16 11:05:36.169
LEye coords (409.2967, 381.8346), REye coords (460.6642, 413.7314), timeStamp: 2017-02-16 11:05:36.203
LEye coords (413.1626, 381.364), REye coords (460.0738, 413.4709), timeStamp: 2017-02-16 11:05:36.247
LEye coords (415.7689, 379.7453), REye coords (459.1597, 412.7182), timeStamp: 2017-02-16 11:05:36.282
LEye coords (366.7565, 271.2655), REye coords (458.7885, 411.4568), timeStamp: 2017-02-16 11:05:36.315
LEye coords (379.1687, 333.1812), REye coords (457.6071, 410.2104), timeStamp: 2017-02-16 11:05:36.359
LEye coords (382.9643, 338.1019), REye coords (456.5061, 409.0983), timeStamp: 2017-02-16 11:05:36.392
LEye coords (380.1845, 339.0696), REye coords (455.9207, 408.0221), timeStamp: 2017-02-16 11:05:36.425
LEye coords (376.9105, 342.8705), REye coords (454.9834, 408.0016), timeStamp: 2017-02-16 11:05:36.469
LEye coords (387.1185, 347.7647), REye coords (454.2231, 406.8131), timeStamp: 2017-02-16 11:05:36.503
LEye coords (388.1547, 350.764), REye coords (453.1465, 405.4042), timeStamp: 2017-02-16 11:05:36.537
LEye coords (386.9474, 352.1072), REye coords (452.6732, 405.7672), timeStamp: 2017-02-16 11:05:36.580
LEye coords (388.8705, 350.3839), REye coords (452.3707, 405.4734), timeStamp: 2017-02-16 11:05:36.614
LEye coords (389.7252, 349.8004), REye coords (452.0083, 405.3497), timeStamp: 2017-02-16 11:05:36.648
LEye coords (388.3944, 350.6068), REye coords (451.3388, 405.1318), timeStamp: 2017-02-16 11:05:36.692
LEye coords (387.9997, 353.79), REye coords (451.9849, 405.9129), timeStamp: 2017-02-16 11:05:36.726
LEye coords (389.7139, 358.1196), REye coords (451.9625, 407.8805), timeStamp: 2017-02-16 11:05:36.760
LEye coords (390.0405, 362.4565), REye coords (452.5841, 410.2835), timeStamp: 2017-02-16 11:05:36.804
LEye coords (390.3648, 362.8512), REye coords (452.5604, 411.2229), timeStamp: 2017-02-16 11:05:36.837
LEye coords (388.9149, 358.9132), REye coords (452.8591, 410.8904), timeStamp: 2017-02-16 11:05:36.872
LEye coords (387.0853, 353.2833), REye coords (453.2498, 410.3423), timeStamp: 2017-02-16 11:05:36.907
LEye coords (386.67, 350.7365), REye coords (452.5846, 410.0421), timeStamp: 2017-02-16 11:05:36.952
LEye coords (386.5283, 346.8007), REye coords (452.2499, 409.8417), timeStamp: 2017-02-16 11:05:36.985
LEye coords (384.8524, 343.8406), REye coords (452.0862, 409.4181), timeStamp: 2017-02-16 11:05:37.019
LEye coords (385.3413, 341.8348), REye coords (450.9962, 409.7136), timeStamp: 2017-02-16 11:05:37.064
LEye coords (383.3752, 338.9508), REye coords (450.5628, 409.435), timeStamp: 2017-02-16 11:05:37.097
LEye coords (383.2523, 337.9279), REye coords (449.8531, 409.6962), timeStamp: 2017-02-16 11:05:37.131
LEye coords (383.8605, 338.3444), REye coords (448.8911, 410.3289), timeStamp: 2017-02-16 11:05:37.174
LEye coords (381.837, 337.6901), REye coords (447.8853, 411.1192), timeStamp: 2017-02-16 11:05:37.208
LEye coords (380.9558, 336.9703), REye coords (447.0594, 411.8962), timeStamp: 2017-02-16 11:05:37.242
LEye coords (381.1425, 335.6685), REye coords (446.3718, 411.1146), timeStamp: 2017-02-16 11:05:37.277
LEye coords (380.7527, 332.9908), REye coords (446.5256, 411.1311), timeStamp: 2017-02-16 11:05:37.320
LEye coords (379.4129, 331.0663), REye coords (446.1209, 410.8343), timeStamp: 2017-02-16 11:05:37.354
LEye coords (379.9016, 331.2922), REye coords (446.401, 410.5336), timeStamp: 2017-02-16 11:05:37.388
LEye coords (379.7094, 332.45), REye coords (446.3444, 411.1923), timeStamp: 2017-02-16 11:05:37.432
LEye coords (380.7894, 334.4958), REye coords (446.5974, 412.2104), timeStamp: 2017-02-16 11:05:37.467
LEye coords (381.4052, 332.877), REye coords (446.7752, 412.8235), timeStamp: 2017-02-16 11:05:37.500
LEye coords (382.2395, 330.8671), REye coords (446.3917, 413.531), timeStamp: 2017-02-16 11:05:37.544
LEye coords (380.8901, 328.9583), REye coords (446.14, 413.8566), timeStamp: 2017-02-16 11:05:37.578
LEye coords (380.7258, 329.3294), REye coords (445.5758, 413.4871), timeStamp: 2017-02-16 11:05:37.611
LEye coords (0.0, 0.0), REye coords (445.2013, 415.3174), timeStamp: 2017-02-16 11:05:37.655
LEye coords (0.0, 0.0), REye coords (445.5261, 417.1612), timeStamp: 2017-02-16 11:05:37.689
LEye coords (0.0, 0.0), REye coords (445.3375, 418.7209), timeStamp: 2017-02-16 11:05:37.724
LEye coords (378.5999, 329.0567), REye coords (444.5837, 419.4154), timeStamp: 2017-02-16 11:05:37.757
LEye coords (377.2513, 329.4365), REye coords (443.9105, 420.5616), timeStamp: 2017-02-16 11:05:37.802
LEye coords (0.0, 0.0), REye coords (444.2764, 421.1823), timeStamp: 2017-02-16 11:05:37.836
LEye coords (0.0, 0.0), REye coords (445.0987, 421.7711), timeStamp: 2017-02-16 11:05:37.869
LEye coords (378.9993, 332.4342), REye coords (445.4735, 422.817), timeStamp: 2017-02-16 11:05:37.913
LEye coords (379.3856, 334.4255), REye coords (445.1341, 424.1408), timeStamp: 2017-02-16 11:05:37.947
LEye coords (379.9549, 337.0082), REye coords (444.9505, 424.7864), timeStamp: 2017-02-16 11:05:37.981
LEye coords (380.6204, 337.7081), REye coords (444.8534, 424.979), timeStamp: 2017-02-16 11:05:38.026
LEye coords (379.2169, 336.5408), REye coords (444.6906, 425.0351), timeStamp: 2017-02-16 11:05:38.060
LEye coords (379.249, 338.3148), REye coords (444.7807, 425.8541), timeStamp: 2017-02-16 11:05:38.094
LEye coords (377.6825, 337.084), REye coords (445.0986, 425.7253), timeStamp: 2017-02-16 11:05:38.128
LEye coords (374.9579, 334.5956), REye coords (443.8528, 423.4273), timeStamp: 2017-02-16 11:05:38.173
LEye coords (372.4059, 330.3452), REye coords (442.8451, 422.6711), timeStamp: 2017-02-16 11:05:38.207
LEye coords (371.1584, 327.3335), REye coords (442.1795, 420.222), timeStamp: 2017-02-16 11:05:38.242
LEye coords (369.1856, 324.3807), REye coords (441.1331, 419.485), timeStamp: 2017-02-16 11:05:38.275
LEye coords (366.8353, 321.5197), REye coords (440.6082, 417.5444), timeStamp: 2017-02-16 11:05:38.320
LEye coords (364.9199, 318.4717), REye coords (439.6225, 416.1708), timeStamp: 2017-02-16 11:05:38.353
LEye coords (365.7793, 318.4393), REye coords (438.8675, 414.0024), timeStamp: 2017-02-16 11:05:38.387
LEye coords (365.859, 317.8829), REye coords (438.572, 411.8702), timeStamp: 2017-02-16 11:05:38.433
LEye coords (363.9796, 315.9394), REye coords (437.7749, 409.2244), timeStamp: 2017-02-16 11:05:38.466
LEye coords (364.2986, 316.1648), REye coords (437.7637, 408.0441), timeStamp: 2017-02-16 11:05:38.500
LEye coords (363.6479, 316.1848), REye coords (436.405, 406.0545), timeStamp: 2017-02-16 11:05:38.535
LEye coords (363.0117, 313.8739), REye coords (435.7257, 403.8999), timeStamp: 2017-02-16 11:05:38.579
LEye coords (362.1357, 311.7264), REye coords (435.6071, 402.0586), timeStamp: 2017-02-16 11:05:38.613
LEye coords (361.0061, 309.6068), REye coords (435.4035, 401.5417), timeStamp: 2017-02-16 11:05:38.648
LEye coords (360.2521, 307.8308), REye coords (434.7015, 401.1452), timeStamp: 2017-02-16 11:05:38.692
LEye coords (356.7427, 303.5273), REye coords (434.1665, 397.7683), timeStamp: 2017-02-16 11:05:38.726
LEye coords (356.0642, 300.3803), REye coords (434.8359, 396.4917), timeStamp: 2017-02-16 11:05:38.760
LEye coords (356.7959, 300.4407), REye coords (435.2742, 395.7747), timeStamp: 2017-02-16 11:05:38.794
LEye coords (354.5807, 298.9398), REye coords (435.5805, 395.1313), timeStamp: 2017-02-16 11:05:38.839
LEye coords (353.2777, 296.9687), REye coords (435.9277, 394.4493), timeStamp: 2017-02-16 11:05:38.872
LEye coords (353.073, 294.6334), REye coords (435.9421, 394.3136), timeStamp: 2017-02-16 11:05:38.906
LEye coords (354.2172, 295.6344), REye coords (435.1515, 394.5764), timeStamp: 2017-02-16 11:05:38.950
LEye coords (355.0481, 295.6624), REye coords (435.5316, 394.93), timeStamp: 2017-02-16 11:05:38.985
LEye coords (356.0547, 296.6136), REye coords (436.1328, 395.1643), timeStamp: 2017-02-16 11:05:39.019
LEye coords (356.5626, 298.539), REye coords (435.6996, 395.9362), timeStamp: 2017-02-16 11:05:39.062
LEye coords (358.9723, 300.5014), REye coords (436.2616, 396.7438), timeStamp: 2017-02-16 11:05:39.095
LEye coords (360.4987, 301.3497), REye coords (436.252, 396.2932), timeStamp: 2017-02-16 11:05:39.129
LEye coords (364.0801, 304.7362), REye coords (436.036, 397.0634), timeStamp: 2017-02-16 11:05:39.164
LEye coords (365.3572, 308.4734), REye coords (436.6293, 397.4917), timeStamp: 2017-02-16 11:05:39.208
LEye coords (0.0, 0.0), REye coords (437.6526, 397.8322), timeStamp: 2017-02-16 11:05:39.242
LEye coords (425.2935, 466.4586), REye coords (438.5095, 400.5981), timeStamp: 2017-02-16 11:05:39.276
LEye coords (0.0, 0.0), REye coords (438.8553, 401.6484), timeStamp: 2017-02-16 11:05:39.319
LEye coords (0.0, 0.0), REye coords (439.6279, 403.618), timeStamp: 2017-02-16 11:05:39.354
LEye coords (406.6938, 465.6803), REye coords (440.6202, 404.3573), timeStamp: 2017-02-16 11:05:39.387
LEye coords (0.0, 0.0), REye coords (441.7737, 405.9038), timeStamp: 2017-02-16 11:05:39.432
LEye coords (0.0, 0.0), REye coords (442.4424, 407.1077), timeStamp: 2017-02-16 11:05:39.465
LEye coords (0.0, 0.0), REye coords (443.3046, 409.0099), timeStamp: 2017-02-16 11:05:39.499
LEye coords (0.0, 0.0), REye coords (444.0893, 411.2833), timeStamp: 2017-02-16 11:05:39.543
LEye coords (0.0, 0.0), REye coords (444.8413, 412.7624), timeStamp: 2017-02-16 11:05:39.577
LEye coords (0.0, 0.0), REye coords (445.5176, 414.3343), timeStamp: 2017-02-16 11:05:39.611
LEye coords (0.0, 0.0), REye coords (445.1393, 413.3442), timeStamp: 2017-02-16 11:05:39.645
LEye coords (329.2254, 405.2482), REye coords (444.6064, 412.5782), timeStamp: 2017-02-16 11:05:39.689
LEye coords (341.9627, 396.2466), REye coords (444.5302, 411.4626), timeStamp: 2017-02-16 11:05:39.722
LEye coords (0.0, 0.0), REye coords (444.2069, 410.8465), timeStamp: 2017-02-16 11:05:39.757
LEye coords (0.0, 0.0), REye coords (443.4796, 410.0323), timeStamp: 2017-02-16 11:05:39.800
LEye coords (0.0, 0.0), REye coords (442.8604, 410.0776), timeStamp: 2017-02-16 11:05:39.833
LEye coords (0.0, 0.0), REye coords (442.1375, 409.5751), timeStamp: 2017-02-16 11:05:39.876
LEye coords (0.0, 0.0), REye coords (441.2051, 407.7918), timeStamp: 2017-02-16 11:05:39.910
LEye coords (0.0, 0.0), REye coords (440.5612, 407.0659), timeStamp: 2017-02-16 11:05:39.944
LEye coords (0.0, 0.0), REye coords (440.2231, 407.1378), timeStamp: 2017-02-16 11:05:39.978
LEye coords (0.0, 0.0), REye coords (439.3778, 406.8571), timeStamp: 2017-02-16 11:05:40.022
LEye coords (0.0, 0.0), REye coords (438.3793, 406.6119), timeStamp: 2017-02-16 11:05:40.056
LEye coords (0.0, 0.0), REye coords (438.227, 405.5538), timeStamp: 2017-02-16 11:05:40.088
LEye coords (0.0, 0.0), REye coords (437.7481, 405.5663), timeStamp: 2017-02-16 11:05:40.133
LEye coords (0.0, 0.0), REye coords (437.3773, 405.8407), timeStamp: 2017-02-16 11:05:40.167
LEye coords (0.0, 0.0), REye coords (437.775, 405.6505), timeStamp: 2017-02-16 11:05:40.201
LEye coords (0.0, 0.0), REye coords (436.8551, 404.8633), timeStamp: 2017-02-16 11:05:40.245
LEye coords (0.0, 0.0), REye coords (436.4946, 403.9572), timeStamp: 2017-02-16 11:05:40.279
LEye coords (0.0, 0.0), REye coords (436.3664, 403.1066), timeStamp: 2017-02-16 11:05:40.313
LEye coords (0.0, 0.0), REye coords (436.2551, 402.1455), timeStamp: 2017-02-16 11:05:40.358
LEye coords (0.0, 0.0), REye coords (436.2499, 402.5511), timeStamp: 2017-02-16 11:05:40.392
LEye coords (0.0, 0.0), REye coords (436.5434, 401.9921), timeStamp: 2017-02-16 11:05:40.425
LEye coords (0.0, 0.0), REye coords (437.4987, 402.006), timeStamp: 2017-02-16 11:05:40.460
LEye coords (0.0, 0.0), REye coords (436.7075, 402.2465), timeStamp: 2017-02-16 11:05:40.503
LEye coords (0.0, 0.0), REye coords (435.9355, 402.5354), timeStamp: 2017-02-16 11:05:40.537
LEye coords (0.0, 0.0), REye coords (434.7978, 402.3094), timeStamp: 2017-02-16 11:05:40.571
LEye coords (0.0, 0.0), REye coords (433.9838, 402.0399), timeStamp: 2017-02-16 11:05:40.615
LEye coords (0.0, 0.0), REye coords (432.9352, 401.6303), timeStamp: 2017-02-16 11:05:40.649
LEye coords (0.0, 0.0), REye coords (432.2513, 401.4937), timeStamp: 2017-02-16 11:05:40.683
LEye coords (0.0, 0.0), REye coords (430.9229, 401.872), timeStamp: 2017-02-16 11:05:40.727
LEye coords (0.0, 0.0), REye coords (430.5229, 401.7989), timeStamp: 2017-02-16 11:05:40.760
LEye coords (0.0, 0.0), REye coords (430.357, 400.7959), timeStamp: 2017-02-16 11:05:40.795
LEye coords (0.0, 0.0), REye coords (430.6169, 401.005), timeStamp: 2017-02-16 11:05:40.839
LEye coords (0.0, 0.0), REye coords (429.8424, 399.9252), timeStamp: 2017-02-16 11:05:40.873
LEye coords (0.0, 0.0), REye coords (428.8458, 400.1867), timeStamp: 2017-02-16 11:05:40.907
LEye coords (0.0, 0.0), REye coords (428.3724, 398.7976), timeStamp: 2017-02-16 11:05:40.940
LEye coords (0.0, 0.0), REye coords (428.785, 398.5045), timeStamp: 2017-02-16 11:05:40.984
LEye coords (0.0, 0.0), REye coords (428.6222, 396.9837), timeStamp: 2017-02-16 11:05:41.018
LEye coords (0.0, 0.0), REye coords (427.6351, 396.4837), timeStamp: 2017-02-16 11:05:41.051
LEye coords (0.0, 0.0), REye coords (427.6042, 396.5763), timeStamp: 2017-02-16 11:05:41.096
LEye coords (0.0, 0.0), REye coords (427.0836, 396.6249), timeStamp: 2017-02-16 11:05:41.130
LEye coords (340.609, 408.6074), REye coords (422.2163, 397.3505), timeStamp: 2017-02-16 11:05:41.165
LEye coords (342.7547, 467.3396), REye coords (417.8745, 398.3017), timeStamp: 2017-02-16 11:05:41.199
LEye coords (311.4658, 444.8138), REye coords (412.5571, 399.9206), timeStamp: 2017-02-16 11:05:41.243
LEye coords (331.1035, 447.7405), REye coords (408.4077, 402.3036), timeStamp: 2017-02-16 11:05:41.275
LEye coords (291.3021, 433.8386), REye coords (404.6187, 404.9604), timeStamp: 2017-02-16 11:05:41.320
LEye coords (295.1027, 447.3061), REye coords (402.8247, 406.7159), timeStamp: 2017-02-16 11:05:41.354
LEye coords (372.8025, 439.4369), REye coords (404.4441, 408.4916), timeStamp: 2017-02-16 11:05:41.388
LEye coords (347.1549, 447.1205), REye coords (406.1565, 409.7578), timeStamp: 2017-02-16 11:05:41.421
LEye coords (372.1844, 452.7091), REye coords (407.3968, 411.7459), timeStamp: 2017-02-16 11:05:41.465
LEye coords (376.5477, 458.5648), REye coords (408.5457, 413.8255), timeStamp: 2017-02-16 11:05:41.498
LEye coords (381.5766, 460.3982), REye coords (409.2062, 415.4879), timeStamp: 2017-02-16 11:05:41.532
LEye coords (386.6358, 460.1299), REye coords (410.2459, 417.7464), timeStamp: 2017-02-16 11:05:41.576
LEye coords (0.0, 0.0), REye coords (410.9352, 417.8978), timeStamp: 2017-02-16 11:05:41.609
LEye coords (0.0, 0.0), REye coords (411.0254, 417.8308), timeStamp: 2017-02-16 11:05:41.643
LEye coords (0.0, 0.0), REye coords (411.424, 416.0412), timeStamp: 2017-02-16 11:05:41.686
LEye coords (0.0, 0.0), REye coords (412.1833, 416.7282), timeStamp: 2017-02-16 11:05:41.720
LEye coords (0.0, 0.0), REye coords (412.619, 417.5472), timeStamp: 2017-02-16 11:05:41.764
LEye coords (0.0, 0.0), REye coords (412.1168, 417.9885), timeStamp: 2017-02-16 11:05:41.798
LEye coords (0.0, 0.0), REye coords (412.4959, 418.5374), timeStamp: 2017-02-16 11:05:41.831
LEye coords (385.5005, 450.5841), REye coords (413.6627, 419.823), timeStamp: 2017-02-16 11:05:41.865
LEye coords (0.0, 0.0), REye coords (414.5994, 420.0205), timeStamp: 2017-02-16 11:05:41.910
LEye coords (0.0, 0.0), REye coords (415.2219, 421.1928), timeStamp: 2017-02-16 11:05:41.943
LEye coords (0.0, 0.0), REye coords (417.8005, 420.9006), timeStamp: 2017-02-16 11:05:41.978
LEye coords (0.0, 0.0), REye coords (419.3497, 421.1305), timeStamp: 2017-02-16 11:05:42.022
LEye coords (0.0, 0.0), REye coords (421.274, 420.8087), timeStamp: 2017-02-16 11:05:42.057
LEye coords (385.2385, 448.1401), REye coords (423.0823, 419.7139), timeStamp: 2017-02-16 11:05:42.090
LEye coords (386.7106, 447.6937), REye coords (424.8028, 419.3528), timeStamp: 2017-02-16 11:05:42.124
LEye coords (389.3003, 448.9816), REye coords (425.9611, 419.2888), timeStamp: 2017-02-16 11:05:42.167
LEye coords (391.4769, 446.1943), REye coords (426.1427, 418.8865), timeStamp: 2017-02-16 11:05:42.201
LEye coords (393.5515, 444.4122), REye coords (425.8427, 418.0872), timeStamp: 2017-02-16 11:05:42.235
LEye coords (0.0, 0.0), REye coords (425.5644, 417.5136), timeStamp: 2017-02-16 11:05:42.280
LEye coords (0.0, 0.0), REye coords (425.1187, 416.4942), timeStamp: 2017-02-16 11:05:42.315
LEye coords (0.0, 0.0), REye coords (425.1802, 415.5246), timeStamp: 2017-02-16 11:05:42.348
LEye coords (0.0, 0.0), REye coords (425.1161, 415.3319), timeStamp: 2017-02-16 11:05:42.393
LEye coords (0.0, 0.0), REye coords (424.6568, 415.9754), timeStamp: 2017-02-16 11:05:42.427
LEye coords (0.0, 0.0), REye coords (425.5056, 415.9548), timeStamp: 2017-02-16 11:05:42.460
LEye coords (0.0, 0.0), REye coords (425.9385, 416.5945), timeStamp: 2017-02-16 11:05:42.494
LEye coords (0.0, 0.0), REye coords (426.5222, 417.0048), timeStamp: 2017-02-16 11:05:42.538
LEye coords (0.0, 0.0), REye coords (426.8177, 416.7965), timeStamp: 2017-02-16 11:05:42.572
LEye coords (0.0, 0.0), REye coords (427.7177, 416.7967), timeStamp: 2017-02-16 11:05:42.606
LEye coords (0.0, 0.0), REye coords (428.4832, 416.8784), timeStamp: 2017-02-16 11:05:42.650
LEye coords (0.0, 0.0), REye coords (429.3664, 415.8752), timeStamp: 2017-02-16 11:05:42.684
LEye coords (0.0, 0.0), REye coords (430.0895, 414.9702), timeStamp: 2017-02-16 11:05:42.717
LEye coords (0.0, 0.0), REye coords (430.5184, 414.5397), timeStamp: 2017-02-16 11:05:42.760
LEye coords (215.018, 429.49), REye coords (424.2046, 413.1874), timeStamp: 2017-02-16 11:05:42.793
LEye coords (286.6428, 452.5169), REye coords (417.7536, 412.5121), timeStamp: 2017-02-16 11:05:42.827
LEye coords (305.607, 455.2455), REye coords (411.0988, 412.5772), timeStamp: 2017-02-16 11:05:42.871
