LEye coords (672.4578, 194.9086), REye coords (741.1852, 268.6191), timeStamp: 2017-02-16 11:08:05.763
LEye coords (657.3422, 185.3148), REye coords (738.5449, 279.0123), timeStamp: 2017-02-16 11:08:05.807
LEye coords (651.5398, 174.0406), REye coords (742.8459, 281.2805), timeStamp: 2017-02-16 11:08:05.840
LEye coords (643.2361, 172.9158), REye coords (743.2932, 285.8427), timeStamp: 2017-02-16 11:08:05.874
LEye coords (689.5646, 235.8322), REye coords (733.2875, 295.6239), timeStamp: 2017-02-16 11:08:05.919
LEye coords (678.346, 227.0757), REye coords (715.5455, 303.886), timeStamp: 2017-02-16 11:08:05.952
LEye coords (688.0376, 222.0194), REye coords (718.4857, 308.5027), timeStamp: 2017-02-16 11:08:05.985
LEye coords (686.9297, 219.6939), REye coords (723.2128, 311.0261), timeStamp: 2017-02-16 11:08:06.029
LEye coords (685.8503, 213.3261), REye coords (724.8868, 312.6394), timeStamp: 2017-02-16 11:08:06.062
LEye coords (683.9657, 235.2136), REye coords (722.5215, 333.2292), timeStamp: 2017-02-16 11:08:06.096
LEye coords (683.2366, 252.1065), REye coords (718.923, 350.7541), timeStamp: 2017-02-16 11:08:06.140
LEye coords (679.835, 262.0717), REye coords (716.5816, 364.3943), timeStamp: 2017-02-16 11:08:06.173
LEye coords (677.2905, 270.0728), REye coords (714.3829, 373.5623), timeStamp: 2017-02-16 11:08:06.206
LEye coords (686.0638, 332.1199), REye coords (712.7527, 381.114), timeStamp: 2017-02-16 11:08:06.251
LEye coords (684.989, 309.0703), REye coords (711.804, 386.6521), timeStamp: 2017-02-16 11:08:06.284
LEye coords (685.9683, 320.7265), REye coords (710.7997, 390.7729), timeStamp: 2017-02-16 11:08:06.318
LEye coords (701.9376, 343.2395), REye coords (713.4222, 397.4868), timeStamp: 2017-02-16 11:08:06.363
LEye coords (705.2324, 358.1991), REye coords (715.4626, 403.0882), timeStamp: 2017-02-16 11:08:06.397
LEye coords (708.0139, 366.0603), REye coords (716.9478, 407.7061), timeStamp: 2017-02-16 11:08:06.430
LEye coords (705.7318, 370.1032), REye coords (718.0864, 412.406), timeStamp: 2017-02-16 11:08:06.474
LEye coords (708.0475, 374.7937), REye coords (728.0721, 452.3505), timeStamp: 2017-02-16 11:08:06.507
LEye coords (709.0679, 379.1456), REye coords (730.4065, 451.5911), timeStamp: 2017-02-16 11:08:06.541
LEye coords (711.6188, 383.135), REye coords (727.9766, 455.2656), timeStamp: 2017-02-16 11:08:06.585
LEye coords (708.7471, 382.8286), REye coords (730.2109, 450.4303), timeStamp: 2017-02-16 11:08:06.617
LEye coords (707.1993, 384.7004), REye coords (729.8588, 448.7197), timeStamp: 2017-02-16 11:08:06.660
LEye coords (706.2054, 382.9937), REye coords (729.7156, 450.1424), timeStamp: 2017-02-16 11:08:06.694
LEye coords (707.4011, 384.4664), REye coords (730.7473, 447.9477), timeStamp: 2017-02-16 11:08:06.727
LEye coords (707.9859, 385.5073), REye coords (731.7224, 445.3611), timeStamp: 2017-02-16 11:08:06.771
LEye coords (708.4393, 386.4642), REye coords (732.0735, 443.3046), timeStamp: 2017-02-16 11:08:06.806
LEye coords (707.0287, 385.9068), REye coords (733.5177, 442.1983), timeStamp: 2017-02-16 11:08:06.838
LEye coords (706.638, 385.9265), REye coords (0.0, 0.0), timeStamp: 2017-02-16 11:08:06.882
LEye coords (706.3354, 388.0345), REye coords (734.5161, 440.8803), timeStamp: 2017-02-16 11:08:06.916
LEye coords (705.2314, 387.7948), REye coords (0.0, 0.0), timeStamp: 2017-02-16 11:08:06.949
LEye coords (705.005, 387.9251), REye coords (734.7298, 440.3667), timeStamp: 2017-02-16 11:08:06.993
LEye coords (704.3223, 387.5682), REye coords (735.5169, 438.4429), timeStamp: 2017-02-16 11:08:07.026
LEye coords (704.702, 387.6443), REye coords (735.0851, 438.7145), timeStamp: 2017-02-16 11:08:07.060
LEye coords (702.8472, 388.2025), REye coords (735.9936, 437.3316), timeStamp: 2017-02-16 11:08:07.103
LEye coords (1089.8447, 372.8661), REye coords (1049.145, 398.052), timeStamp: 2017-02-16 11:08:07.137
LEye coords (1142.5267, 415.0789), REye coords (1145.7626, 429.1935), timeStamp: 2017-02-16 11:08:07.172
LEye coords (1135.5166, 418.0711), REye coords (1146.5463, 426.2229), timeStamp: 2017-02-16 11:08:07.216
LEye coords (1135.6863, 411.2756), REye coords (1146.1123, 421.1539), timeStamp: 2017-02-16 11:08:07.249
LEye coords (1136.6559, 409.3529), REye coords (1151.8324, 418.0787), timeStamp: 2017-02-16 11:08:07.282
LEye coords (1135.4182, 395.5039), REye coords (1164.701, 397.1748), timeStamp: 2017-02-16 11:08:07.326
LEye coords (1122.7548, 376.3452), REye coords (1172.2435, 402.4369), timeStamp: 2017-02-16 11:08:07.360
LEye coords (1132.0981, 386.3469), REye coords (1165.9535, 414.3596), timeStamp: 2017-02-16 11:08:07.393
LEye coords (1135.0879, 394.5892), REye coords (1163.1266, 419.0247), timeStamp: 2017-02-16 11:08:07.437
LEye coords (1135.877, 398.7333), REye coords (1162.0348, 418.9694), timeStamp: 2017-02-16 11:08:07.471
LEye coords (763.9772, 415.2798), REye coords (758.1271, 431.784), timeStamp: 2017-02-16 11:08:07.504
LEye coords (759.1893, 420.8419), REye coords (738.8467, 437.6138), timeStamp: 2017-02-16 11:08:07.549
LEye coords (744.8425, 415.8635), REye coords (750.4454, 432.8582), timeStamp: 2017-02-16 11:08:07.582
LEye coords (742.3322, 411.9849), REye coords (751.4046, 434.6035), timeStamp: 2017-02-16 11:08:07.616
LEye coords (741.6972, 411.2978), REye coords (750.4547, 434.3828), timeStamp: 2017-02-16 11:08:07.650
LEye coords (740.7531, 405.6422), REye coords (752.7291, 426.8888), timeStamp: 2017-02-16 11:08:07.693
LEye coords (737.2366, 411.7961), REye coords (759.0143, 422.7397), timeStamp: 2017-02-16 11:08:07.726
LEye coords (741.2076, 414.5467), REye coords (758.6718, 422.0031), timeStamp: 2017-02-16 11:08:07.770
LEye coords (730.1602, 411.2122), REye coords (762.3563, 423.9571), timeStamp: 2017-02-16 11:08:07.803
LEye coords (730.1177, 411.1286), REye coords (760.3569, 429.3829), timeStamp: 2017-02-16 11:08:07.836
LEye coords (732.752, 411.4585), REye coords (758.6487, 431.5434), timeStamp: 2017-02-16 11:08:07.881
LEye coords (731.403, 410.6198), REye coords (758.8102, 431.994), timeStamp: 2017-02-16 11:08:07.915
LEye coords (730.4523, 411.5081), REye coords (759.8436, 431.9616), timeStamp: 2017-02-16 11:08:07.948
LEye coords (730.1947, 412.014), REye coords (758.5511, 433.5233), timeStamp: 2017-02-16 11:08:07.993
LEye coords (730.7159, 410.6836), REye coords (758.9756, 433.8538), timeStamp: 2017-02-16 11:08:08.026
LEye coords (730.2343, 411.5839), REye coords (759.3117, 435.137), timeStamp: 2017-02-16 11:08:08.059
LEye coords (728.2836, 409.776), REye coords (759.5277, 434.7832), timeStamp: 2017-02-16 11:08:08.103
LEye coords (729.1102, 409.8062), REye coords (759.4208, 434.5863), timeStamp: 2017-02-16 11:08:08.136
LEye coords (730.1595, 410.6768), REye coords (758.9833, 435.1448), timeStamp: 2017-02-16 11:08:08.168
LEye coords (730.3696, 412.0125), REye coords (758.9816, 435.1637), timeStamp: 2017-02-16 11:08:08.212
LEye coords (730.4072, 412.4942), REye coords (759.637, 434.9689), timeStamp: 2017-02-16 11:08:08.246
LEye coords (729.8613, 412.0777), REye coords (759.7585, 435.1105), timeStamp: 2017-02-16 11:08:08.289
LEye coords (730.1299, 411.52), REye coords (759.6306, 434.3033), timeStamp: 2017-02-16 11:08:08.322
LEye coords (728.9371, 412.4473), REye coords (759.1934, 434.495), timeStamp: 2017-02-16 11:08:08.356
LEye coords (597.1359, 338.1335), REye coords (758.7684, 434.6579), timeStamp: 2017-02-16 11:08:08.400
LEye coords (563.6552, 283.4834), REye coords (758.3695, 434.9698), timeStamp: 2017-02-16 11:08:08.434
LEye coords (565.5412, 281.572), REye coords (758.522, 434.1208), timeStamp: 2017-02-16 11:08:08.467
LEye coords (508.1779, 292.0738), REye coords (758.5399, 434.2301), timeStamp: 2017-02-16 11:08:08.511
LEye coords (522.0683, 296.9857), REye coords (757.8106, 435.2394), timeStamp: 2017-02-16 11:08:08.544
LEye coords (564.4424, 302.507), REye coords (757.5836, 434.6087), timeStamp: 2017-02-16 11:08:08.578
LEye coords (545.8615, 286.8394), REye coords (756.5609, 434.3626), timeStamp: 2017-02-16 11:08:08.620
LEye coords (465.0639, 251.977), REye coords (755.8103, 434.2762), timeStamp: 2017-02-16 11:08:08.654
LEye coords (495.8806, 266.761), REye coords (755.4247, 434.2213), timeStamp: 2017-02-16 11:08:08.688
LEye coords (0.0, 0.0), REye coords (755.0195, 434.4421), timeStamp: 2017-02-16 11:08:08.733
LEye coords (517.059, 274.3514), REye coords (0.0, 0.0), timeStamp: 2017-02-16 11:08:08.767
LEye coords (589.0939, 309.7488), REye coords (0.0, 0.0), timeStamp: 2017-02-16 11:08:08.801
LEye coords (0.0, 0.0), REye coords (0.0, 0.0), timeStamp: 2017-02-16 11:08:08.843
LEye coords (-1208.9567, 497.4242), REye coords (0.0, 0.0), timeStamp: 2017-02-16 11:08:08.876
LEye coords (0.0, 0.0), REye coords (753.1939, 436.2458), timeStamp: 2017-02-16 11:08:08.909
LEye coords (0.0, 0.0), REye coords (752.8427, 435.7898), timeStamp: 2017-02-16 11:08:08.952
LEye coords (-294.0449, 416.149), REye coords (753.0867, 435.5052), timeStamp: 2017-02-16 11:08:08.987
LEye coords (-24.0724, 407.0688), REye coords (752.5414, 435.2681), timeStamp: 2017-02-16 11:08:09.021
LEye coords (143.4623, 392.7294), REye coords (752.5221, 434.4443), timeStamp: 2017-02-16 11:08:09.066
LEye coords (703.8341, 393.4975), REye coords (752.4078, 434.1236), timeStamp: 2017-02-16 11:08:09.099
LEye coords (624.431, 331.564), REye coords (0.0, 0.0), timeStamp: 2017-02-16 11:08:09.133
LEye coords (595.2618, 343.0404), REye coords (0.0, 0.0), timeStamp: 2017-02-16 11:08:09.177
LEye coords (613.3351, 345.9073), REye coords (0.0, 0.0), timeStamp: 2017-02-16 11:08:09.210
LEye coords (609.1666, 346.1123), REye coords (0.0, 0.0), timeStamp: 2017-02-16 11:08:09.243
LEye coords (607.4798, 344.8549), REye coords (0.0, 0.0), timeStamp: 2017-02-16 11:08:09.286
LEye coords (603.527, 344.3225), REye coords (0.0, 0.0), timeStamp: 2017-02-16 11:08:09.320
LEye coords (600.8574, 352.7091), REye coords (752.6925, 434.3423), timeStamp: 2017-02-16 11:08:09.353
LEye coords (685.5471, 446.2556), REye coords (753.5021, 434.7171), timeStamp: 2017-02-16 11:08:09.398
LEye coords (687.704, 459.5082), REye coords (0.0, 0.0), timeStamp: 2017-02-16 11:08:09.430
LEye coords (655.2914, 440.827), REye coords (0.0, 0.0), timeStamp: 2017-02-16 11:08:09.473
LEye coords (669.5209, 446.0451), REye coords (0.0, 0.0), timeStamp: 2017-02-16 11:08:09.506
LEye coords (659.6089, 431.9985), REye coords (753.0085, 435.9988), timeStamp: 2017-02-16 11:08:09.539
LEye coords (664.1187, 435.4915), REye coords (753.1082, 437.1451), timeStamp: 2017-02-16 11:08:09.582
LEye coords (666.8151, 437.5553), REye coords (754.053, 438.213), timeStamp: 2017-02-16 11:08:09.617
LEye coords (667.9493, 439.1757), REye coords (754.565, 439.2376), timeStamp: 2017-02-16 11:08:09.650
LEye coords (670.618, 442.1797), REye coords (755.1038, 440.3804), timeStamp: 2017-02-16 11:08:09.694
LEye coords (664.8593, 438.705), REye coords (756.1937, 442.1228), timeStamp: 2017-02-16 11:08:09.727
LEye coords (653.8212, 434.2116), REye coords (756.757, 443.233), timeStamp: 2017-02-16 11:08:09.761
LEye coords (647.7302, 431.6511), REye coords (756.8011, 444.3603), timeStamp: 2017-02-16 11:08:09.805
LEye coords (642.1152, 428.6492), REye coords (757.3685, 446.0708), timeStamp: 2017-02-16 11:08:09.839
LEye coords (642.2225, 425.7463), REye coords (757.9931, 447.8701), timeStamp: 2017-02-16 11:08:09.871
LEye coords (643.4846, 424.6158), REye coords (758.1496, 449.722), timeStamp: 2017-02-16 11:08:09.915
LEye coords (640.8589, 420.8967), REye coords (758.7882, 451.2812), timeStamp: 2017-02-16 11:08:09.949
LEye coords (639.1824, 419.6449), REye coords (758.9165, 453.0876), timeStamp: 2017-02-16 11:08:09.983
LEye coords (636.4299, 416.7845), REye coords (759.5189, 454.2523), timeStamp: 2017-02-16 11:08:10.027
LEye coords (0.0, 0.0), REye coords (760.0016, 455.6096), timeStamp: 2017-02-16 11:08:10.061
LEye coords (635.1226, 416.2139), REye coords (760.4807, 457.1311), timeStamp: 2017-02-16 11:08:10.095
LEye coords (633.9872, 414.6078), REye coords (760.2155, 458.8307), timeStamp: 2017-02-16 11:08:10.138
LEye coords (629.1656, 410.3025), REye coords (759.9816, 460.3895), timeStamp: 2017-02-16 11:08:10.171
LEye coords (631.2462, 410.0169), REye coords (759.6092, 461.5616), timeStamp: 2017-02-16 11:08:10.204
LEye coords (627.8329, 408.0532), REye coords (759.3219, 463.3508), timeStamp: 2017-02-16 11:08:10.248
LEye coords (625.6387, 403.6651), REye coords (759.1456, 464.8676), timeStamp: 2017-02-16 11:08:10.281
LEye coords (628.4963, 402.1898), REye coords (759.1563, 465.3527), timeStamp: 2017-02-16 11:08:10.315
LEye coords (630.8211, 399.4321), REye coords (760.5923, 463.7666), timeStamp: 2017-02-16 11:08:10.359
LEye coords (0.0, 0.0), REye coords (761.9254, 463.0176), timeStamp: 2017-02-16 11:08:10.391
LEye coords (636.7264, 399.6129), REye coords (762.7338, 461.2183), timeStamp: 2017-02-16 11:08:10.426
LEye coords (635.0374, 395.2056), REye coords (763.4645, 461.0625), timeStamp: 2017-02-16 11:08:10.469
LEye coords (634.923, 391.8776), REye coords (764.6484, 460.2745), timeStamp: 2017-02-16 11:08:10.502
LEye coords (633.6991, 389.1044), REye coords (765.0869, 459.3402), timeStamp: 2017-02-16 11:08:10.547
LEye coords (637.2355, 387.2898), REye coords (765.7552, 458.2508), timeStamp: 2017-02-16 11:08:10.580
LEye coords (635.9516, 383.9866), REye coords (766.0825, 456.7705), timeStamp: 2017-02-16 11:08:10.613
LEye coords (641.011, 382.7815), REye coords (767.1253, 455.8), timeStamp: 2017-02-16 11:08:10.657
LEye coords (642.3739, 381.2177), REye coords (767.3088, 455.0638), timeStamp: 2017-02-16 11:08:10.691
LEye coords (0.0, 0.0), REye coords (767.5872, 454.4017), timeStamp: 2017-02-16 11:08:10.725
LEye coords (645.3691, 380.7413), REye coords (768.5412, 453.6853), timeStamp: 2017-02-16 11:08:10.769
LEye coords (650.5541, 380.3348), REye coords (768.8217, 452.5576), timeStamp: 2017-02-16 11:08:10.803
LEye coords (742.3079, 432.1051), REye coords (769.7574, 451.6391), timeStamp: 2017-02-16 11:08:10.836
LEye coords (609.5486, 349.6208), REye coords (770.8542, 450.975), timeStamp: 2017-02-16 11:08:10.871
LEye coords (653.9659, 367.0539), REye coords (771.9612, 449.844), timeStamp: 2017-02-16 11:08:10.915
LEye coords (643.982, 388.3979), REye coords (774.6586, 451.0252), timeStamp: 2017-02-16 11:08:10.949
LEye coords (636.8308, 403.6338), REye coords (776.8613, 452.8029), timeStamp: 2017-02-16 11:08:10.983
LEye coords (654.2624, 421.6407), REye coords (778.9799, 455.3976), timeStamp: 2017-02-16 11:08:11.027
LEye coords (755.7096, 504.4281), REye coords (780.6961, 457.5608), timeStamp: 2017-02-16 11:08:11.061
LEye coords (703.1984, 467.006), REye coords (782.8904, 459.9066), timeStamp: 2017-02-16 11:08:11.094
LEye coords (720.9333, 466.4031), REye coords (784.7186, 462.8511), timeStamp: 2017-02-16 11:08:11.139
LEye coords (727.9295, 488.0887), REye coords (786.5726, 466.8936), timeStamp: 2017-02-16 11:08:11.173
LEye coords (733.0327, 492.6593), REye coords (788.2433, 469.5161), timeStamp: 2017-02-16 11:08:11.206
LEye coords (740.9958, 494.5454), REye coords (789.5984, 472.7956), timeStamp: 2017-02-16 11:08:11.240
LEye coords (743.6928, 498.3599), REye coords (791.1332, 474.7562), timeStamp: 2017-02-16 11:08:11.283
LEye coords (750.1395, 499.8951), REye coords (792.3162, 477.6172), timeStamp: 2017-02-16 11:08:11.317
LEye coords (751.4037, 499.9475), REye coords (793.4938, 479.9476), timeStamp: 2017-02-16 11:08:11.362
LEye coords (749.8759, 494.8099), REye coords (794.3914, 482.3112), timeStamp: 2017-02-16 11:08:11.396
LEye coords (755.3195, 491.4222), REye coords (795.6388, 482.5079), timeStamp: 2017-02-16 11:08:11.429
LEye coords (752.2698, 485.0246), REye coords (796.0346, 482.8489), timeStamp: 2017-02-16 11:08:11.463
LEye coords (753.6516, 481.0668), REye coords (796.6889, 483.1492), timeStamp: 2017-02-16 11:08:11.508
LEye coords (753.9086, 478.1374), REye coords (796.8813, 483.1819), timeStamp: 2017-02-16 11:08:11.541
LEye coords (752.9223, 470.3278), REye coords (797.5131, 483.4443), timeStamp: 2017-02-16 11:08:11.574
LEye coords (750.9268, 466.0141), REye coords (798.6898, 482.8291), timeStamp: 2017-02-16 11:08:11.618
LEye coords (752.4899, 466.3802), REye coords (798.5108, 484.5674), timeStamp: 2017-02-16 11:08:11.652
LEye coords (755.4642, 471.6063), REye coords (799.2242, 487.9813), timeStamp: 2017-02-16 11:08:11.684
LEye coords (0.0, 0.0), REye coords (799.7315, 489.8157), timeStamp: 2017-02-16 11:08:11.727
LEye coords (756.9114, 475.2734), REye coords (799.01, 490.7889), timeStamp: 2017-02-16 11:08:11.761
LEye coords (758.8561, 478.4036), REye coords (799.0672, 491.1358), timeStamp: 2017-02-16 11:08:11.805
LEye coords (761.9158, 481.2616), REye coords (799.2491, 491.7985), timeStamp: 2017-02-16 11:08:11.840
LEye coords (762.993, 484.7303), REye coords (800.1804, 492.2196), timeStamp: 2017-02-16 11:08:11.873
LEye coords (762.509, 485.1682), REye coords (800.6606, 492.3492), timeStamp: 2017-02-16 11:08:11.906
LEye coords (762.8859, 486.5016), REye coords (801.2458, 491.9421), timeStamp: 2017-02-16 11:08:11.950
LEye coords (764.5745, 490.0661), REye coords (802.0916, 491.5108), timeStamp: 2017-02-16 11:08:11.985
LEye coords (761.0323, 511.5544), REye coords (802.6792, 491.0281), timeStamp: 2017-02-16 11:08:12.018
LEye coords (599.0545, 481.0535), REye coords (803.3085, 491.6226), timeStamp: 2017-02-16 11:08:12.062
LEye coords (635.3574, 492.7229), REye coords (803.4756, 492.8665), timeStamp: 2017-02-16 11:08:12.095
LEye coords (669.0469, 490.1061), REye coords (804.0114, 494.0822), timeStamp: 2017-02-16 11:08:12.129
LEye coords (662.2991, 490.0907), REye coords (803.9288, 495.3364), timeStamp: 2017-02-16 11:08:12.174
LEye coords (673.012, 493.6978), REye coords (803.5679, 495.8108), timeStamp: 2017-02-16 11:08:12.206
LEye coords (570.5743, 448.3528), REye coords (802.8369, 494.5346), timeStamp: 2017-02-16 11:08:12.250
LEye coords (698.6282, 441.4162), REye coords (802.5809, 493.3496), timeStamp: 2017-02-16 11:08:12.285
LEye coords (673.3604, 431.6836), REye coords (801.6779, 492.5273), timeStamp: 2017-02-16 11:08:12.319
LEye coords (662.3342, 437.14), REye coords (800.9757, 491.0433), timeStamp: 2017-02-16 11:08:12.351
LEye coords (691.1341, 454.2889), REye coords (800.5361, 489.7567), timeStamp: 2017-02-16 11:08:12.396
LEye coords (697.4121, 459.9468), REye coords (799.6033, 487.3821), timeStamp: 2017-02-16 11:08:12.430
LEye coords (703.6301, 471.933), REye coords (798.4701, 485.482), timeStamp: 2017-02-16 11:08:12.464
LEye coords (708.5014, 473.74), REye coords (797.0166, 483.629), timeStamp: 2017-02-16 11:08:12.509
LEye coords (716.3751, 478.4373), REye coords (795.4742, 483.0313), timeStamp: 2017-02-16 11:08:12.543
LEye coords (720.3572, 482.6346), REye coords (794.002, 481.3552), timeStamp: 2017-02-16 11:08:12.577
LEye coords (724.438, 481.4251), REye coords (792.5965, 480.1191), timeStamp: 2017-02-16 11:08:12.610
LEye coords (727.6518, 482.4887), REye coords (791.955, 479.152), timeStamp: 2017-02-16 11:08:12.656
LEye coords (729.7148, 485.2566), REye coords (790.7735, 478.3636), timeStamp: 2017-02-16 11:08:12.690
LEye coords (732.1742, 485.7343), REye coords (789.7317, 478.3997), timeStamp: 2017-02-16 11:08:12.724
LEye coords (733.8416, 496.9612), REye coords (788.8156, 478.1895), timeStamp: 2017-02-16 11:08:12.757
LEye coords (726.7386, 456.3123), REye coords (787.415, 478.4652), timeStamp: 2017-02-16 11:08:12.800
LEye coords (741.0333, 472.4843), REye coords (787.0769, 478.0922), timeStamp: 2017-02-16 11:08:12.833
LEye coords (743.7795, 482.1598), REye coords (786.4216, 477.6898), timeStamp: 2017-02-16 11:08:12.876
LEye coords (746.0826, 486.9494), REye coords (786.0719, 476.9413), timeStamp: 2017-02-16 11:08:12.910
LEye coords (749.4019, 488.7628), REye coords (785.2639, 476.5272), timeStamp: 2017-02-16 11:08:12.943
LEye coords (750.9433, 487.656), REye coords (785.7025, 475.9826), timeStamp: 2017-02-16 11:08:12.987
LEye coords (748.6174, 487.9738), REye coords (785.2634, 475.961), timeStamp: 2017-02-16 11:08:13.020
LEye coords (550.1209, 438.4299), REye coords (784.6405, 476.497), timeStamp: 2017-02-16 11:08:13.063
LEye coords (645.8666, 463.05), REye coords (784.1302, 477.0771), timeStamp: 2017-02-16 11:08:13.095
LEye coords (652.7325, 448.5282), REye coords (783.5306, 476.5348), timeStamp: 2017-02-16 11:08:13.128
LEye coords (663.4522, 440.9941), REye coords (783.5079, 476.9828), timeStamp: 2017-02-16 11:08:13.172
LEye coords (655.9667, 445.318), REye coords (783.1875, 477.014), timeStamp: 2017-02-16 11:08:13.207
LEye coords (652.9029, 434.8069), REye coords (783.0243, 477.7912), timeStamp: 2017-02-16 11:08:13.241
LEye coords (647.0646, 441.4079), REye coords (783.2058, 478.8195), timeStamp: 2017-02-16 11:08:13.284
LEye coords (638.8875, 446.8647), REye coords (783.3814, 479.2702), timeStamp: 2017-02-16 11:08:13.318
LEye coords (639.3946, 447.2841), REye coords (783.5642, 479.2031), timeStamp: 2017-02-16 11:08:13.353
LEye coords (755.6367, 520.8789), REye coords (784.1646, 478.7213), timeStamp: 2017-02-16 11:08:13.396
LEye coords (734.02, 466.3199), REye coords (784.5751, 477.4922), timeStamp: 2017-02-16 11:08:13.429
LEye coords (743.2032, 480.4238), REye coords (785.0671, 477.0998), timeStamp: 2017-02-16 11:08:13.464
LEye coords (737.1125, 488.5532), REye coords (784.5746, 476.2561), timeStamp: 2017-02-16 11:08:13.508
LEye coords (730.684, 488.2295), REye coords (782.839, 475.5454), timeStamp: 2017-02-16 11:08:13.543
LEye coords (724.797, 490.3583), REye coords (781.3401, 474.1104), timeStamp: 2017-02-16 11:08:13.577
LEye coords (722.8394, 492.0826), REye coords (779.6579, 472.8388), timeStamp: 2017-02-16 11:08:13.610
LEye coords (718.1434, 494.5859), REye coords (778.7319, 471.2413), timeStamp: 2017-02-16 11:08:13.654
LEye coords (716.6605, 491.6969), REye coords (777.7206, 469.009), timeStamp: 2017-02-16 11:08:13.688
LEye coords (713.9324, 494.3882), REye coords (776.3383, 467.3795), timeStamp: 2017-02-16 11:08:13.721
LEye coords (713.0094, 493.7637), REye coords (775.5799, 466.1122), timeStamp: 2017-02-16 11:08:13.765
LEye coords (710.0898, 493.9803), REye coords (774.264, 464.9525), timeStamp: 2017-02-16 11:08:13.798
LEye coords (590.8347, 429.7694), REye coords (772.8576, 464.4362), timeStamp: 2017-02-16 11:08:13.832
LEye coords (0.0, 0.0), REye coords (771.4796, 463.9362), timeStamp: 2017-02-16 11:08:13.877
LEye coords (722.0752, 499.0701), REye coords (770.1176, 464.1024), timeStamp: 2017-02-16 11:08:13.910
LEye coords (675.5299, 485.6053), REye coords (768.6323, 463.391), timeStamp: 2017-02-16 11:08:13.943
LEye coords (0.0, 0.0), REye coords (766.8456, 462.7405), timeStamp: 2017-02-16 11:08:13.986
LEye coords (688.8702, 504.1175), REye coords (765.3065, 462.159), timeStamp: 2017-02-16 11:08:14.019
LEye coords (694.8975, 506.3687), REye coords (764.5966, 461.4793), timeStamp: 2017-02-16 11:08:14.053
LEye coords (698.5074, 508.9359), REye coords (763.8168, 459.46), timeStamp: 2017-02-16 11:08:14.096
LEye coords (702.6271, 512.9548), REye coords (762.9644, 459.0367), timeStamp: 2017-02-16 11:08:14.130
LEye coords (702.9533, 516.4116), REye coords (762.2773, 457.9532), timeStamp: 2017-02-16 11:08:14.173
LEye coords (705.1187, 515.6559), REye coords (761.3163, 457.3057), timeStamp: 2017-02-16 11:08:14.207
LEye coords (706.5492, 516.7617), REye coords (760.5916, 457.0323), timeStamp: 2017-02-16 11:08:14.240
LEye coords (708.0062, 514.3397), REye coords (759.3145, 457.3955), timeStamp: 2017-02-16 11:08:14.284
LEye coords (708.715, 513.0547), REye coords (759.0929, 457.0877), timeStamp: 2017-02-16 11:08:14.318
LEye coords (710.1611, 511.8945), REye coords (759.0446, 457.228), timeStamp: 2017-02-16 11:08:14.351
LEye coords (709.7701, 513.7497), REye coords (758.884, 457.3894), timeStamp: 2017-02-16 11:08:14.395
LEye coords (710.8044, 513.4384), REye coords (759.1791, 457.3848), timeStamp: 2017-02-16 11:08:14.428
LEye coords (712.1451, 512.673), REye coords (759.4297, 457.8512), timeStamp: 2017-02-16 11:08:14.461
LEye coords (713.5566, 512.4745), REye coords (759.4103, 458.544), timeStamp: 2017-02-16 11:08:14.506
LEye coords (714.5185, 511.9697), REye coords (759.7425, 458.1306), timeStamp: 2017-02-16 11:08:14.541
LEye coords (715.3066, 510.425), REye coords (759.0786, 458.9335), timeStamp: 2017-02-16 11:08:14.575
LEye coords (716.1274, 511.8062), REye coords (758.6932, 459.2423), timeStamp: 2017-02-16 11:08:14.610
LEye coords (717.6213, 511.8965), REye coords (758.8527, 458.7669), timeStamp: 2017-02-16 11:08:14.655
LEye coords (719.3552, 511.3), REye coords (759.2757, 456.7524), timeStamp: 2017-02-16 11:08:14.687
LEye coords (620.2029, 445.1889), REye coords (759.2985, 456.8569), timeStamp: 2017-02-16 11:08:14.720
LEye coords (627.1995, 468.9567), REye coords (758.8794, 457.3596), timeStamp: 2017-02-16 11:08:14.763
LEye coords (619.2036, 463.0811), REye coords (758.8613, 457.7364), timeStamp: 2017-02-16 11:08:14.795
LEye coords (619.6899, 467.2625), REye coords (758.6147, 458.2748), timeStamp: 2017-02-16 11:08:14.840
LEye coords (636.0381, 469.8493), REye coords (757.8428, 459.5418), timeStamp: 2017-02-16 11:08:14.874
LEye coords (626.7241, 481.1135), REye coords (757.4404, 461.5376), timeStamp: 2017-02-16 11:08:14.907
LEye coords (630.4236, 482.2921), REye coords (756.4501, 463.6935), timeStamp: 2017-02-16 11:08:14.951
LEye coords (635.0315, 480.9888), REye coords (755.9575, 464.5393), timeStamp: 2017-02-16 11:08:14.985
LEye coords (635.1599, 481.5067), REye coords (754.856, 466.8542), timeStamp: 2017-02-16 11:08:15.018
LEye coords (640.3456, 482.6013), REye coords (754.1932, 468.1026), timeStamp: 2017-02-16 11:08:15.063
LEye coords (643.2879, 479.1986), REye coords (752.7639, 469.8604), timeStamp: 2017-02-16 11:08:15.096
LEye coords (647.1642, 480.5025), REye coords (751.6775, 472.1997), timeStamp: 2017-02-16 11:08:15.130
LEye coords (644.6023, 483.3857), REye coords (751.2103, 473.8199), timeStamp: 2017-02-16 11:08:15.164
LEye coords (644.662, 484.3032), REye coords (750.3331, 477.0188), timeStamp: 2017-02-16 11:08:15.209
LEye coords (644.2993, 482.6041), REye coords (749.7084, 478.6657), timeStamp: 2017-02-16 11:08:15.242
LEye coords (644.9203, 483.1774), REye coords (748.9771, 479.9335), timeStamp: 2017-02-16 11:08:15.277
LEye coords (645.4402, 482.3417), REye coords (748.0726, 480.706), timeStamp: 2017-02-16 11:08:15.321
LEye coords (647.5497, 483.8419), REye coords (748.9221, 482.8322), timeStamp: 2017-02-16 11:08:15.354
LEye coords (799.3729, 572.6044), REye coords (752.7944, 486.6149), timeStamp: 2017-02-16 11:08:15.388
LEye coords (789.2109, 555.9263), REye coords (756.9127, 490.3237), timeStamp: 2017-02-16 11:08:15.422
LEye coords (769.4167, 536.9022), REye coords (757.5092, 491.8589), timeStamp: 2017-02-16 11:08:15.467
LEye coords (764.3893, 527.9807), REye coords (759.1028, 493.9487), timeStamp: 2017-02-16 11:08:15.501
LEye coords (761.2678, 517.3646), REye coords (760.4235, 494.7614), timeStamp: 2017-02-16 11:08:15.535
LEye coords (759.588, 514.2889), REye coords (761.7072, 496.2448), timeStamp: 2017-02-16 11:08:15.579
LEye coords (758.3584, 510.6048), REye coords (762.6314, 496.7506), timeStamp: 2017-02-16 11:08:15.612
LEye coords (755.1196, 504.3695), REye coords (763.6367, 497.1947), timeStamp: 2017-02-16 11:08:15.645
LEye coords (752.8085, 506.3587), REye coords (764.5293, 497.4947), timeStamp: 2017-02-16 11:08:15.691
LEye coords (752.291, 505.6005), REye coords (765.5278, 497.6522), timeStamp: 2017-02-16 11:08:15.724
LEye coords (751.4099, 505.5312), REye coords (766.4974, 497.2877), timeStamp: 2017-02-16 11:08:15.758
LEye coords (751.1693, 506.9754), REye coords (767.5989, 497.6289), timeStamp: 2017-02-16 11:08:15.803
LEye coords (750.0674, 508.1296), REye coords (767.6907, 498.5125), timeStamp: 2017-02-16 11:08:15.836
LEye coords (749.329, 509.0996), REye coords (768.6476, 498.3519), timeStamp: 2017-02-16 11:08:15.870
LEye coords (750.0813, 508.0365), REye coords (768.9521, 498.102), timeStamp: 2017-02-16 11:08:15.904
LEye coords (749.3851, 510.1954), REye coords (769.0228, 497.1331), timeStamp: 2017-02-16 11:08:15.948
LEye coords (748.9413, 511.4797), REye coords (768.6193, 496.2332), timeStamp: 2017-02-16 11:08:15.981
LEye coords (747.813, 509.9148), REye coords (768.9257, 494.2697), timeStamp: 2017-02-16 11:08:16.015
LEye coords (747.4866, 509.3225), REye coords (769.4057, 493.5223), timeStamp: 2017-02-16 11:08:16.060
LEye coords (747.1103, 507.2303), REye coords (770.4404, 492.3969), timeStamp: 2017-02-16 11:08:16.093
LEye coords (746.4744, 504.4812), REye coords (770.5975, 491.2264), timeStamp: 2017-02-16 11:08:16.126
LEye coords (744.4221, 500.7927), REye coords (769.65, 490.1948), timeStamp: 2017-02-16 11:08:16.170
LEye coords (745.1982, 500.0594), REye coords (768.6367, 488.693), timeStamp: 2017-02-16 11:08:16.203
LEye coords (742.9969, 496.8336), REye coords (767.3152, 487.1749), timeStamp: 2017-02-16 11:08:16.247
LEye coords (741.6003, 495.7743), REye coords (768.2408, 484.9077), timeStamp: 2017-02-16 11:08:16.279
LEye coords (741.1229, 494.5119), REye coords (768.036, 483.2893), timeStamp: 2017-02-16 11:08:16.313
LEye coords (741.5593, 494.067), REye coords (768.4813, 482.1588), timeStamp: 2017-02-16 11:08:16.356
LEye coords (738.6194, 491.8231), REye coords (768.3167, 480.5604), timeStamp: 2017-02-16 11:08:16.389
LEye coords (734.3168, 489.0595), REye coords (768.4654, 479.5468), timeStamp: 2017-02-16 11:08:16.423
