LEye coords (730.5279, 490.4337), REye coords (768.6277, 478.5161), timeStamp: 2017-02-16 11:08:16.467
LEye coords (731.4603, 490.7477), REye coords (768.9698, 477.3497), timeStamp: 2017-02-16 11:08:16.500
LEye coords (731.7251, 489.9327), REye coords (769.1516, 476.1147), timeStamp: 2017-02-16 11:08:16.533
LEye coords (730.2557, 487.8748), REye coords (769.6278, 474.7445), timeStamp: 2017-02-16 11:08:16.578
LEye coords (729.7637, 485.9949), REye coords (769.7693, 474.6208), timeStamp: 2017-02-16 11:08:16.612
LEye coords (728.1039, 484.1466), REye coords (770.363, 473.4752), timeStamp: 2017-02-16 11:08:16.646
LEye coords (727.6978, 481.86), REye coords (770.0121, 472.7998), timeStamp: 2017-02-16 11:08:16.690
LEye coords (726.1689, 480.2424), REye coords (770.4615, 471.3906), timeStamp: 2017-02-16 11:08:16.723
LEye coords (719.4934, 479.5173), REye coords (769.7195, 471.1401), timeStamp: 2017-02-16 11:08:16.757
LEye coords (719.3646, 478.7484), REye coords (769.3246, 470.0617), timeStamp: 2017-02-16 11:08:16.800
LEye coords (524.3854, 436.5151), REye coords (513.7209, 419.6728), timeStamp: 2017-02-16 11:08:16.833
LEye coords (438.0757, 401.3055), REye coords (497.0594, 432.0308), timeStamp: 2017-02-16 11:08:16.866
LEye coords (419.5869, 370.8879), REye coords (494.0589, 442.1899), timeStamp: 2017-02-16 11:08:16.910
LEye coords (423.9579, 355.6548), REye coords (493.8023, 443.8816), timeStamp: 2017-02-16 11:08:16.945
LEye coords (420.6569, 348.352), REye coords (493.7976, 446.0467), timeStamp: 2017-02-16 11:08:16.978
LEye coords (423.8507, 303.381), REye coords (490.4132, 427.8921), timeStamp: 2017-02-16 11:08:17.023
LEye coords (388.1417, 133.5247), REye coords (558.0085, 318.7987), timeStamp: 2017-02-16 11:08:17.056
LEye coords (405.8235, 131.4308), REye coords (555.241, 319.9875), timeStamp: 2017-02-16 11:08:17.090
LEye coords (396.915, 121.9606), REye coords (553.1129, 323.1114), timeStamp: 2017-02-16 11:08:17.135
LEye coords (383.0898, 111.1399), REye coords (551.9647, 322.2547), timeStamp: 2017-02-16 11:08:17.169
LEye coords (326.8616, 106.549), REye coords (547.7232, 327.7913), timeStamp: 2017-02-16 11:08:17.202
LEye coords (458.006, 134.029), REye coords (552.9333, 321.75), timeStamp: 2017-02-16 11:08:17.246
LEye coords (458.0558, 139.5382), REye coords (553.0718, 315.2563), timeStamp: 2017-02-16 11:08:17.279
LEye coords (472.8603, 159.1732), REye coords (553.4916, 316.8488), timeStamp: 2017-02-16 11:08:17.312
LEye coords (467.4646, 156.6073), REye coords (552.2682, 313.6267), timeStamp: 2017-02-16 11:08:17.357
LEye coords (483.5862, 195.7799), REye coords (551.3752, 311.0249), timeStamp: 2017-02-16 11:08:17.390
LEye coords (521.9915, 228.8158), REye coords (552.0115, 310.425), timeStamp: 2017-02-16 11:08:17.424
LEye coords (509.1919, 202.4655), REye coords (551.7396, 309.661), timeStamp: 2017-02-16 11:08:17.468
LEye coords (507.9767, 199.191), REye coords (550.602, 309.6123), timeStamp: 2017-02-16 11:08:17.500
LEye coords (512.0012, 204.7468), REye coords (550.0743, 308.8362), timeStamp: 2017-02-16 11:08:17.534
LEye coords (497.4469, 198.4643), REye coords (549.1572, 308.8946), timeStamp: 2017-02-16 11:08:17.579
LEye coords (484.8099, 192.1546), REye coords (549.5682, 307.96), timeStamp: 2017-02-16 11:08:17.612
LEye coords (490.0396, 194.5677), REye coords (548.8848, 308.1609), timeStamp: 2017-02-16 11:08:17.646
LEye coords (482.5351, 189.719), REye coords (548.5969, 307.9083), timeStamp: 2017-02-16 11:08:17.690
LEye coords (486.234, 189.9805), REye coords (548.8824, 308.8075), timeStamp: 2017-02-16 11:08:17.724
LEye coords (490.9799, 192.6775), REye coords (549.1842, 308.6662), timeStamp: 2017-02-16 11:08:17.758
LEye coords (496.3169, 194.6186), REye coords (548.4508, 309.8279), timeStamp: 2017-02-16 11:08:17.791
LEye coords (500.1407, 196.8742), REye coords (547.8205, 310.8116), timeStamp: 2017-02-16 11:08:17.835
LEye coords (504.2588, 197.787), REye coords (547.5776, 311.501), timeStamp: 2017-02-16 11:08:17.869
LEye coords (507.0691, 200.2941), REye coords (547.2206, 312.1284), timeStamp: 2017-02-16 11:08:17.903
LEye coords (509.5623, 201.9748), REye coords (546.3298, 312.7192), timeStamp: 2017-02-16 11:08:17.946
LEye coords (510.2162, 200.5452), REye coords (545.5251, 313.6202), timeStamp: 2017-02-16 11:08:17.980
LEye coords (512.5261, 203.4045), REye coords (545.1754, 315.0881), timeStamp: 2017-02-16 11:08:18.023
LEye coords (511.7202, 202.8979), REye coords (543.6342, 315.9829), timeStamp: 2017-02-16 11:08:18.057
LEye coords (513.6218, 205.4586), REye coords (542.0109, 316.2155), timeStamp: 2017-02-16 11:08:18.091
LEye coords (516.0264, 208.4318), REye coords (540.0224, 316.0043), timeStamp: 2017-02-16 11:08:18.124
LEye coords (515.3384, 210.3784), REye coords (538.6428, 316.273), timeStamp: 2017-02-16 11:08:18.168
LEye coords (511.1168, 209.3657), REye coords (537.2682, 316.7757), timeStamp: 2017-02-16 11:08:18.201
LEye coords (508.1555, 207.7227), REye coords (535.7953, 316.5868), timeStamp: 2017-02-16 11:08:18.245
LEye coords (509.821, 211.0566), REye coords (533.7257, 316.153), timeStamp: 2017-02-16 11:08:18.278
LEye coords (509.9407, 212.471), REye coords (532.6341, 316.1129), timeStamp: 2017-02-16 11:08:18.312
LEye coords (509.3351, 213.6243), REye coords (531.1247, 315.8946), timeStamp: 2017-02-16 11:08:18.346
LEye coords (510.1504, 216.1071), REye coords (529.6555, 315.126), timeStamp: 2017-02-16 11:08:18.390
LEye coords (509.3443, 217.2747), REye coords (528.5995, 315.2795), timeStamp: 2017-02-16 11:08:18.424
LEye coords (508.7793, 220.1697), REye coords (528.1998, 318.4911), timeStamp: 2017-02-16 11:08:18.458
LEye coords (510.4427, 222.7724), REye coords (528.1653, 322.2072), timeStamp: 2017-02-16 11:08:18.502
LEye coords (511.6948, 224.8688), REye coords (528.3538, 325.4471), timeStamp: 2017-02-16 11:08:18.536
LEye coords (510.2342, 226.0845), REye coords (528.647, 329.5391), timeStamp: 2017-02-16 11:08:18.570
LEye coords (507.6648, 226.4705), REye coords (528.8802, 332.843), timeStamp: 2017-02-16 11:08:18.616
LEye coords (506.2563, 228.888), REye coords (528.8203, 336.4018), timeStamp: 2017-02-16 11:08:18.650
LEye coords (504.9717, 229.7235), REye coords (529.1962, 339.5894), timeStamp: 2017-02-16 11:08:18.683
LEye coords (505.9529, 232.0178), REye coords (529.545, 342.1692), timeStamp: 2017-02-16 11:08:18.727
LEye coords (508.2969, 235.5021), REye coords (530.1003, 345.2983), timeStamp: 2017-02-16 11:08:18.761
LEye coords (509.3826, 240.2387), REye coords (530.6432, 348.1567), timeStamp: 2017-02-16 11:08:18.793
LEye coords (509.8976, 242.3396), REye coords (530.8338, 350.7431), timeStamp: 2017-02-16 11:08:18.838
LEye coords (509.6164, 244.8732), REye coords (530.7758, 353.5413), timeStamp: 2017-02-16 11:08:18.872
LEye coords (506.4293, 245.7224), REye coords (531.1622, 356.7158), timeStamp: 2017-02-16 11:08:18.905
LEye coords (506.9101, 248.2391), REye coords (531.3251, 359.634), timeStamp: 2017-02-16 11:08:18.938
LEye coords (505.2992, 247.8761), REye coords (531.0648, 362.2749), timeStamp: 2017-02-16 11:08:18.981
LEye coords (505.51, 248.5928), REye coords (530.6266, 365.2737), timeStamp: 2017-02-16 11:08:19.014
LEye coords (508.2643, 253.0975), REye coords (530.4233, 367.9193), timeStamp: 2017-02-16 11:08:19.058
LEye coords (509.9604, 255.8309), REye coords (531.0897, 369.6451), timeStamp: 2017-02-16 11:08:19.092
LEye coords (512.7581, 260.0137), REye coords (530.7893, 371.5707), timeStamp: 2017-02-16 11:08:19.124
LEye coords (513.8694, 263.8655), REye coords (530.5079, 373.017), timeStamp: 2017-02-16 11:08:19.167
LEye coords (515.8504, 270.5934), REye coords (530.4252, 373.5824), timeStamp: 2017-02-16 11:08:19.201
LEye coords (547.2036, 364.8551), REye coords (530.3624, 373.8778), timeStamp: 2017-02-16 11:08:19.245
LEye coords (588.9967, 432.5173), REye coords (530.5739, 376.5998), timeStamp: 2017-02-16 11:08:19.278
LEye coords (561.2656, 389.333), REye coords (530.4282, 379.1768), timeStamp: 2017-02-16 11:08:19.311
LEye coords (561.9698, 395.7451), REye coords (531.0461, 381.7206), timeStamp: 2017-02-16 11:08:19.355
LEye coords (554.9453, 393.9603), REye coords (531.0313, 384.3419), timeStamp: 2017-02-16 11:08:19.388
LEye coords (543.6815, 376.5348), REye coords (531.3159, 386.631), timeStamp: 2017-02-16 11:08:19.421
LEye coords (554.5911, 366.8119), REye coords (532.0976, 389.0627), timeStamp: 2017-02-16 11:08:19.465
LEye coords (554.6493, 357.3027), REye coords (532.8234, 391.9465), timeStamp: 2017-02-16 11:08:19.499
LEye coords (551.6438, 353.7399), REye coords (533.5209, 395.2773), timeStamp: 2017-02-16 11:08:19.534
LEye coords (547.6803, 352.8478), REye coords (533.7928, 398.3008), timeStamp: 2017-02-16 11:08:19.577
LEye coords (547.731, 353.0078), REye coords (533.981, 400.7057), timeStamp: 2017-02-16 11:08:19.611
LEye coords (545.2271, 352.573), REye coords (534.9396, 403.6386), timeStamp: 2017-02-16 11:08:19.645
LEye coords (542.2497, 351.6081), REye coords (535.9617, 405.5279), timeStamp: 2017-02-16 11:08:19.679
LEye coords (543.8432, 349.9431), REye coords (536.0374, 407.9133), timeStamp: 2017-02-16 11:08:19.722
LEye coords (543.8059, 346.9623), REye coords (536.8184, 410.4606), timeStamp: 2017-02-16 11:08:19.755
LEye coords (539.8153, 345.8148), REye coords (537.8542, 412.725), timeStamp: 2017-02-16 11:08:19.799
LEye coords (540.9391, 345.8974), REye coords (538.8904, 414.5096), timeStamp: 2017-02-16 11:08:19.832
LEye coords (542.1044, 344.3446), REye coords (539.5435, 416.628), timeStamp: 2017-02-16 11:08:19.865
LEye coords (540.6007, 342.7184), REye coords (539.5601, 419.8228), timeStamp: 2017-02-16 11:08:19.909
LEye coords (540.1943, 341.2427), REye coords (540.4407, 421.8637), timeStamp: 2017-02-16 11:08:19.944
LEye coords (537.7611, 340.9894), REye coords (541.5963, 423.7601), timeStamp: 2017-02-16 11:08:19.977
LEye coords (537.9079, 341.0581), REye coords (542.1616, 425.6036), timeStamp: 2017-02-16 11:08:20.020
LEye coords (534.6922, 339.7937), REye coords (543.2184, 427.6046), timeStamp: 2017-02-16 11:08:20.054
LEye coords (533.0723, 339.2263), REye coords (543.5869, 428.5028), timeStamp: 2017-02-16 11:08:20.088
LEye coords (531.6755, 336.3268), REye coords (544.1875, 426.742), timeStamp: 2017-02-16 11:08:20.132
LEye coords (531.7805, 334.5185), REye coords (544.5725, 425.0488), timeStamp: 2017-02-16 11:08:20.166
LEye coords (531.3766, 332.8962), REye coords (544.8062, 423.3652), timeStamp: 2017-02-16 11:08:20.199
LEye coords (528.8224, 331.2762), REye coords (545.2885, 421.7331), timeStamp: 2017-02-16 11:08:20.243
LEye coords (528.3283, 329.2121), REye coords (545.4819, 418.9783), timeStamp: 2017-02-16 11:08:20.277
LEye coords (526.875, 329.4163), REye coords (545.5466, 416.1241), timeStamp: 2017-02-16 11:08:20.309
LEye coords (525.9824, 328.4922), REye coords (545.6185, 413.8134), timeStamp: 2017-02-16 11:08:20.355
LEye coords (526.2512, 329.25), REye coords (546.1416, 411.0391), timeStamp: 2017-02-16 11:08:20.388
LEye coords (527.2675, 329.4259), REye coords (546.1191, 409.4991), timeStamp: 2017-02-16 11:08:20.422
LEye coords (528.023, 329.4962), REye coords (546.0991, 407.0005), timeStamp: 2017-02-16 11:08:20.466
LEye coords (529.3016, 331.566), REye coords (545.9571, 404.8665), timeStamp: 2017-02-16 11:08:20.501
LEye coords (529.5139, 331.2458), REye coords (545.9628, 403.3318), timeStamp: 2017-02-16 11:08:20.534
LEye coords (531.3866, 331.7223), REye coords (545.5092, 401.7307), timeStamp: 2017-02-16 11:08:20.569
LEye coords (534.2825, 333.181), REye coords (544.7548, 400.3745), timeStamp: 2017-02-16 11:08:20.612
LEye coords (536.2401, 333.3969), REye coords (543.8987, 399.4394), timeStamp: 2017-02-16 11:08:20.647
LEye coords (537.3704, 334.4415), REye coords (543.6483, 397.854), timeStamp: 2017-02-16 11:08:20.681
LEye coords (539.6466, 335.389), REye coords (543.299, 396.1941), timeStamp: 2017-02-16 11:08:20.725
LEye coords (540.4295, 334.9732), REye coords (542.8127, 395.6104), timeStamp: 2017-02-16 11:08:20.760
LEye coords (544.0952, 336.2941), REye coords (544.1895, 396.5726), timeStamp: 2017-02-16 11:08:20.793
LEye coords (545.19, 338.4183), REye coords (545.819, 397.8704), timeStamp: 2017-02-16 11:08:20.836
LEye coords (549.369, 340.0845), REye coords (547.3442, 399.0523), timeStamp: 2017-02-16 11:08:20.869
LEye coords (550.9803, 340.3703), REye coords (549.6907, 400.7057), timeStamp: 2017-02-16 11:08:20.902
LEye coords (553.8314, 341.7675), REye coords (551.4686, 402.7902), timeStamp: 2017-02-16 11:08:20.946
LEye coords (555.499, 342.2295), REye coords (553.0086, 405.5138), timeStamp: 2017-02-16 11:08:20.980
LEye coords (557.5098, 343.7553), REye coords (554.4103, 407.9442), timeStamp: 2017-02-16 11:08:21.013
LEye coords (558.7029, 344.8511), REye coords (555.8997, 411.0022), timeStamp: 2017-02-16 11:08:21.047
LEye coords (557.9186, 344.6501), REye coords (557.6477, 413.3741), timeStamp: 2017-02-16 11:08:21.092
LEye coords (558.3439, 345.573), REye coords (559.6483, 415.6053), timeStamp: 2017-02-16 11:08:21.125
LEye coords (559.9108, 347.3388), REye coords (561.4454, 417.6241), timeStamp: 2017-02-16 11:08:21.169
LEye coords (560.4906, 348.2695), REye coords (562.5353, 420.1084), timeStamp: 2017-02-16 11:08:21.202
LEye coords (560.4756, 349.2309), REye coords (564.381, 422.1956), timeStamp: 2017-02-16 11:08:21.234
LEye coords (561.0348, 351.1425), REye coords (565.9565, 424.0898), timeStamp: 2017-02-16 11:08:21.278
LEye coords (561.0747, 351.6549), REye coords (567.2428, 426.2012), timeStamp: 2017-02-16 11:08:21.311
LEye coords (560.8354, 351.2382), REye coords (568.2924, 428.0943), timeStamp: 2017-02-16 11:08:21.345
LEye coords (561.1378, 353.1861), REye coords (569.54, 429.6986), timeStamp: 2017-02-16 11:08:21.389
LEye coords (559.8049, 352.5155), REye coords (570.8209, 431.6022), timeStamp: 2017-02-16 11:08:21.422
LEye coords (558.2106, 353.3983), REye coords (571.8653, 433.0367), timeStamp: 2017-02-16 11:08:21.456
LEye coords (558.4997, 355.5216), REye coords (572.9144, 434.5197), timeStamp: 2017-02-16 11:08:21.500
LEye coords (558.0368, 356.0374), REye coords (573.6273, 437.0025), timeStamp: 2017-02-16 11:08:21.534
LEye coords (559.6031, 357.3068), REye coords (573.7674, 438.2281), timeStamp: 2017-02-16 11:08:21.567
LEye coords (560.6412, 358.2122), REye coords (574.1292, 439.5156), timeStamp: 2017-02-16 11:08:21.612
LEye coords (561.5057, 357.2347), REye coords (573.8409, 440.3754), timeStamp: 2017-02-16 11:08:21.645
LEye coords (561.6155, 356.0988), REye coords (573.7367, 440.7402), timeStamp: 2017-02-16 11:08:21.678
LEye coords (561.9662, 358.4465), REye coords (573.7849, 441.451), timeStamp: 2017-02-16 11:08:21.723
LEye coords (560.5056, 358.7273), REye coords (573.9066, 442.3652), timeStamp: 2017-02-16 11:08:21.757
LEye coords (561.914, 360.1279), REye coords (574.0972, 443.1424), timeStamp: 2017-02-16 11:08:21.790
