LEye coords (639.5645, 573.0536), REye coords (722.8331, 447.3355), timeStamp: 2017-02-16 11:09:40.738
LEye coords (639.5432, 574.806), REye coords (722.8707, 446.3619), timeStamp: 2017-02-16 11:09:40.771
LEye coords (637.6938, 576.8856), REye coords (721.7206, 447.6211), timeStamp: 2017-02-16 11:09:40.815
LEye coords (637.4944, 575.8777), REye coords (720.4762, 448.2838), timeStamp: 2017-02-16 11:09:40.850
LEye coords (634.0262, 575.7116), REye coords (721.0855, 447.7111), timeStamp: 2017-02-16 11:09:40.884
LEye coords (630.8366, 575.4032), REye coords (720.0695, 448.7918), timeStamp: 2017-02-16 11:09:40.927
LEye coords (628.9139, 574.1735), REye coords (718.8348, 449.6602), timeStamp: 2017-02-16 11:09:40.962
LEye coords (630.6202, 572.4203), REye coords (718.5828, 450.5125), timeStamp: 2017-02-16 11:09:40.995
LEye coords (633.6054, 569.888), REye coords (718.0836, 451.8194), timeStamp: 2017-02-16 11:09:41.029
LEye coords (636.7305, 569.4994), REye coords (718.0899, 451.3922), timeStamp: 2017-02-16 11:09:41.075
LEye coords (639.7183, 568.1278), REye coords (716.751, 451.1833), timeStamp: 2017-02-16 11:09:41.108
LEye coords (641.578, 392.8597), REye coords (639.6115, 363.1952), timeStamp: 2017-02-16 11:09:41.142
LEye coords (623.3334, 376.8411), REye coords (626.6468, 373.9917), timeStamp: 2017-02-16 11:09:41.186
LEye coords (583.7895, 365.1637), REye coords (629.7328, 378.8687), timeStamp: 2017-02-16 11:09:41.221
LEye coords (596.5092, 374.5849), REye coords (629.6666, 383.464), timeStamp: 2017-02-16 11:09:41.255
LEye coords (592.9603, 373.6961), REye coords (628.3634, 386.1591), timeStamp: 2017-02-16 11:09:41.287
LEye coords (627.8933, 391.6703), REye coords (626.4891, 387.0215), timeStamp: 2017-02-16 11:09:41.331
LEye coords (627.1715, 393.5309), REye coords (625.9288, 389.2252), timeStamp: 2017-02-16 11:09:41.365
LEye coords (632.4116, 396.1941), REye coords (631.1151, 372.4433), timeStamp: 2017-02-16 11:09:41.398
LEye coords (645.9409, 381.8767), REye coords (646.2228, 370.3817), timeStamp: 2017-02-16 11:09:41.442
LEye coords (652.303, 379.5751), REye coords (656.0124, 371.8371), timeStamp: 2017-02-16 11:09:41.475
LEye coords (653.289, 373.3428), REye coords (661.6623, 372.8717), timeStamp: 2017-02-16 11:09:41.519
LEye coords (658.262, 372.1962), REye coords (665.8046, 371.7004), timeStamp: 2017-02-16 11:09:41.551
LEye coords (661.8694, 371.511), REye coords (666.8732, 374.0786), timeStamp: 2017-02-16 11:09:41.584
LEye coords (663.5623, 368.0172), REye coords (668.3893, 374.1744), timeStamp: 2017-02-16 11:09:41.630
LEye coords (664.9453, 367.4756), REye coords (670.3121, 374.8554), timeStamp: 2017-02-16 11:09:41.664
LEye coords (665.2504, 366.0725), REye coords (672.061, 375.3017), timeStamp: 2017-02-16 11:09:41.697
LEye coords (665.3607, 365.4487), REye coords (674.4244, 375.461), timeStamp: 2017-02-16 11:09:41.740
LEye coords (665.6124, 364.511), REye coords (675.6838, 375.6449), timeStamp: 2017-02-16 11:09:41.774
LEye coords (665.6751, 364.7178), REye coords (0.0, 0.0), timeStamp: 2017-02-16 11:09:41.808
LEye coords (666.806, 366.2303), REye coords (0.0, 0.0), timeStamp: 2017-02-16 11:09:41.852
LEye coords (666.1888, 368.7437), REye coords (0.0, 0.0), timeStamp: 2017-02-16 11:09:41.887
LEye coords (696.2328, 497.994), REye coords (0.0, 0.0), timeStamp: 2017-02-16 11:09:41.920
LEye coords (0.0, 0.0), REye coords (0.0, 0.0), timeStamp: 2017-02-16 11:09:41.953
LEye coords (0.0, 0.0), REye coords (0.0, 0.0), timeStamp: 2017-02-16 11:09:41.997
LEye coords (700.2625, 418.3098), REye coords (0.0, 0.0), timeStamp: 2017-02-16 11:09:42.031
LEye coords (706.5014, 434.896), REye coords (0.0, 0.0), timeStamp: 2017-02-16 11:09:42.074
LEye coords (708.339, 439.9547), REye coords (0.0, 0.0), timeStamp: 2017-02-16 11:09:42.108
LEye coords (711.6131, 441.748), REye coords (0.0, 0.0), timeStamp: 2017-02-16 11:09:42.141
LEye coords (708.0311, 435.8949), REye coords (0.0, 0.0), timeStamp: 2017-02-16 11:09:42.184
LEye coords (698.1964, 425.9558), REye coords (0.0, 0.0), timeStamp: 2017-02-16 11:09:42.218
LEye coords (695.9638, 421.436), REye coords (0.0, 0.0), timeStamp: 2017-02-16 11:09:42.250
LEye coords (693.7787, 421.8387), REye coords (0.0, 0.0), timeStamp: 2017-02-16 11:09:42.295
LEye coords (694.2628, 421.9298), REye coords (0.0, 0.0), timeStamp: 2017-02-16 11:09:42.328
LEye coords (688.6664, 417.614), REye coords (0.0, 0.0), timeStamp: 2017-02-16 11:09:42.362
LEye coords (687.3925, 415.2207), REye coords (0.0, 0.0), timeStamp: 2017-02-16 11:09:42.405
LEye coords (682.5656, 411.807), REye coords (0.0, 0.0), timeStamp: 2017-02-16 11:09:42.438
LEye coords (593.6245, 336.8828), REye coords (0.0, 0.0), timeStamp: 2017-02-16 11:09:42.472
LEye coords (602.4721, 367.9585), REye coords (0.0, 0.0), timeStamp: 2017-02-16 11:09:42.517
LEye coords (612.4581, 364.9987), REye coords (0.0, 0.0), timeStamp: 2017-02-16 11:09:42.551
LEye coords (620.9265, 362.7028), REye coords (0.0, 0.0), timeStamp: 2017-02-16 11:09:42.586
LEye coords (623.1957, 369.0338), REye coords (0.0, 0.0), timeStamp: 2017-02-16 11:09:42.619
LEye coords (636.3842, 378.9897), REye coords (0.0, 0.0), timeStamp: 2017-02-16 11:09:42.663
LEye coords (646.9569, 384.8016), REye coords (0.0, 0.0), timeStamp: 2017-02-16 11:09:42.697
LEye coords (655.3726, 386.8871), REye coords (0.0, 0.0), timeStamp: 2017-02-16 11:09:42.731
LEye coords (661.1523, 393.3986), REye coords (0.0, 0.0), timeStamp: 2017-02-16 11:09:42.775
LEye coords (662.7257, 390.2398), REye coords (676.2787, 375.3698), timeStamp: 2017-02-16 11:09:42.808
LEye coords (663.713, 388.629), REye coords (677.6107, 373.5258), timeStamp: 2017-02-16 11:09:42.851
LEye coords (665.6169, 385.9179), REye coords (678.6917, 371.6655), timeStamp: 2017-02-16 11:09:42.885
LEye coords (661.0369, 377.8976), REye coords (679.4353, 370.418), timeStamp: 2017-02-16 11:09:42.919
LEye coords (662.4205, 378.2149), REye coords (680.0728, 368.9954), timeStamp: 2017-02-16 11:09:42.952
LEye coords (663.8094, 379.1934), REye coords (680.7656, 367.4833), timeStamp: 2017-02-16 11:09:42.996
LEye coords (663.593, 377.9762), REye coords (681.3521, 367.0522), timeStamp: 2017-02-16 11:09:43.030
LEye coords (663.6041, 377.5699), REye coords (0.0, 0.0), timeStamp: 2017-02-16 11:09:43.073
LEye coords (662.6743, 378.1988), REye coords (0.0, 0.0), timeStamp: 2017-02-16 11:09:43.106
LEye coords (662.5408, 378.3802), REye coords (0.0, 0.0), timeStamp: 2017-02-16 11:09:43.140
LEye coords (661.3865, 380.0213), REye coords (0.0, 0.0), timeStamp: 2017-02-16 11:09:43.184
LEye coords (661.647, 382.9344), REye coords (0.0, 0.0), timeStamp: 2017-02-16 11:09:43.218
LEye coords (662.5071, 385.7423), REye coords (681.6898, 365.5342), timeStamp: 2017-02-16 11:09:43.251
LEye coords (665.3434, 388.524), REye coords (683.7022, 364.2157), timeStamp: 2017-02-16 11:09:43.296
LEye coords (665.452, 388.4912), REye coords (685.1196, 362.8796), timeStamp: 2017-02-16 11:09:43.330
LEye coords (662.1047, 386.5876), REye coords (686.7357, 363.0523), timeStamp: 2017-02-16 11:09:43.363
LEye coords (657.1362, 385.5929), REye coords (688.9608, 362.5359), timeStamp: 2017-02-16 11:09:43.408
LEye coords (432.6836, 485.7001), REye coords (690.236, 362.3697), timeStamp: 2017-02-16 11:09:43.441
LEye coords (605.7635, 340.8065), REye coords (691.4014, 362.4336), timeStamp: 2017-02-16 11:09:43.474
LEye coords (0.0, 0.0), REye coords (691.3973, 364.2448), timeStamp: 2017-02-16 11:09:43.510
LEye coords (609.3099, 339.8725), REye coords (692.0535, 364.5396), timeStamp: 2017-02-16 11:09:43.554
LEye coords (602.3636, 340.9652), REye coords (692.8511, 364.4762), timeStamp: 2017-02-16 11:09:43.588
LEye coords (597.962, 344.4976), REye coords (692.9645, 363.9666), timeStamp: 2017-02-16 11:09:43.622
LEye coords (603.9319, 346.4319), REye coords (693.848, 362.0444), timeStamp: 2017-02-16 11:09:43.656
LEye coords (612.7447, 353.3203), REye coords (694.7648, 360.7763), timeStamp: 2017-02-16 11:09:43.700
LEye coords (622.5396, 359.8626), REye coords (695.2238, 360.035), timeStamp: 2017-02-16 11:09:43.734
LEye coords (627.8496, 366.5872), REye coords (696.1146, 360.4982), timeStamp: 2017-02-16 11:09:43.768
LEye coords (629.2993, 369.1331), REye coords (696.8787, 359.9282), timeStamp: 2017-02-16 11:09:43.812
LEye coords (631.9919, 371.9059), REye coords (697.0045, 360.6501), timeStamp: 2017-02-16 11:09:43.845
LEye coords (631.279, 373.5228), REye coords (697.3745, 361.8252), timeStamp: 2017-02-16 11:09:43.879
LEye coords (635.0424, 378.0307), REye coords (697.478, 362.2603), timeStamp: 2017-02-16 11:09:43.923
LEye coords (633.2376, 384.9287), REye coords (697.6591, 362.8062), timeStamp: 2017-02-16 11:09:43.956
LEye coords (0.0, 0.0), REye coords (700.058, 364.8676), timeStamp: 2017-02-16 11:09:43.990
LEye coords (637.5134, 390.6111), REye coords (702.666, 367.314), timeStamp: 2017-02-16 11:09:44.034
LEye coords (638.4959, 394.2561), REye coords (706.1009, 367.9993), timeStamp: 2017-02-16 11:09:44.068
LEye coords (640.692, 399.5747), REye coords (707.886, 370.2761), timeStamp: 2017-02-16 11:09:44.102
LEye coords (641.462, 407.433), REye coords (709.9956, 371.2592), timeStamp: 2017-02-16 11:09:44.147
LEye coords (646.2777, 412.0345), REye coords (711.5112, 372.1732), timeStamp: 2017-02-16 11:09:44.181
LEye coords (646.8578, 415.5992), REye coords (713.62, 372.3706), timeStamp: 2017-02-16 11:09:44.214
LEye coords (651.9089, 419.6938), REye coords (715.6717, 373.3651), timeStamp: 2017-02-16 11:09:44.258
LEye coords (654.1661, 423.0432), REye coords (717.5429, 373.6415), timeStamp: 2017-02-16 11:09:44.292
LEye coords (655.4858, 424.8519), REye coords (719.2424, 373.248), timeStamp: 2017-02-16 11:09:44.324
LEye coords (656.0138, 423.6929), REye coords (722.1857, 373.8492), timeStamp: 2017-02-16 11:09:44.369
LEye coords (658.8621, 425.0406), REye coords (724.9045, 372.4122), timeStamp: 2017-02-16 11:09:44.402
LEye coords (659.9577, 426.8378), REye coords (727.4214, 372.2346), timeStamp: 2017-02-16 11:09:44.436
LEye coords (663.4094, 427.4129), REye coords (730.4561, 371.3803), timeStamp: 2017-02-16 11:09:44.478
LEye coords (663.7698, 424.5568), REye coords (733.083, 370.8234), timeStamp: 2017-02-16 11:09:44.512
LEye coords (668.0097, 423.8336), REye coords (735.782, 370.4688), timeStamp: 2017-02-16 11:09:44.544
LEye coords (666.8448, 419.2767), REye coords (738.3215, 369.35), timeStamp: 2017-02-16 11:09:44.588
LEye coords (668.4258, 413.8628), REye coords (740.5503, 368.1859), timeStamp: 2017-02-16 11:09:44.621
LEye coords (665.8896, 410.2711), REye coords (742.9587, 367.6108), timeStamp: 2017-02-16 11:09:44.664
LEye coords (663.7744, 406.1833), REye coords (745.0002, 367.2841), timeStamp: 2017-02-16 11:09:44.698
LEye coords (662.3427, 401.0979), REye coords (746.7003, 367.5302), timeStamp: 2017-02-16 11:09:44.731
LEye coords (660.5128, 396.8828), REye coords (748.595, 367.3521), timeStamp: 2017-02-16 11:09:44.775
LEye coords (656.39, 393.8147), REye coords (749.3337, 365.2029), timeStamp: 2017-02-16 11:09:44.809
LEye coords (654.4597, 389.8897), REye coords (749.8557, 364.0262), timeStamp: 2017-02-16 11:09:44.844
LEye coords (651.1495, 383.4068), REye coords (750.4982, 363.7537), timeStamp: 2017-02-16 11:09:44.878
LEye coords (631.5715, 285.6411), REye coords (752.9313, 362.4287), timeStamp: 2017-02-16 11:09:44.922
LEye coords (678.1788, 335.9771), REye coords (755.825, 360.7268), timeStamp: 2017-02-16 11:09:44.955
LEye coords (653.6913, 317.6045), REye coords (758.5583, 358.9968), timeStamp: 2017-02-16 11:09:44.998
LEye coords (641.2976, 317.7071), REye coords (761.5336, 358.0139), timeStamp: 2017-02-16 11:09:45.032
LEye coords (636.2916, 308.4787), REye coords (764.7231, 356.1581), timeStamp: 2017-02-16 11:09:45.065
LEye coords (0.0, 0.0), REye coords (766.3149, 357.6725), timeStamp: 2017-02-16 11:09:45.109
LEye coords (631.5931, 306.4241), REye coords (769.4688, 355.7733), timeStamp: 2017-02-16 11:09:45.142
LEye coords (611.2908, 287.2624), REye coords (771.8691, 354.6682), timeStamp: 2017-02-16 11:09:45.175
LEye coords (644.2587, 248.2154), REye coords (773.7476, 354.4148), timeStamp: 2017-02-16 11:09:45.218
LEye coords (618.3676, 290.1575), REye coords (776.39, 353.0222), timeStamp: 2017-02-16 11:09:45.251
LEye coords (655.1509, 306.4187), REye coords (778.4401, 352.2614), timeStamp: 2017-02-16 11:09:45.286
LEye coords (648.5616, 309.8628), REye coords (780.494, 351.2865), timeStamp: 2017-02-16 11:09:45.329
LEye coords (637.3083, 314.2527), REye coords (782.3524, 350.2434), timeStamp: 2017-02-16 11:09:45.363
LEye coords (585.3764, 295.807), REye coords (784.6207, 349.5815), timeStamp: 2017-02-16 11:09:45.396
LEye coords (635.9963, 296.3767), REye coords (786.0345, 349.2088), timeStamp: 2017-02-16 11:09:45.440
LEye coords (625.6848, 302.5467), REye coords (787.406, 348.4742), timeStamp: 2017-02-16 11:09:45.472
LEye coords (632.0552, 305.5774), REye coords (787.8986, 347.7804), timeStamp: 2017-02-16 11:09:45.506
LEye coords (628.8821, 316.2794), REye coords (788.7575, 347.5948), timeStamp: 2017-02-16 11:09:45.550
LEye coords (630.0382, 336.0736), REye coords (788.6071, 348.9793), timeStamp: 2017-02-16 11:09:45.584
LEye coords (626.5078, 336.4017), REye coords (788.4587, 350.4088), timeStamp: 2017-02-16 11:09:45.628
LEye coords (0.0, 0.0), REye coords (787.9639, 352.3289), timeStamp: 2017-02-16 11:09:45.661
LEye coords (632.8769, 339.1566), REye coords (787.5332, 354.3537), timeStamp: 2017-02-16 11:09:45.694
LEye coords (641.5151, 347.0953), REye coords (786.4563, 356.7119), timeStamp: 2017-02-16 11:09:45.737
LEye coords (639.2894, 351.0998), REye coords (785.803, 359.0606), timeStamp: 2017-02-16 11:09:45.771
LEye coords (645.3817, 355.4416), REye coords (785.3846, 361.4576), timeStamp: 2017-02-16 11:09:45.805
LEye coords (648.976, 358.6949), REye coords (784.9393, 364.3123), timeStamp: 2017-02-16 11:09:45.849
LEye coords (648.8857, 362.9312), REye coords (784.382, 367.0357), timeStamp: 2017-02-16 11:09:45.883
LEye coords (649.522, 360.8947), REye coords (783.8989, 368.4916), timeStamp: 2017-02-16 11:09:45.916
LEye coords (648.0494, 364.2049), REye coords (783.1109, 370.9605), timeStamp: 2017-02-16 11:09:45.958
LEye coords (655.3684, 366.5432), REye coords (782.8843, 373.0952), timeStamp: 2017-02-16 11:09:45.991
LEye coords (658.9789, 369.0618), REye coords (782.9692, 374.9345), timeStamp: 2017-02-16 11:09:46.025
LEye coords (662.035, 370.8055), REye coords (783.6779, 376.6298), timeStamp: 2017-02-16 11:09:46.069
LEye coords (666.2531, 370.9486), REye coords (783.7838, 377.4479), timeStamp: 2017-02-16 11:09:46.103
LEye coords (774.681, 436.4511), REye coords (783.78, 379.3761), timeStamp: 2017-02-16 11:09:46.136
LEye coords (744.8913, 410.3566), REye coords (783.9637, 380.6504), timeStamp: 2017-02-16 11:09:46.179
LEye coords (722.0259, 437.228), REye coords (784.4203, 381.9896), timeStamp: 2017-02-16 11:09:46.212
LEye coords (736.1127, 446.2003), REye coords (784.7601, 384.3716), timeStamp: 2017-02-16 11:09:46.257
LEye coords (749.2795, 454.0053), REye coords (784.9237, 386.4875), timeStamp: 2017-02-16 11:09:46.290
LEye coords (0.0, 0.0), REye coords (787.9565, 387.3893), timeStamp: 2017-02-16 11:09:46.324
LEye coords (746.4178, 457.5779), REye coords (786.6876, 388.9656), timeStamp: 2017-02-16 11:09:46.367
LEye coords (747.1012, 460.2121), REye coords (786.2825, 389.4862), timeStamp: 2017-02-16 11:09:46.399
LEye coords (748.3499, 457.7343), REye coords (785.9908, 389.4404), timeStamp: 2017-02-16 11:09:46.433
LEye coords (738.8122, 451.8941), REye coords (786.3003, 389.8766), timeStamp: 2017-02-16 11:09:46.478
LEye coords (740.7034, 449.9187), REye coords (786.2519, 389.9557), timeStamp: 2017-02-16 11:09:46.510
LEye coords (738.3518, 446.633), REye coords (786.2604, 389.9035), timeStamp: 2017-02-16 11:09:46.543
LEye coords (740.7071, 444.7083), REye coords (785.8536, 390.7901), timeStamp: 2017-02-16 11:09:46.587
LEye coords (743.5256, 445.621), REye coords (786.0549, 390.8887), timeStamp: 2017-02-16 11:09:46.621
LEye coords (742.0015, 445.8074), REye coords (785.6041, 390.674), timeStamp: 2017-02-16 11:09:46.655
LEye coords (737.8114, 444.0545), REye coords (784.7546, 389.6769), timeStamp: 2017-02-16 11:09:46.698
LEye coords (729.773, 445.2665), REye coords (784.1838, 390.1539), timeStamp: 2017-02-16 11:09:46.731
LEye coords (725.6849, 443.1671), REye coords (783.3331, 391.1292), timeStamp: 2017-02-16 11:09:46.775
LEye coords (719.7998, 441.9344), REye coords (782.3456, 390.9057), timeStamp: 2017-02-16 11:09:46.809
LEye coords (715.2889, 437.7629), REye coords (781.1947, 392.3947), timeStamp: 2017-02-16 11:09:46.843
LEye coords (711.6496, 435.396), REye coords (779.5844, 392.1578), timeStamp: 2017-02-16 11:09:46.876
LEye coords (708.1053, 431.5418), REye coords (778.5076, 392.7788), timeStamp: 2017-02-16 11:09:46.920
LEye coords (703.7925, 431.3141), REye coords (777.5472, 393.663), timeStamp: 2017-02-16 11:09:46.953
LEye coords (0.0, 0.0), REye coords (777.2762, 393.5833), timeStamp: 2017-02-16 11:09:46.997
LEye coords (701.6345, 427.9078), REye coords (775.9169, 391.5105), timeStamp: 2017-02-16 11:09:47.030
LEye coords (696.8252, 426.3995), REye coords (774.7926, 389.7188), timeStamp: 2017-02-16 11:09:47.063
LEye coords (693.2944, 421.7415), REye coords (773.6511, 387.6591), timeStamp: 2017-02-16 11:09:47.107
LEye coords (689.8472, 419.2282), REye coords (772.0337, 386.4745), timeStamp: 2017-02-16 11:09:47.141
LEye coords (686.008, 415.9662), REye coords (771.7457, 384.3632), timeStamp: 2017-02-16 11:09:47.175
LEye coords (682.938, 412.7851), REye coords (772.2412, 382.1894), timeStamp: 2017-02-16 11:09:47.209
LEye coords (643.1358, 429.3885), REye coords (771.5927, 379.1602), timeStamp: 2017-02-16 11:09:47.254
LEye coords (639.5991, 405.0311), REye coords (769.7585, 377.6822), timeStamp: 2017-02-16 11:09:47.287
LEye coords (645.5029, 409.705), REye coords (768.2878, 376.5974), timeStamp: 2017-02-16 11:09:47.320
LEye coords (671.048, 407.0598), REye coords (766.9854, 375.0894), timeStamp: 2017-02-16 11:09:47.366
LEye coords (675.4008, 399.4645), REye coords (765.6419, 374.7863), timeStamp: 2017-02-16 11:09:47.400
