LEye coords (762.1477, 457.0011), REye coords (817.8018, 475.4993), timeStamp: 2017-02-16 11:11:02.272
LEye coords (794.3744, 476.8439), REye coords (815.8742, 475.4607), timeStamp: 2017-02-16 11:11:02.306
LEye coords (779.7408, 461.491), REye coords (815.0332, 475.7596), timeStamp: 2017-02-16 11:11:02.349
LEye coords (768.7972, 461.112), REye coords (814.4802, 475.6217), timeStamp: 2017-02-16 11:11:02.384
LEye coords (760.1904, 443.0217), REye coords (814.167, 476.2509), timeStamp: 2017-02-16 11:11:02.417
LEye coords (754.4934, 440.9007), REye coords (813.8572, 476.006), timeStamp: 2017-02-16 11:11:02.460
LEye coords (754.0418, 443.3049), REye coords (813.746, 476.2485), timeStamp: 2017-02-16 11:11:02.494
LEye coords (753.6212, 443.0574), REye coords (813.6274, 476.1757), timeStamp: 2017-02-16 11:11:02.526
LEye coords (752.561, 439.3699), REye coords (813.2796, 475.2801), timeStamp: 2017-02-16 11:11:02.571
LEye coords (0.0, 0.0), REye coords (813.4382, 474.8918), timeStamp: 2017-02-16 11:11:02.605
LEye coords (752.7227, 438.8728), REye coords (812.9161, 474.8875), timeStamp: 2017-02-16 11:11:02.639
LEye coords (751.4487, 435.9661), REye coords (812.5208, 474.8084), timeStamp: 2017-02-16 11:11:02.684
LEye coords (751.4245, 437.7491), REye coords (811.9359, 474.953), timeStamp: 2017-02-16 11:11:02.717
LEye coords (575.8114, 183.4365), REye coords (799.8296, 318.2634), timeStamp: 2017-02-16 11:11:02.751
LEye coords (548.9161, 181.5121), REye coords (793.8033, 324.9232), timeStamp: 2017-02-16 11:11:02.785
LEye coords (620.825, 206.4), REye coords (790.4293, 328.1854), timeStamp: 2017-02-16 11:11:02.829
LEye coords (649.337, 218.7734), REye coords (791.4581, 324.7411), timeStamp: 2017-02-16 11:11:02.863
LEye coords (657.5269, 221.4846), REye coords (788.1414, 332.0441), timeStamp: 2017-02-16 11:11:02.896
LEye coords (738.2087, 307.7043), REye coords (772.6588, 342.1725), timeStamp: 2017-02-16 11:11:02.940
LEye coords (712.6534, 284.4095), REye coords (771.7862, 360.1569), timeStamp: 2017-02-16 11:11:02.973
LEye coords (698.9797, 276.5078), REye coords (776.1393, 357.8005), timeStamp: 2017-02-16 11:11:03.006
LEye coords (703.6722, 286.9451), REye coords (777.9178, 355.2635), timeStamp: 2017-02-16 11:11:03.050
LEye coords (707.3013, 296.0887), REye coords (777.3311, 356.5423), timeStamp: 2017-02-16 11:11:03.084
LEye coords (693.077, 292.2615), REye coords (777.4423, 354.2594), timeStamp: 2017-02-16 11:11:03.128
LEye coords (307.5614, 748.2332), REye coords (337.8177, 626.8773), timeStamp: 2017-02-16 11:11:03.161
LEye coords (-29.2711, 1027.8876), REye coords (168.0742, 822.784), timeStamp: 2017-02-16 11:11:03.195
LEye coords (-31.0123, 1022.7681), REye coords (148.5745, 836.2838), timeStamp: 2017-02-16 11:11:03.229
LEye coords (0.0, 0.0), REye coords (140.9396, 844.2637), timeStamp: 2017-02-16 11:11:03.274
LEye coords (-22.2807, 999.9901), REye coords (137.8501, 849.2967), timeStamp: 2017-02-16 11:11:03.307
LEye coords (-42.512, 1010.6423), REye coords (59.974, 920.8118), timeStamp: 2017-02-16 11:11:03.340
LEye coords (-131.4263, 1034.0739), REye coords (53.5909, 932.7357), timeStamp: 2017-02-16 11:11:03.385
LEye coords (-36.2638, 1038.2482), REye coords (57.7432, 930.0027), timeStamp: 2017-02-16 11:11:03.417
LEye coords (-47.7321, 1015.9911), REye coords (52.0676, 931.7598), timeStamp: 2017-02-16 11:11:03.451
LEye coords (-52.5584, 995.7123), REye coords (52.0761, 930.2443), timeStamp: 2017-02-16 11:11:03.495
LEye coords (-56.7717, 998.076), REye coords (49.1982, 930.847), timeStamp: 2017-02-16 11:11:03.529
LEye coords (-60.5352, 998.2973), REye coords (48.6421, 931.3345), timeStamp: 2017-02-16 11:11:03.572
LEye coords (-60.223, 995.955), REye coords (47.2493, 931.6393), timeStamp: 2017-02-16 11:11:03.605
LEye coords (-62.5882, 997.7844), REye coords (47.4454, 931.0387), timeStamp: 2017-02-16 11:11:03.639
LEye coords (-61.0517, 999.6634), REye coords (45.3548, 930.1666), timeStamp: 2017-02-16 11:11:03.673
LEye coords (-59.6416, 997.58), REye coords (45.0121, 929.6028), timeStamp: 2017-02-16 11:11:03.717
LEye coords (-58.4728, 996.2912), REye coords (47.1976, 927.965), timeStamp: 2017-02-16 11:11:03.750
LEye coords (-56.8683, 995.7051), REye coords (46.3488, 926.6347), timeStamp: 2017-02-16 11:11:03.784
LEye coords (-51.232, 992.6973), REye coords (51.2868, 923.8456), timeStamp: 2017-02-16 11:11:03.828
LEye coords (625.5668, 613.1768), REye coords (657.2004, 521.1161), timeStamp: 2017-02-16 11:11:03.862
LEye coords (0.0, 0.0), REye coords (0.0, 0.0), timeStamp: 2017-02-16 11:11:03.896
LEye coords (589.4379, 401.0101), REye coords (699.9196, 470.2617), timeStamp: 2017-02-16 11:11:03.940
LEye coords (553.9288, 378.4805), REye coords (701.6295, 469.4258), timeStamp: 2017-02-16 11:11:03.973
LEye coords (587.4894, 376.0103), REye coords (704.7593, 472.3586), timeStamp: 2017-02-16 11:11:04.008
LEye coords (589.7213, 363.7852), REye coords (705.4828, 473.1285), timeStamp: 2017-02-16 11:11:04.053
LEye coords (590.4075, 353.3368), REye coords (715.6963, 465.3068), timeStamp: 2017-02-16 11:11:04.086
LEye coords (551.4698, 320.9814), REye coords (717.2334, 470.2287), timeStamp: 2017-02-16 11:11:04.120
LEye coords (548.1135, 323.1435), REye coords (710.1321, 471.9464), timeStamp: 2017-02-16 11:11:04.164
LEye coords (589.5431, 352.0357), REye coords (711.0191, 472.1775), timeStamp: 2017-02-16 11:11:04.198
LEye coords (0.0, 0.0), REye coords (710.6271, 474.0418), timeStamp: 2017-02-16 11:11:04.232
LEye coords (619.588, 378.9026), REye coords (709.426, 475.6141), timeStamp: 2017-02-16 11:11:04.266
LEye coords (710.7397, 467.3151), REye coords (707.7905, 475.1924), timeStamp: 2017-02-16 11:11:04.310
LEye coords (570.1269, 218.8524), REye coords (598.6735, 245.3779), timeStamp: 2017-02-16 11:25:07.518
LEye coords (568.8542, 220.4318), REye coords (598.2839, 242.8001), timeStamp: 2017-02-16 11:25:07.560
LEye coords (567.7485, 222.8262), REye coords (599.3151, 240.9878), timeStamp: 2017-02-16 11:25:07.594
LEye coords (567.7442, 223.2388), REye coords (598.6076, 242.2978), timeStamp: 2017-02-16 11:25:07.628
LEye coords (567.1875, 224.8735), REye coords (598.0615, 241.492), timeStamp: 2017-02-16 11:25:07.672
LEye coords (567.3801, 227.5409), REye coords (597.8358, 241.2374), timeStamp: 2017-02-16 11:25:07.706
LEye coords (567.4396, 228.5872), REye coords (597.7548, 242.8058), timeStamp: 2017-02-16 11:25:07.740
LEye coords (567.0874, 230.0156), REye coords (596.7863, 244.2573), timeStamp: 2017-02-16 11:25:07.784
LEye coords (567.7814, 230.1949), REye coords (595.9714, 244.5157), timeStamp: 2017-02-16 11:25:07.818
LEye coords (567.3679, 231.3993), REye coords (594.7483, 247.4987), timeStamp: 2017-02-16 11:25:07.852
LEye coords (567.1772, 232.0373), REye coords (594.0164, 248.5575), timeStamp: 2017-02-16 11:25:07.885
LEye coords (567.2264, 233.0065), REye coords (593.445, 251.9558), timeStamp: 2017-02-16 11:25:07.931
LEye coords (566.405, 234.5648), REye coords (592.8736, 256.1818), timeStamp: 2017-02-16 11:25:07.964
LEye coords (565.6736, 236.0307), REye coords (591.6265, 259.4324), timeStamp: 2017-02-16 11:25:07.997
LEye coords (893.4827, 325.5967), REye coords (870.1461, 342.0599), timeStamp: 2017-02-16 11:25:08.041
LEye coords (895.2283, 332.2185), REye coords (884.7453, 337.3917), timeStamp: 2017-02-16 11:25:08.074
LEye coords (892.9937, 334.9111), REye coords (0.0, 0.0), timeStamp: 2017-02-16 11:25:08.108
LEye coords (893.5537, 330.7497), REye coords (0.0, 0.0), timeStamp: 2017-02-16 11:25:08.152
LEye coords (893.9489, 335.5334), REye coords (0.0, 0.0), timeStamp: 2017-02-16 11:25:08.185
LEye coords (0.0, 0.0), REye coords (885.3788, 345.9174), timeStamp: 2017-02-16 11:25:08.219
LEye coords (0.0, 0.0), REye coords (883.0817, 345.4779), timeStamp: 2017-02-16 11:25:08.263
LEye coords (0.0, 0.0), REye coords (885.2251, 346.9935), timeStamp: 2017-02-16 11:25:08.297
LEye coords (0.0, 0.0), REye coords (884.0452, 349.4857), timeStamp: 2017-02-16 11:25:08.330
LEye coords (0.0, 0.0), REye coords (889.0051, 340.5005), timeStamp: 2017-02-16 11:25:08.374
LEye coords (0.0, 0.0), REye coords (885.1048, 347.4172), timeStamp: 2017-02-16 11:25:08.408
LEye coords (0.0, 0.0), REye coords (885.9002, 351.0606), timeStamp: 2017-02-16 11:25:08.443
LEye coords (0.0, 0.0), REye coords (885.0272, 355.7251), timeStamp: 2017-02-16 11:25:08.486
LEye coords (956.7398, 356.7188), REye coords (899.4284, 357.1815), timeStamp: 2017-02-16 11:25:08.521
LEye coords (1012.9739, 347.7408), REye coords (1034.8523, 365.3809), timeStamp: 2017-02-16 11:25:08.554
LEye coords (1018.0604, 349.8842), REye coords (1033.2863, 357.3821), timeStamp: 2017-02-16 11:25:08.597
LEye coords (1022.6404, 351.6543), REye coords (1039.147, 354.5495), timeStamp: 2017-02-16 11:25:08.631
LEye coords (1024.2369, 352.4416), REye coords (1035.5509, 355.2926), timeStamp: 2017-02-16 11:25:08.665
LEye coords (1024.2592, 354.0643), REye coords (1035.7991, 357.5246), timeStamp: 2017-02-16 11:25:08.710
LEye coords (1019.8131, 356.1992), REye coords (1033.9781, 359.2084), timeStamp: 2017-02-16 11:25:08.744
LEye coords (1019.2501, 356.8227), REye coords (1033.5125, 360.4731), timeStamp: 2017-02-16 11:25:08.778
LEye coords (1020.4868, 357.7019), REye coords (1034.3085, 362.3343), timeStamp: 2017-02-16 11:25:08.812
LEye coords (1021.938, 357.8195), REye coords (1034.4658, 362.9856), timeStamp: 2017-02-16 11:25:08.857
LEye coords (1020.2641, 356.7203), REye coords (1033.9385, 364.6266), timeStamp: 2017-02-16 11:25:08.891
LEye coords (1020.108, 357.0305), REye coords (1033.5747, 365.2368), timeStamp: 2017-02-16 11:25:08.925
LEye coords (1020.0273, 357.2711), REye coords (1033.4841, 365.4718), timeStamp: 2017-02-16 11:25:08.959
LEye coords (1018.7085, 358.8698), REye coords (1033.1571, 366.0288), timeStamp: 2017-02-16 11:25:09.003
LEye coords (1018.9139, 359.5855), REye coords (1032.5674, 365.8703), timeStamp: 2017-02-16 11:25:09.037
LEye coords (1019.0489, 358.1656), REye coords (1032.8796, 365.9179), timeStamp: 2017-02-16 11:25:09.070
LEye coords (1019.0287, 357.8649), REye coords (1033.1876, 365.7663), timeStamp: 2017-02-16 11:25:09.115
LEye coords (1022.3529, 357.8956), REye coords (1035.5122, 366.0868), timeStamp: 2017-02-16 11:25:09.149
LEye coords (1025.6335, 357.7151), REye coords (1037.226, 366.8303), timeStamp: 2017-02-16 11:25:09.185
LEye coords (1028.1493, 357.3752), REye coords (1039.0582, 367.2468), timeStamp: 2017-02-16 11:25:09.218
LEye coords (1031.3337, 357.0289), REye coords (1041.0062, 367.5496), timeStamp: 2017-02-16 11:25:09.263
LEye coords (1034.5795, 356.9929), REye coords (1042.1658, 368.3705), timeStamp: 2017-02-16 11:25:09.296
LEye coords (1036.53, 356.9738), REye coords (1044.3528, 368.4059), timeStamp: 2017-02-16 11:25:09.329
LEye coords (1038.4832, 357.3522), REye coords (1045.9464, 367.737), timeStamp: 2017-02-16 11:25:09.371
LEye coords (1040.0316, 357.1952), REye coords (1047.1255, 368.2982), timeStamp: 2017-02-16 11:25:09.406
LEye coords (1041.0067, 357.9008), REye coords (1048.576, 368.5677), timeStamp: 2017-02-16 11:25:09.449
LEye coords (1042.1877, 357.9453), REye coords (1050.0385, 368.11), timeStamp: 2017-02-16 11:25:09.483
LEye coords (1043.2745, 357.3943), REye coords (1051.2811, 368.4348), timeStamp: 2017-02-16 11:25:09.516
LEye coords (1044.8667, 356.5853), REye coords (1052.884, 368.01), timeStamp: 2017-02-16 11:25:09.560
LEye coords (1046.0995, 356.3919), REye coords (1054.4473, 367.1964), timeStamp: 2017-02-16 11:25:09.594
LEye coords (1047.3481, 356.2897), REye coords (1055.9514, 365.8757), timeStamp: 2017-02-16 11:25:09.628
LEye coords (1048.4863, 355.6629), REye coords (1057.1829, 365.5245), timeStamp: 2017-02-16 11:25:09.671
LEye coords (1049.6559, 355.1135), REye coords (1058.7512, 364.7779), timeStamp: 2017-02-16 11:25:09.705
LEye coords (1051.3611, 354.7486), REye coords (1060.493, 364.4984), timeStamp: 2017-02-16 11:25:09.739
LEye coords (1052.9576, 354.3411), REye coords (1061.0078, 364.6815), timeStamp: 2017-02-16 11:25:09.773
LEye coords (1054.3676, 353.9299), REye coords (1062.2211, 363.9778), timeStamp: 2017-02-16 11:25:09.816
LEye coords (1055.4294, 353.3517), REye coords (1063.3936, 364.246), timeStamp: 2017-02-16 11:25:09.851
LEye coords (1056.3335, 352.7329), REye coords (1063.7701, 363.9109), timeStamp: 2017-02-16 11:25:09.884
LEye coords (1058.0728, 351.6839), REye coords (1064.3077, 363.8203), timeStamp: 2017-02-16 11:25:09.929
LEye coords (1058.7089, 351.3862), REye coords (1065.0254, 362.5677), timeStamp: 2017-02-16 11:25:09.963
LEye coords (1059.6002, 350.6877), REye coords (1065.3721, 362.2302), timeStamp: 2017-02-16 11:25:09.997
LEye coords (1059.7786, 350.407), REye coords (1065.1987, 362.0995), timeStamp: 2017-02-16 11:25:10.042
LEye coords (1060.2644, 350.2453), REye coords (1065.1547, 361.7454), timeStamp: 2017-02-16 11:25:10.077
LEye coords (1060.7275, 349.5035), REye coords (1064.8788, 361.5521), timeStamp: 2017-02-16 11:25:10.110
LEye coords (1061.389, 348.5167), REye coords (1064.5498, 361.3051), timeStamp: 2017-02-16 11:25:10.144
LEye coords (1062.1837, 347.4699), REye coords (1064.3258, 360.5907), timeStamp: 2017-02-16 11:25:10.188
LEye coords (1063.0729, 347.307), REye coords (1063.9463, 359.8905), timeStamp: 2017-02-16 11:25:10.222
LEye coords (1064.2893, 346.3282), REye coords (1063.8777, 359.5037), timeStamp: 2017-02-16 11:25:10.256
LEye coords (1065.4641, 345.4907), REye coords (1064.0911, 358.8114), timeStamp: 2017-02-16 11:25:10.301
LEye coords (1066.7999, 344.2249), REye coords (1063.9774, 358.4761), timeStamp: 2017-02-16 11:25:10.335
LEye coords (1065.5206, 345.0099), REye coords (1062.2426, 359.1284), timeStamp: 2017-02-16 11:25:10.369
LEye coords (1064.0029, 346.358), REye coords (1060.1744, 361.3272), timeStamp: 2017-02-16 11:25:10.403
LEye coords (1062.0215, 347.7745), REye coords (1058.316, 362.6321), timeStamp: 2017-02-16 11:25:10.446
LEye coords (1060.3875, 349.0632), REye coords (1056.2488, 363.5944), timeStamp: 2017-02-16 11:25:10.481
LEye coords (1060.1111, 350.1804), REye coords (1055.8829, 364.6308), timeStamp: 2017-02-16 11:25:10.515
LEye coords (1061.1157, 349.8838), REye coords (1057.0629, 364.615), timeStamp: 2017-02-16 11:25:10.558
LEye coords (1062.3448, 349.7024), REye coords (1057.7825, 364.7162), timeStamp: 2017-02-16 11:25:10.593
LEye coords (1063.6173, 349.4083), REye coords (1058.5177, 364.6012), timeStamp: 2017-02-16 11:25:10.627
LEye coords (1064.8573, 349.1109), REye coords (1059.9722, 364.093), timeStamp: 2017-02-16 11:25:10.671
LEye coords (1066.2416, 348.8172), REye coords (1060.871, 363.8835), timeStamp: 2017-02-16 11:25:10.704
LEye coords (1067.0684, 349.4593), REye coords (1063.3147, 362.6421), timeStamp: 2017-02-16 11:25:10.738
LEye coords (1068.3483, 349.3773), REye coords (1064.7867, 362.1862), timeStamp: 2017-02-16 11:25:10.782
LEye coords (1068.8367, 349.9841), REye coords (1066.6074, 361.2773), timeStamp: 2017-02-16 11:25:10.816
LEye coords (1069.911, 350.4771), REye coords (1067.3231, 360.9782), timeStamp: 2017-02-16 11:25:10.851
LEye coords (1070.9181, 350.2588), REye coords (1067.7126, 360.8016), timeStamp: 2017-02-16 11:25:10.886
LEye coords (1072.1147, 350.9464), REye coords (1068.8065, 360.3799), timeStamp: 2017-02-16 11:25:10.930
LEye coords (1072.8542, 351.1117), REye coords (1070.4155, 359.6279), timeStamp: 2017-02-16 11:25:10.964
LEye coords (1073.4847, 351.3523), REye coords (1071.0051, 359.7423), timeStamp: 2017-02-16 11:25:10.997
LEye coords (1074.1045, 351.5583), REye coords (1071.7042, 360.2847), timeStamp: 2017-02-16 11:25:11.042
LEye coords (1074.8386, 351.7354), REye coords (1072.0845, 360.2262), timeStamp: 2017-02-16 11:25:11.076
LEye coords (1070.5842, 352.1154), REye coords (1068.0398, 360.8861), timeStamp: 2017-02-16 11:25:11.110
LEye coords (1067.73, 353.1973), REye coords (1065.8015, 359.2279), timeStamp: 2017-02-16 11:25:11.144
LEye coords (1065.4746, 354.1071), REye coords (1063.3016, 358.0655), timeStamp: 2017-02-16 11:25:11.187
LEye coords (1063.0802, 354.0007), REye coords (1061.6876, 355.8773), timeStamp: 2017-02-16 11:25:11.221
LEye coords (1061.3204, 353.7958), REye coords (1059.0154, 354.4875), timeStamp: 2017-02-16 11:25:11.255
LEye coords (1058.5986, 354.5533), REye coords (1056.3667, 353.6172), timeStamp: 2017-02-16 11:25:11.299
LEye coords (1055.6554, 355.1861), REye coords (1053.326, 353.7009), timeStamp: 2017-02-16 11:25:11.332
LEye coords (1051.8683, 355.6377), REye coords (1049.9056, 353.6835), timeStamp: 2017-02-16 11:25:11.367
LEye coords (1048.7036, 355.9667), REye coords (1046.7809, 353.2057), timeStamp: 2017-02-16 11:25:11.411
LEye coords (1045.6023, 356.8602), REye coords (1042.8229, 353.8697), timeStamp: 2017-02-16 11:25:11.444
LEye coords (1042.8024, 357.5999), REye coords (1039.668, 354.4655), timeStamp: 2017-02-16 11:25:11.478
LEye coords (1039.1882, 357.3427), REye coords (1036.3748, 354.6845), timeStamp: 2017-02-16 11:25:11.522
LEye coords (1036.2748, 356.7192), REye coords (1033.0386, 354.338), timeStamp: 2017-02-16 11:25:11.556
LEye coords (1032.8668, 356.7854), REye coords (1030.2092, 353.9289), timeStamp: 2017-02-16 11:25:11.590
LEye coords (1032.1084, 358.1008), REye coords (1027.7509, 353.9979), timeStamp: 2017-02-16 11:25:11.623
LEye coords (1031.1946, 359.0034), REye coords (1027.1578, 353.3327), timeStamp: 2017-02-16 11:25:11.667
LEye coords (1030.676, 359.4594), REye coords (1026.7366, 353.647), timeStamp: 2017-02-16 11:25:11.701
LEye coords (1030.0126, 360.5276), REye coords (1026.1288, 354.4081), timeStamp: 2017-02-16 11:25:11.735
LEye coords (1029.8435, 361.0791), REye coords (1026.0244, 354.7181), timeStamp: 2017-02-16 11:25:11.778
LEye coords (1029.923, 360.7765), REye coords (1026.1387, 355.9387), timeStamp: 2017-02-16 11:25:11.812
LEye coords (1030.672, 361.1046), REye coords (1025.4413, 356.595), timeStamp: 2017-02-16 11:25:11.846
LEye coords (1030.397, 361.4178), REye coords (1025.0367, 357.3858), timeStamp: 2017-02-16 11:25:11.890
LEye coords (1031.5219, 361.5187), REye coords (1026.265, 357.3758), timeStamp: 2017-02-16 11:25:11.923
LEye coords (1032.5425, 361.5962), REye coords (1026.8505, 358.1657), timeStamp: 2017-02-16 11:25:11.967
LEye coords (1033.3673, 362.4461), REye coords (1027.779, 358.7499), timeStamp: 2017-02-16 11:25:12.000
LEye coords (1034.2183, 362.9873), REye coords (1027.6495, 359.5755), timeStamp: 2017-02-16 11:25:12.033
LEye coords (1034.5825, 364.0064), REye coords (1028.1223, 359.3161), timeStamp: 2017-02-16 11:25:12.077
LEye coords (1034.6337, 364.699), REye coords (1028.0989, 359.7099), timeStamp: 2017-02-16 11:25:12.109
LEye coords (1034.7974, 364.965), REye coords (1027.6283, 359.9018), timeStamp: 2017-02-16 11:25:12.144
LEye coords (1035.4647, 366.1017), REye coords (1027.7378, 359.8365), timeStamp: 2017-02-16 11:25:12.189
LEye coords (1035.6482, 366.4766), REye coords (1027.6116, 360.2704), timeStamp: 2017-02-16 11:25:12.222
LEye coords (1035.5892, 366.8154), REye coords (1027.5079, 361.1438), timeStamp: 2017-02-16 11:25:12.257
LEye coords (1035.1246, 367.1113), REye coords (1026.9337, 362.32), timeStamp: 2017-02-16 11:25:12.291
LEye coords (1035.1127, 366.8159), REye coords (1027.8893, 361.0658), timeStamp: 2017-02-16 11:25:12.335
LEye coords (1035.4995, 365.8294), REye coords (1027.7213, 361.0625), timeStamp: 2017-02-16 11:25:12.370
LEye coords (1035.5818, 365.6947), REye coords (1027.2037, 361.1511), timeStamp: 2017-02-16 11:25:12.404
LEye coords (1034.8906, 364.5098), REye coords (1026.8202, 361.605), timeStamp: 2017-02-16 11:25:12.448
LEye coords (1034.9237, 363.3601), REye coords (1025.9084, 361.6752), timeStamp: 2017-02-16 11:25:12.482
LEye coords (1034.7833, 362.3883), REye coords (1026.4673, 360.254), timeStamp: 2017-02-16 11:25:12.516
LEye coords (1034.1569, 361.3506), REye coords (1026.2097, 360.1408), timeStamp: 2017-02-16 11:25:12.549
LEye coords (1033.2467, 360.6115), REye coords (1025.6456, 359.4465), timeStamp: 2017-02-16 11:25:12.593
LEye coords (1033.1315, 360.0217), REye coords (1025.4377, 359.323), timeStamp: 2017-02-16 11:25:12.627
LEye coords (1032.7949, 359.2597), REye coords (1025.6829, 359.2091), timeStamp: 2017-02-16 11:25:12.661
LEye coords (1032.6644, 358.1842), REye coords (1025.3469, 359.441), timeStamp: 2017-02-16 11:25:12.706
LEye coords (1031.9951, 358.0929), REye coords (1025.3838, 359.1603), timeStamp: 2017-02-16 11:25:12.740
LEye coords (1031.7751, 356.8099), REye coords (1024.8759, 359.3281), timeStamp: 2017-02-16 11:25:12.774
LEye coords (1031.6698, 355.8728), REye coords (1024.5072, 359.8525), timeStamp: 2017-02-16 11:25:12.809
LEye coords (1031.2747, 355.7312), REye coords (1025.3866, 359.2038), timeStamp: 2017-02-16 11:25:12.854
LEye coords (1031.3934, 355.1882), REye coords (1025.4889, 359.9052), timeStamp: 2017-02-16 11:25:12.888
LEye coords (1030.8578, 354.4136), REye coords (1025.6158, 359.1168), timeStamp: 2017-02-16 11:25:12.921
LEye coords (1030.735, 354.0328), REye coords (1025.2557, 358.8389), timeStamp: 2017-02-16 11:25:12.966
LEye coords (1029.6765, 354.3048), REye coords (1024.6245, 359.8796), timeStamp: 2017-02-16 11:25:13.000
LEye coords (1028.692, 352.7111), REye coords (1023.7125, 359.8686), timeStamp: 2017-02-16 11:25:13.034
LEye coords (1027.683, 352.4491), REye coords (1023.299, 359.6394), timeStamp: 2017-02-16 11:25:13.068
LEye coords (1026.826, 352.4246), REye coords (1023.5583, 359.0771), timeStamp: 2017-02-16 11:25:13.111
LEye coords (1025.7434, 352.035), REye coords (1022.3346, 359.8707), timeStamp: 2017-02-16 11:25:13.145
LEye coords (1025.2239, 351.4859), REye coords (1022.1074, 359.4094), timeStamp: 2017-02-16 11:25:13.179
LEye coords (1024.453, 351.7879), REye coords (1021.2841, 359.5694), timeStamp: 2017-02-16 11:25:13.224
LEye coords (1024.8782, 351.0669), REye coords (1020.7798, 359.8456), timeStamp: 2017-02-16 11:25:13.258
LEye coords (1024.6415, 351.011), REye coords (1020.2757, 359.6924), timeStamp: 2017-02-16 11:25:13.291
LEye coords (1023.9188, 350.7887), REye coords (1019.2108, 359.7557), timeStamp: 2017-02-16 11:25:13.337
LEye coords (1023.488, 350.2492), REye coords (1018.6167, 359.5264), timeStamp: 2017-02-16 11:25:13.370
LEye coords (1023.8521, 349.9436), REye coords (1019.5017, 359.6742), timeStamp: 2017-02-16 11:25:13.404
LEye coords (1024.484, 350.3718), REye coords (1019.9492, 360.7635), timeStamp: 2017-02-16 11:25:13.438
LEye coords (1024.7075, 351.1195), REye coords (1020.6475, 360.8331), timeStamp: 2017-02-16 11:25:13.484
LEye coords (1025.1765, 351.6875), REye coords (1021.1138, 361.5705), timeStamp: 2017-02-16 11:25:13.518
LEye coords (1025.3477, 352.0675), REye coords (1021.2728, 362.6505), timeStamp: 2017-02-16 11:25:13.551
LEye coords (1025.3519, 351.8617), REye coords (1022.3339, 362.2366), timeStamp: 2017-02-16 11:25:13.595
LEye coords (1024.9407, 351.6467), REye coords (1023.1526, 361.4782), timeStamp: 2017-02-16 11:25:13.628
LEye coords (1024.8945, 351.3246), REye coords (1023.7732, 360.8152), timeStamp: 2017-02-16 11:25:13.662
LEye coords (1024.5844, 351.2186), REye coords (1024.2915, 359.7512), timeStamp: 2017-02-16 11:25:13.706
LEye coords (1024.4448, 350.8176), REye coords (1025.2197, 359.2115), timeStamp: 2017-02-16 11:25:13.739
LEye coords (1024.539, 350.5681), REye coords (1026.5001, 358.3547), timeStamp: 2017-02-16 11:25:13.772
LEye coords (1025.2522, 350.151), REye coords (1026.8177, 358.7471), timeStamp: 2017-02-16 11:25:13.816
LEye coords (1025.6537, 350.3097), REye coords (1027.4344, 358.5147), timeStamp: 2017-02-16 11:25:13.851
LEye coords (1025.5903, 350.4875), REye coords (1028.2267, 357.7983), timeStamp: 2017-02-16 11:25:13.885
LEye coords (1025.7562, 350.557), REye coords (1027.4281, 358.6901), timeStamp: 2017-02-16 11:25:13.918
LEye coords (1025.7721, 350.5461), REye coords (1027.4386, 357.9932), timeStamp: 2017-02-16 11:25:13.963
LEye coords (1026.13, 350.4355), REye coords (1028.3368, 357.0052), timeStamp: 2017-02-16 11:25:13.997
LEye coords (1026.245, 349.6326), REye coords (1030.0681, 354.3605), timeStamp: 2017-02-16 11:25:14.031
LEye coords (1025.4545, 350.3553), REye coords (1029.6855, 352.6224), timeStamp: 2017-02-16 11:25:14.075
LEye coords (1025.15, 349.9551), REye coords (1028.9307, 351.8846), timeStamp: 2017-02-16 11:25:14.109
LEye coords (1024.8357, 350.0999), REye coords (1028.5417, 350.8644), timeStamp: 2017-02-16 11:25:14.143
LEye coords (1024.3153, 350.1159), REye coords (1029.3153, 349.3954), timeStamp: 2017-02-16 11:25:14.178
LEye coords (1024.4265, 349.6382), REye coords (1028.9556, 346.6628), timeStamp: 2017-02-16 11:25:14.222
LEye coords (1023.6888, 349.0554), REye coords (1028.1292, 344.7369), timeStamp: 2017-02-16 11:25:14.257
LEye coords (1022.2335, 348.8949), REye coords (1026.5433, 344.8073), timeStamp: 2017-02-16 11:25:14.291
LEye coords (1021.5019, 349.1739), REye coords (1024.2521, 345.0904), timeStamp: 2017-02-16 11:25:14.335
LEye coords (1021.0558, 349.2685), REye coords (1023.3925, 344.8681), timeStamp: 2017-02-16 11:25:14.369
LEye coords (1020.7861, 350.832), REye coords (1021.8228, 345.6938), timeStamp: 2017-02-16 11:25:14.403
LEye coords (1020.5061, 351.0101), REye coords (1021.4665, 347.3617), timeStamp: 2017-02-16 11:25:14.438
LEye coords (1020.0675, 351.533), REye coords (1019.9259, 349.1422), timeStamp: 2017-02-16 11:25:14.483
LEye coords (1019.8402, 352.1266), REye coords (1018.955, 350.1862), timeStamp: 2017-02-16 11:25:14.516
LEye coords (1019.7566, 352.8221), REye coords (1019.1015, 350.3063), timeStamp: 2017-02-16 11:25:14.551
LEye coords (1019.4791, 353.1844), REye coords (1017.7077, 351.8125), timeStamp: 2017-02-16 11:25:14.585
LEye coords (1018.9738, 353.9652), REye coords (1018.1827, 351.1629), timeStamp: 2017-02-16 11:25:14.629
LEye coords (1018.8368, 354.1), REye coords (1018.3119, 352.047), timeStamp: 2017-02-16 11:25:14.663
LEye coords (1019.9818, 354.3446), REye coords (1018.7732, 351.6019), timeStamp: 2017-02-16 11:25:14.697
LEye coords (1020.4015, 355.2326), REye coords (1021.1875, 351.3398), timeStamp: 2017-02-16 11:25:14.741
LEye coords (1021.3434, 355.4292), REye coords (1022.9216, 351.8411), timeStamp: 2017-02-16 11:25:14.775
LEye coords (1021.4951, 355.9083), REye coords (1023.9219, 352.2754), timeStamp: 2017-02-16 11:25:14.809
LEye coords (1021.4512, 356.6924), REye coords (1024.1206, 353.654), timeStamp: 2017-02-16 11:25:14.843
LEye coords (1021.2795, 357.6139), REye coords (1025.2415, 353.769), timeStamp: 2017-02-16 11:25:14.886
LEye coords (1021.3641, 358.1386), REye coords (1027.3645, 353.8687), timeStamp: 2017-02-16 11:25:14.921
LEye coords (1021.722, 359.0894), REye coords (1028.3715, 354.1663), timeStamp: 2017-02-16 11:25:14.955
LEye coords (1022.1732, 359.5732), REye coords (1029.7871, 354.7149), timeStamp: 2017-02-16 11:25:14.999
LEye coords (1022.7466, 358.8542), REye coords (1031.0604, 354.8668), timeStamp: 2017-02-16 11:25:15.033
LEye coords (1023.0859, 358.5597), REye coords (1031.637, 354.9243), timeStamp: 2017-02-16 11:25:15.067
LEye coords (1023.6476, 358.15), REye coords (1033.1337, 355.0563), timeStamp: 2017-02-16 11:25:15.111
LEye coords (1023.6468, 357.4779), REye coords (1033.7496, 355.2487), timeStamp: 2017-02-16 11:25:15.145
LEye coords (1023.9622, 357.6961), REye coords (1034.4686, 356.2377), timeStamp: 2017-02-16 11:25:15.179
LEye coords (1024.343, 358.1451), REye coords (1035.0205, 356.9261), timeStamp: 2017-02-16 11:25:15.224
LEye coords (1025.1943, 358.0724), REye coords (1035.0022, 357.3257), timeStamp: 2017-02-16 11:25:15.258
LEye coords (1025.1615, 358.5952), REye coords (1036.2106, 356.9252), timeStamp: 2017-02-16 11:25:15.291
