LEye coords (764.0648, 292.908), REye coords (796.8663, 266.5842), timeStamp: 2017-02-16 11:25:40.456
LEye coords (763.0648, 293.7804), REye coords (795.0051, 266.4935), timeStamp: 2017-02-16 11:25:40.500
LEye coords (762.7438, 292.9637), REye coords (794.1025, 265.8362), timeStamp: 2017-02-16 11:25:40.534
LEye coords (762.858, 291.4696), REye coords (793.3997, 264.1714), timeStamp: 2017-02-16 11:25:40.568
LEye coords (764.1307, 291.9998), REye coords (792.1027, 263.264), timeStamp: 2017-02-16 11:25:40.611
LEye coords (764.9269, 292.0753), REye coords (791.3395, 261.6984), timeStamp: 2017-02-16 11:25:40.645
LEye coords (669.4396, 369.5136), REye coords (786.0583, 264.0838), timeStamp: 2017-02-16 11:25:40.679
LEye coords (565.4608, 513.4678), REye coords (611.7409, 525.1042), timeStamp: 2017-02-16 11:25:40.723
LEye coords (569.7625, 507.1333), REye coords (602.3974, 532.0201), timeStamp: 2017-02-16 11:25:40.758
LEye coords (574.834, 506.3672), REye coords (600.7642, 532.843), timeStamp: 2017-02-16 11:25:40.792
LEye coords (575.8752, 509.1974), REye coords (600.7791, 538.4257), timeStamp: 2017-02-16 11:25:40.825
LEye coords (573.6922, 496.4506), REye coords (599.6384, 540.6834), timeStamp: 2017-02-16 11:25:40.870
LEye coords (575.7217, 522.8709), REye coords (596.2577, 544.2679), timeStamp: 2017-02-16 11:25:40.904
LEye coords (567.2411, 531.7211), REye coords (599.1749, 545.5749), timeStamp: 2017-02-16 11:25:40.938
LEye coords (551.0867, 568.9985), REye coords (582.1404, 604.0894), timeStamp: 2017-02-16 11:25:40.983
LEye coords (547.1842, 593.0866), REye coords (577.3215, 625.4189), timeStamp: 2017-02-16 11:25:41.016
LEye coords (543.1544, 605.3194), REye coords (573.2446, 636.3984), timeStamp: 2017-02-16 11:25:41.049
LEye coords (538.6413, 616.7099), REye coords (569.8206, 644.9015), timeStamp: 2017-02-16 11:25:41.093
LEye coords (534.0558, 623.0517), REye coords (568.6476, 649.8647), timeStamp: 2017-02-16 11:25:41.127
LEye coords (509.7182, 654.0214), REye coords (567.8069, 652.6691), timeStamp: 2017-02-16 11:25:41.160
LEye coords (449.6098, 702.5515), REye coords (483.4398, 708.6222), timeStamp: 2017-02-16 11:25:41.205
LEye coords (450.9603, 700.9409), REye coords (481.5978, 708.6721), timeStamp: 2017-02-16 11:25:41.238
LEye coords (450.3594, 700.7532), REye coords (489.5712, 702.1179), timeStamp: 2017-02-16 11:25:41.272
LEye coords (452.4103, 700.0), REye coords (489.8491, 702.6409), timeStamp: 2017-02-16 11:25:41.306
LEye coords (449.1502, 696.4019), REye coords (488.1143, 703.3012), timeStamp: 2017-02-16 11:25:41.350
LEye coords (449.3572, 692.1094), REye coords (487.2063, 704.4678), timeStamp: 2017-02-16 11:25:41.384
LEye coords (449.7882, 692.7501), REye coords (485.8205, 705.0995), timeStamp: 2017-02-16 11:25:41.419
LEye coords (449.1162, 692.4124), REye coords (486.9459, 702.1724), timeStamp: 2017-02-16 11:25:41.463
LEye coords (448.4906, 692.4518), REye coords (487.2997, 699.5443), timeStamp: 2017-02-16 11:25:41.497
LEye coords (447.7717, 694.0426), REye coords (486.6532, 696.4575), timeStamp: 2017-02-16 11:25:41.531
LEye coords (445.6329, 696.4407), REye coords (487.9196, 692.9841), timeStamp: 2017-02-16 11:25:41.565
LEye coords (442.4084, 698.1331), REye coords (488.2269, 691.2717), timeStamp: 2017-02-16 11:25:41.609
LEye coords (439.2707, 699.5093), REye coords (488.3062, 690.1083), timeStamp: 2017-02-16 11:25:41.642
LEye coords (0.0, 0.0), REye coords (488.4699, 687.6687), timeStamp: 2017-02-16 11:25:41.686
LEye coords (0.0, 0.0), REye coords (488.8182, 685.3482), timeStamp: 2017-02-16 11:25:41.720
LEye coords (0.0, 0.0), REye coords (488.3884, 683.0329), timeStamp: 2017-02-16 11:25:41.754
LEye coords (0.0, 0.0), REye coords (489.1892, 680.9086), timeStamp: 2017-02-16 11:25:41.787
LEye coords (0.0, 0.0), REye coords (490.4716, 680.5701), timeStamp: 2017-02-16 11:25:41.832
LEye coords (0.0, 0.0), REye coords (491.6791, 677.1211), timeStamp: 2017-02-16 11:25:41.865
LEye coords (0.0, 0.0), REye coords (492.4996, 675.5121), timeStamp: 2017-02-16 11:25:41.900
LEye coords (0.0, 0.0), REye coords (492.8668, 674.5358), timeStamp: 2017-02-16 11:25:41.944
LEye coords (0.0, 0.0), REye coords (494.3737, 674.3777), timeStamp: 2017-02-16 11:25:41.978
LEye coords (0.0, 0.0), REye coords (495.1487, 674.9555), timeStamp: 2017-02-16 11:25:42.012
LEye coords (0.0, 0.0), REye coords (496.9674, 672.8205), timeStamp: 2017-02-16 11:25:42.046
LEye coords (0.0, 0.0), REye coords (497.5671, 673.6612), timeStamp: 2017-02-16 11:25:42.091
LEye coords (0.0, 0.0), REye coords (499.7897, 671.2108), timeStamp: 2017-02-16 11:25:42.125
LEye coords (0.0, 0.0), REye coords (500.8805, 671.2097), timeStamp: 2017-02-16 11:25:42.158
LEye coords (0.0, 0.0), REye coords (501.8038, 671.9704), timeStamp: 2017-02-16 11:25:42.202
LEye coords (434.3546, 702.7155), REye coords (503.2877, 671.3146), timeStamp: 2017-02-16 11:25:42.236
LEye coords (429.2845, 703.0352), REye coords (503.9561, 672.3052), timeStamp: 2017-02-16 11:25:42.268
LEye coords (427.3425, 704.9366), REye coords (504.2061, 673.2148), timeStamp: 2017-02-16 11:25:42.313
LEye coords (0.0, 0.0), REye coords (505.4067, 673.6957), timeStamp: 2017-02-16 11:25:42.346
LEye coords (0.0, 0.0), REye coords (506.4307, 674.4466), timeStamp: 2017-02-16 11:25:42.380
LEye coords (0.0, 0.0), REye coords (507.2616, 675.6596), timeStamp: 2017-02-16 11:25:42.426
LEye coords (0.0, 0.0), REye coords (507.7417, 677.0081), timeStamp: 2017-02-16 11:25:42.459
LEye coords (0.0, 0.0), REye coords (508.7383, 677.5862), timeStamp: 2017-02-16 11:25:42.492
LEye coords (0.0, 0.0), REye coords (509.0414, 678.1431), timeStamp: 2017-02-16 11:25:42.537
LEye coords (0.0, 0.0), REye coords (509.8599, 679.993), timeStamp: 2017-02-16 11:25:42.571
LEye coords (0.0, 0.0), REye coords (511.2614, 679.5322), timeStamp: 2017-02-16 11:25:42.605
LEye coords (0.0, 0.0), REye coords (511.3562, 678.233), timeStamp: 2017-02-16 11:25:42.639
LEye coords (0.0, 0.0), REye coords (511.3126, 678.7411), timeStamp: 2017-02-16 11:25:42.683
LEye coords (0.0, 0.0), REye coords (511.9077, 681.4872), timeStamp: 2017-02-16 11:25:42.718
LEye coords (0.0, 0.0), REye coords (512.7686, 681.5267), timeStamp: 2017-02-16 11:25:42.751
LEye coords (0.0, 0.0), REye coords (512.4608, 684.4147), timeStamp: 2017-02-16 11:25:42.796
LEye coords (0.0, 0.0), REye coords (512.4256, 686.2929), timeStamp: 2017-02-16 11:25:42.829
LEye coords (0.0, 0.0), REye coords (512.0817, 688.4584), timeStamp: 2017-02-16 11:25:42.862
LEye coords (0.0, 0.0), REye coords (513.3671, 690.5767), timeStamp: 2017-02-16 11:25:42.906
LEye coords (0.0, 0.0), REye coords (512.7618, 693.2117), timeStamp: 2017-02-16 11:25:42.940
LEye coords (0.0, 0.0), REye coords (513.0214, 695.2258), timeStamp: 2017-02-16 11:25:42.973
LEye coords (0.0, 0.0), REye coords (512.918, 697.2915), timeStamp: 2017-02-16 11:25:43.017
LEye coords (0.0, 0.0), REye coords (512.8797, 699.0687), timeStamp: 2017-02-16 11:25:43.052
LEye coords (0.0, 0.0), REye coords (511.4789, 700.4792), timeStamp: 2017-02-16 11:25:43.085
LEye coords (0.0, 0.0), REye coords (510.1157, 702.1453), timeStamp: 2017-02-16 11:25:43.129
LEye coords (0.0, 0.0), REye coords (509.3602, 702.702), timeStamp: 2017-02-16 11:25:43.162
LEye coords (0.0, 0.0), REye coords (507.8824, 703.7268), timeStamp: 2017-02-16 11:25:43.195
LEye coords (0.0, 0.0), REye coords (506.5098, 705.5007), timeStamp: 2017-02-16 11:25:43.242
LEye coords (0.0, 0.0), REye coords (505.5826, 707.2757), timeStamp: 2017-02-16 11:25:43.274
LEye coords (0.0, 0.0), REye coords (504.5807, 708.41), timeStamp: 2017-02-16 11:25:43.308
LEye coords (0.0, 0.0), REye coords (503.9063, 709.6793), timeStamp: 2017-02-16 11:25:43.343
LEye coords (0.0, 0.0), REye coords (502.9522, 710.8577), timeStamp: 2017-02-16 11:25:43.388
LEye coords (0.0, 0.0), REye coords (501.9722, 712.2897), timeStamp: 2017-02-16 11:25:43.421
LEye coords (0.0, 0.0), REye coords (502.338, 712.5352), timeStamp: 2017-02-16 11:25:43.455
LEye coords (0.0, 0.0), REye coords (501.591, 713.2653), timeStamp: 2017-02-16 11:25:43.490
LEye coords (0.0, 0.0), REye coords (501.055, 712.3552), timeStamp: 2017-02-16 11:25:43.534
LEye coords (0.0, 0.0), REye coords (499.3853, 714.4863), timeStamp: 2017-02-16 11:25:43.568
LEye coords (0.0, 0.0), REye coords (499.7643, 712.5897), timeStamp: 2017-02-16 11:25:43.602
LEye coords (0.0, 0.0), REye coords (499.5624, 711.6121), timeStamp: 2017-02-16 11:25:43.646
LEye coords (0.0, 0.0), REye coords (500.1669, 709.6893), timeStamp: 2017-02-16 11:25:43.680
LEye coords (0.0, 0.0), REye coords (500.4154, 709.9656), timeStamp: 2017-02-16 11:25:43.713
LEye coords (0.0, 0.0), REye coords (501.7444, 707.5896), timeStamp: 2017-02-16 11:25:43.759
LEye coords (0.0, 0.0), REye coords (502.9043, 706.1998), timeStamp: 2017-02-16 11:25:43.791
LEye coords (0.0, 0.0), REye coords (502.6985, 705.3688), timeStamp: 2017-02-16 11:25:43.825
LEye coords (0.0, 0.0), REye coords (503.0982, 704.0264), timeStamp: 2017-02-16 11:25:43.869
LEye coords (0.0, 0.0), REye coords (503.372, 703.5637), timeStamp: 2017-02-16 11:25:43.903
LEye coords (0.0, 0.0), REye coords (504.9944, 700.5563), timeStamp: 2017-02-16 11:25:43.936
LEye coords (0.0, 0.0), REye coords (506.1877, 698.4186), timeStamp: 2017-02-16 11:25:43.981
LEye coords (0.0, 0.0), REye coords (507.721, 697.447), timeStamp: 2017-02-16 11:25:44.015
LEye coords (0.0, 0.0), REye coords (509.0396, 696.2859), timeStamp: 2017-02-16 11:25:44.048
LEye coords (0.0, 0.0), REye coords (510.6532, 693.8143), timeStamp: 2017-02-16 11:25:44.082
LEye coords (0.0, 0.0), REye coords (511.1793, 692.6683), timeStamp: 2017-02-16 11:25:44.126
LEye coords (0.0, 0.0), REye coords (512.4665, 690.778), timeStamp: 2017-02-16 11:25:44.160
LEye coords (0.0, 0.0), REye coords (512.2319, 691.2384), timeStamp: 2017-02-16 11:25:44.194
LEye coords (0.0, 0.0), REye coords (511.6489, 689.467), timeStamp: 2017-02-16 11:25:44.237
LEye coords (0.0, 0.0), REye coords (510.8149, 689.6155), timeStamp: 2017-02-16 11:25:44.272
LEye coords (0.0, 0.0), REye coords (510.1722, 690.1917), timeStamp: 2017-02-16 11:25:44.305
LEye coords (0.0, 0.0), REye coords (509.3679, 691.4035), timeStamp: 2017-02-16 11:25:44.350
LEye coords (0.0, 0.0), REye coords (508.8611, 692.096), timeStamp: 2017-02-16 11:25:44.383
LEye coords (0.0, 0.0), REye coords (508.1766, 691.3563), timeStamp: 2017-02-16 11:25:44.418
LEye coords (0.0, 0.0), REye coords (508.227, 693.0641), timeStamp: 2017-02-16 11:25:44.461
LEye coords (0.0, 0.0), REye coords (506.3369, 694.976), timeStamp: 2017-02-16 11:25:44.496
LEye coords (0.0, 0.0), REye coords (506.4081, 693.8927), timeStamp: 2017-02-16 11:25:44.529
LEye coords (0.0, 0.0), REye coords (505.5938, 694.6857), timeStamp: 2017-02-16 11:25:44.563
LEye coords (0.0, 0.0), REye coords (505.3505, 692.8933), timeStamp: 2017-02-16 11:25:44.606
LEye coords (0.0, 0.0), REye coords (506.184, 691.1525), timeStamp: 2017-02-16 11:25:44.639
LEye coords (0.0, 0.0), REye coords (505.5249, 691.252), timeStamp: 2017-02-16 11:25:44.683
LEye coords (0.0, 0.0), REye coords (506.0245, 687.5325), timeStamp: 2017-02-16 11:25:44.717
LEye coords (0.0, 0.0), REye coords (505.6787, 689.1895), timeStamp: 2017-02-16 11:25:44.751
LEye coords (0.0, 0.0), REye coords (505.5795, 687.8668), timeStamp: 2017-02-16 11:25:44.793
LEye coords (0.0, 0.0), REye coords (505.1502, 685.4196), timeStamp: 2017-02-16 11:25:44.828
LEye coords (0.0, 0.0), REye coords (505.5887, 685.0619), timeStamp: 2017-02-16 11:25:44.863
LEye coords (0.0, 0.0), REye coords (504.7689, 686.397), timeStamp: 2017-02-16 11:25:44.896
LEye coords (0.0, 0.0), REye coords (504.8181, 685.3713), timeStamp: 2017-02-16 11:25:44.941
LEye coords (0.0, 0.0), REye coords (504.6602, 683.7044), timeStamp: 2017-02-16 11:25:44.974
LEye coords (0.0, 0.0), REye coords (503.6247, 682.2558), timeStamp: 2017-02-16 11:25:45.008
LEye coords (0.0, 0.0), REye coords (504.1981, 680.794), timeStamp: 2017-02-16 11:25:45.053
LEye coords (0.0, 0.0), REye coords (504.4641, 679.8381), timeStamp: 2017-02-16 11:25:45.086
LEye coords (0.0, 0.0), REye coords (505.8598, 678.6161), timeStamp: 2017-02-16 11:25:45.120
LEye coords (0.0, 0.0), REye coords (506.5409, 676.4009), timeStamp: 2017-02-16 11:25:45.164
LEye coords (0.0, 0.0), REye coords (507.3463, 674.6341), timeStamp: 2017-02-16 11:25:45.198
LEye coords (0.0, 0.0), REye coords (508.1922, 672.5584), timeStamp: 2017-02-16 11:25:45.231
LEye coords (0.0, 0.0), REye coords (508.6723, 672.8243), timeStamp: 2017-02-16 11:25:45.275
LEye coords (0.0, 0.0), REye coords (509.4127, 673.6806), timeStamp: 2017-02-16 11:25:45.311
LEye coords (0.0, 0.0), REye coords (509.6013, 674.7005), timeStamp: 2017-02-16 11:25:45.345
LEye coords (0.0, 0.0), REye coords (509.886, 674.2773), timeStamp: 2017-02-16 11:25:45.379
LEye coords (0.0, 0.0), REye coords (510.1321, 676.0403), timeStamp: 2017-02-16 11:25:45.424
LEye coords (0.0, 0.0), REye coords (509.4583, 676.8583), timeStamp: 2017-02-16 11:25:45.458
LEye coords (0.0, 0.0), REye coords (509.2726, 677.4164), timeStamp: 2017-02-16 11:25:45.492
LEye coords (0.0, 0.0), REye coords (509.8492, 678.868), timeStamp: 2017-02-16 11:25:45.527
LEye coords (0.0, 0.0), REye coords (510.2211, 676.9014), timeStamp: 2017-02-16 11:25:45.571
LEye coords (0.0, 0.0), REye coords (509.9446, 678.2582), timeStamp: 2017-02-16 11:25:45.606
LEye coords (0.0, 0.0), REye coords (509.8502, 679.2862), timeStamp: 2017-02-16 11:25:45.640
LEye coords (0.0, 0.0), REye coords (510.0416, 680.0197), timeStamp: 2017-02-16 11:25:45.674
LEye coords (0.0, 0.0), REye coords (510.42, 679.6644), timeStamp: 2017-02-16 11:25:45.718
LEye coords (0.0, 0.0), REye coords (510.2985, 681.4851), timeStamp: 2017-02-16 11:25:45.752
LEye coords (0.0, 0.0), REye coords (509.9254, 683.791), timeStamp: 2017-02-16 11:25:45.785
LEye coords (0.0, 0.0), REye coords (510.1919, 685.6918), timeStamp: 2017-02-16 11:25:45.829
LEye coords (0.0, 0.0), REye coords (509.2776, 687.5778), timeStamp: 2017-02-16 11:25:45.862
LEye coords (0.0, 0.0), REye coords (509.2184, 690.7666), timeStamp: 2017-02-16 11:25:45.896
LEye coords (0.0, 0.0), REye coords (509.1345, 693.5283), timeStamp: 2017-02-16 11:25:45.940
LEye coords (0.0, 0.0), REye coords (510.5457, 694.926), timeStamp: 2017-02-16 11:25:45.973
LEye coords (0.0, 0.0), REye coords (510.9284, 696.6758), timeStamp: 2017-02-16 11:25:46.007
LEye coords (0.0, 0.0), REye coords (511.0497, 699.0693), timeStamp: 2017-02-16 11:25:46.052
LEye coords (0.0, 0.0), REye coords (511.8491, 700.0629), timeStamp: 2017-02-16 11:25:46.085
LEye coords (0.0, 0.0), REye coords (513.147, 698.4095), timeStamp: 2017-02-16 11:25:46.119
LEye coords (0.0, 0.0), REye coords (513.8853, 697.1745), timeStamp: 2017-02-16 11:25:46.163
LEye coords (0.0, 0.0), REye coords (515.046, 697.428), timeStamp: 2017-02-16 11:25:46.197
LEye coords (0.0, 0.0), REye coords (516.7265, 697.476), timeStamp: 2017-02-16 11:25:46.232
LEye coords (0.0, 0.0), REye coords (518.0377, 698.4366), timeStamp: 2017-02-16 11:25:46.276
LEye coords (0.0, 0.0), REye coords (518.5204, 698.4965), timeStamp: 2017-02-16 11:25:46.310
LEye coords (354.4645, 821.0131), REye coords (519.1085, 697.4302), timeStamp: 2017-02-16 11:25:46.344
LEye coords (262.3635, 903.4232), REye coords (518.8322, 698.6372), timeStamp: 2017-02-16 11:25:46.377
LEye coords (0.0, 0.0), REye coords (519.9125, 699.5977), timeStamp: 2017-02-16 11:25:46.421
LEye coords (0.0, 0.0), REye coords (520.7737, 700.08), timeStamp: 2017-02-16 11:25:46.455
LEye coords (0.0, 0.0), REye coords (521.0737, 700.4125), timeStamp: 2017-02-16 11:25:46.490
LEye coords (0.0, 0.0), REye coords (520.3477, 701.8971), timeStamp: 2017-02-16 11:25:46.535
LEye coords (313.5323, 871.6946), REye coords (521.2784, 699.3805), timeStamp: 2017-02-16 11:25:46.569
LEye coords (341.812, 853.1124), REye coords (521.6682, 700.5222), timeStamp: 2017-02-16 11:25:46.602
LEye coords (358.5216, 851.1095), REye coords (521.3887, 702.2263), timeStamp: 2017-02-16 11:25:46.636
LEye coords (0.0, 0.0), REye coords (520.2069, 704.7238), timeStamp: 2017-02-16 11:25:46.681
LEye coords (0.0, 0.0), REye coords (518.8472, 706.2451), timeStamp: 2017-02-16 11:25:46.715
LEye coords (0.0, 0.0), REye coords (518.1019, 705.35), timeStamp: 2017-02-16 11:25:46.749
LEye coords (0.0, 0.0), REye coords (517.5984, 703.2071), timeStamp: 2017-02-16 11:25:46.793
LEye coords (0.0, 0.0), REye coords (515.8671, 702.1119), timeStamp: 2017-02-16 11:25:46.826
LEye coords (0.0, 0.0), REye coords (515.0912, 701.4654), timeStamp: 2017-02-16 11:25:46.859
LEye coords (0.0, 0.0), REye coords (0.0, 0.0), timeStamp: 2017-02-16 11:25:46.904
LEye coords (0.0, 0.0), REye coords (514.4713, 702.4211), timeStamp: 2017-02-16 11:25:46.938
LEye coords (0.0, 0.0), REye coords (514.1129, 703.1686), timeStamp: 2017-02-16 11:25:46.971
LEye coords (0.0, 0.0), REye coords (514.144, 704.5372), timeStamp: 2017-02-16 11:25:47.015
LEye coords (0.0, 0.0), REye coords (513.2708, 704.0151), timeStamp: 2017-02-16 11:25:47.049
LEye coords (0.0, 0.0), REye coords (513.4364, 701.7191), timeStamp: 2017-02-16 11:25:47.083
LEye coords (0.0, 0.0), REye coords (513.1109, 701.0829), timeStamp: 2017-02-16 11:25:47.117
LEye coords (0.0, 0.0), REye coords (514.0233, 700.5668), timeStamp: 2017-02-16 11:25:47.161
LEye coords (0.0, 0.0), REye coords (514.1304, 700.9468), timeStamp: 2017-02-16 11:25:47.194
LEye coords (0.0, 0.0), REye coords (514.395, 700.3921), timeStamp: 2017-02-16 11:25:47.238
LEye coords (0.0, 0.0), REye coords (514.4876, 698.6761), timeStamp: 2017-02-16 11:25:47.272
LEye coords (0.0, 0.0), REye coords (515.1628, 697.6846), timeStamp: 2017-02-16 11:25:47.305
