LEye coords (870.9706, 529.5751), REye coords (890.1783, 513.6749), timeStamp: 2017-02-16 11:25:20.294
LEye coords (869.3696, 528.9625), REye coords (888.6691, 514.296), timeStamp: 2017-02-16 11:25:20.326
LEye coords (867.6426, 529.3821), REye coords (886.6749, 515.2079), timeStamp: 2017-02-16 11:25:20.359
LEye coords (866.127, 529.81), REye coords (885.7865, 515.2578), timeStamp: 2017-02-16 11:25:20.403
LEye coords (864.7231, 529.9917), REye coords (884.3029, 514.416), timeStamp: 2017-02-16 11:25:20.437
LEye coords (863.9455, 530.2245), REye coords (883.6276, 514.7399), timeStamp: 2017-02-16 11:25:20.470
LEye coords (707.2676, 418.2466), REye coords (745.2094, 404.7213), timeStamp: 2017-02-16 11:25:20.517
LEye coords (663.5142, 409.2838), REye coords (701.1135, 394.4644), timeStamp: 2017-02-16 11:25:20.552
LEye coords (669.8555, 411.5774), REye coords (702.0561, 387.8483), timeStamp: 2017-02-16 11:25:20.585
LEye coords (676.4578, 413.4237), REye coords (701.2486, 395.2749), timeStamp: 2017-02-16 11:25:20.621
LEye coords (677.6966, 412.5219), REye coords (701.2767, 398.3832), timeStamp: 2017-02-16 11:25:20.654
LEye coords (671.0745, 402.5603), REye coords (700.6577, 401.4497), timeStamp: 2017-02-16 11:25:20.698
LEye coords (679.8394, 396.2434), REye coords (697.9027, 405.6578), timeStamp: 2017-02-16 11:25:20.732
LEye coords (680.3995, 395.7124), REye coords (698.7084, 406.0562), timeStamp: 2017-02-16 11:25:20.775
LEye coords (633.897, 402.7727), REye coords (649.7993, 409.082), timeStamp: 2017-02-16 11:25:20.809
LEye coords (611.0535, 404.4943), REye coords (625.3461, 414.3004), timeStamp: 2017-02-16 11:25:20.842
LEye coords (595.8377, 401.8867), REye coords (609.7311, 415.3711), timeStamp: 2017-02-16 11:25:20.886
LEye coords (586.5406, 402.7716), REye coords (600.3615, 416.8508), timeStamp: 2017-02-16 11:25:20.920
LEye coords (579.3621, 400.8716), REye coords (590.9445, 416.9043), timeStamp: 2017-02-16 11:25:20.954
LEye coords (575.0847, 400.792), REye coords (586.3755, 416.4256), timeStamp: 2017-02-16 11:25:20.987
LEye coords (571.3784, 401.6315), REye coords (557.2938, 425.2176), timeStamp: 2017-02-16 11:25:21.032
LEye coords (568.7133, 401.219), REye coords (553.0694, 423.9403), timeStamp: 2017-02-16 11:25:21.066
LEye coords (571.2576, 396.5802), REye coords (590.5568, 402.0612), timeStamp: 2017-02-16 11:25:21.099
LEye coords (574.0084, 393.6505), REye coords (606.559, 393.4503), timeStamp: 2017-02-16 11:25:21.143
LEye coords (575.8289, 390.1672), REye coords (612.2263, 391.9435), timeStamp: 2017-02-16 11:25:21.177
LEye coords (577.2866, 385.5353), REye coords (616.8854, 390.2607), timeStamp: 2017-02-16 11:25:21.211
LEye coords (579.976, 383.2271), REye coords (619.8517, 390.0759), timeStamp: 2017-02-16 11:25:21.255
LEye coords (582.3381, 382.0649), REye coords (622.1965, 389.2651), timeStamp: 2017-02-16 11:25:21.288
LEye coords (583.6935, 379.1872), REye coords (623.0793, 389.441), timeStamp: 2017-02-16 11:25:21.322
LEye coords (585.6882, 377.9781), REye coords (623.6295, 390.1566), timeStamp: 2017-02-16 11:25:21.367
LEye coords (587.6543, 377.1976), REye coords (625.265, 388.7118), timeStamp: 2017-02-16 11:25:21.401
LEye coords (589.7074, 375.3724), REye coords (625.5245, 389.4481), timeStamp: 2017-02-16 11:25:21.435
LEye coords (591.2786, 373.8993), REye coords (626.4165, 387.8183), timeStamp: 2017-02-16 11:25:21.478
LEye coords (592.4974, 371.7202), REye coords (625.6443, 389.1978), timeStamp: 2017-02-16 11:25:21.512
LEye coords (591.7566, 370.3204), REye coords (626.4026, 388.7885), timeStamp: 2017-02-16 11:25:21.546
LEye coords (591.5219, 369.9688), REye coords (626.0328, 386.5871), timeStamp: 2017-02-16 11:25:21.580
LEye coords (594.5345, 367.804), REye coords (627.4331, 385.0598), timeStamp: 2017-02-16 11:25:21.624
LEye coords (598.4127, 368.5823), REye coords (629.3073, 383.6646), timeStamp: 2017-02-16 11:25:21.658
LEye coords (602.048, 368.059), REye coords (630.5552, 382.6923), timeStamp: 2017-02-16 11:25:21.691
LEye coords (605.1081, 365.7467), REye coords (631.9553, 382.0585), timeStamp: 2017-02-16 11:25:21.735
LEye coords (608.9667, 365.326), REye coords (633.2277, 381.3398), timeStamp: 2017-02-16 11:25:21.769
LEye coords (612.1063, 365.6227), REye coords (634.3473, 381.6218), timeStamp: 2017-02-16 11:25:21.802
LEye coords (615.1279, 365.3173), REye coords (635.6757, 381.97), timeStamp: 2017-02-16 11:25:21.847
LEye coords (624.3448, 264.8269), REye coords (638.6181, 380.1034), timeStamp: 2017-02-16 11:25:21.882
LEye coords (622.2462, 316.8599), REye coords (639.9189, 380.3688), timeStamp: 2017-02-16 11:25:21.916
LEye coords (627.0919, 335.5267), REye coords (641.2545, 380.1664), timeStamp: 2017-02-16 11:25:21.949
LEye coords (632.6985, 343.15), REye coords (642.0906, 380.4525), timeStamp: 2017-02-16 11:25:21.994
LEye coords (630.8593, 346.774), REye coords (642.8915, 380.7884), timeStamp: 2017-02-16 11:25:22.027
LEye coords (631.3046, 348.899), REye coords (644.0334, 381.0905), timeStamp: 2017-02-16 11:25:22.071
LEye coords (632.7431, 352.0941), REye coords (645.1392, 381.5369), timeStamp: 2017-02-16 11:25:22.105
LEye coords (634.824, 354.2307), REye coords (646.3839, 380.8512), timeStamp: 2017-02-16 11:25:22.139
LEye coords (635.0588, 357.0307), REye coords (647.1846, 380.7143), timeStamp: 2017-02-16 11:25:22.174
LEye coords (635.8671, 357.9664), REye coords (648.0346, 380.3062), timeStamp: 2017-02-16 11:25:22.217
LEye coords (636.4517, 360.4858), REye coords (649.7881, 379.3919), timeStamp: 2017-02-16 11:25:22.250
LEye coords (0.0, 0.0), REye coords (650.2848, 379.3307), timeStamp: 2017-02-16 11:25:22.284
LEye coords (635.8006, 364.6594), REye coords (652.121, 380.6446), timeStamp: 2017-02-16 11:25:22.327
LEye coords (635.5665, 368.2221), REye coords (653.6124, 382.362), timeStamp: 2017-02-16 11:25:22.362
LEye coords (636.724, 372.6819), REye coords (654.6489, 384.6914), timeStamp: 2017-02-16 11:25:22.396
LEye coords (637.1013, 375.1283), REye coords (655.7533, 385.6709), timeStamp: 2017-02-16 11:25:22.441
LEye coords (637.3557, 376.4054), REye coords (656.4268, 387.6251), timeStamp: 2017-02-16 11:25:22.474
LEye coords (637.6973, 378.8933), REye coords (657.1772, 389.2955), timeStamp: 2017-02-16 11:25:22.508
LEye coords (637.4979, 381.6124), REye coords (657.6935, 390.1403), timeStamp: 2017-02-16 11:25:22.542
LEye coords (637.7635, 383.896), REye coords (658.4487, 392.3859), timeStamp: 2017-02-16 11:25:22.587
LEye coords (638.3339, 384.8623), REye coords (658.5113, 394.088), timeStamp: 2017-02-16 11:25:22.620
LEye coords (639.3376, 386.4724), REye coords (659.0992, 395.0004), timeStamp: 2017-02-16 11:25:22.655
LEye coords (639.7604, 387.4926), REye coords (659.4316, 396.0746), timeStamp: 2017-02-16 11:25:22.699
LEye coords (640.3104, 389.08), REye coords (659.8557, 397.5126), timeStamp: 2017-02-16 11:25:22.734
LEye coords (641.0903, 391.3655), REye coords (660.0237, 399.719), timeStamp: 2017-02-16 11:25:22.768
LEye coords (641.7933, 393.1701), REye coords (660.932, 400.7974), timeStamp: 2017-02-16 11:25:22.802
LEye coords (642.4165, 395.1496), REye coords (661.2836, 401.9008), timeStamp: 2017-02-16 11:25:22.846
LEye coords (642.8672, 396.0028), REye coords (661.6115, 403.5524), timeStamp: 2017-02-16 11:25:22.880
LEye coords (643.2181, 396.7088), REye coords (661.0406, 404.6012), timeStamp: 2017-02-16 11:25:22.914
LEye coords (0.0, 0.0), REye coords (661.825, 405.4521), timeStamp: 2017-02-16 11:25:22.957
LEye coords (643.9159, 396.4734), REye coords (662.3531, 406.2952), timeStamp: 2017-02-16 11:25:22.990
LEye coords (644.4995, 397.1258), REye coords (662.4684, 407.3901), timeStamp: 2017-02-16 11:25:23.025
LEye coords (645.0655, 396.9026), REye coords (663.2334, 407.989), timeStamp: 2017-02-16 11:25:23.070
LEye coords (645.6981, 399.1924), REye coords (663.4374, 409.3675), timeStamp: 2017-02-16 11:25:23.104
LEye coords (646.1378, 399.3012), REye coords (663.85, 408.8668), timeStamp: 2017-02-16 11:25:23.138
LEye coords (646.7709, 397.8837), REye coords (664.1801, 408.7679), timeStamp: 2017-02-16 11:25:23.172
LEye coords (647.9633, 398.1374), REye coords (664.592, 408.8458), timeStamp: 2017-02-16 11:25:23.216
LEye coords (647.2992, 397.39), REye coords (664.9096, 409.5579), timeStamp: 2017-02-16 11:25:23.250
LEye coords (644.5883, 397.8961), REye coords (663.5129, 409.4344), timeStamp: 2017-02-16 11:25:23.285
LEye coords (641.7048, 397.5235), REye coords (661.801, 410.4045), timeStamp: 2017-02-16 11:25:23.329
LEye coords (639.3755, 396.4734), REye coords (659.8561, 411.6915), timeStamp: 2017-02-16 11:25:23.364
LEye coords (637.3049, 396.8931), REye coords (658.0919, 413.0421), timeStamp: 2017-02-16 11:25:23.397
LEye coords (634.5263, 396.7115), REye coords (657.2009, 414.0718), timeStamp: 2017-02-16 11:25:23.430
LEye coords (632.5112, 396.8042), REye coords (655.8604, 414.9315), timeStamp: 2017-02-16 11:25:23.475
LEye coords (629.782, 396.2969), REye coords (654.3458, 416.6607), timeStamp: 2017-02-16 11:25:23.509
LEye coords (627.9977, 396.8633), REye coords (652.9319, 417.6959), timeStamp: 2017-02-16 11:25:23.542
LEye coords (626.0048, 396.6307), REye coords (650.9411, 418.7622), timeStamp: 2017-02-16 11:25:23.586
LEye coords (624.4305, 395.5039), REye coords (649.7352, 420.1251), timeStamp: 2017-02-16 11:25:23.620
LEye coords (623.1605, 395.8437), REye coords (648.1735, 421.4737), timeStamp: 2017-02-16 11:25:23.654
LEye coords (622.1624, 395.1411), REye coords (646.8026, 422.3394), timeStamp: 2017-02-16 11:25:23.698
LEye coords (620.4414, 395.1397), REye coords (645.5884, 423.2091), timeStamp: 2017-02-16 11:25:23.732
LEye coords (619.1804, 394.3153), REye coords (644.3829, 424.6995), timeStamp: 2017-02-16 11:25:23.766
LEye coords (617.9556, 394.1832), REye coords (643.6154, 425.8776), timeStamp: 2017-02-16 11:25:23.801
LEye coords (616.8587, 393.7306), REye coords (643.1639, 427.0637), timeStamp: 2017-02-16 11:25:23.845
LEye coords (615.9763, 393.8378), REye coords (641.7881, 427.9132), timeStamp: 2017-02-16 11:25:23.879
LEye coords (614.8735, 393.3858), REye coords (640.961, 428.7005), timeStamp: 2017-02-16 11:25:23.913
LEye coords (613.9896, 393.1979), REye coords (640.025, 429.3425), timeStamp: 2017-02-16 11:25:23.957
LEye coords (613.122, 393.3534), REye coords (639.695, 430.9452), timeStamp: 2017-02-16 11:25:23.991
LEye coords (612.2882, 393.1984), REye coords (638.8467, 432.1526), timeStamp: 2017-02-16 11:25:24.025
LEye coords (611.7251, 392.9413), REye coords (638.2783, 433.7022), timeStamp: 2017-02-16 11:25:24.059
LEye coords (611.8843, 391.1731), REye coords (638.3844, 434.9675), timeStamp: 2017-02-16 11:25:24.104
LEye coords (611.9563, 391.9627), REye coords (638.86, 434.6882), timeStamp: 2017-02-16 11:25:24.137
LEye coords (610.9445, 394.2171), REye coords (639.7906, 435.5573), timeStamp: 2017-02-16 11:25:24.170
LEye coords (609.8051, 395.7043), REye coords (641.0666, 436.3641), timeStamp: 2017-02-16 11:25:24.213
LEye coords (609.5876, 396.4436), REye coords (641.8547, 437.9627), timeStamp: 2017-02-16 11:25:24.246
LEye coords (0.0, 0.0), REye coords (642.427, 439.1488), timeStamp: 2017-02-16 11:25:24.290
LEye coords (609.0064, 399.1229), REye coords (643.1239, 441.6632), timeStamp: 2017-02-16 11:25:24.323
LEye coords (609.5406, 402.4174), REye coords (643.8846, 442.9599), timeStamp: 2017-02-16 11:25:24.356
LEye coords (609.6003, 402.894), REye coords (644.0386, 444.1397), timeStamp: 2017-02-16 11:25:24.401
LEye coords (609.2159, 404.6082), REye coords (644.3011, 445.0451), timeStamp: 2017-02-16 11:25:24.435
LEye coords (609.6888, 406.3776), REye coords (644.9171, 445.0958), timeStamp: 2017-02-16 11:25:24.470
LEye coords (610.0887, 407.4753), REye coords (645.1882, 446.077), timeStamp: 2017-02-16 11:25:24.504
LEye coords (609.2043, 408.0411), REye coords (645.9084, 446.9403), timeStamp: 2017-02-16 11:25:24.549
LEye coords (609.1222, 409.001), REye coords (645.5098, 447.3088), timeStamp: 2017-02-16 11:25:24.584
LEye coords (608.9854, 409.6797), REye coords (646.1278, 447.8195), timeStamp: 2017-02-16 11:25:24.618
LEye coords (609.3893, 411.4102), REye coords (646.8768, 448.3694), timeStamp: 2017-02-16 11:25:24.652
LEye coords (609.8017, 412.7675), REye coords (647.4191, 449.3318), timeStamp: 2017-02-16 11:25:24.696
LEye coords (610.1317, 414.2192), REye coords (647.5519, 450.9245), timeStamp: 2017-02-16 11:25:24.729
LEye coords (610.5323, 415.68), REye coords (647.1103, 451.501), timeStamp: 2017-02-16 11:25:24.763
LEye coords (610.7083, 415.658), REye coords (647.5942, 452.3964), timeStamp: 2017-02-16 11:25:24.807
LEye coords (611.015, 416.0864), REye coords (648.5331, 453.1969), timeStamp: 2017-02-16 11:25:24.841
LEye coords (610.9427, 418.5649), REye coords (647.8055, 453.7225), timeStamp: 2017-02-16 11:25:24.874
LEye coords (610.8057, 417.1038), REye coords (647.676, 453.0248), timeStamp: 2017-02-16 11:25:24.917
LEye coords (611.5369, 416.9603), REye coords (647.0548, 452.2761), timeStamp: 2017-02-16 11:25:24.951
LEye coords (611.998, 416.2672), REye coords (646.9174, 451.1947), timeStamp: 2017-02-16 11:25:24.985
LEye coords (613.1271, 415.1713), REye coords (646.9067, 450.605), timeStamp: 2017-02-16 11:25:25.029
LEye coords (614.041, 415.2625), REye coords (647.1169, 449.5618), timeStamp: 2017-02-16 11:25:25.064
LEye coords (615.1963, 414.8621), REye coords (647.7378, 448.319), timeStamp: 2017-02-16 11:25:25.097
LEye coords (616.178, 414.4941), REye coords (647.1829, 446.1241), timeStamp: 2017-02-16 11:25:25.141
