LEye coords (636.2635, 404.2316), REye coords (658.8196, 406.014), timeStamp: 2017-02-16 11:26:05.482
LEye coords (636.8854, 403.5303), REye coords (658.0916, 404.9151), timeStamp: 2017-02-16 11:26:05.516
LEye coords (637.2333, 402.5783), REye coords (658.2797, 403.5846), timeStamp: 2017-02-16 11:26:05.550
LEye coords (0.0, 0.0), REye coords (658.116, 401.6922), timeStamp: 2017-02-16 11:26:05.596
LEye coords (637.587, 403.621), REye coords (657.7719, 400.9414), timeStamp: 2017-02-16 11:26:05.629
LEye coords (637.8718, 402.3839), REye coords (657.1951, 400.0367), timeStamp: 2017-02-16 11:26:05.663
LEye coords (638.6265, 402.5238), REye coords (656.1622, 399.4931), timeStamp: 2017-02-16 11:26:05.698
LEye coords (639.9141, 402.9403), REye coords (655.4844, 399.1854), timeStamp: 2017-02-16 11:26:05.743
LEye coords (640.6588, 403.9709), REye coords (655.1601, 399.2449), timeStamp: 2017-02-16 11:26:05.777
LEye coords (641.6144, 404.0417), REye coords (654.6603, 399.4773), timeStamp: 2017-02-16 11:26:05.810
LEye coords (642.0347, 404.6048), REye coords (654.2958, 399.6115), timeStamp: 2017-02-16 11:26:05.853
LEye coords (643.9261, 403.597), REye coords (655.0215, 398.9637), timeStamp: 2017-02-16 11:26:05.887
LEye coords (646.1461, 400.9977), REye coords (656.33, 397.4611), timeStamp: 2017-02-16 11:26:05.921
LEye coords (648.0026, 399.2618), REye coords (657.8385, 396.2172), timeStamp: 2017-02-16 11:26:05.965
LEye coords (649.6528, 395.775), REye coords (658.9571, 395.5553), timeStamp: 2017-02-16 11:26:05.999
LEye coords (652.0533, 392.2996), REye coords (660.039, 395.634), timeStamp: 2017-02-16 11:26:06.034
LEye coords (653.925, 390.3257), REye coords (661.5452, 395.0149), timeStamp: 2017-02-16 11:26:06.067
LEye coords (655.0981, 387.1799), REye coords (662.9826, 395.5123), timeStamp: 2017-02-16 11:26:06.112
LEye coords (656.3741, 384.3548), REye coords (664.4897, 395.9999), timeStamp: 2017-02-16 11:26:06.145
LEye coords (657.6497, 382.4735), REye coords (666.5209, 395.3169), timeStamp: 2017-02-16 11:26:06.179
LEye coords (660.2505, 380.7134), REye coords (668.6175, 394.0965), timeStamp: 2017-02-16 11:26:06.223
LEye coords (0.0, 0.0), REye coords (669.2452, 393.5132), timeStamp: 2017-02-16 11:26:06.257
LEye coords (660.0709, 377.5597), REye coords (669.7812, 391.9963), timeStamp: 2017-02-16 11:26:06.291
LEye coords (661.1961, 373.9385), REye coords (669.9173, 390.9544), timeStamp: 2017-02-16 11:26:06.336
LEye coords (661.1405, 371.2561), REye coords (670.5098, 389.5644), timeStamp: 2017-02-16 11:26:06.369
LEye coords (659.2265, 368.1051), REye coords (671.0715, 386.1718), timeStamp: 2017-02-16 11:26:06.404
LEye coords (659.421, 367.0573), REye coords (672.6468, 381.2959), timeStamp: 2017-02-16 11:26:06.437
LEye coords (658.1022, 364.1671), REye coords (674.0124, 375.5731), timeStamp: 2017-02-16 11:26:06.481
LEye coords (657.9764, 361.3121), REye coords (674.405, 372.8163), timeStamp: 2017-02-16 11:26:06.516
LEye coords (657.4424, 358.5509), REye coords (675.6215, 368.3523), timeStamp: 2017-02-16 11:26:06.550
LEye coords (0.0, 0.0), REye coords (674.9119, 365.4204), timeStamp: 2017-02-16 11:26:06.594
LEye coords (654.8716, 358.7268), REye coords (674.0182, 364.2112), timeStamp: 2017-02-16 11:26:06.628
LEye coords (654.0385, 359.3155), REye coords (672.5566, 364.3165), timeStamp: 2017-02-16 11:26:06.661
LEye coords (652.7025, 358.5533), REye coords (671.1455, 364.3111), timeStamp: 2017-02-16 11:26:06.704
LEye coords (651.9562, 358.3017), REye coords (670.1674, 365.3024), timeStamp: 2017-02-16 11:26:06.738
LEye coords (649.5411, 358.6398), REye coords (668.4351, 365.9805), timeStamp: 2017-02-16 11:26:06.772
LEye coords (647.847, 357.7946), REye coords (667.6044, 365.3553), timeStamp: 2017-02-16 11:26:06.817
LEye coords (646.6991, 358.6888), REye coords (666.1757, 366.0887), timeStamp: 2017-02-16 11:26:06.850
LEye coords (646.4448, 359.5551), REye coords (664.8821, 366.492), timeStamp: 2017-02-16 11:26:06.884
LEye coords (645.3754, 361.5222), REye coords (663.4227, 366.741), timeStamp: 2017-02-16 11:26:06.918
LEye coords (642.5543, 363.1438), REye coords (661.1153, 366.809), timeStamp: 2017-02-16 11:26:06.962
LEye coords (640.321, 364.8076), REye coords (657.8882, 366.3856), timeStamp: 2017-02-16 11:26:06.996
LEye coords (637.6519, 366.369), REye coords (655.4417, 366.4702), timeStamp: 2017-02-16 11:26:07.030
LEye coords (635.7291, 368.9362), REye coords (652.9455, 366.8944), timeStamp: 2017-02-16 11:26:07.073
LEye coords (632.769, 369.7032), REye coords (651.1856, 366.7514), timeStamp: 2017-02-16 11:26:07.106
LEye coords (631.3507, 372.2566), REye coords (649.061, 367.2408), timeStamp: 2017-02-16 11:26:07.149
LEye coords (627.7468, 373.7702), REye coords (647.1413, 367.0191), timeStamp: 2017-02-16 11:26:07.184
LEye coords (625.4324, 375.3765), REye coords (644.9715, 368.6156), timeStamp: 2017-02-16 11:26:07.218
LEye coords (0.0, 0.0), REye coords (642.9571, 368.9923), timeStamp: 2017-02-16 11:26:07.253
LEye coords (623.8331, 377.0631), REye coords (641.0894, 369.6438), timeStamp: 2017-02-16 11:26:07.297
LEye coords (621.9227, 377.0353), REye coords (640.0049, 370.3789), timeStamp: 2017-02-16 11:26:07.331
LEye coords (622.6693, 376.3918), REye coords (639.6835, 370.5836), timeStamp: 2017-02-16 11:26:07.365
LEye coords (622.42, 376.1054), REye coords (640.3184, 371.9133), timeStamp: 2017-02-16 11:26:07.408
LEye coords (622.6782, 377.4837), REye coords (641.1136, 372.0682), timeStamp: 2017-02-16 11:26:07.442
LEye coords (623.6348, 378.0018), REye coords (641.9286, 372.4767), timeStamp: 2017-02-16 11:26:07.477
LEye coords (624.4711, 379.3737), REye coords (643.8054, 369.9389), timeStamp: 2017-02-16 11:26:07.510
LEye coords (625.9766, 380.732), REye coords (645.1525, 367.7806), timeStamp: 2017-02-16 11:26:07.555
LEye coords (0.0, 0.0), REye coords (646.6705, 363.771), timeStamp: 2017-02-16 11:26:07.589
LEye coords (626.9269, 381.2393), REye coords (647.1885, 362.5131), timeStamp: 2017-02-16 11:26:07.624
LEye coords (627.2689, 384.0068), REye coords (648.2946, 361.6733), timeStamp: 2017-02-16 11:26:07.658
LEye coords (627.9662, 386.9633), REye coords (649.1696, 360.2765), timeStamp: 2017-02-16 11:26:07.702
LEye coords (630.2721, 387.8625), REye coords (650.2151, 358.5703), timeStamp: 2017-02-16 11:26:07.736
LEye coords (631.1859, 389.6881), REye coords (651.2699, 357.7976), timeStamp: 2017-02-16 11:26:07.770
LEye coords (632.4919, 390.3565), REye coords (652.9683, 355.4064), timeStamp: 2017-02-16 11:26:07.813
LEye coords (634.5784, 390.7198), REye coords (653.7306, 356.3291), timeStamp: 2017-02-16 11:26:07.847
LEye coords (635.8608, 391.3252), REye coords (655.1974, 356.1188), timeStamp: 2017-02-16 11:26:07.881
LEye coords (0.0, 0.0), REye coords (656.1993, 356.1393), timeStamp: 2017-02-16 11:26:07.924
LEye coords (636.8698, 391.7268), REye coords (657.1693, 355.5691), timeStamp: 2017-02-16 11:26:07.958
LEye coords (637.693, 391.9816), REye coords (658.4536, 354.3578), timeStamp: 2017-02-16 11:26:08.001
LEye coords (639.2209, 393.9771), REye coords (659.7493, 354.0873), timeStamp: 2017-02-16 11:26:08.037
LEye coords (640.8333, 393.5667), REye coords (660.3055, 354.4231), timeStamp: 2017-02-16 11:26:08.070
LEye coords (641.6655, 392.9042), REye coords (660.3536, 355.0526), timeStamp: 2017-02-16 11:26:08.104
LEye coords (643.0948, 393.2998), REye coords (660.3843, 355.348), timeStamp: 2017-02-16 11:26:08.149
LEye coords (609.0582, 250.4564), REye coords (659.9169, 356.5627), timeStamp: 2017-02-16 11:26:08.183
LEye coords (609.9128, 279.5454), REye coords (659.3385, 356.7261), timeStamp: 2017-02-16 11:26:08.217
LEye coords (0.0, 0.0), REye coords (658.3958, 357.6942), timeStamp: 2017-02-16 11:26:08.250
LEye coords (615.631, 359.123), REye coords (657.9995, 360.3637), timeStamp: 2017-02-16 11:26:08.294
LEye coords (615.9799, 380.4822), REye coords (657.0768, 364.8727), timeStamp: 2017-02-16 11:26:08.329
LEye coords (619.5557, 394.6228), REye coords (656.4618, 368.6376), timeStamp: 2017-02-16 11:26:08.362
LEye coords (625.402, 427.5175), REye coords (655.7952, 373.4734), timeStamp: 2017-02-16 11:26:08.405
LEye coords (625.9337, 426.9263), REye coords (655.2018, 377.8986), timeStamp: 2017-02-16 11:26:08.440
LEye coords (619.3688, 420.3933), REye coords (655.108, 381.5464), timeStamp: 2017-02-16 11:26:08.473
LEye coords (617.4205, 421.6843), REye coords (655.2204, 385.4961), timeStamp: 2017-02-16 11:26:08.517
LEye coords (616.4474, 420.0576), REye coords (654.7585, 389.6332), timeStamp: 2017-02-16 11:26:08.551
LEye coords (0.0, 0.0), REye coords (654.6902, 393.3257), timeStamp: 2017-02-16 11:26:08.585
LEye coords (616.385, 417.5225), REye coords (654.3182, 397.7903), timeStamp: 2017-02-16 11:26:08.629
LEye coords (616.3505, 415.3958), REye coords (653.5298, 401.5719), timeStamp: 2017-02-16 11:26:08.663
LEye coords (618.3338, 413.7818), REye coords (653.3436, 405.172), timeStamp: 2017-02-16 11:26:08.696
LEye coords (614.5976, 416.229), REye coords (651.5949, 408.6017), timeStamp: 2017-02-16 11:26:08.740
LEye coords (611.5221, 417.4077), REye coords (650.4165, 412.9212), timeStamp: 2017-02-16 11:26:08.773
LEye coords (608.4221, 417.4812), REye coords (649.09, 417.1992), timeStamp: 2017-02-16 11:26:08.806
LEye coords (607.1869, 416.5271), REye coords (647.6661, 420.6162), timeStamp: 2017-02-16 11:26:08.851
LEye coords (606.701, 414.5922), REye coords (646.3118, 423.9283), timeStamp: 2017-02-16 11:26:08.885
LEye coords (0.0, 0.0), REye coords (645.2034, 425.7715), timeStamp: 2017-02-16 11:26:08.918
LEye coords (606.172, 413.9755), REye coords (645.2069, 422.5495), timeStamp: 2017-02-16 11:26:08.962
LEye coords (605.0465, 413.2997), REye coords (644.8093, 418.4006), timeStamp: 2017-02-16 11:26:08.997
LEye coords (600.7805, 407.5354), REye coords (643.39, 421.2345), timeStamp: 2017-02-16 11:26:09.030
LEye coords (596.5725, 400.5885), REye coords (642.257, 423.3327), timeStamp: 2017-02-16 11:26:09.064
LEye coords (594.3495, 399.5042), REye coords (641.2792, 423.948), timeStamp: 2017-02-16 11:26:09.108
LEye coords (593.1078, 399.8221), REye coords (640.6866, 424.0812), timeStamp: 2017-02-16 11:26:09.141
LEye coords (592.7078, 399.3569), REye coords (639.7651, 425.0139), timeStamp: 2017-02-16 11:26:09.185
LEye coords (592.9006, 397.6914), REye coords (638.0886, 425.0677), timeStamp: 2017-02-16 11:26:09.219
LEye coords (0.0, 0.0), REye coords (637.0617, 426.003), timeStamp: 2017-02-16 11:26:09.252
LEye coords (592.8019, 398.288), REye coords (636.4168, 427.5682), timeStamp: 2017-02-16 11:26:09.295
LEye coords (593.2023, 398.8706), REye coords (634.9054, 428.8989), timeStamp: 2017-02-16 11:26:09.330
LEye coords (592.3853, 400.2955), REye coords (634.0997, 429.4059), timeStamp: 2017-02-16 11:26:09.365
LEye coords (592.8389, 402.1434), REye coords (633.9246, 430.0609), timeStamp: 2017-02-16 11:26:09.398
LEye coords (593.1492, 402.686), REye coords (633.0757, 431.2861), timeStamp: 2017-02-16 11:26:09.441
LEye coords (589.152, 436.3021), REye coords (632.1355, 431.8216), timeStamp: 2017-02-16 11:26:09.475
LEye coords (607.8653, 436.8165), REye coords (631.6408, 432.7715), timeStamp: 2017-02-16 11:26:09.508
LEye coords (598.5239, 430.7637), REye coords (631.4395, 433.7112), timeStamp: 2017-02-16 11:26:09.552
LEye coords (594.3569, 422.4977), REye coords (631.4092, 434.688), timeStamp: 2017-02-16 11:26:09.586
LEye coords (590.3584, 416.803), REye coords (631.3009, 434.423), timeStamp: 2017-02-16 11:26:09.620
LEye coords (588.5935, 412.5193), REye coords (631.444, 433.7072), timeStamp: 2017-02-16 11:26:09.664
LEye coords (586.7507, 412.5382), REye coords (632.0087, 433.1394), timeStamp: 2017-02-16 11:26:09.698
