LEye coords (340.5079, 128.4439), REye coords (454.7856, 186.5083), timeStamp: 2017-02-16 11:26:16.361
LEye coords (485.9315, 210.0842), REye coords (455.808, 185.2331), timeStamp: 2017-02-16 11:26:16.395
LEye coords (481.7956, 189.347), REye coords (456.4977, 184.6245), timeStamp: 2017-02-16 11:26:16.430
LEye coords (479.1765, 185.0956), REye coords (456.93, 183.6864), timeStamp: 2017-02-16 11:26:16.472
LEye coords (474.843, 181.9798), REye coords (457.7358, 182.8985), timeStamp: 2017-02-16 11:26:16.506
LEye coords (483.1937, 196.7824), REye coords (460.7709, 187.1103), timeStamp: 2017-02-16 11:26:16.549
LEye coords (575.1398, 401.448), REye coords (581.0515, 400.0363), timeStamp: 2017-02-16 11:26:16.582
LEye coords (583.4664, 391.0034), REye coords (562.1057, 411.1758), timeStamp: 2017-02-16 11:26:16.616
LEye coords (585.5934, 381.9165), REye coords (570.9104, 409.9203), timeStamp: 2017-02-16 11:26:16.659
LEye coords (586.5305, 378.1889), REye coords (572.0709, 409.6132), timeStamp: 2017-02-16 11:26:16.692
LEye coords (584.2841, 379.3324), REye coords (569.5699, 410.7948), timeStamp: 2017-02-16 11:26:16.726
LEye coords (566.3667, 386.2161), REye coords (587.4117, 411.1133), timeStamp: 2017-02-16 11:26:16.770
LEye coords (578.504, 395.7506), REye coords (570.1926, 417.415), timeStamp: 2017-02-16 11:26:16.804
LEye coords (580.9434, 374.4336), REye coords (571.1798, 402.6233), timeStamp: 2017-02-16 11:26:16.837
LEye coords (583.8957, 364.6833), REye coords (575.4952, 395.4906), timeStamp: 2017-02-16 11:26:16.880
LEye coords (582.2962, 359.6617), REye coords (578.3256, 390.1064), timeStamp: 2017-02-16 11:26:16.914
LEye coords (580.8861, 349.7381), REye coords (580.6349, 388.0752), timeStamp: 2017-02-16 11:26:16.957
LEye coords (580.0159, 347.6635), REye coords (581.4638, 383.5599), timeStamp: 2017-02-16 11:26:16.991
LEye coords (575.0992, 338.2997), REye coords (579.7125, 382.1479), timeStamp: 2017-02-16 11:26:17.023
LEye coords (574.9162, 333.9734), REye coords (580.1688, 377.3318), timeStamp: 2017-02-16 11:26:17.067
LEye coords (573.7562, 332.2598), REye coords (580.962, 374.1053), timeStamp: 2017-02-16 11:26:17.101
LEye coords (571.4932, 328.6161), REye coords (580.2687, 371.4503), timeStamp: 2017-02-16 11:26:17.135
LEye coords (570.7592, 327.041), REye coords (580.665, 371.8858), timeStamp: 2017-02-16 11:26:17.180
LEye coords (570.6949, 325.0512), REye coords (579.9892, 372.7053), timeStamp: 2017-02-16 11:26:17.214
LEye coords (0.0, 0.0), REye coords (580.4218, 371.9384), timeStamp: 2017-02-16 11:26:17.248
LEye coords (568.905, 321.2217), REye coords (580.4692, 373.3775), timeStamp: 2017-02-16 11:26:17.292
LEye coords (568.947, 320.9987), REye coords (580.6472, 373.6533), timeStamp: 2017-02-16 11:26:17.326
LEye coords (569.4823, 322.1743), REye coords (581.7216, 373.1474), timeStamp: 2017-02-16 11:26:17.360
LEye coords (570.0275, 321.9559), REye coords (581.9838, 373.8595), timeStamp: 2017-02-16 11:26:17.395
LEye coords (570.4656, 320.9945), REye coords (581.6635, 374.4021), timeStamp: 2017-02-16 11:26:17.439
LEye coords (569.4866, 321.0725), REye coords (581.4745, 374.5825), timeStamp: 2017-02-16 11:26:17.472
LEye coords (569.1024, 322.3192), REye coords (581.4012, 376.2769), timeStamp: 2017-02-16 11:26:17.506
LEye coords (569.3135, 324.1414), REye coords (581.73, 376.8409), timeStamp: 2017-02-16 11:26:17.549
LEye coords (0.0, 0.0), REye coords (581.6275, 375.6807), timeStamp: 2017-02-16 11:26:17.584
LEye coords (569.8855, 324.7251), REye coords (581.7192, 374.6591), timeStamp: 2017-02-16 11:26:17.618
LEye coords (571.3665, 327.2287), REye coords (582.982, 374.1859), timeStamp: 2017-02-16 11:26:17.652
LEye coords (571.7928, 328.8511), REye coords (584.4257, 373.6493), timeStamp: 2017-02-16 11:26:17.697
LEye coords (573.8585, 330.5959), REye coords (585.1799, 374.0512), timeStamp: 2017-02-16 11:26:17.730
LEye coords (574.5085, 332.5583), REye coords (586.2573, 374.2071), timeStamp: 2017-02-16 11:26:17.762
LEye coords (575.5043, 336.3979), REye coords (587.6419, 374.1108), timeStamp: 2017-02-16 11:26:17.808
LEye coords (577.1171, 339.3936), REye coords (588.8451, 374.4309), timeStamp: 2017-02-16 11:26:17.841
LEye coords (579.2073, 340.4715), REye coords (590.5151, 375.316), timeStamp: 2017-02-16 11:26:17.874
LEye coords (581.1724, 342.4745), REye coords (591.5929, 375.988), timeStamp: 2017-02-16 11:26:17.918
LEye coords (582.533, 345.3434), REye coords (592.4551, 375.0243), timeStamp: 2017-02-16 11:26:17.951
LEye coords (583.4448, 347.6295), REye coords (593.5375, 373.6354), timeStamp: 2017-02-16 11:26:17.985
LEye coords (585.0502, 349.7341), REye coords (593.8793, 372.1484), timeStamp: 2017-02-16 11:26:18.029
LEye coords (586.4759, 352.4709), REye coords (593.9713, 372.089), timeStamp: 2017-02-16 11:26:18.062
LEye coords (588.102, 355.7331), REye coords (594.7834, 372.2772), timeStamp: 2017-02-16 11:26:18.096
LEye coords (588.802, 360.3018), REye coords (596.3196, 372.2435), timeStamp: 2017-02-16 11:26:18.140
LEye coords (590.3135, 363.3072), REye coords (597.6011, 374.2924), timeStamp: 2017-02-16 11:26:18.172
LEye coords (591.4105, 366.9298), REye coords (598.7437, 376.5449), timeStamp: 2017-02-16 11:26:18.216
LEye coords (592.9021, 369.2685), REye coords (599.6543, 378.6425), timeStamp: 2017-02-16 11:26:18.249
LEye coords (593.4366, 370.5272), REye coords (600.9572, 379.9486), timeStamp: 2017-02-16 11:26:18.282
LEye coords (594.94, 372.2355), REye coords (602.3204, 380.8484), timeStamp: 2017-02-16 11:26:18.319
LEye coords (595.6591, 372.4408), REye coords (602.7639, 382.2293), timeStamp: 2017-02-16 11:26:18.362
LEye coords (595.9017, 372.2081), REye coords (603.8692, 382.8722), timeStamp: 2017-02-16 11:26:18.396
LEye coords (596.3239, 373.4121), REye coords (604.3534, 383.4201), timeStamp: 2017-02-16 11:26:18.430
LEye coords (595.9754, 374.0236), REye coords (604.864, 384.4247), timeStamp: 2017-02-16 11:26:18.474
LEye coords (596.2855, 374.0631), REye coords (605.9803, 384.406), timeStamp: 2017-02-16 11:26:18.508
LEye coords (596.2032, 374.7338), REye coords (606.5166, 385.2242), timeStamp: 2017-02-16 11:26:18.541
LEye coords (595.8651, 374.0803), REye coords (607.4008, 385.2362), timeStamp: 2017-02-16 11:26:18.586
LEye coords (596.1256, 374.1747), REye coords (607.8425, 384.6612), timeStamp: 2017-02-16 11:26:18.619
LEye coords (596.9515, 374.4649), REye coords (608.3895, 385.0129), timeStamp: 2017-02-16 11:26:18.651
LEye coords (597.6989, 375.0869), REye coords (609.0032, 385.6846), timeStamp: 2017-02-16 11:26:18.696
LEye coords (597.6472, 374.765), REye coords (609.8663, 385.9733), timeStamp: 2017-02-16 11:26:18.730
LEye coords (598.2791, 374.8372), REye coords (611.1105, 386.1171), timeStamp: 2017-02-16 11:26:18.764
LEye coords (599.0601, 374.3916), REye coords (611.9173, 385.8616), timeStamp: 2017-02-16 11:26:18.798
LEye coords (600.0075, 374.5614), REye coords (612.5733, 386.4886), timeStamp: 2017-02-16 11:26:18.842
LEye coords (600.4376, 373.8398), REye coords (612.8053, 387.2532), timeStamp: 2017-02-16 11:26:18.877
LEye coords (600.9946, 372.6587), REye coords (613.5616, 387.3161), timeStamp: 2017-02-16 11:26:18.910
LEye coords (601.5158, 372.1485), REye coords (613.8376, 388.1822), timeStamp: 2017-02-16 11:26:18.953
LEye coords (601.2623, 372.369), REye coords (614.1442, 388.146), timeStamp: 2017-02-16 11:26:18.986
LEye coords (601.5461, 371.8001), REye coords (614.8597, 387.2076), timeStamp: 2017-02-16 11:26:19.020
LEye coords (601.1198, 371.5417), REye coords (615.3362, 386.8251), timeStamp: 2017-02-16 11:26:19.064
LEye coords (600.8031, 371.0191), REye coords (615.3636, 387.8676), timeStamp: 2017-02-16 11:26:19.098
LEye coords (600.9, 370.1614), REye coords (615.4583, 388.0928), timeStamp: 2017-02-16 11:26:19.131
