LEye coords (688.9053, 385.2888), REye coords (703.414, 396.435), timeStamp: 2017-02-16 11:26:48.490
LEye coords (688.4042, 386.5549), REye coords (703.8771, 396.5759), timeStamp: 2017-02-16 11:26:48.523
LEye coords (688.4852, 388.6259), REye coords (703.5378, 397.5219), timeStamp: 2017-02-16 11:26:48.558
LEye coords (688.8098, 390.3016), REye coords (703.4576, 398.6426), timeStamp: 2017-02-16 11:26:48.591
LEye coords (688.2265, 391.8194), REye coords (703.6545, 398.6835), timeStamp: 2017-02-16 11:26:48.635
LEye coords (688.0086, 393.0099), REye coords (703.8633, 400.1098), timeStamp: 2017-02-16 11:26:48.668
LEye coords (687.9679, 393.603), REye coords (703.3755, 400.5327), timeStamp: 2017-02-16 11:26:48.712
LEye coords (687.5938, 394.0514), REye coords (703.2021, 401.4164), timeStamp: 2017-02-16 11:26:48.745
LEye coords (688.1494, 394.7058), REye coords (703.3841, 401.984), timeStamp: 2017-02-16 11:26:48.779
LEye coords (688.3076, 395.4947), REye coords (703.7272, 402.4953), timeStamp: 2017-02-16 11:26:48.822
LEye coords (688.2832, 395.7123), REye coords (703.5941, 403.3879), timeStamp: 2017-02-16 11:26:48.856
LEye coords (689.2567, 394.7824), REye coords (702.5613, 403.2145), timeStamp: 2017-02-16 11:26:48.889
LEye coords (689.6984, 394.7419), REye coords (702.163, 403.2113), timeStamp: 2017-02-16 11:26:48.933
LEye coords (690.2751, 394.7499), REye coords (702.5582, 402.7127), timeStamp: 2017-02-16 11:26:48.966
LEye coords (690.4318, 393.9234), REye coords (701.3776, 402.1835), timeStamp: 2017-02-16 11:26:48.999
LEye coords (684.0071, 392.0352), REye coords (593.9205, 379.0654), timeStamp: 2017-02-16 11:26:49.042
LEye coords (578.5775, 366.4668), REye coords (595.4851, 390.161), timeStamp: 2017-02-16 11:26:49.076
LEye coords (588.1118, 361.2648), REye coords (592.8271, 379.8427), timeStamp: 2017-02-16 11:26:49.112
LEye coords (591.1102, 354.9906), REye coords (593.1014, 375.1148), timeStamp: 2017-02-16 11:26:49.156
LEye coords (590.607, 354.0317), REye coords (591.6248, 373.4399), timeStamp: 2017-02-16 11:26:49.189
LEye coords (586.9133, 351.8173), REye coords (592.8436, 376.1412), timeStamp: 2017-02-16 11:26:49.223
LEye coords (585.7851, 353.9788), REye coords (593.441, 374.847), timeStamp: 2017-02-16 11:26:49.267
LEye coords (581.8088, 354.495), REye coords (593.8703, 373.2141), timeStamp: 2017-02-16 11:26:49.300
LEye coords (579.6531, 353.21), REye coords (587.6633, 380.3794), timeStamp: 2017-02-16 11:26:49.333
LEye coords (578.7504, 353.3174), REye coords (589.3763, 365.0828), timeStamp: 2017-02-16 11:26:49.377
LEye coords (578.8139, 352.8954), REye coords (587.7552, 369.44), timeStamp: 2017-02-16 11:26:49.412
LEye coords (570.272, 309.378), REye coords (587.9446, 364.0871), timeStamp: 2017-02-16 11:26:49.446
LEye coords (570.9821, 356.2313), REye coords (586.0624, 367.7701), timeStamp: 2017-02-16 11:26:49.479
LEye coords (567.3207, 336.187), REye coords (586.1867, 368.8352), timeStamp: 2017-02-16 11:26:49.524
LEye coords (567.2568, 342.2977), REye coords (585.5901, 367.0128), timeStamp: 2017-02-16 11:26:49.559
LEye coords (568.0142, 342.2487), REye coords (585.0359, 368.9056), timeStamp: 2017-02-16 11:26:49.593
LEye coords (569.058, 343.166), REye coords (584.7644, 368.892), timeStamp: 2017-02-16 11:26:49.637
LEye coords (567.6115, 339.0931), REye coords (583.5409, 367.6508), timeStamp: 2017-02-16 11:26:49.671
LEye coords (567.3034, 339.4084), REye coords (582.9309, 365.2941), timeStamp: 2017-02-16 11:26:49.705
LEye coords (567.1908, 339.7816), REye coords (581.8871, 365.0033), timeStamp: 2017-02-16 11:26:49.749
LEye coords (567.8203, 341.0791), REye coords (580.6645, 363.9513), timeStamp: 2017-02-16 11:26:49.783
LEye coords (569.0833, 342.5995), REye coords (580.9791, 362.6668), timeStamp: 2017-02-16 11:26:49.816
LEye coords (569.34, 343.7143), REye coords (580.5211, 361.563), timeStamp: 2017-02-16 11:26:49.850
LEye coords (570.3753, 343.0869), REye coords (580.2809, 360.328), timeStamp: 2017-02-16 11:26:49.894
LEye coords (570.9695, 343.5014), REye coords (579.2224, 360.4352), timeStamp: 2017-02-16 11:26:49.927
LEye coords (571.5184, 342.4997), REye coords (579.359, 359.9683), timeStamp: 2017-02-16 11:26:49.970
LEye coords (571.7755, 342.6728), REye coords (578.9283, 360.4844), timeStamp: 2017-02-16 11:26:50.004
LEye coords (571.7032, 340.801), REye coords (578.9133, 359.9052), timeStamp: 2017-02-16 11:26:50.038
LEye coords (572.6878, 341.1761), REye coords (579.2955, 360.187), timeStamp: 2017-02-16 11:26:50.082
LEye coords (572.8884, 340.9668), REye coords (578.7014, 360.3676), timeStamp: 2017-02-16 11:26:50.116
LEye coords (572.6692, 341.4588), REye coords (579.0981, 360.7506), timeStamp: 2017-02-16 11:26:50.149
LEye coords (571.3914, 339.4533), REye coords (578.9811, 360.7079), timeStamp: 2017-02-16 11:26:50.193
LEye coords (570.8006, 335.9638), REye coords (578.5746, 360.6798), timeStamp: 2017-02-16 11:26:50.227
LEye coords (570.1458, 332.9721), REye coords (578.6504, 361.3417), timeStamp: 2017-02-16 11:26:50.261
LEye coords (567.8917, 327.8582), REye coords (578.4528, 361.5724), timeStamp: 2017-02-16 11:26:50.293
LEye coords (567.2881, 326.0992), REye coords (577.8001, 362.0098), timeStamp: 2017-02-16 11:26:50.338
LEye coords (566.5898, 324.3654), REye coords (577.5216, 362.4163), timeStamp: 2017-02-16 11:26:50.372
LEye coords (565.0494, 320.4283), REye coords (577.1626, 362.6721), timeStamp: 2017-02-16 11:26:50.405
LEye coords (561.8221, 316.5919), REye coords (577.1392, 363.6394), timeStamp: 2017-02-16 11:26:50.449
LEye coords (560.3562, 315.5084), REye coords (576.8673, 363.6697), timeStamp: 2017-02-16 11:26:50.482
LEye coords (559.6822, 313.728), REye coords (576.4018, 364.7217), timeStamp: 2017-02-16 11:26:50.516
LEye coords (0.0, 0.0), REye coords (574.8875, 364.748), timeStamp: 2017-02-16 11:26:50.560
LEye coords (557.1872, 315.1929), REye coords (572.9913, 365.8604), timeStamp: 2017-02-16 11:26:50.594
LEye coords (555.7498, 316.5208), REye coords (571.4409, 366.3784), timeStamp: 2017-02-16 11:26:50.628
LEye coords (554.541, 316.1919), REye coords (569.9345, 367.4056), timeStamp: 2017-02-16 11:26:50.672
LEye coords (552.5257, 317.5812), REye coords (569.0105, 368.4442), timeStamp: 2017-02-16 11:26:50.706
LEye coords (550.695, 319.0535), REye coords (567.4558, 367.9071), timeStamp: 2017-02-16 11:26:50.739
LEye coords (549.6191, 320.6673), REye coords (565.1298, 368.3606), timeStamp: 2017-02-16 11:26:50.783
LEye coords (547.9805, 322.1873), REye coords (563.9169, 368.964), timeStamp: 2017-02-16 11:26:50.817
LEye coords (546.4809, 325.0694), REye coords (562.2755, 369.3913), timeStamp: 2017-02-16 11:26:50.852
LEye coords (545.4083, 327.2397), REye coords (561.213, 369.6633), timeStamp: 2017-02-16 11:26:50.886
LEye coords (544.3691, 329.3195), REye coords (560.2499, 370.4434), timeStamp: 2017-02-16 11:26:50.929
LEye coords (543.0109, 330.663), REye coords (558.5555, 370.538), timeStamp: 2017-02-16 11:26:50.962
LEye coords (542.0787, 333.4792), REye coords (557.296, 371.0727), timeStamp: 2017-02-16 11:26:51.006
LEye coords (541.6515, 336.2681), REye coords (556.6932, 372.151), timeStamp: 2017-02-16 11:26:51.039
LEye coords (539.2468, 333.9091), REye coords (555.5949, 371.9011), timeStamp: 2017-02-16 11:26:51.073
LEye coords (537.5066, 334.7388), REye coords (554.9207, 372.8741), timeStamp: 2017-02-16 11:26:51.117
LEye coords (537.6392, 339.1581), REye coords (554.3448, 374.6189), timeStamp: 2017-02-16 11:26:51.151
LEye coords (536.3521, 340.1292), REye coords (553.9644, 376.3292), timeStamp: 2017-02-16 11:26:51.184
LEye coords (535.5408, 340.3725), REye coords (553.7761, 379.5136), timeStamp: 2017-02-16 11:26:51.228
LEye coords (535.0493, 338.4755), REye coords (553.4736, 382.0263), timeStamp: 2017-02-16 11:26:51.262
LEye coords (534.204, 336.5421), REye coords (553.0439, 383.7787), timeStamp: 2017-02-16 11:26:51.296
LEye coords (532.6552, 334.3095), REye coords (553.025, 385.0265), timeStamp: 2017-02-16 11:26:51.339
LEye coords (532.1628, 335.4758), REye coords (553.7932, 387.0191), timeStamp: 2017-02-16 11:26:51.373
LEye coords (530.0195, 332.8836), REye coords (554.2432, 389.0967), timeStamp: 2017-02-16 11:26:51.406
LEye coords (527.8341, 329.0677), REye coords (553.7252, 392.1497), timeStamp: 2017-02-16 11:26:51.450
LEye coords (526.0515, 325.7567), REye coords (553.4915, 393.6582), timeStamp: 2017-02-16 11:26:51.483
LEye coords (524.9031, 322.1463), REye coords (552.9131, 396.8014), timeStamp: 2017-02-16 11:26:51.516
LEye coords (523.1976, 319.0292), REye coords (552.9567, 398.9102), timeStamp: 2017-02-16 11:26:51.562
LEye coords (521.9717, 317.5596), REye coords (553.0894, 401.3416), timeStamp: 2017-02-16 11:26:51.596
LEye coords (520.5946, 317.2304), REye coords (553.5762, 403.0596), timeStamp: 2017-02-16 11:26:51.629
LEye coords (520.2692, 318.2637), REye coords (553.1825, 405.4806), timeStamp: 2017-02-16 11:26:51.672
LEye coords (517.8467, 316.3196), REye coords (552.2902, 407.7177), timeStamp: 2017-02-16 11:26:51.705
LEye coords (517.0811, 317.1694), REye coords (552.7023, 409.2669), timeStamp: 2017-02-16 11:26:51.738
LEye coords (516.6423, 319.4747), REye coords (552.6488, 411.3369), timeStamp: 2017-02-16 11:26:51.782
LEye coords (516.6102, 322.1863), REye coords (552.4941, 413.0304), timeStamp: 2017-02-16 11:26:51.816
LEye coords (515.3262, 320.6732), REye coords (551.8939, 414.7808), timeStamp: 2017-02-16 11:26:51.849
LEye coords (514.787, 322.3319), REye coords (551.5916, 416.2948), timeStamp: 2017-02-16 11:26:51.893
LEye coords (513.6309, 320.5955), REye coords (551.5759, 417.5333), timeStamp: 2017-02-16 11:26:51.926
LEye coords (511.8709, 320.1016), REye coords (550.1969, 418.7471), timeStamp: 2017-02-16 11:26:51.970
LEye coords (510.4104, 319.6712), REye coords (549.259, 419.4747), timeStamp: 2017-02-16 11:26:52.004
LEye coords (510.0395, 320.6033), REye coords (548.1437, 420.2437), timeStamp: 2017-02-16 11:26:52.038
LEye coords (509.6347, 322.9659), REye coords (546.908, 421.305), timeStamp: 2017-02-16 11:26:52.071
LEye coords (509.6126, 325.438), REye coords (545.616, 423.2945), timeStamp: 2017-02-16 11:26:52.115
LEye coords (508.0363, 325.4364), REye coords (544.3293, 424.4008), timeStamp: 2017-02-16 11:26:52.149
LEye coords (506.7113, 325.2605), REye coords (543.1056, 425.0174), timeStamp: 2017-02-16 11:26:52.182
LEye coords (0.0, 0.0), REye coords (542.5706, 425.1026), timeStamp: 2017-02-16 11:26:52.227
LEye coords (506.2411, 325.1644), REye coords (543.1456, 425.0855), timeStamp: 2017-02-16 11:26:52.261
LEye coords (507.2109, 327.1309), REye coords (543.338, 427.5703), timeStamp: 2017-02-16 11:26:52.294
LEye coords (508.1616, 329.6378), REye coords (543.1534, 429.8017), timeStamp: 2017-02-16 11:26:52.338
LEye coords (508.0802, 328.3536), REye coords (543.0532, 431.683), timeStamp: 2017-02-16 11:26:52.371
LEye coords (508.2028, 327.3275), REye coords (544.1298, 432.5965), timeStamp: 2017-02-16 11:26:52.405
LEye coords (509.0629, 326.0464), REye coords (543.9075, 434.2709), timeStamp: 2017-02-16 11:26:52.449
LEye coords (509.3362, 323.6167), REye coords (544.1207, 435.8846), timeStamp: 2017-02-16 11:26:52.483
LEye coords (509.3573, 320.69), REye coords (545.7114, 436.3354), timeStamp: 2017-02-16 11:26:52.517
LEye coords (510.1104, 319.6848), REye coords (545.2346, 437.5219), timeStamp: 2017-02-16 11:26:52.551
LEye coords (509.7071, 316.8806), REye coords (545.649, 438.3314), timeStamp: 2017-02-16 11:26:52.595
LEye coords (509.4615, 313.9508), REye coords (545.5995, 439.3716), timeStamp: 2017-02-16 11:26:52.629
LEye coords (509.2281, 310.866), REye coords (546.6745, 440.1528), timeStamp: 2017-02-16 11:26:52.672
LEye coords (510.1855, 309.4239), REye coords (546.7222, 441.481), timeStamp: 2017-02-16 11:26:52.706
LEye coords (510.6981, 307.5668), REye coords (546.7453, 442.9376), timeStamp: 2017-02-16 11:26:52.740
LEye coords (512.2772, 305.8727), REye coords (547.3466, 443.4525), timeStamp: 2017-02-16 11:26:52.774
LEye coords (512.5466, 304.0587), REye coords (548.0524, 444.4951), timeStamp: 2017-02-16 11:26:52.818
LEye coords (513.4988, 302.7918), REye coords (548.944, 445.1741), timeStamp: 2017-02-16 11:26:52.851
LEye coords (0.0, 0.0), REye coords (551.3671, 443.9582), timeStamp: 2017-02-16 11:26:52.885
LEye coords (515.8378, 300.0832), REye coords (553.9509, 441.5797), timeStamp: 2017-02-16 11:26:52.927
LEye coords (518.0311, 297.6361), REye coords (556.4171, 440.5888), timeStamp: 2017-02-16 11:26:52.961
LEye coords (519.9966, 295.9286), REye coords (557.8781, 438.3369), timeStamp: 2017-02-16 11:26:53.006
LEye coords (521.7357, 294.4528), REye coords (559.3998, 436.8298), timeStamp: 2017-02-16 11:26:53.038
LEye coords (523.9851, 293.1456), REye coords (560.0059, 435.1661), timeStamp: 2017-02-16 11:26:53.072
LEye coords (525.7293, 293.1767), REye coords (560.908, 433.4292), timeStamp: 2017-02-16 11:26:53.115
LEye coords (527.4223, 291.1994), REye coords (562.8808, 431.826), timeStamp: 2017-02-16 11:26:53.148
LEye coords (529.1791, 289.2913), REye coords (564.8936, 429.8557), timeStamp: 2017-02-16 11:26:53.182
LEye coords (0.0, 0.0), REye coords (566.2164, 427.6322), timeStamp: 2017-02-16 11:26:53.225
LEye coords (532.8712, 294.6659), REye coords (568.0524, 426.9322), timeStamp: 2017-02-16 11:26:53.258
LEye coords (534.5229, 294.8924), REye coords (570.4126, 424.5106), timeStamp: 2017-02-16 11:26:53.301
LEye coords (535.4045, 294.8083), REye coords (570.7182, 424.1195), timeStamp: 2017-02-16 11:26:53.334
LEye coords (536.0423, 294.662), REye coords (572.3945, 423.2466), timeStamp: 2017-02-16 11:26:53.367
LEye coords (538.0641, 297.846), REye coords (573.7007, 421.6104), timeStamp: 2017-02-16 11:26:53.412
LEye coords (540.7994, 303.0619), REye coords (574.1756, 420.7802), timeStamp: 2017-02-16 11:26:53.445
LEye coords (541.3987, 306.8415), REye coords (574.7791, 420.6469), timeStamp: 2017-02-16 11:26:53.479
LEye coords (542.0538, 309.6833), REye coords (576.0348, 420.6385), timeStamp: 2017-02-16 11:26:53.523
LEye coords (0.0, 0.0), REye coords (577.1517, 420.0476), timeStamp: 2017-02-16 11:26:53.556
LEye coords (544.6677, 316.4882), REye coords (577.7981, 419.0418), timeStamp: 2017-02-16 11:26:53.589
LEye coords (546.9844, 323.3245), REye coords (578.0106, 418.4186), timeStamp: 2017-02-16 11:26:53.633
LEye coords (590.3249, 423.5604), REye coords (578.6201, 417.6165), timeStamp: 2017-02-16 11:26:53.667
LEye coords (566.308, 408.4917), REye coords (578.8461, 418.5803), timeStamp: 2017-02-16 11:26:53.700
LEye coords (571.4091, 400.8969), REye coords (578.6107, 419.5404), timeStamp: 2017-02-16 11:26:53.745
LEye coords (569.16, 395.943), REye coords (579.0191, 419.6451), timeStamp: 2017-02-16 11:26:53.778
LEye coords (571.9365, 396.5766), REye coords (579.4493, 419.9595), timeStamp: 2017-02-16 11:26:53.812
LEye coords (573.8317, 397.7751), REye coords (579.5922, 420.9047), timeStamp: 2017-02-16 11:26:53.856
LEye coords (0.0, 0.0), REye coords (580.61, 420.5804), timeStamp: 2017-02-16 11:26:53.890
LEye coords (576.478, 397.9138), REye coords (581.2938, 421.6203), timeStamp: 2017-02-16 11:26:53.924
LEye coords (576.7512, 399.3409), REye coords (581.5725, 422.2993), timeStamp: 2017-02-16 11:26:53.967
LEye coords (571.4786, 390.5009), REye coords (581.2913, 422.6392), timeStamp: 2017-02-16 11:26:54.000
LEye coords (569.9105, 388.4677), REye coords (580.304, 422.0056), timeStamp: 2017-02-16 11:26:54.034
LEye coords (569.2896, 388.4775), REye coords (579.8703, 420.6466), timeStamp: 2017-02-16 11:26:54.079
LEye coords (567.5886, 387.7599), REye coords (579.3864, 420.5864), timeStamp: 2017-02-16 11:26:54.113
LEye coords (567.4987, 387.881), REye coords (579.3797, 419.7128), timeStamp: 2017-02-16 11:26:54.147
LEye coords (565.8201, 386.6455), REye coords (578.8705, 419.1784), timeStamp: 2017-02-16 11:26:54.181
LEye coords (564.1711, 386.7122), REye coords (578.9986, 418.7323), timeStamp: 2017-02-16 11:26:54.226
LEye coords (505.6826, 272.1411), REye coords (579.0088, 418.0894), timeStamp: 2017-02-16 11:26:54.258
LEye coords (540.6808, 348.6241), REye coords (577.6821, 418.0945), timeStamp: 2017-02-16 11:26:54.292
LEye coords (548.7486, 372.8663), REye coords (576.9125, 417.2091), timeStamp: 2017-02-16 11:26:54.336
LEye coords (549.0768, 380.0677), REye coords (576.1091, 417.0656), timeStamp: 2017-02-16 11:26:54.369
LEye coords (548.5553, 379.5115), REye coords (575.3948, 416.9508), timeStamp: 2017-02-16 11:26:54.411
