LEye coords (563.7214, 465.5578), REye coords (720.314, 559.0583), timeStamp: 2017-02-16 11:26:43.346
LEye coords (616.1467, 516.6481), REye coords (720.7505, 556.9963), timeStamp: 2017-02-16 11:26:43.380
LEye coords (639.2597, 533.7834), REye coords (720.8317, 556.2111), timeStamp: 2017-02-16 11:26:43.413
LEye coords (641.4377, 525.9223), REye coords (721.177, 555.447), timeStamp: 2017-02-16 11:26:43.447
LEye coords (668.6685, 566.0086), REye coords (721.606, 555.433), timeStamp: 2017-02-16 11:26:43.490
LEye coords (659.606, 544.2302), REye coords (722.1129, 554.5602), timeStamp: 2017-02-16 11:26:43.523
LEye coords (671.9272, 561.9551), REye coords (722.2087, 554.7214), timeStamp: 2017-02-16 11:26:43.568
LEye coords (674.238, 561.2738), REye coords (722.8427, 553.5452), timeStamp: 2017-02-16 11:26:43.602
LEye coords (669.9329, 509.0765), REye coords (675.9249, 365.8963), timeStamp: 2017-02-16 11:26:43.637
LEye coords (671.0732, 345.9005), REye coords (672.3267, 376.9903), timeStamp: 2017-02-16 11:26:43.670
LEye coords (674.0416, 367.7432), REye coords (675.752, 376.799), timeStamp: 2017-02-16 11:26:43.713
LEye coords (669.5046, 369.7653), REye coords (675.5298, 377.5561), timeStamp: 2017-02-16 11:26:43.747
LEye coords (668.7383, 367.2379), REye coords (675.9868, 378.6244), timeStamp: 2017-02-16 11:26:43.780
LEye coords (667.4517, 367.317), REye coords (666.909, 387.2342), timeStamp: 2017-02-16 11:26:43.825
LEye coords (664.888, 365.3469), REye coords (672.478, 391.6811), timeStamp: 2017-02-16 11:26:43.857
LEye coords (665.8027, 364.3786), REye coords (688.2785, 346.3753), timeStamp: 2017-02-16 11:26:43.891
LEye coords (666.8274, 354.5887), REye coords (684.4886, 354.3287), timeStamp: 2017-02-16 11:26:43.935
LEye coords (665.9312, 346.19), REye coords (682.7808, 357.0429), timeStamp: 2017-02-16 11:26:43.969
LEye coords (668.9266, 333.8216), REye coords (688.7419, 341.9517), timeStamp: 2017-02-16 11:26:44.012
LEye coords (736.127, 184.287), REye coords (763.1707, 253.8438), timeStamp: 2017-02-16 11:26:44.045
LEye coords (731.131, 190.2422), REye coords (757.0338, 255.0189), timeStamp: 2017-02-16 11:26:44.077
LEye coords (730.8215, 214.0838), REye coords (756.3085, 254.5327), timeStamp: 2017-02-16 11:26:44.121
LEye coords (732.4134, 203.5377), REye coords (755.1603, 255.466), timeStamp: 2017-02-16 11:26:44.155
LEye coords (732.7235, 200.0697), REye coords (754.4871, 253.6356), timeStamp: 2017-02-16 11:26:44.189
LEye coords (730.6668, 200.1863), REye coords (752.8649, 255.8819), timeStamp: 2017-02-16 11:26:44.232
LEye coords (733.5789, 198.7415), REye coords (751.8627, 256.6384), timeStamp: 2017-02-16 11:26:44.265
LEye coords (733.1244, 199.1953), REye coords (753.4383, 259.3934), timeStamp: 2017-02-16 11:26:44.308
LEye coords (734.6183, 200.166), REye coords (753.8087, 259.2142), timeStamp: 2017-02-16 11:26:44.343
LEye coords (734.8162, 200.5425), REye coords (753.7832, 259.715), timeStamp: 2017-02-16 11:26:44.376
LEye coords (734.5197, 200.0949), REye coords (754.0351, 259.9857), timeStamp: 2017-02-16 11:26:44.419
LEye coords (733.1176, 199.1017), REye coords (753.6402, 259.9116), timeStamp: 2017-02-16 11:26:44.453
LEye coords (732.8316, 198.1127), REye coords (751.9703, 259.1968), timeStamp: 2017-02-16 11:26:44.486
LEye coords (731.6438, 198.1101), REye coords (752.1664, 257.5859), timeStamp: 2017-02-16 11:26:44.530
LEye coords (730.0033, 200.2864), REye coords (751.176, 258.1197), timeStamp: 2017-02-16 11:26:44.563
LEye coords (729.9843, 199.708), REye coords (750.0405, 258.8684), timeStamp: 2017-02-16 11:26:44.597
LEye coords (728.5517, 199.3555), REye coords (749.9648, 259.1847), timeStamp: 2017-02-16 11:26:44.640
LEye coords (727.5, 199.5997), REye coords (749.3939, 259.5912), timeStamp: 2017-02-16 11:26:44.674
LEye coords (727.2518, 201.12), REye coords (748.8076, 260.083), timeStamp: 2017-02-16 11:26:44.707
LEye coords (727.201, 202.8277), REye coords (748.7928, 260.1163), timeStamp: 2017-02-16 11:26:44.742
LEye coords (726.5197, 204.3746), REye coords (748.1307, 261.189), timeStamp: 2017-02-16 11:26:44.785
LEye coords (717.9686, 364.4413), REye coords (719.0385, 376.3248), timeStamp: 2017-02-16 11:26:44.819
LEye coords (717.4557, 346.4342), REye coords (716.7753, 380.7128), timeStamp: 2017-02-16 11:26:44.863
LEye coords (713.0583, 350.1013), REye coords (718.7602, 380.1831), timeStamp: 2017-02-16 11:26:44.897
LEye coords (719.6492, 356.973), REye coords (726.3117, 350.4534), timeStamp: 2017-02-16 11:26:44.931
LEye coords (713.8162, 363.3563), REye coords (726.1235, 355.5072), timeStamp: 2017-02-16 11:26:44.973
LEye coords (714.4778, 358.261), REye coords (724.8159, 360.6552), timeStamp: 2017-02-16 11:26:45.006
LEye coords (711.5275, 376.0941), REye coords (723.6561, 365.1009), timeStamp: 2017-02-16 11:26:45.039
LEye coords (712.1793, 376.192), REye coords (723.4222, 367.4743), timeStamp: 2017-02-16 11:26:45.084
LEye coords (711.6044, 372.0096), REye coords (723.2894, 369.4651), timeStamp: 2017-02-16 11:26:45.117
LEye coords (709.2817, 372.3783), REye coords (722.7359, 372.0381), timeStamp: 2017-02-16 11:26:45.151
LEye coords (709.7538, 372.6043), REye coords (723.9, 371.9371), timeStamp: 2017-02-16 11:26:45.186
LEye coords (707.8463, 374.19), REye coords (723.4592, 373.5319), timeStamp: 2017-02-16 11:26:45.229
LEye coords (706.9403, 373.3507), REye coords (723.447, 374.773), timeStamp: 2017-02-16 11:26:45.263
LEye coords (707.1718, 371.1429), REye coords (723.0919, 375.3834), timeStamp: 2017-02-16 11:26:45.306
LEye coords (707.4658, 369.56), REye coords (723.1946, 375.8935), timeStamp: 2017-02-16 11:26:45.339
LEye coords (707.1847, 368.5017), REye coords (722.5255, 377.3139), timeStamp: 2017-02-16 11:26:45.373
LEye coords (707.3251, 360.6002), REye coords (723.0868, 376.1268), timeStamp: 2017-02-16 11:26:45.417
LEye coords (706.8633, 352.4601), REye coords (723.392, 375.836), timeStamp: 2017-02-16 11:26:45.450
LEye coords (704.4617, 351.3679), REye coords (720.5154, 374.7726), timeStamp: 2017-02-16 11:26:45.484
LEye coords (701.3743, 350.3526), REye coords (717.2639, 373.739), timeStamp: 2017-02-16 11:26:45.528
LEye coords (698.6894, 348.9986), REye coords (714.9634, 371.8183), timeStamp: 2017-02-16 11:26:45.562
LEye coords (696.9233, 348.6303), REye coords (712.4868, 371.3561), timeStamp: 2017-02-16 11:26:45.596
LEye coords (695.328, 346.541), REye coords (709.8417, 370.6848), timeStamp: 2017-02-16 11:26:45.641
LEye coords (693.6097, 345.0686), REye coords (708.4333, 369.6013), timeStamp: 2017-02-16 11:26:45.674
LEye coords (691.8719, 344.3576), REye coords (706.7891, 368.3566), timeStamp: 2017-02-16 11:26:45.707
LEye coords (690.9184, 344.304), REye coords (704.3799, 368.5654), timeStamp: 2017-02-16 11:26:45.750
LEye coords (689.7574, 344.2159), REye coords (702.3091, 368.1849), timeStamp: 2017-02-16 11:26:45.785
LEye coords (688.8437, 344.4953), REye coords (700.5232, 367.1253), timeStamp: 2017-02-16 11:26:45.819
LEye coords (687.0047, 343.101), REye coords (698.3213, 366.8218), timeStamp: 2017-02-16 11:26:45.853
LEye coords (686.0634, 343.1999), REye coords (695.6016, 366.2024), timeStamp: 2017-02-16 11:26:45.898
LEye coords (684.664, 343.2668), REye coords (693.3056, 365.7948), timeStamp: 2017-02-16 11:26:45.931
LEye coords (683.3125, 342.5054), REye coords (691.4949, 364.2637), timeStamp: 2017-02-16 11:26:45.964
LEye coords (681.7704, 342.4818), REye coords (689.6058, 363.1057), timeStamp: 2017-02-16 11:26:46.009
LEye coords (681.1228, 342.1021), REye coords (687.8643, 362.264), timeStamp: 2017-02-16 11:26:46.043
LEye coords (679.4715, 342.5516), REye coords (685.6965, 361.3908), timeStamp: 2017-02-16 11:26:46.077
LEye coords (678.1605, 343.1124), REye coords (684.7457, 360.4407), timeStamp: 2017-02-16 11:26:46.120
LEye coords (677.4507, 343.981), REye coords (683.4799, 359.267), timeStamp: 2017-02-16 11:26:46.153
LEye coords (676.3187, 344.4078), REye coords (682.2236, 358.8392), timeStamp: 2017-02-16 11:26:46.186
LEye coords (675.8376, 346.28), REye coords (680.7419, 358.4678), timeStamp: 2017-02-16 11:26:46.230
LEye coords (675.1705, 347.6551), REye coords (679.9999, 357.7454), timeStamp: 2017-02-16 11:26:46.263
LEye coords (675.3354, 346.8004), REye coords (680.5985, 355.9911), timeStamp: 2017-02-16 11:26:46.297
LEye coords (676.0703, 346.4428), REye coords (682.4023, 352.4761), timeStamp: 2017-02-16 11:26:46.341
LEye coords (675.9355, 345.7963), REye coords (681.7625, 352.691), timeStamp: 2017-02-16 11:26:46.375
LEye coords (676.3962, 345.076), REye coords (681.4499, 352.0822), timeStamp: 2017-02-16 11:26:46.409
LEye coords (677.8162, 222.0575), REye coords (681.6307, 352.3171), timeStamp: 2017-02-16 11:26:46.454
LEye coords (667.2623, 250.9599), REye coords (683.2943, 348.4102), timeStamp: 2017-02-16 11:26:46.488
LEye coords (671.0, 243.8648), REye coords (684.6035, 343.9726), timeStamp: 2017-02-16 11:26:46.522
LEye coords (673.555, 260.0624), REye coords (685.3138, 339.4867), timeStamp: 2017-02-16 11:26:46.556
LEye coords (671.9087, 254.8833), REye coords (685.147, 338.8849), timeStamp: 2017-02-16 11:26:46.600
LEye coords (669.291, 249.9454), REye coords (684.8633, 338.5785), timeStamp: 2017-02-16 11:26:46.634
LEye coords (670.7529, 265.698), REye coords (686.4286, 335.6947), timeStamp: 2017-02-16 11:26:46.668
LEye coords (672.4045, 276.0607), REye coords (688.2897, 331.0262), timeStamp: 2017-02-16 11:26:46.713
LEye coords (672.462, 283.47), REye coords (688.4401, 331.1569), timeStamp: 2017-02-16 11:26:46.746
LEye coords (672.4315, 290.0103), REye coords (690.3999, 327.5384), timeStamp: 2017-02-16 11:26:46.780
LEye coords (674.4548, 295.6591), REye coords (690.7496, 327.8385), timeStamp: 2017-02-16 11:26:46.825
LEye coords (675.3807, 298.6585), REye coords (692.5256, 323.4343), timeStamp: 2017-02-16 11:26:46.858
LEye coords (674.1696, 294.0625), REye coords (692.544, 323.5092), timeStamp: 2017-02-16 11:26:46.892
LEye coords (675.4491, 300.9896), REye coords (693.5628, 326.1914), timeStamp: 2017-02-16 11:26:46.926
LEye coords (677.6164, 307.5508), REye coords (694.491, 328.9101), timeStamp: 2017-02-16 11:26:46.970
LEye coords (678.6968, 313.3919), REye coords (695.9008, 331.5819), timeStamp: 2017-02-16 11:26:47.004
LEye coords (679.9008, 317.9791), REye coords (697.1722, 334.7295), timeStamp: 2017-02-16 11:26:47.047
LEye coords (681.5234, 322.8763), REye coords (698.498, 337.5911), timeStamp: 2017-02-16 11:26:47.081
LEye coords (683.3713, 328.1953), REye coords (699.2946, 340.5327), timeStamp: 2017-02-16 11:26:47.114
LEye coords (683.7112, 331.9684), REye coords (699.3808, 344.5908), timeStamp: 2017-02-16 11:26:47.157
LEye coords (684.7618, 335.7264), REye coords (700.7217, 347.2834), timeStamp: 2017-02-16 11:26:47.190
LEye coords (684.6917, 339.4032), REye coords (701.312, 350.787), timeStamp: 2017-02-16 11:26:47.224
LEye coords (684.9464, 343.3843), REye coords (702.4416, 354.0447), timeStamp: 2017-02-16 11:26:47.268
LEye coords (680.1035, 367.6242), REye coords (702.1136, 358.4046), timeStamp: 2017-02-16 11:26:47.302
LEye coords (695.6765, 383.6726), REye coords (701.8052, 361.8803), timeStamp: 2017-02-16 11:26:47.336
LEye coords (689.9333, 381.5949), REye coords (701.6426, 366.1418), timeStamp: 2017-02-16 11:26:47.380
LEye coords (689.7644, 381.1671), REye coords (702.8227, 368.1974), timeStamp: 2017-02-16 11:26:47.413
LEye coords (689.3287, 378.1245), REye coords (703.073, 369.8106), timeStamp: 2017-02-16 11:26:47.446
LEye coords (688.8077, 378.5963), REye coords (703.4208, 373.411), timeStamp: 2017-02-16 11:26:47.491
LEye coords (690.6808, 377.4213), REye coords (702.6885, 376.3247), timeStamp: 2017-02-16 11:26:47.524
LEye coords (694.0961, 378.6047), REye coords (703.1415, 377.3283), timeStamp: 2017-02-16 11:26:47.557
LEye coords (691.6712, 377.7153), REye coords (702.9334, 379.3864), timeStamp: 2017-02-16 11:26:47.600
LEye coords (690.6852, 378.9265), REye coords (703.6309, 380.7846), timeStamp: 2017-02-16 11:26:47.635
LEye coords (690.0521, 378.4878), REye coords (703.3317, 383.3587), timeStamp: 2017-02-16 11:26:47.667
LEye coords (690.4711, 378.1778), REye coords (704.2227, 384.3399), timeStamp: 2017-02-16 11:26:47.713
LEye coords (691.0138, 377.0382), REye coords (704.6827, 384.4055), timeStamp: 2017-02-16 11:26:47.747
LEye coords (690.0421, 376.829), REye coords (700.335, 388.7324), timeStamp: 2017-02-16 11:26:47.780
LEye coords (690.8541, 376.765), REye coords (711.1783, 389.7793), timeStamp: 2017-02-16 11:26:47.815
LEye coords (691.8914, 377.4685), REye coords (708.1954, 383.4776), timeStamp: 2017-02-16 11:26:47.858
LEye coords (692.2272, 377.6571), REye coords (709.1869, 378.5869), timeStamp: 2017-02-16 11:26:47.891
LEye coords (692.5798, 378.2362), REye coords (709.0519, 384.0233), timeStamp: 2017-02-16 11:26:47.935
LEye coords (692.8565, 379.0584), REye coords (710.0757, 385.4775), timeStamp: 2017-02-16 11:26:47.968
LEye coords (693.0032, 379.5175), REye coords (707.881, 389.0898), timeStamp: 2017-02-16 11:26:48.002
LEye coords (693.1188, 380.172), REye coords (707.3782, 388.4318), timeStamp: 2017-02-16 11:26:48.046
LEye coords (692.0871, 380.827), REye coords (706.1011, 390.6682), timeStamp: 2017-02-16 11:26:48.079
LEye coords (691.1506, 380.813), REye coords (705.4063, 390.3497), timeStamp: 2017-02-16 11:26:48.112
LEye coords (690.6434, 381.6203), REye coords (703.9649, 391.7871), timeStamp: 2017-02-16 11:26:48.155
LEye coords (690.2764, 381.9789), REye coords (704.0978, 392.9505), timeStamp: 2017-02-16 11:26:48.188
LEye coords (690.2371, 382.7714), REye coords (704.2825, 394.1044), timeStamp: 2017-02-16 11:26:48.222
LEye coords (689.9106, 383.5343), REye coords (704.381, 394.1601), timeStamp: 2017-02-16 11:26:48.266
LEye coords (689.7649, 383.6246), REye coords (705.1244, 393.2994), timeStamp: 2017-02-16 11:26:48.299
LEye coords (689.575, 383.3596), REye coords (704.983, 394.4016), timeStamp: 2017-02-16 11:26:48.334
LEye coords (688.8032, 384.0207), REye coords (703.7446, 395.1509), timeStamp: 2017-02-16 11:26:48.378
LEye coords (688.663, 384.0086), REye coords (703.698, 395.1408), timeStamp: 2017-02-16 11:26:48.412
LEye coords (689.0613, 384.3529), REye coords (703.4843, 395.9629), timeStamp: 2017-02-16 11:26:48.446
