LEye coords (1145.4471, 475.963), REye coords (1168.1038, 478.5027), timeStamp: 2017-02-16 11:27:05.662
LEye coords (1144.5824, 475.6842), REye coords (1168.2953, 477.4317), timeStamp: 2017-02-16 11:27:05.696
LEye coords (1143.9534, 475.5764), REye coords (1167.5953, 478.4701), timeStamp: 2017-02-16 11:27:05.730
LEye coords (1142.7894, 475.778), REye coords (1167.328, 478.7466), timeStamp: 2017-02-16 11:27:05.774
LEye coords (1142.4573, 476.1604), REye coords (1167.4052, 479.2249), timeStamp: 2017-02-16 11:27:05.809
LEye coords (1141.8287, 477.0963), REye coords (1167.2607, 479.2604), timeStamp: 2017-02-16 11:27:05.843
LEye coords (995.6994, 461.8746), REye coords (1037.2363, 452.2104), timeStamp: 2017-02-16 11:27:05.877
LEye coords (653.9384, 386.5781), REye coords (690.4128, 397.483), timeStamp: 2017-02-16 11:27:05.920
LEye coords (662.6196, 389.2389), REye coords (695.6089, 399.526), timeStamp: 2017-02-16 11:27:05.955
LEye coords (661.5976, 389.6313), REye coords (693.5497, 400.226), timeStamp: 2017-02-16 11:27:05.988
LEye coords (660.1312, 389.3003), REye coords (689.2, 401.0482), timeStamp: 2017-02-16 11:27:06.031
LEye coords (524.5247, 206.0885), REye coords (541.7449, 216.8979), timeStamp: 2017-02-16 11:27:06.064
LEye coords (528.3799, 205.1055), REye coords (542.233, 247.1033), timeStamp: 2017-02-16 11:27:06.107
LEye coords (521.5103, 212.4405), REye coords (547.5259, 233.9081), timeStamp: 2017-02-16 11:27:06.140
LEye coords (531.5005, 209.767), REye coords (551.9094, 224.4978), timeStamp: 2017-02-16 11:27:06.173
LEye coords (529.2115, 212.0504), REye coords (550.3417, 222.8212), timeStamp: 2017-02-16 11:27:06.217
LEye coords (520.4734, 222.7051), REye coords (554.813, 225.0145), timeStamp: 2017-02-16 11:27:06.250
LEye coords (511.703, 215.6989), REye coords (552.2384, 202.5826), timeStamp: 2017-02-16 11:27:06.285
LEye coords (520.9827, 220.8035), REye coords (547.1147, 208.7597), timeStamp: 2017-02-16 11:27:06.319
LEye coords (542.9248, 210.0108), REye coords (565.7304, 203.2084), timeStamp: 2017-02-16 11:27:06.363
LEye coords (555.8306, 204.4531), REye coords (570.8193, 198.7675), timeStamp: 2017-02-16 11:27:06.397
LEye coords (564.1863, 201.3521), REye coords (573.8443, 196.3875), timeStamp: 2017-02-16 11:27:06.431
LEye coords (570.3112, 200.1331), REye coords (576.549, 196.6761), timeStamp: 2017-02-16 11:27:06.475
LEye coords (573.4915, 198.1028), REye coords (576.8298, 193.5083), timeStamp: 2017-02-16 11:27:06.508
LEye coords (577.9102, 195.9738), REye coords (577.5532, 192.1786), timeStamp: 2017-02-16 11:27:06.552
LEye coords (579.7523, 195.424), REye coords (578.3881, 188.0925), timeStamp: 2017-02-16 11:27:06.585
LEye coords (581.2737, 195.0172), REye coords (580.1808, 187.704), timeStamp: 2017-02-16 11:27:06.618
LEye coords (583.5546, 194.0516), REye coords (581.277, 186.9205), timeStamp: 2017-02-16 11:27:06.661
LEye coords (584.7579, 192.317), REye coords (582.5219, 186.8416), timeStamp: 2017-02-16 11:27:06.694
LEye coords (584.9119, 191.4235), REye coords (582.2925, 186.7085), timeStamp: 2017-02-16 11:27:06.728
LEye coords (585.5708, 191.2009), REye coords (582.7866, 185.412), timeStamp: 2017-02-16 11:27:06.771
LEye coords (586.4781, 190.9131), REye coords (582.6278, 184.5897), timeStamp: 2017-02-16 11:27:06.804
LEye coords (586.8197, 190.308), REye coords (583.311, 184.073), timeStamp: 2017-02-16 11:27:06.838
LEye coords (587.3333, 189.6831), REye coords (582.6796, 184.1052), timeStamp: 2017-02-16 11:27:06.882
LEye coords (587.7713, 188.8296), REye coords (583.1537, 184.1115), timeStamp: 2017-02-16 11:27:06.915
LEye coords (588.429, 188.7882), REye coords (583.2515, 184.4827), timeStamp: 2017-02-16 11:27:06.958
LEye coords (588.0168, 189.3), REye coords (583.1151, 184.9866), timeStamp: 2017-02-16 11:27:06.991
LEye coords (587.627, 189.175), REye coords (583.1029, 185.2371), timeStamp: 2017-02-16 11:27:07.024
LEye coords (587.3794, 188.7485), REye coords (583.3018, 184.9263), timeStamp: 2017-02-16 11:27:07.068
LEye coords (588.3529, 188.4153), REye coords (583.7785, 184.1374), timeStamp: 2017-02-16 11:27:07.102
LEye coords (589.4423, 187.7315), REye coords (584.6602, 183.1799), timeStamp: 2017-02-16 11:27:07.136
LEye coords (589.2856, 187.335), REye coords (584.4329, 183.3911), timeStamp: 2017-02-16 11:27:07.170
LEye coords (588.5605, 186.9584), REye coords (584.3572, 183.9566), timeStamp: 2017-02-16 11:27:07.215
LEye coords (587.9083, 187.6776), REye coords (583.803, 183.8866), timeStamp: 2017-02-16 11:27:07.248
LEye coords (587.6985, 187.7466), REye coords (583.492, 184.5209), timeStamp: 2017-02-16 11:27:07.282
LEye coords (587.4207, 188.5253), REye coords (583.8083, 185.8689), timeStamp: 2017-02-16 11:27:07.325
LEye coords (586.2488, 188.5752), REye coords (583.6323, 185.9339), timeStamp: 2017-02-16 11:27:07.358
LEye coords (585.7559, 189.0989), REye coords (583.6202, 186.3849), timeStamp: 2017-02-16 11:27:07.403
LEye coords (584.8069, 189.9218), REye coords (583.1644, 187.1545), timeStamp: 2017-02-16 11:27:07.436
LEye coords (584.7077, 190.6439), REye coords (583.2358, 187.5591), timeStamp: 2017-02-16 11:27:07.470
LEye coords (584.5873, 189.8566), REye coords (582.9894, 184.947), timeStamp: 2017-02-16 11:27:07.514
LEye coords (585.1129, 189.2956), REye coords (583.5558, 183.6051), timeStamp: 2017-02-16 11:27:07.548
LEye coords (586.3502, 189.3584), REye coords (583.3937, 181.8426), timeStamp: 2017-02-16 11:27:07.580
LEye coords (587.4232, 189.1012), REye coords (583.2363, 180.1202), timeStamp: 2017-02-16 11:27:07.623
LEye coords (588.0915, 188.588), REye coords (582.7025, 178.632), timeStamp: 2017-02-16 11:27:07.657
LEye coords (588.589, 188.2705), REye coords (582.9596, 176.5037), timeStamp: 2017-02-16 11:27:07.690
LEye coords (589.2312, 187.463), REye coords (582.8912, 174.9319), timeStamp: 2017-02-16 11:27:07.734
LEye coords (589.2591, 187.1051), REye coords (583.4048, 173.5883), timeStamp: 2017-02-16 11:27:07.767
LEye coords (590.2075, 185.8475), REye coords (583.8146, 171.0), timeStamp: 2017-02-16 11:27:07.801
LEye coords (591.303, 185.2415), REye coords (583.9796, 169.9827), timeStamp: 2017-02-16 11:27:07.845
LEye coords (590.5029, 186.1329), REye coords (584.595, 173.6102), timeStamp: 2017-02-16 11:27:07.879
LEye coords (589.813, 186.6534), REye coords (585.6516, 174.5724), timeStamp: 2017-02-16 11:27:07.913
LEye coords (589.9342, 186.5709), REye coords (586.4686, 174.7838), timeStamp: 2017-02-16 11:27:07.948
LEye coords (589.9261, 187.4119), REye coords (587.5676, 177.7281), timeStamp: 2017-02-16 11:27:07.992
LEye coords (590.2785, 187.5297), REye coords (588.3193, 181.1413), timeStamp: 2017-02-16 11:27:08.025
LEye coords (590.8215, 187.0152), REye coords (589.2614, 183.4756), timeStamp: 2017-02-16 11:27:08.069
LEye coords (590.8735, 187.2026), REye coords (590.3084, 185.5384), timeStamp: 2017-02-16 11:27:08.102
LEye coords (589.9269, 189.5848), REye coords (593.0764, 189.9588), timeStamp: 2017-02-16 11:27:08.134
LEye coords (588.6035, 192.9955), REye coords (595.6777, 194.5711), timeStamp: 2017-02-16 11:27:08.177
LEye coords (588.2891, 196.1701), REye coords (597.9003, 198.8771), timeStamp: 2017-02-16 11:27:08.211
LEye coords (588.5764, 198.9363), REye coords (601.324, 202.934), timeStamp: 2017-02-16 11:27:08.245
LEye coords (588.1839, 203.0803), REye coords (603.6663, 206.45), timeStamp: 2017-02-16 11:27:08.288
LEye coords (587.7332, 207.4601), REye coords (605.5828, 211.3288), timeStamp: 2017-02-16 11:27:08.321
LEye coords (586.8921, 211.8608), REye coords (607.507, 215.8353), timeStamp: 2017-02-16 11:27:08.356
LEye coords (586.3738, 215.9527), REye coords (619.0231, 316.7301), timeStamp: 2017-02-16 11:27:08.399
LEye coords (585.8, 220.1017), REye coords (621.3469, 248.9911), timeStamp: 2017-02-16 11:27:08.433
LEye coords (585.8135, 224.2754), REye coords (624.0711, 253.1314), timeStamp: 2017-02-16 11:27:08.467
LEye coords (585.6669, 227.9893), REye coords (623.9952, 249.7801), timeStamp: 2017-02-16 11:27:08.511
LEye coords (585.3047, 231.4692), REye coords (626.2718, 248.5848), timeStamp: 2017-02-16 11:27:08.543
LEye coords (584.2867, 235.2953), REye coords (626.3716, 247.2539), timeStamp: 2017-02-16 11:27:08.587
LEye coords (583.3835, 238.4922), REye coords (627.0349, 249.9139), timeStamp: 2017-02-16 11:27:08.620
LEye coords (583.7415, 241.5486), REye coords (625.457, 250.7853), timeStamp: 2017-02-16 11:27:08.654
LEye coords (583.5286, 243.8102), REye coords (625.3798, 250.4039), timeStamp: 2017-02-16 11:27:08.687
LEye coords (584.2748, 245.4325), REye coords (625.1823, 250.5575), timeStamp: 2017-02-16 11:27:08.731
LEye coords (583.7793, 248.6528), REye coords (623.4803, 249.3074), timeStamp: 2017-02-16 11:27:08.765
LEye coords (583.9721, 251.0214), REye coords (623.8615, 250.9887), timeStamp: 2017-02-16 11:27:08.808
LEye coords (583.5704, 252.9075), REye coords (624.9192, 252.2711), timeStamp: 2017-02-16 11:27:08.842
LEye coords (582.9754, 254.8742), REye coords (624.1389, 251.1132), timeStamp: 2017-02-16 11:27:08.876
LEye coords (582.5123, 256.0796), REye coords (623.7103, 250.8775), timeStamp: 2017-02-16 11:27:08.921
LEye coords (582.7466, 255.983), REye coords (623.3008, 249.4955), timeStamp: 2017-02-16 11:27:08.954
LEye coords (582.803, 255.1447), REye coords (622.4695, 250.5735), timeStamp: 2017-02-16 11:27:08.988
LEye coords (582.6741, 254.3876), REye coords (621.6093, 250.8707), timeStamp: 2017-02-16 11:27:09.022
LEye coords (582.5456, 253.7395), REye coords (621.0089, 251.2481), timeStamp: 2017-02-16 11:27:09.066
LEye coords (582.6322, 252.0736), REye coords (621.067, 251.1485), timeStamp: 2017-02-16 11:27:09.099
LEye coords (582.1776, 251.1564), REye coords (620.4196, 252.4864), timeStamp: 2017-02-16 11:27:09.133
LEye coords (582.3258, 249.0419), REye coords (619.8894, 254.0016), timeStamp: 2017-02-16 11:27:09.177
LEye coords (582.8572, 247.4108), REye coords (619.5009, 254.3406), timeStamp: 2017-02-16 11:27:09.211
LEye coords (584.4055, 245.9655), REye coords (619.2339, 255.0302), timeStamp: 2017-02-16 11:27:09.244
LEye coords (585.8211, 244.7628), REye coords (618.6378, 256.065), timeStamp: 2017-02-16 11:27:09.287
LEye coords (586.3931, 243.9651), REye coords (617.681, 256.4061), timeStamp: 2017-02-16 11:27:09.321
LEye coords (586.9327, 243.1048), REye coords (617.0483, 258.1126), timeStamp: 2017-02-16 11:27:09.364
LEye coords (587.5772, 242.5276), REye coords (616.6242, 257.9616), timeStamp: 2017-02-16 11:27:09.398
LEye coords (587.8643, 241.6085), REye coords (615.7571, 257.0156), timeStamp: 2017-02-16 11:27:09.433
LEye coords (587.0844, 239.9414), REye coords (615.0725, 256.6562), timeStamp: 2017-02-16 11:27:09.466
LEye coords (586.8246, 239.7794), REye coords (614.3087, 256.4819), timeStamp: 2017-02-16 11:27:09.509
LEye coords (585.9698, 239.5198), REye coords (613.5328, 255.7365), timeStamp: 2017-02-16 11:27:09.542
LEye coords (586.3986, 238.3249), REye coords (613.5399, 255.2677), timeStamp: 2017-02-16 11:27:09.586
LEye coords (586.7248, 237.2398), REye coords (612.9333, 254.5079), timeStamp: 2017-02-16 11:27:09.620
LEye coords (586.9273, 236.2877), REye coords (612.0189, 253.0549), timeStamp: 2017-02-16 11:27:09.653
LEye coords (587.2866, 236.209), REye coords (611.8835, 253.8508), timeStamp: 2017-02-16 11:27:09.696
LEye coords (586.8657, 236.0647), REye coords (611.4172, 253.0962), timeStamp: 2017-02-16 11:27:09.730
LEye coords (587.1715, 235.2486), REye coords (611.2727, 254.0274), timeStamp: 2017-02-16 11:27:09.764
LEye coords (586.2304, 234.8393), REye coords (611.0877, 253.7693), timeStamp: 2017-02-16 11:27:09.807
LEye coords (585.7434, 235.1682), REye coords (611.3277, 254.0731), timeStamp: 2017-02-16 11:27:09.841
LEye coords (585.8508, 235.1473), REye coords (611.5487, 253.1909), timeStamp: 2017-02-16 11:27:09.874
LEye coords (585.9601, 235.2229), REye coords (611.9083, 252.9029), timeStamp: 2017-02-16 11:27:09.919
LEye coords (585.8831, 239.608), REye coords (611.8207, 252.1631), timeStamp: 2017-02-16 11:27:09.952
LEye coords (586.3919, 243.5938), REye coords (611.6809, 256.4713), timeStamp: 2017-02-16 11:27:09.985
LEye coords (586.0654, 247.068), REye coords (612.3584, 256.6447), timeStamp: 2017-02-16 11:27:10.028
LEye coords (585.4186, 247.3252), REye coords (612.2676, 257.0516), timeStamp: 2017-02-16 11:27:10.062
LEye coords (584.7758, 247.5191), REye coords (611.8752, 260.5557), timeStamp: 2017-02-16 11:27:10.094
LEye coords (585.7768, 250.8973), REye coords (611.9111, 259.8465), timeStamp: 2017-02-16 11:27:10.138
LEye coords (586.7264, 254.6958), REye coords (612.1975, 259.5333), timeStamp: 2017-02-16 11:27:10.172
LEye coords (587.4097, 254.2743), REye coords (612.7607, 259.1303), timeStamp: 2017-02-16 11:27:10.215
LEye coords (587.5494, 254.7103), REye coords (613.8322, 259.0549), timeStamp: 2017-02-16 11:27:10.249
LEye coords (587.5394, 253.4884), REye coords (614.5964, 257.4539), timeStamp: 2017-02-16 11:27:10.282
LEye coords (588.173, 252.8523), REye coords (614.5328, 257.2173), timeStamp: 2017-02-16 11:27:10.326
LEye coords (588.3338, 252.4068), REye coords (615.7897, 256.4003), timeStamp: 2017-02-16 11:27:10.359
LEye coords (588.3956, 251.7939), REye coords (615.5548, 255.7786), timeStamp: 2017-02-16 11:27:10.393
LEye coords (587.7616, 251.1351), REye coords (615.3636, 254.7809), timeStamp: 2017-02-16 11:27:10.436
LEye coords (587.5194, 250.1648), REye coords (615.0054, 254.7055), timeStamp: 2017-02-16 11:27:10.469
LEye coords (587.2473, 249.3746), REye coords (615.0346, 254.5025), timeStamp: 2017-02-16 11:27:10.503
LEye coords (587.1578, 248.8396), REye coords (614.9148, 254.7392), timeStamp: 2017-02-16 11:27:10.547
LEye coords (586.5381, 249.0021), REye coords (615.2401, 254.727), timeStamp: 2017-02-16 11:27:10.581
LEye coords (586.9901, 248.2938), REye coords (614.0427, 254.614), timeStamp: 2017-02-16 11:27:10.614
LEye coords (586.9844, 246.8052), REye coords (613.07, 253.0096), timeStamp: 2017-02-16 11:27:10.658
LEye coords (586.2529, 245.6697), REye coords (612.1626, 252.4819), timeStamp: 2017-02-16 11:27:10.692
LEye coords (585.9649, 244.9732), REye coords (611.1475, 252.9952), timeStamp: 2017-02-16 11:27:10.726
LEye coords (584.9177, 243.3209), REye coords (610.0011, 252.351), timeStamp: 2017-02-16 11:27:10.770
LEye coords (583.8674, 241.3514), REye coords (609.991, 250.9395), timeStamp: 2017-02-16 11:27:10.805
LEye coords (583.8725, 240.1195), REye coords (609.8229, 250.7113), timeStamp: 2017-02-16 11:27:10.839
LEye coords (584.2213, 239.8821), REye coords (610.1158, 250.7025), timeStamp: 2017-02-16 11:27:10.873
LEye coords (583.8179, 239.5078), REye coords (610.6794, 249.7619), timeStamp: 2017-02-16 11:27:10.917
LEye coords (585.3436, 243.8151), REye coords (614.2507, 253.629), timeStamp: 2017-02-16 11:27:10.950
LEye coords (610.6462, 360.3655), REye coords (628.0677, 372.9167), timeStamp: 2017-02-16 11:27:10.984
LEye coords (618.1672, 362.8122), REye coords (635.9297, 373.1847), timeStamp: 2017-02-16 11:27:11.028
LEye coords (626.7076, 370.6936), REye coords (631.8525, 377.3228), timeStamp: 2017-02-16 11:27:11.062
LEye coords (627.8914, 371.8384), REye coords (632.9886, 376.1266), timeStamp: 2017-02-16 11:27:11.095
LEye coords (625.4384, 370.986), REye coords (632.9089, 379.675), timeStamp: 2017-02-16 11:27:11.139
LEye coords (623.5482, 360.542), REye coords (633.321, 380.4269), timeStamp: 2017-02-16 11:27:11.172
LEye coords (617.072, 356.8786), REye coords (629.4155, 400.6423), timeStamp: 2017-02-16 11:27:11.205
LEye coords (617.4206, 360.1505), REye coords (634.9697, 385.4547), timeStamp: 2017-02-16 11:27:11.250
LEye coords (616.1762, 358.2835), REye coords (635.1584, 391.0537), timeStamp: 2017-02-16 11:27:11.283
LEye coords (613.6019, 357.1623), REye coords (637.0127, 389.9734), timeStamp: 2017-02-16 11:27:11.316
LEye coords (615.4044, 360.2176), REye coords (636.4266, 388.6786), timeStamp: 2017-02-16 11:27:11.360
LEye coords (614.7763, 362.2394), REye coords (637.2247, 389.7581), timeStamp: 2017-02-16 11:27:11.395
LEye coords (615.8571, 363.1151), REye coords (637.1855, 389.7671), timeStamp: 2017-02-16 11:27:11.427
LEye coords (616.6731, 360.5656), REye coords (637.5752, 388.3548), timeStamp: 2017-02-16 11:27:11.471
LEye coords (615.6349, 357.0943), REye coords (636.6786, 388.0324), timeStamp: 2017-02-16 11:27:11.504
LEye coords (617.5142, 356.4927), REye coords (636.8406, 388.9625), timeStamp: 2017-02-16 11:27:11.537
LEye coords (618.03, 359.0005), REye coords (636.87, 390.0495), timeStamp: 2017-02-16 11:27:11.582
LEye coords (618.6011, 359.4517), REye coords (636.3656, 390.9746), timeStamp: 2017-02-16 11:27:11.615
LEye coords (618.5698, 360.6371), REye coords (636.5182, 392.0942), timeStamp: 2017-02-16 11:27:11.649
LEye coords (618.5399, 361.968), REye coords (636.6555, 391.6208), timeStamp: 2017-02-16 11:27:11.692
LEye coords (618.1262, 362.8697), REye coords (636.3433, 392.0811), timeStamp: 2017-02-16 11:27:11.726
LEye coords (618.4336, 358.6396), REye coords (636.0235, 391.8668), timeStamp: 2017-02-16 11:27:11.761
LEye coords (600.1204, 242.3373), REye coords (637.3082, 390.4391), timeStamp: 2017-02-16 11:27:11.805
LEye coords (614.5219, 241.2102), REye coords (636.999, 388.5757), timeStamp: 2017-02-16 11:27:11.837
LEye coords (591.1939, 217.0394), REye coords (596.6446, 221.7943), timeStamp: 2017-02-16 11:27:11.871
LEye coords (586.3417, 212.6965), REye coords (586.2403, 226.7032), timeStamp: 2017-02-16 11:27:11.914
LEye coords (581.3146, 216.2905), REye coords (587.7485, 216.7253), timeStamp: 2017-02-16 11:27:11.946
LEye coords (575.2066, 217.2958), REye coords (587.7367, 216.0475), timeStamp: 2017-02-16 11:27:11.991
LEye coords (573.0004, 217.1705), REye coords (588.3739, 216.7598), timeStamp: 2017-02-16 11:27:12.025
LEye coords (571.0491, 216.5446), REye coords (590.0839, 211.917), timeStamp: 2017-02-16 11:27:12.057
LEye coords (570.7191, 218.0298), REye coords (595.6714, 204.696), timeStamp: 2017-02-16 11:27:12.101
LEye coords (572.215, 217.9538), REye coords (593.211, 210.6542), timeStamp: 2017-02-16 11:27:12.135
LEye coords (572.6058, 217.6308), REye coords (591.2313, 211.6295), timeStamp: 2017-02-16 11:27:12.168
LEye coords (571.8455, 218.5135), REye coords (592.3633, 208.6583), timeStamp: 2017-02-16 11:27:12.211
LEye coords (572.8649, 218.0156), REye coords (591.3442, 210.1892), timeStamp: 2017-02-16 11:27:12.244
LEye coords (573.3261, 218.6484), REye coords (591.4473, 210.6165), timeStamp: 2017-02-16 11:27:12.280
LEye coords (574.114, 218.4721), REye coords (591.4651, 210.5416), timeStamp: 2017-02-16 11:27:12.324
LEye coords (574.5706, 218.388), REye coords (591.4059, 211.5183), timeStamp: 2017-02-16 11:27:12.359
LEye coords (575.0659, 219.5042), REye coords (591.905, 212.5036), timeStamp: 2017-02-16 11:27:12.392
LEye coords (574.9425, 220.1773), REye coords (592.79, 212.9488), timeStamp: 2017-02-16 11:27:12.435
LEye coords (575.2653, 223.8969), REye coords (592.5353, 214.2484), timeStamp: 2017-02-16 11:27:12.468
LEye coords (574.8416, 224.7795), REye coords (591.1483, 215.0757), timeStamp: 2017-02-16 11:27:12.502
LEye coords (574.6236, 224.7244), REye coords (590.1297, 216.0956), timeStamp: 2017-02-16 11:27:12.546
LEye coords (573.6929, 225.0098), REye coords (589.5151, 220.246), timeStamp: 2017-02-16 11:27:12.580
LEye coords (573.1353, 225.4214), REye coords (589.2963, 219.9891), timeStamp: 2017-02-16 11:27:12.613
LEye coords (572.239, 226.3535), REye coords (588.8231, 219.9433), timeStamp: 2017-02-16 11:27:12.657
LEye coords (571.4308, 227.636), REye coords (588.3654, 220.4055), timeStamp: 2017-02-16 11:27:12.694
LEye coords (571.0141, 231.4996), REye coords (588.5974, 220.1049), timeStamp: 2017-02-16 11:27:12.727
LEye coords (571.2958, 230.9477), REye coords (588.7563, 218.9164), timeStamp: 2017-02-16 11:27:12.759
LEye coords (571.9706, 232.8618), REye coords (588.3494, 219.5204), timeStamp: 2017-02-16 11:27:12.803
LEye coords (572.5844, 235.4775), REye coords (588.1726, 219.6084), timeStamp: 2017-02-16 11:27:12.837
LEye coords (573.1255, 236.8796), REye coords (588.2543, 219.8299), timeStamp: 2017-02-16 11:27:12.871
LEye coords (572.4698, 235.0209), REye coords (587.5748, 224.3344), timeStamp: 2017-02-16 11:27:12.915
LEye coords (572.5002, 236.9324), REye coords (587.2167, 225.0098), timeStamp: 2017-02-16 11:27:12.948
LEye coords (571.8563, 239.13), REye coords (587.5096, 225.2211), timeStamp: 2017-02-16 11:27:12.982
LEye coords (572.4673, 240.3405), REye coords (587.8869, 225.9152), timeStamp: 2017-02-16 11:27:13.027
LEye coords (574.3554, 246.4833), REye coords (628.7082, 328.541), timeStamp: 2017-02-16 11:27:13.060
LEye coords (575.3294, 251.6051), REye coords (616.4814, 344.9674), timeStamp: 2017-02-16 11:27:13.094
LEye coords (577.1435, 257.6903), REye coords (615.4424, 343.1426), timeStamp: 2017-02-16 11:27:13.138
LEye coords (578.6177, 258.0189), REye coords (614.906, 342.5279), timeStamp: 2017-02-16 11:27:13.172
LEye coords (580.4479, 264.4958), REye coords (618.6396, 318.3493), timeStamp: 2017-02-16 11:27:13.206
LEye coords (582.1877, 268.8705), REye coords (620.5869, 314.8583), timeStamp: 2017-02-16 11:27:13.249
LEye coords (583.2701, 272.193), REye coords (623.2442, 306.725), timeStamp: 2017-02-16 11:27:13.283
LEye coords (584.6381, 271.5078), REye coords (621.3674, 309.8226), timeStamp: 2017-02-16 11:27:13.316
LEye coords (585.5417, 276.7698), REye coords (620.1362, 311.8371), timeStamp: 2017-02-16 11:27:13.359
LEye coords (586.5344, 280.01), REye coords (620.1523, 305.642), timeStamp: 2017-02-16 11:27:13.392
LEye coords (587.9916, 283.6677), REye coords (619.1487, 308.4107), timeStamp: 2017-02-16 11:27:13.425
LEye coords (587.7304, 283.2098), REye coords (617.981, 311.7394), timeStamp: 2017-02-16 11:27:13.468
LEye coords (588.9912, 286.2211), REye coords (616.0552, 313.6236), timeStamp: 2017-02-16 11:27:13.503
LEye coords (588.8629, 283.8598), REye coords (614.9813, 315.1731), timeStamp: 2017-02-16 11:27:13.547
LEye coords (588.556, 283.6233), REye coords (613.5688, 315.9258), timeStamp: 2017-02-16 11:27:13.580
LEye coords (589.2733, 282.2311), REye coords (613.1618, 311.4759), timeStamp: 2017-02-16 11:27:13.614
LEye coords (589.3868, 283.9189), REye coords (611.9299, 313.2115), timeStamp: 2017-02-16 11:27:13.657
LEye coords (589.3796, 286.5135), REye coords (610.1201, 315.8673), timeStamp: 2017-02-16 11:27:13.692
LEye coords (589.5092, 290.5919), REye coords (609.1718, 316.9135), timeStamp: 2017-02-16 11:27:13.726
LEye coords (589.4683, 291.0565), REye coords (608.9879, 318.5682), timeStamp: 2017-02-16 11:27:13.760
LEye coords (589.572, 288.8856), REye coords (608.0632, 319.7672), timeStamp: 2017-02-16 11:27:13.804
LEye coords (589.4128, 285.8183), REye coords (607.6035, 319.8897), timeStamp: 2017-02-16 11:27:13.839
LEye coords (588.6691, 281.735), REye coords (607.6559, 316.7977), timeStamp: 2017-02-16 11:27:13.873
LEye coords (588.4155, 277.8882), REye coords (607.4313, 312.7553), timeStamp: 2017-02-16 11:27:13.917
LEye coords (586.8903, 274.6499), REye coords (608.8333, 309.2992), timeStamp: 2017-02-16 11:27:13.950
LEye coords (587.4605, 276.0458), REye coords (609.4769, 305.158), timeStamp: 2017-02-16 11:27:13.983
LEye coords (586.6508, 277.5272), REye coords (610.3054, 304.0903), timeStamp: 2017-02-16 11:27:14.028
LEye coords (586.1639, 280.1695), REye coords (611.3563, 301.0836), timeStamp: 2017-02-16 11:27:14.062
LEye coords (585.7717, 280.8697), REye coords (612.1674, 299.8973), timeStamp: 2017-02-16 11:27:14.095
LEye coords (585.7012, 284.4596), REye coords (613.1861, 300.4153), timeStamp: 2017-02-16 11:27:14.129
LEye coords (585.4306, 286.0394), REye coords (613.7479, 301.6012), timeStamp: 2017-02-16 11:27:14.173
LEye coords (585.2516, 287.3146), REye coords (613.8306, 304.1331), timeStamp: 2017-02-16 11:27:14.206
LEye coords (584.8004, 288.3573), REye coords (613.225, 305.5894), timeStamp: 2017-02-16 11:27:14.240
LEye coords (585.5642, 291.7273), REye coords (613.4263, 306.6539), timeStamp: 2017-02-16 11:27:14.284
