LEye coords (585.7316, 294.6054), REye coords (613.4332, 308.4641), timeStamp: 2017-02-16 11:27:14.318
LEye coords (586.3498, 298.0372), REye coords (613.8676, 310.0576), timeStamp: 2017-02-16 11:27:14.352
LEye coords (586.9451, 302.3542), REye coords (613.6562, 313.0122), timeStamp: 2017-02-16 11:27:14.396
LEye coords (587.5317, 306.317), REye coords (612.8414, 315.7521), timeStamp: 2017-02-16 11:27:14.431
LEye coords (588.4901, 309.0672), REye coords (613.1465, 317.0694), timeStamp: 2017-02-16 11:27:14.464
LEye coords (589.5031, 311.5452), REye coords (613.3494, 318.8414), timeStamp: 2017-02-16 11:27:14.509
LEye coords (590.5156, 314.4115), REye coords (613.0375, 321.5438), timeStamp: 2017-02-16 11:27:14.542
LEye coords (623.6057, 421.4171), REye coords (654.0986, 418.5074), timeStamp: 2017-02-16 11:27:14.575
LEye coords (633.5609, 425.3535), REye coords (643.6489, 434.7927), timeStamp: 2017-02-16 11:27:14.610
LEye coords (634.1357, 426.0367), REye coords (644.0488, 438.2358), timeStamp: 2017-02-16 11:27:14.653
LEye coords (634.032, 421.677), REye coords (646.1421, 440.8489), timeStamp: 2017-02-16 11:27:14.686
LEye coords (597.9576, 413.8334), REye coords (605.7232, 438.6465), timeStamp: 2017-02-16 11:27:14.728
LEye coords (452.5033, 407.1956), REye coords (454.1635, 429.6434), timeStamp: 2017-02-16 11:27:14.762
LEye coords (447.5258, 410.3896), REye coords (455.1576, 425.2426), timeStamp: 2017-02-16 11:27:14.804
LEye coords (446.3615, 405.4078), REye coords (450.2107, 432.462), timeStamp: 2017-02-16 11:27:14.838
LEye coords (443.0376, 405.9884), REye coords (450.2711, 430.7787), timeStamp: 2017-02-16 11:27:14.871
LEye coords (442.8306, 405.1751), REye coords (449.8115, 431.9312), timeStamp: 2017-02-16 11:27:14.914
LEye coords (441.9916, 401.1931), REye coords (449.2515, 432.2003), timeStamp: 2017-02-16 11:27:14.947
LEye coords (442.6789, 401.0353), REye coords (447.4293, 433.2163), timeStamp: 2017-02-16 11:27:14.981
LEye coords (442.5493, 400.6046), REye coords (447.8781, 432.0727), timeStamp: 2017-02-16 11:27:15.025
LEye coords (442.398, 400.1537), REye coords (448.4745, 431.8426), timeStamp: 2017-02-16 11:27:15.058
LEye coords (442.0845, 400.1176), REye coords (447.5269, 431.2889), timeStamp: 2017-02-16 11:27:15.092
LEye coords (442.058, 400.2693), REye coords (446.6819, 431.5476), timeStamp: 2017-02-16 11:27:15.135
LEye coords (441.0231, 399.5129), REye coords (446.6725, 431.1873), timeStamp: 2017-02-16 11:27:15.168
LEye coords (440.3565, 398.6628), REye coords (447.0545, 430.3621), timeStamp: 2017-02-16 11:27:15.202
LEye coords (439.7219, 398.4284), REye coords (447.4405, 429.4164), timeStamp: 2017-02-16 11:27:15.246
LEye coords (439.1396, 396.9776), REye coords (446.7901, 428.7464), timeStamp: 2017-02-16 11:27:15.280
LEye coords (439.0374, 397.4526), REye coords (447.38, 429.1043), timeStamp: 2017-02-16 11:27:15.314
LEye coords (438.0994, 397.9837), REye coords (446.8812, 428.3553), timeStamp: 2017-02-16 11:27:15.358
LEye coords (437.3681, 397.2305), REye coords (446.4347, 428.3664), timeStamp: 2017-02-16 11:27:15.391
LEye coords (436.6742, 397.1513), REye coords (446.4802, 427.236), timeStamp: 2017-02-16 11:27:15.426
LEye coords (435.4266, 396.1188), REye coords (446.8043, 427.289), timeStamp: 2017-02-16 11:27:15.471
LEye coords (434.3234, 394.884), REye coords (446.8408, 426.9944), timeStamp: 2017-02-16 11:27:15.503
LEye coords (433.5239, 394.4147), REye coords (446.8559, 426.3532), timeStamp: 2017-02-16 11:27:15.537
LEye coords (432.8678, 394.1536), REye coords (446.8187, 425.6018), timeStamp: 2017-02-16 11:27:15.582
LEye coords (431.5638, 392.9233), REye coords (446.9862, 425.4018), timeStamp: 2017-02-16 11:27:15.616
LEye coords (431.3586, 392.3972), REye coords (446.9468, 424.5556), timeStamp: 2017-02-16 11:27:15.649
LEye coords (431.238, 391.9271), REye coords (447.232, 424.3793), timeStamp: 2017-02-16 11:27:15.693
LEye coords (430.0997, 392.2039), REye coords (448.0421, 424.2581), timeStamp: 2017-02-16 11:27:15.727
LEye coords (429.9353, 393.3578), REye coords (447.6322, 423.494), timeStamp: 2017-02-16 11:27:15.760
LEye coords (428.6687, 393.7455), REye coords (447.464, 422.9913), timeStamp: 2017-02-16 11:27:15.803
LEye coords (427.5574, 394.357), REye coords (447.5775, 422.7479), timeStamp: 2017-02-16 11:27:15.836
LEye coords (427.2914, 394.2751), REye coords (447.5934, 422.9021), timeStamp: 2017-02-16 11:27:15.870
LEye coords (423.9311, 392.3864), REye coords (447.0932, 422.6917), timeStamp: 2017-02-16 11:27:15.914
LEye coords (423.2621, 392.1541), REye coords (446.4944, 422.6614), timeStamp: 2017-02-16 11:27:15.947
LEye coords (423.253, 394.8661), REye coords (446.6976, 425.7322), timeStamp: 2017-02-16 11:27:15.980
LEye coords (423.9705, 397.6422), REye coords (447.0544, 428.2279), timeStamp: 2017-02-16 11:27:16.025
LEye coords (424.9876, 399.6517), REye coords (447.0326, 431.3393), timeStamp: 2017-02-16 11:27:16.058
LEye coords (426.2467, 402.9377), REye coords (447.4763, 434.0477), timeStamp: 2017-02-16 11:27:16.091
LEye coords (425.456, 404.2684), REye coords (447.658, 436.8612), timeStamp: 2017-02-16 11:27:16.135
LEye coords (426.2608, 405.7513), REye coords (448.0864, 439.8664), timeStamp: 2017-02-16 11:27:16.169
LEye coords (428.0989, 408.9843), REye coords (449.2462, 442.5063), timeStamp: 2017-02-16 11:27:16.203
LEye coords (428.986, 410.5954), REye coords (448.7103, 444.9692), timeStamp: 2017-02-16 11:27:16.246
LEye coords (430.9249, 413.1236), REye coords (448.9575, 447.1037), timeStamp: 2017-02-16 11:27:16.280
LEye coords (431.5471, 414.7391), REye coords (449.8239, 450.0738), timeStamp: 2017-02-16 11:27:16.313
LEye coords (432.6216, 416.8599), REye coords (450.6404, 452.1289), timeStamp: 2017-02-16 11:27:16.357
LEye coords (433.7157, 418.6057), REye coords (451.3161, 453.9785), timeStamp: 2017-02-16 11:27:16.391
LEye coords (434.8557, 419.9795), REye coords (452.6677, 456.138), timeStamp: 2017-02-16 11:27:16.424
LEye coords (435.2297, 420.5309), REye coords (452.8972, 457.4987), timeStamp: 2017-02-16 11:27:16.468
LEye coords (435.4621, 421.2853), REye coords (452.7092, 457.5687), timeStamp: 2017-02-16 11:27:16.502
LEye coords (436.0452, 420.0364), REye coords (452.2534, 457.5924), timeStamp: 2017-02-16 11:27:16.535
LEye coords (436.0247, 419.145), REye coords (453.0154, 458.7037), timeStamp: 2017-02-16 11:27:16.581
LEye coords (434.4713, 417.7101), REye coords (453.4308, 458.8524), timeStamp: 2017-02-16 11:27:16.615
LEye coords (434.0153, 416.5883), REye coords (453.4788, 458.8759), timeStamp: 2017-02-16 11:27:16.649
LEye coords (433.284, 415.8099), REye coords (453.8008, 459.051), timeStamp: 2017-02-16 11:27:16.684
LEye coords (433.9865, 416.3165), REye coords (454.6092, 458.978), timeStamp: 2017-02-16 11:27:16.727
LEye coords (433.8574, 415.3831), REye coords (455.671, 459.0111), timeStamp: 2017-02-16 11:27:16.762
LEye coords (433.731, 414.3251), REye coords (456.0713, 457.5801), timeStamp: 2017-02-16 11:27:16.796
LEye coords (433.7597, 413.1093), REye coords (456.3735, 456.6397), timeStamp: 2017-02-16 11:27:16.840
LEye coords (433.4026, 411.4032), REye coords (456.8485, 455.9618), timeStamp: 2017-02-16 11:27:16.875
LEye coords (433.262, 411.0608), REye coords (457.3276, 455.369), timeStamp: 2017-02-16 11:27:16.909
LEye coords (433.5258, 411.2511), REye coords (457.69, 454.902), timeStamp: 2017-02-16 11:27:16.944
LEye coords (436.5709, 410.5422), REye coords (459.7537, 454.2428), timeStamp: 2017-02-16 11:27:16.987
LEye coords (439.208, 409.7566), REye coords (462.3192, 453.4712), timeStamp: 2017-02-16 11:27:17.021
LEye coords (441.9144, 409.4597), REye coords (465.4231, 452.8546), timeStamp: 2017-02-16 11:27:17.053
LEye coords (444.2486, 408.9435), REye coords (468.3474, 452.0923), timeStamp: 2017-02-16 11:27:17.097
LEye coords (446.7066, 409.312), REye coords (471.2253, 450.8739), timeStamp: 2017-02-16 11:27:17.130
LEye coords (449.4664, 408.5896), REye coords (473.8255, 450.0728), timeStamp: 2017-02-16 11:27:17.164
LEye coords (451.6322, 407.287), REye coords (476.562, 449.4582), timeStamp: 2017-02-16 11:27:17.208
LEye coords (453.7393, 406.875), REye coords (478.8162, 448.9403), timeStamp: 2017-02-16 11:27:17.241
LEye coords (456.5254, 406.0297), REye coords (481.5616, 449.1526), timeStamp: 2017-02-16 11:27:17.275
LEye coords (459.0714, 405.3492), REye coords (483.7227, 449.5578), timeStamp: 2017-02-16 11:27:17.319
LEye coords (461.4721, 405.0515), REye coords (485.9709, 449.5297), timeStamp: 2017-02-16 11:27:17.353
LEye coords (464.105, 405.0965), REye coords (488.0427, 449.1673), timeStamp: 2017-02-16 11:27:17.387
LEye coords (467.3587, 405.4379), REye coords (490.4192, 449.4356), timeStamp: 2017-02-16 11:27:17.431
LEye coords (469.5173, 405.7386), REye coords (491.9631, 450.0035), timeStamp: 2017-02-16 11:27:17.464
LEye coords (471.1292, 405.9067), REye coords (493.4805, 450.2982), timeStamp: 2017-02-16 11:27:17.499
LEye coords (473.4024, 406.9987), REye coords (495.1755, 451.1681), timeStamp: 2017-02-16 11:27:17.542
LEye coords (475.1863, 408.4921), REye coords (496.8321, 450.9005), timeStamp: 2017-02-16 11:27:17.576
LEye coords (477.0159, 409.9339), REye coords (498.3382, 451.8196), timeStamp: 2017-02-16 11:27:17.609
LEye coords (478.7634, 411.0952), REye coords (499.9872, 451.8533), timeStamp: 2017-02-16 11:27:17.654
LEye coords (480.266, 412.933), REye coords (500.591, 451.1021), timeStamp: 2017-02-16 11:27:17.687
LEye coords (482.2164, 414.2101), REye coords (500.9628, 450.5508), timeStamp: 2017-02-16 11:27:17.720
LEye coords (483.46, 415.1766), REye coords (501.9246, 449.5415), timeStamp: 2017-02-16 11:27:17.765
LEye coords (483.1051, 415.4691), REye coords (501.4867, 448.8705), timeStamp: 2017-02-16 11:27:17.798
LEye coords (480.4326, 414.4626), REye coords (500.8695, 448.144), timeStamp: 2017-02-16 11:27:17.831
LEye coords (480.5586, 415.1699), REye coords (500.1849, 447.5952), timeStamp: 2017-02-16 11:27:17.876
LEye coords (481.1809, 416.312), REye coords (499.1985, 446.1173), timeStamp: 2017-02-16 11:27:17.910
LEye coords (477.5388, 415.2727), REye coords (498.9118, 445.3259), timeStamp: 2017-02-16 11:27:17.943
LEye coords (477.1121, 415.7783), REye coords (498.2636, 444.1113), timeStamp: 2017-02-16 11:27:17.987
LEye coords (475.1552, 416.7566), REye coords (498.0788, 443.3401), timeStamp: 2017-02-16 11:27:18.021
LEye coords (473.9245, 416.065), REye coords (497.4367, 442.4657), timeStamp: 2017-02-16 11:27:18.054
LEye coords (472.8793, 416.566), REye coords (497.0258, 440.9782), timeStamp: 2017-02-16 11:27:18.099
LEye coords (472.1809, 417.09), REye coords (496.2107, 440.3097), timeStamp: 2017-02-16 11:27:18.132
LEye coords (472.3579, 417.2564), REye coords (495.4628, 439.8502), timeStamp: 2017-02-16 11:27:18.165
LEye coords (472.735, 418.2059), REye coords (495.0323, 439.818), timeStamp: 2017-02-16 11:27:18.208
LEye coords (473.5273, 419.2857), REye coords (495.0181, 439.4008), timeStamp: 2017-02-16 11:27:18.243
LEye coords (473.8965, 419.7018), REye coords (494.9211, 438.2176), timeStamp: 2017-02-16 11:27:18.276
LEye coords (475.0746, 420.3556), REye coords (494.9195, 437.3109), timeStamp: 2017-02-16 11:27:18.321
LEye coords (474.8341, 420.7516), REye coords (494.5704, 436.4016), timeStamp: 2017-02-16 11:27:18.354
LEye coords (475.1382, 420.8301), REye coords (494.6091, 436.2054), timeStamp: 2017-02-16 11:27:18.387
LEye coords (475.8397, 421.3739), REye coords (494.7346, 434.9628), timeStamp: 2017-02-16 11:27:18.432
LEye coords (475.7568, 421.4366), REye coords (494.8216, 434.6913), timeStamp: 2017-02-16 11:27:18.465
LEye coords (475.6301, 421.3687), REye coords (495.2733, 434.1056), timeStamp: 2017-02-16 11:27:18.498
LEye coords (473.1494, 417.2029), REye coords (495.6083, 434.0828), timeStamp: 2017-02-16 11:27:18.541
LEye coords (469.6939, 413.8921), REye coords (495.313, 434.0491), timeStamp: 2017-02-16 11:27:18.573
LEye coords (467.2958, 412.7864), REye coords (495.6964, 433.5415), timeStamp: 2017-02-16 11:27:18.617
LEye coords (462.9896, 411.3907), REye coords (496.5148, 433.3043), timeStamp: 2017-02-16 11:27:18.651
LEye coords (459.3647, 408.84), REye coords (496.3361, 432.0986), timeStamp: 2017-02-16 11:27:18.686
LEye coords (457.0586, 409.3103), REye coords (496.9477, 432.2462), timeStamp: 2017-02-16 11:27:18.719
LEye coords (458.5487, 408.8038), REye coords (497.0028, 431.9532), timeStamp: 2017-02-16 11:27:18.762
LEye coords (458.6006, 408.5884), REye coords (497.2234, 431.3973), timeStamp: 2017-02-16 11:27:18.796
LEye coords (459.7657, 407.0391), REye coords (498.0018, 431.3641), timeStamp: 2017-02-16 11:27:18.830
LEye coords (457.5704, 406.7446), REye coords (498.0921, 431.1766), timeStamp: 2017-02-16 11:27:18.874
LEye coords (454.8242, 405.8045), REye coords (498.0334, 430.7706), timeStamp: 2017-02-16 11:27:18.908
LEye coords (450.6948, 404.9952), REye coords (497.5441, 430.8958), timeStamp: 2017-02-16 11:27:18.941
LEye coords (451.0117, 405.5754), REye coords (497.6164, 431.5447), timeStamp: 2017-02-16 11:27:18.985
LEye coords (449.0947, 405.6503), REye coords (497.4609, 430.7365), timeStamp: 2017-02-16 11:27:19.018
LEye coords (446.565, 405.1149), REye coords (497.689, 430.2429), timeStamp: 2017-02-16 11:27:19.052
LEye coords (447.9778, 404.6484), REye coords (497.1103, 430.4367), timeStamp: 2017-02-16 11:27:19.096
LEye coords (444.5411, 401.8502), REye coords (496.4224, 430.5525), timeStamp: 2017-02-16 11:27:19.129
LEye coords (445.9061, 401.898), REye coords (496.3978, 431.2232), timeStamp: 2017-02-16 11:27:19.172
LEye coords (446.9258, 402.4882), REye coords (496.1024, 431.6771), timeStamp: 2017-02-16 11:27:19.205
LEye coords (448.5164, 403.1396), REye coords (495.9705, 432.2686), timeStamp: 2017-02-16 11:27:19.239
LEye coords (449.6237, 403.5924), REye coords (495.8594, 432.184), timeStamp: 2017-02-16 11:27:19.283
LEye coords (451.7767, 403.7741), REye coords (495.768, 432.2679), timeStamp: 2017-02-16 11:27:19.317
LEye coords (453.7569, 407.0812), REye coords (495.9786, 432.4457), timeStamp: 2017-02-16 11:27:19.352
LEye coords (456.29, 410.4519), REye coords (495.3348, 433.8797), timeStamp: 2017-02-16 11:27:19.386
LEye coords (458.2371, 412.8836), REye coords (494.9566, 435.169), timeStamp: 2017-02-16 11:27:19.431
LEye coords (460.4656, 415.972), REye coords (494.4241, 436.3877), timeStamp: 2017-02-16 11:27:19.464
LEye coords (462.3223, 418.7519), REye coords (493.854, 437.9398), timeStamp: 2017-02-16 11:27:19.497
LEye coords (463.8532, 419.7175), REye coords (493.2247, 439.317), timeStamp: 2017-02-16 11:27:19.543
LEye coords (464.7093, 422.0016), REye coords (492.7753, 440.3755), timeStamp: 2017-02-16 11:27:19.576
LEye coords (465.8862, 424.0977), REye coords (492.2356, 441.7483), timeStamp: 2017-02-16 11:27:19.609
LEye coords (466.8533, 425.9187), REye coords (491.3918, 442.6025), timeStamp: 2017-02-16 11:27:19.652
LEye coords (469.345, 427.1389), REye coords (490.9636, 443.7873), timeStamp: 2017-02-16 11:27:19.685
LEye coords (471.432, 428.8403), REye coords (490.9807, 445.0269), timeStamp: 2017-02-16 11:27:19.718
LEye coords (472.7969, 429.1911), REye coords (491.1682, 446.432), timeStamp: 2017-02-16 11:27:19.762
LEye coords (473.1529, 430.978), REye coords (490.0574, 446.5045), timeStamp: 2017-02-16 11:27:19.796
LEye coords (473.6155, 432.3989), REye coords (489.9836, 448.3365), timeStamp: 2017-02-16 11:27:19.829
LEye coords (474.0358, 432.642), REye coords (488.7003, 449.3929), timeStamp: 2017-02-16 11:27:19.872
LEye coords (473.7046, 433.1722), REye coords (488.4175, 450.7917), timeStamp: 2017-02-16 11:27:19.906
LEye coords (475.1108, 435.166), REye coords (488.4092, 452.2447), timeStamp: 2017-02-16 11:27:19.940
LEye coords (475.0244, 434.8059), REye coords (488.0935, 453.2831), timeStamp: 2017-02-16 11:27:19.984
LEye coords (474.9515, 435.0782), REye coords (487.7207, 454.2564), timeStamp: 2017-02-16 11:27:20.017
LEye coords (473.9342, 435.9677), REye coords (487.0858, 454.7308), timeStamp: 2017-02-16 11:27:20.050
LEye coords (473.8635, 436.4944), REye coords (486.5921, 456.1785), timeStamp: 2017-02-16 11:27:20.095
LEye coords (474.9594, 437.3091), REye coords (486.4141, 456.6537), timeStamp: 2017-02-16 11:27:20.129
LEye coords (474.5718, 436.6479), REye coords (485.9809, 457.2189), timeStamp: 2017-02-16 11:27:20.163
LEye coords (474.8809, 436.1779), REye coords (486.4755, 457.6248), timeStamp: 2017-02-16 11:27:20.207
LEye coords (474.0296, 436.447), REye coords (486.7944, 458.0315), timeStamp: 2017-02-16 11:27:20.240
LEye coords (474.7274, 437.2439), REye coords (486.8408, 458.3972), timeStamp: 2017-02-16 11:27:20.273
LEye coords (474.8664, 438.5722), REye coords (487.0105, 458.5532), timeStamp: 2017-02-16 11:27:20.317
LEye coords (474.592, 439.8493), REye coords (486.4396, 458.5508), timeStamp: 2017-02-16 11:27:20.350
LEye coords (475.0697, 440.6222), REye coords (486.2773, 458.9682), timeStamp: 2017-02-16 11:27:20.385
LEye coords (474.6505, 441.0188), REye coords (486.013, 460.0421), timeStamp: 2017-02-16 11:27:20.429
LEye coords (475.0496, 441.9318), REye coords (486.4172, 460.564), timeStamp: 2017-02-16 11:27:20.463
LEye coords (475.4415, 442.2788), REye coords (487.0213, 461.3787), timeStamp: 2017-02-16 11:27:20.497
LEye coords (476.1932, 443.3516), REye coords (486.5606, 461.9428), timeStamp: 2017-02-16 11:27:20.541
LEye coords (477.0166, 444.016), REye coords (485.725, 460.2783), timeStamp: 2017-02-16 11:27:20.575
LEye coords (477.6868, 443.9033), REye coords (486.2487, 459.7111), timeStamp: 2017-02-16 11:27:20.609
LEye coords (478.1313, 444.5481), REye coords (486.0516, 458.946), timeStamp: 2017-02-16 11:27:20.643
LEye coords (478.8329, 444.9801), REye coords (486.7246, 458.2388), timeStamp: 2017-02-16 11:27:20.686
LEye coords (480.0006, 445.3271), REye coords (486.7229, 456.9902), timeStamp: 2017-02-16 11:27:20.719
LEye coords (480.8289, 445.05), REye coords (486.3015, 455.2313), timeStamp: 2017-02-16 11:27:20.762
LEye coords (481.3712, 445.6589), REye coords (486.6189, 454.0909), timeStamp: 2017-02-16 11:27:20.796
LEye coords (481.3852, 445.2582), REye coords (486.9521, 453.1496), timeStamp: 2017-02-16 11:27:20.829
