LEye coords (693.3154, 377.9171), REye coords (700.1519, 393.9784), timeStamp: 2017-02-16 11:28:52.993
LEye coords (693.4066, 378.8728), REye coords (699.4662, 397.2881), timeStamp: 2017-02-16 11:28:53.028
LEye coords (693.0557, 378.8068), REye coords (698.8502, 399.956), timeStamp: 2017-02-16 11:28:53.061
LEye coords (692.7751, 380.4153), REye coords (698.4885, 402.7047), timeStamp: 2017-02-16 11:28:53.105
LEye coords (692.761, 381.4302), REye coords (698.6241, 403.6887), timeStamp: 2017-02-16 11:28:53.138
LEye coords (693.0071, 381.9969), REye coords (698.6448, 405.2326), timeStamp: 2017-02-16 11:28:53.172
LEye coords (691.4524, 386.2113), REye coords (697.983, 409.6932), timeStamp: 2017-02-16 11:28:53.216
LEye coords (689.1934, 389.1951), REye coords (688.2534, 474.1956), timeStamp: 2017-02-16 11:28:53.249
LEye coords (687.8318, 392.3027), REye coords (692.9984, 477.339), timeStamp: 2017-02-16 11:28:53.283
LEye coords (405.5332, 322.4438), REye coords (563.1165, 432.0583), timeStamp: 2017-02-16 11:28:53.327
LEye coords (336.5032, 290.5074), REye coords (491.3206, 394.8523), timeStamp: 2017-02-16 11:28:53.360
LEye coords (333.532, 295.8214), REye coords (457.9123, 380.7766), timeStamp: 2017-02-16 11:28:53.393
LEye coords (332.2021, 298.4491), REye coords (326.1183, 259.8455), timeStamp: 2017-02-16 11:28:53.437
LEye coords (330.3849, 300.3838), REye coords (317.3359, 269.5156), timeStamp: 2017-02-16 11:28:53.470
LEye coords (317.0073, 298.264), REye coords (326.2741, 265.8162), timeStamp: 2017-02-16 11:28:53.504
LEye coords (336.8197, 309.1784), REye coords (332.7675, 285.4162), timeStamp: 2017-02-16 11:28:53.546
LEye coords (335.309, 302.101), REye coords (330.0525, 280.3673), timeStamp: 2017-02-16 11:28:53.580
LEye coords (335.9211, 303.1156), REye coords (328.6578, 276.8226), timeStamp: 2017-02-16 11:28:53.614
LEye coords (331.3026, 301.7585), REye coords (327.3165, 273.1412), timeStamp: 2017-02-16 11:28:53.659
LEye coords (328.2031, 301.8792), REye coords (325.7856, 271.0563), timeStamp: 2017-02-16 11:28:53.692
LEye coords (322.8182, 303.7286), REye coords (323.4792, 270.968), timeStamp: 2017-02-16 11:28:53.725
LEye coords (166.4488, 327.3467), REye coords (148.1038, 286.5182), timeStamp: 2017-02-16 11:28:53.769
LEye coords (167.397, 332.4576), REye coords (151.9302, 294.7794), timeStamp: 2017-02-16 11:28:53.803
LEye coords (163.7297, 324.042), REye coords (148.3456, 292.7998), timeStamp: 2017-02-16 11:28:53.837
LEye coords (161.7782, 326.1547), REye coords (148.7602, 293.2115), timeStamp: 2017-02-16 11:28:53.882
LEye coords (162.6933, 327.9461), REye coords (149.8427, 295.6057), timeStamp: 2017-02-16 11:28:53.915
LEye coords (159.5753, 346.1976), REye coords (147.4478, 291.4915), timeStamp: 2017-02-16 11:28:53.949
LEye coords (168.309, 342.8563), REye coords (149.031, 301.5809), timeStamp: 2017-02-16 11:28:53.992
LEye coords (161.5888, 341.0338), REye coords (151.7636, 298.5013), timeStamp: 2017-02-16 11:28:54.026
LEye coords (164.2467, 340.8787), REye coords (147.8746, 298.4511), timeStamp: 2017-02-16 11:28:54.058
LEye coords (181.7556, 340.351), REye coords (162.2682, 292.0189), timeStamp: 2017-02-16 11:28:54.102
LEye coords (193.2031, 340.0684), REye coords (173.4527, 291.2511), timeStamp: 2017-02-16 11:28:54.135
LEye coords (202.4592, 339.3849), REye coords (184.9292, 289.1877), timeStamp: 2017-02-16 11:28:54.168
LEye coords (208.569, 338.414), REye coords (196.0186, 297.8829), timeStamp: 2017-02-16 11:28:54.211
LEye coords (212.249, 339.4993), REye coords (200.1179, 296.8037), timeStamp: 2017-02-16 11:28:54.245
LEye coords (215.8529, 338.4618), REye coords (205.2377, 295.705), timeStamp: 2017-02-16 11:28:54.288
LEye coords (219.0793, 338.0403), REye coords (210.1547, 299.7247), timeStamp: 2017-02-16 11:28:54.321
LEye coords (220.1538, 336.1342), REye coords (211.7778, 299.0772), timeStamp: 2017-02-16 11:28:54.355
LEye coords (221.5594, 333.3515), REye coords (212.6687, 298.4226), timeStamp: 2017-02-16 11:28:54.399
LEye coords (222.6833, 331.0752), REye coords (215.1506, 296.5321), timeStamp: 2017-02-16 11:28:54.434
LEye coords (223.0265, 329.8441), REye coords (216.108, 295.8423), timeStamp: 2017-02-16 11:28:54.468
LEye coords (222.9795, 328.2191), REye coords (217.2039, 293.3871), timeStamp: 2017-02-16 11:28:54.512
LEye coords (223.4862, 327.6015), REye coords (217.5604, 292.7768), timeStamp: 2017-02-16 11:28:54.545
LEye coords (224.546, 326.0012), REye coords (219.103, 295.9847), timeStamp: 2017-02-16 11:28:54.578
LEye coords (223.4639, 324.047), REye coords (218.8626, 295.6029), timeStamp: 2017-02-16 11:28:54.622
LEye coords (224.7618, 322.694), REye coords (219.8022, 294.6508), timeStamp: 2017-02-16 11:28:54.655
LEye coords (228.8523, 323.3544), REye coords (309.3574, 359.2895), timeStamp: 2017-02-16 11:28:54.688
LEye coords (232.3957, 322.3573), REye coords (312.333, 363.6979), timeStamp: 2017-02-16 11:28:54.733
LEye coords (236.0792, 321.7493), REye coords (305.6751, 359.4104), timeStamp: 2017-02-16 11:28:54.766
LEye coords (239.0391, 319.3911), REye coords (301.3675, 358.0767), timeStamp: 2017-02-16 11:28:54.800
LEye coords (238.1263, 320.3585), REye coords (302.0246, 352.1556), timeStamp: 2017-02-16 11:28:54.844
LEye coords (235.0971, 322.5595), REye coords (299.1494, 350.5784), timeStamp: 2017-02-16 11:28:54.878
LEye coords (235.036, 322.3935), REye coords (295.6144, 351.4514), timeStamp: 2017-02-16 11:28:54.912
LEye coords (234.2478, 321.8777), REye coords (292.7435, 352.7853), timeStamp: 2017-02-16 11:28:54.956
LEye coords (234.0925, 322.1219), REye coords (289.4928, 354.7351), timeStamp: 2017-02-16 11:28:54.990
LEye coords (232.2119, 322.0255), REye coords (287.1766, 355.8058), timeStamp: 2017-02-16 11:28:55.023
LEye coords (232.3925, 321.5632), REye coords (286.8312, 357.7009), timeStamp: 2017-02-16 11:28:55.057
LEye coords (230.537, 322.9346), REye coords (285.3467, 358.3897), timeStamp: 2017-02-16 11:28:55.100
LEye coords (229.962, 322.7241), REye coords (284.5329, 358.6904), timeStamp: 2017-02-16 11:28:55.134
LEye coords (230.1454, 322.9077), REye coords (283.8124, 359.0727), timeStamp: 2017-02-16 11:28:55.178
LEye coords (229.9671, 324.1016), REye coords (282.8918, 359.8946), timeStamp: 2017-02-16 11:28:55.211
LEye coords (229.0043, 324.1073), REye coords (282.5491, 361.2847), timeStamp: 2017-02-16 11:28:55.246
LEye coords (227.8911, 325.0156), REye coords (282.3042, 362.0264), timeStamp: 2017-02-16 11:28:55.278
LEye coords (227.3197, 324.7862), REye coords (282.217, 362.3345), timeStamp: 2017-02-16 11:28:55.322
LEye coords (228.6576, 326.1202), REye coords (281.4829, 362.8038), timeStamp: 2017-02-16 11:28:55.355
LEye coords (228.1843, 325.4146), REye coords (281.5603, 363.906), timeStamp: 2017-02-16 11:28:55.399
LEye coords (228.2869, 325.9648), REye coords (280.1995, 359.8346), timeStamp: 2017-02-16 11:28:55.433
LEye coords (224.8433, 325.1736), REye coords (278.8835, 357.088), timeStamp: 2017-02-16 11:28:55.466
LEye coords (219.9504, 323.6693), REye coords (279.0367, 357.9414), timeStamp: 2017-02-16 11:28:55.509
LEye coords (217.7684, 325.7817), REye coords (278.5441, 358.1788), timeStamp: 2017-02-16 11:28:55.542
LEye coords (212.6296, 328.2851), REye coords (278.1201, 358.8697), timeStamp: 2017-02-16 11:28:55.575
LEye coords (206.3342, 330.7677), REye coords (276.7289, 354.9162), timeStamp: 2017-02-16 11:28:55.619
LEye coords (204.9938, 330.6201), REye coords (275.2822, 352.7539), timeStamp: 2017-02-16 11:28:55.653
LEye coords (202.8785, 328.8556), REye coords (275.1378, 354.5574), timeStamp: 2017-02-16 11:28:55.686
LEye coords (196.7438, 327.7209), REye coords (273.1562, 352.6355), timeStamp: 2017-02-16 11:28:55.730
LEye coords (192.4855, 325.8299), REye coords (271.2516, 349.6137), timeStamp: 2017-02-16 11:28:55.764
LEye coords (189.1094, 321.4467), REye coords (271.9273, 350.9351), timeStamp: 2017-02-16 11:28:55.797
LEye coords (185.1892, 318.6762), REye coords (272.5381, 352.6039), timeStamp: 2017-02-16 11:28:55.840
LEye coords (181.8191, 315.9012), REye coords (272.4705, 353.2482), timeStamp: 2017-02-16 11:28:55.874
LEye coords (176.105, 188.979), REye coords (270.8776, 351.6069), timeStamp: 2017-02-16 11:28:55.917
LEye coords (233.1624, 314.1333), REye coords (270.7474, 352.3036), timeStamp: 2017-02-16 11:28:55.950
LEye coords (208.5291, 313.8779), REye coords (270.863, 353.9126), timeStamp: 2017-02-16 11:28:55.983
LEye coords (200.8437, 310.7121), REye coords (270.9555, 355.0257), timeStamp: 2017-02-16 11:28:56.027
LEye coords (201.4621, 315.1185), REye coords (268.8701, 353.4411), timeStamp: 2017-02-16 11:28:56.061
LEye coords (200.6097, 297.6054), REye coords (269.2013, 355.6024), timeStamp: 2017-02-16 11:28:56.094
LEye coords (193.8572, 293.0443), REye coords (267.2934, 353.0204), timeStamp: 2017-02-16 11:28:56.138
LEye coords (185.5139, 292.472), REye coords (268.2009, 351.1249), timeStamp: 2017-02-16 11:28:56.170
LEye coords (181.1067, 285.3084), REye coords (269.65, 351.5955), timeStamp: 2017-02-16 11:28:56.213
LEye coords (181.6535, 288.8656), REye coords (269.6673, 350.2328), timeStamp: 2017-02-16 11:28:56.246
LEye coords (185.1687, 286.7005), REye coords (270.1925, 348.3478), timeStamp: 2017-02-16 11:28:56.280
LEye coords (181.6848, 290.074), REye coords (272.1743, 350.3984), timeStamp: 2017-02-16 11:28:56.323
LEye coords (188.4247, 293.3967), REye coords (273.3156, 351.8081), timeStamp: 2017-02-16 11:28:56.358
LEye coords (192.0024, 294.6263), REye coords (274.9162, 352.9275), timeStamp: 2017-02-16 11:28:56.392
LEye coords (191.2206, 295.7209), REye coords (277.1378, 355.541), timeStamp: 2017-02-16 11:28:56.435
LEye coords (185.1994, 293.5856), REye coords (279.0884, 357.8391), timeStamp: 2017-02-16 11:28:56.469
LEye coords (185.1723, 293.6667), REye coords (280.1814, 358.672), timeStamp: 2017-02-16 11:28:56.502
LEye coords (185.6463, 292.0475), REye coords (281.3207, 359.9836), timeStamp: 2017-02-16 11:28:56.546
LEye coords (187.5256, 295.318), REye coords (284.9622, 365.4959), timeStamp: 2017-02-16 11:28:56.581
LEye coords (192.0629, 297.2978), REye coords (287.3487, 369.1313), timeStamp: 2017-02-16 11:28:56.614
LEye coords (196.3973, 302.0417), REye coords (289.5537, 373.2516), timeStamp: 2017-02-16 11:28:56.657
LEye coords (199.8958, 304.5526), REye coords (292.6165, 376.6897), timeStamp: 2017-02-16 11:28:56.691
LEye coords (197.4799, 299.0099), REye coords (295.6941, 381.6519), timeStamp: 2017-02-16 11:28:56.724
LEye coords (199.0581, 298.7915), REye coords (299.4698, 385.7546), timeStamp: 2017-02-16 11:28:56.768
LEye coords (199.9387, 301.5469), REye coords (302.0965, 389.5804), timeStamp: 2017-02-16 11:28:56.802
LEye coords (200.0688, 304.9965), REye coords (304.3441, 392.8087), timeStamp: 2017-02-16 11:28:56.836
LEye coords (201.0145, 307.8315), REye coords (307.0305, 396.2249), timeStamp: 2017-02-16 11:28:56.880
LEye coords (194.8305, 334.5124), REye coords (309.1313, 398.3982), timeStamp: 2017-02-16 11:28:56.914
LEye coords (203.0896, 311.8781), REye coords (311.3185, 401.8772), timeStamp: 2017-02-16 11:28:56.948
LEye coords (199.5036, 323.5124), REye coords (310.6954, 400.693), timeStamp: 2017-02-16 11:28:56.991
LEye coords (186.1747, 323.5504), REye coords (309.2637, 398.8861), timeStamp: 2017-02-16 11:28:57.025
LEye coords (187.1687, 322.8821), REye coords (311.1923, 401.7088), timeStamp: 2017-02-16 11:28:57.059
LEye coords (183.5184, 326.1923), REye coords (312.4974, 404.9216), timeStamp: 2017-02-16 11:28:57.103
LEye coords (184.6587, 330.5042), REye coords (313.2923, 406.6769), timeStamp: 2017-02-16 11:28:57.136
LEye coords (178.5771, 330.5894), REye coords (315.1423, 408.2878), timeStamp: 2017-02-16 11:28:57.169
LEye coords (176.3521, 325.945), REye coords (316.1455, 409.7611), timeStamp: 2017-02-16 11:28:57.213
LEye coords (177.4081, 325.6904), REye coords (316.4627, 411.4222), timeStamp: 2017-02-16 11:28:57.248
LEye coords (172.5914, 324.1836), REye coords (317.3434, 412.1953), timeStamp: 2017-02-16 11:28:57.283
LEye coords (177.1842, 324.5877), REye coords (318.8684, 413.915), timeStamp: 2017-02-16 11:28:57.316
LEye coords (305.903, 287.7242), REye coords (320.3487, 286.3715), timeStamp: 2017-02-16 11:28:57.360
LEye coords (188.2947, 286.6381), REye coords (336.0544, 275.8997), timeStamp: 2017-02-16 11:28:57.393
LEye coords (236.739, 290.3872), REye coords (328.5111, 282.687), timeStamp: 2017-02-16 11:28:57.427
LEye coords (255.8837, 296.3933), REye coords (328.563, 284.6913), timeStamp: 2017-02-16 11:28:57.470
LEye coords (255.958, 294.7078), REye coords (328.5013, 285.0009), timeStamp: 2017-02-16 11:28:57.504
LEye coords (252.7345, 285.8602), REye coords (329.598, 279.8633), timeStamp: 2017-02-16 11:28:57.537
LEye coords (240.4014, 284.3587), REye coords (342.6604, 285.3321), timeStamp: 2017-02-16 11:28:57.581
LEye coords (236.6512, 281.0393), REye coords (331.6854, 278.6839), timeStamp: 2017-02-16 11:28:57.615
LEye coords (233.0128, 279.2631), REye coords (332.5984, 280.4442), timeStamp: 2017-02-16 11:28:57.649
LEye coords (234.4489, 281.0725), REye coords (326.1594, 281.4842), timeStamp: 2017-02-16 11:28:57.693
LEye coords (230.7644, 279.9585), REye coords (325.583, 281.1656), timeStamp: 2017-02-16 11:28:57.726
LEye coords (232.3351, 278.8952), REye coords (325.8442, 282.0031), timeStamp: 2017-02-16 11:28:57.760
LEye coords (234.1876, 275.7012), REye coords (325.142, 283.8694), timeStamp: 2017-02-16 11:28:57.803
LEye coords (229.3948, 275.1597), REye coords (325.217, 284.4341), timeStamp: 2017-02-16 11:28:57.837
LEye coords (227.2423, 274.6885), REye coords (321.992, 284.5045), timeStamp: 2017-02-16 11:28:57.879
LEye coords (227.1909, 274.5463), REye coords (323.1218, 291.5257), timeStamp: 2017-02-16 11:28:57.913
LEye coords (221.7932, 278.5413), REye coords (325.2836, 296.111), timeStamp: 2017-02-16 11:28:57.947
LEye coords (230.8295, 429.5732), REye coords (328.8669, 302.4557), timeStamp: 2017-02-16 11:28:57.981
LEye coords (265.8052, 472.8246), REye coords (374.2573, 445.4734), timeStamp: 2017-02-16 11:28:58.026
LEye coords (279.4679, 449.7924), REye coords (363.7746, 441.0709), timeStamp: 2017-02-16 11:28:58.059
LEye coords (303.061, 443.0618), REye coords (352.2679, 429.5891), timeStamp: 2017-02-16 11:28:58.092
LEye coords (301.9718, 432.5728), REye coords (356.5942, 440.7512), timeStamp: 2017-02-16 11:28:58.136
LEye coords (305.5232, 408.157), REye coords (360.3314, 446.0188), timeStamp: 2017-02-16 11:28:58.169
LEye coords (314.5016, 427.9767), REye coords (359.635, 450.6297), timeStamp: 2017-02-16 11:28:58.203
LEye coords (333.412, 434.8097), REye coords (360.3921, 452.6898), timeStamp: 2017-02-16 11:28:58.247
LEye coords (338.1635, 435.572), REye coords (360.0652, 455.6342), timeStamp: 2017-02-16 11:28:58.281
LEye coords (329.3391, 430.9363), REye coords (359.8193, 457.4597), timeStamp: 2017-02-16 11:28:58.315
LEye coords (333.9955, 434.0403), REye coords (359.3235, 458.3997), timeStamp: 2017-02-16 11:28:58.360
LEye coords (331.9505, 435.7217), REye coords (359.1415, 459.6691), timeStamp: 2017-02-16 11:28:58.392
LEye coords (326.9223, 431.5103), REye coords (358.0244, 459.6784), timeStamp: 2017-02-16 11:28:58.426
LEye coords (314.5051, 424.012), REye coords (356.5375, 459.2885), timeStamp: 2017-02-16 11:28:58.470
LEye coords (159.3552, 222.0764), REye coords (355.9671, 459.5082), timeStamp: 2017-02-16 11:28:58.503
LEye coords (216.4791, 368.4857), REye coords (355.7998, 459.8408), timeStamp: 2017-02-16 11:28:58.536
LEye coords (269.463, 386.1844), REye coords (355.5507, 459.9605), timeStamp: 2017-02-16 11:28:58.580
LEye coords (240.7133, 388.1478), REye coords (355.2522, 461.0045), timeStamp: 2017-02-16 11:28:58.614
LEye coords (246.4395, 392.8165), REye coords (354.3872, 461.3051), timeStamp: 2017-02-16 11:28:58.649
LEye coords (256.4342, 392.9555), REye coords (354.294, 461.5181), timeStamp: 2017-02-16 11:28:58.693
LEye coords (243.3879, 384.3254), REye coords (354.0736, 461.838), timeStamp: 2017-02-16 11:28:58.727
LEye coords (238.9607, 383.6389), REye coords (354.0352, 461.6385), timeStamp: 2017-02-16 11:28:58.761
LEye coords (235.8145, 380.3005), REye coords (354.3415, 462.1766), timeStamp: 2017-02-16 11:28:58.795
LEye coords (233.5459, 372.6944), REye coords (352.7557, 458.959), timeStamp: 2017-02-16 11:28:58.839
LEye coords (226.7637, 367.2375), REye coords (351.4066, 456.3658), timeStamp: 2017-02-16 11:28:58.872
LEye coords (158.1642, 229.6826), REye coords (350.3627, 454.5273), timeStamp: 2017-02-16 11:28:58.915
LEye coords (197.3155, 318.0604), REye coords (348.0454, 451.9716), timeStamp: 2017-02-16 11:28:58.949
LEye coords (173.5908, 278.5777), REye coords (346.3289, 449.173), timeStamp: 2017-02-16 11:28:58.981
LEye coords (182.5508, 297.0995), REye coords (344.5911, 446.3996), timeStamp: 2017-02-16 11:28:59.025
LEye coords (180.6043, 298.1494), REye coords (342.4787, 442.3187), timeStamp: 2017-02-16 11:28:59.059
LEye coords (173.489, 295.6508), REye coords (340.3177, 438.962), timeStamp: 2017-02-16 11:28:59.094
LEye coords (293.3433, 365.0935), REye coords (338.9008, 434.7439), timeStamp: 2017-02-16 11:28:59.128
LEye coords (232.1642, 311.5323), REye coords (337.645, 431.6353), timeStamp: 2017-02-16 11:28:59.172
LEye coords (256.1616, 336.6808), REye coords (336.2176, 428.6557), timeStamp: 2017-02-16 11:28:59.206
