LEye coords (321.0, 320.0), REye coords (315.0, 320.0), timeStamp: 2017-03-05 11:20:05.107
LEye coords (322.0, 320.0), REye coords (315.0, 320.0), timeStamp: 2017-03-05 11:20:05.150
LEye coords (322.0, 319.0), REye coords (315.0, 320.0), timeStamp: 2017-03-05 11:20:05.184
LEye coords (322.0, 319.0), REye coords (315.0, 320.0), timeStamp: 2017-03-05 11:20:05.217
LEye coords (322.0, 318.0), REye coords (316.0, 320.0), timeStamp: 2017-03-05 11:20:05.262
LEye coords (322.0, 318.0), REye coords (316.0, 320.0), timeStamp: 2017-03-05 11:20:05.295
LEye coords (322.0, 318.0), REye coords (316.0, 320.0), timeStamp: 2017-03-05 11:20:05.329
LEye coords (274.0, 288.0), REye coords (272.0, 303.0), timeStamp: 2017-03-05 11:20:05.374
LEye coords (257.0, 275.0), REye coords (256.0, 287.0), timeStamp: 2017-03-05 11:20:05.407
LEye coords (257.0, 274.0), REye coords (253.0, 288.0), timeStamp: 2017-03-05 11:20:05.442
LEye coords (257.0, 274.0), REye coords (252.0, 288.0), timeStamp: 2017-03-05 11:20:05.475
LEye coords (256.0, 275.0), REye coords (253.0, 287.0), timeStamp: 2017-03-05 11:20:05.519
LEye coords (244.0, 278.0), REye coords (243.0, 290.0), timeStamp: 2017-03-05 11:20:05.554
LEye coords (177.0, 268.0), REye coords (172.0, 281.0), timeStamp: 2017-03-05 11:20:05.587
LEye coords (178.0, 268.0), REye coords (173.0, 282.0), timeStamp: 2017-03-05 11:20:05.631
LEye coords (179.0, 269.0), REye coords (172.0, 281.0), timeStamp: 2017-03-05 11:20:05.664
LEye coords (178.0, 270.0), REye coords (172.0, 281.0), timeStamp: 2017-03-05 11:20:05.698
LEye coords (178.0, 269.0), REye coords (168.0, 278.0), timeStamp: 2017-03-05 11:20:05.742
LEye coords (180.0, 273.0), REye coords (170.0, 278.0), timeStamp: 2017-03-05 11:20:05.775
LEye coords (178.0, 272.0), REye coords (170.0, 278.0), timeStamp: 2017-03-05 11:20:05.809
LEye coords (178.0, 270.0), REye coords (170.0, 278.0), timeStamp: 2017-03-05 11:20:05.853
LEye coords (179.0, 270.0), REye coords (169.0, 279.0), timeStamp: 2017-03-05 11:20:05.888
LEye coords (177.0, 275.0), REye coords (166.0, 284.0), timeStamp: 2017-03-05 11:20:05.921
LEye coords (175.0, 278.0), REye coords (164.0, 288.0), timeStamp: 2017-03-05 11:20:05.966
LEye coords (173.0, 280.0), REye coords (162.0, 291.0), timeStamp: 2017-03-05 11:20:05.999
LEye coords (172.0, 282.0), REye coords (161.0, 292.0), timeStamp: 2017-03-05 11:20:06.033
LEye coords (171.0, 283.0), REye coords (160.0, 294.0), timeStamp: 2017-03-05 11:20:06.077
LEye coords (170.0, 284.0), REye coords (160.0, 296.0), timeStamp: 2017-03-05 11:20:06.110
LEye coords (169.0, 285.0), REye coords (160.0, 297.0), timeStamp: 2017-03-05 11:20:06.144
LEye coords (169.0, 286.0), REye coords (160.0, 298.0), timeStamp: 2017-03-05 11:20:06.189
LEye coords (339.0, 253.0), REye coords (329.0, 251.0), timeStamp: 2017-03-05 11:20:06.223
LEye coords (409.0, 224.0), REye coords (415.0, 223.0), timeStamp: 2017-03-05 11:20:06.257
LEye coords (408.0, 225.0), REye coords (413.0, 222.0), timeStamp: 2017-03-05 11:20:06.291
LEye coords (406.0, 225.0), REye coords (413.0, 220.0), timeStamp: 2017-03-05 11:20:06.335
LEye coords (406.0, 226.0), REye coords (412.0, 222.0), timeStamp: 2017-03-05 11:20:06.368
LEye coords (406.0, 235.0), REye coords (404.0, 232.0), timeStamp: 2017-03-05 11:20:06.402
LEye coords (406.0, 235.0), REye coords (405.0, 228.0), timeStamp: 2017-03-05 11:20:06.446
LEye coords (406.0, 233.0), REye coords (405.0, 229.0), timeStamp: 2017-03-05 11:20:06.480
LEye coords (407.0, 234.0), REye coords (406.0, 228.0), timeStamp: 2017-03-05 11:20:06.515
LEye coords (407.0, 233.0), REye coords (0.0, 0.0), timeStamp: 2017-03-05 11:20:06.549
LEye coords (406.0, 233.0), REye coords (0.0, 0.0), timeStamp: 2017-03-05 11:20:06.593
LEye coords (406.0, 233.0), REye coords (406.0, 227.0), timeStamp: 2017-03-05 11:20:06.626
LEye coords (406.0, 233.0), REye coords (407.0, 225.0), timeStamp: 2017-03-05 11:20:06.660
LEye coords (406.0, 233.0), REye coords (407.0, 224.0), timeStamp: 2017-03-05 11:20:06.704
LEye coords (302.0, 247.0), REye coords (307.0, 253.0), timeStamp: 2017-03-05 11:20:06.738
LEye coords (192.0, 300.0), REye coords (193.0, 303.0), timeStamp: 2017-03-05 11:20:06.771
LEye coords (194.0, 302.0), REye coords (192.0, 303.0), timeStamp: 2017-03-05 11:20:06.814
LEye coords (196.0, 303.0), REye coords (191.0, 305.0), timeStamp: 2017-03-05 11:20:06.847
LEye coords (197.0, 303.0), REye coords (191.0, 305.0), timeStamp: 2017-03-05 11:20:06.881
LEye coords (196.0, 305.0), REye coords (191.0, 306.0), timeStamp: 2017-03-05 11:20:06.926
LEye coords (195.0, 304.0), REye coords (192.0, 307.0), timeStamp: 2017-03-05 11:20:06.959
LEye coords (196.0, 306.0), REye coords (193.0, 306.0), timeStamp: 2017-03-05 11:20:06.993
LEye coords (178.0, 318.0), REye coords (173.0, 319.0), timeStamp: 2017-03-05 11:20:07.036
LEye coords (169.0, 324.0), REye coords (163.0, 326.0), timeStamp: 2017-03-05 11:20:07.071
LEye coords (164.0, 328.0), REye coords (158.0, 329.0), timeStamp: 2017-03-05 11:20:07.104
LEye coords (160.0, 330.0), REye coords (154.0, 332.0), timeStamp: 2017-03-05 11:20:07.149
LEye coords (147.0, 338.0), REye coords (134.0, 348.0), timeStamp: 2017-03-05 11:20:07.182
LEye coords (150.0, 346.0), REye coords (137.0, 347.0), timeStamp: 2017-03-05 11:20:07.216
LEye coords (161.0, 338.0), REye coords (150.0, 340.0), timeStamp: 2017-03-05 11:20:07.260
LEye coords (164.0, 335.0), REye coords (154.0, 339.0), timeStamp: 2017-03-05 11:20:07.295
LEye coords (165.0, 334.0), REye coords (156.0, 338.0), timeStamp: 2017-03-05 11:20:07.329
