LEye coords (248.0, 249.0), REye coords (245.0, 255.0), timeStamp: 2017-03-05 11:20:11.879
LEye coords (247.0, 250.0), REye coords (245.0, 255.0), timeStamp: 2017-03-05 11:20:11.924
LEye coords (248.0, 249.0), REye coords (245.0, 255.0), timeStamp: 2017-03-05 11:20:11.958
LEye coords (248.0, 250.0), REye coords (245.0, 255.0), timeStamp: 2017-03-05 11:20:11.993
LEye coords (248.0, 250.0), REye coords (246.0, 255.0), timeStamp: 2017-03-05 11:20:12.036
LEye coords (248.0, 250.0), REye coords (246.0, 256.0), timeStamp: 2017-03-05 11:20:12.071
LEye coords (248.0, 251.0), REye coords (246.0, 256.0), timeStamp: 2017-03-05 11:20:12.105
LEye coords (248.0, 251.0), REye coords (246.0, 256.0), timeStamp: 2017-03-05 11:20:12.139
LEye coords (248.0, 251.0), REye coords (246.0, 255.0), timeStamp: 2017-03-05 11:20:12.183
LEye coords (248.0, 251.0), REye coords (246.0, 253.0), timeStamp: 2017-03-05 11:20:12.216
LEye coords (248.0, 251.0), REye coords (247.0, 255.0), timeStamp: 2017-03-05 11:20:12.249
LEye coords (248.0, 251.0), REye coords (246.0, 253.0), timeStamp: 2017-03-05 11:20:12.294
LEye coords (248.0, 251.0), REye coords (246.0, 253.0), timeStamp: 2017-03-05 11:20:12.327
LEye coords (247.0, 251.0), REye coords (245.0, 253.0), timeStamp: 2017-03-05 11:20:12.361
LEye coords (247.0, 252.0), REye coords (245.0, 253.0), timeStamp: 2017-03-05 11:20:12.405
LEye coords (247.0, 252.0), REye coords (245.0, 254.0), timeStamp: 2017-03-05 11:20:12.441
LEye coords (247.0, 251.0), REye coords (244.0, 254.0), timeStamp: 2017-03-05 11:20:12.473
LEye coords (247.0, 251.0), REye coords (244.0, 253.0), timeStamp: 2017-03-05 11:20:12.517
LEye coords (247.0, 251.0), REye coords (244.0, 253.0), timeStamp: 2017-03-05 11:20:12.550
LEye coords (247.0, 251.0), REye coords (244.0, 254.0), timeStamp: 2017-03-05 11:20:12.583
LEye coords (247.0, 254.0), REye coords (244.0, 257.0), timeStamp: 2017-03-05 11:20:12.628
LEye coords (247.0, 257.0), REye coords (245.0, 261.0), timeStamp: 2017-03-05 11:20:12.662
LEye coords (248.0, 260.0), REye coords (245.0, 264.0), timeStamp: 2017-03-05 11:20:12.696
LEye coords (248.0, 263.0), REye coords (245.0, 267.0), timeStamp: 2017-03-05 11:20:12.740
LEye coords (248.0, 266.0), REye coords (245.0, 270.0), timeStamp: 2017-03-05 11:20:12.773
LEye coords (248.0, 269.0), REye coords (246.0, 272.0), timeStamp: 2017-03-05 11:20:12.807
LEye coords (249.0, 271.0), REye coords (246.0, 275.0), timeStamp: 2017-03-05 11:20:12.841
LEye coords (249.0, 274.0), REye coords (246.0, 277.0), timeStamp: 2017-03-05 11:20:12.884
LEye coords (249.0, 276.0), REye coords (246.0, 279.0), timeStamp: 2017-03-05 11:20:12.918
LEye coords (249.0, 279.0), REye coords (246.0, 281.0), timeStamp: 2017-03-05 11:20:12.952
LEye coords (249.0, 282.0), REye coords (246.0, 282.0), timeStamp: 2017-03-05 11:20:12.995
LEye coords (249.0, 284.0), REye coords (246.0, 285.0), timeStamp: 2017-03-05 11:20:13.028
LEye coords (250.0, 288.0), REye coords (246.0, 289.0), timeStamp: 2017-03-05 11:20:13.072
LEye coords (250.0, 292.0), REye coords (246.0, 292.0), timeStamp: 2017-03-05 11:20:13.106
LEye coords (250.0, 296.0), REye coords (246.0, 296.0), timeStamp: 2017-03-05 11:20:13.141
LEye coords (250.0, 300.0), REye coords (246.0, 300.0), timeStamp: 2017-03-05 11:20:13.174
LEye coords (250.0, 303.0), REye coords (246.0, 303.0), timeStamp: 2017-03-05 11:20:13.218
LEye coords (250.0, 307.0), REye coords (246.0, 306.0), timeStamp: 2017-03-05 11:20:13.252
LEye coords (250.0, 310.0), REye coords (246.0, 310.0), timeStamp: 2017-03-05 11:20:13.285
