LEye coords (275.0, 270.0), REye coords (278.0, 281.0), timeStamp: 2017-03-05 11:21:30.345
LEye coords (275.0, 271.0), REye coords (277.0, 282.0), timeStamp: 2017-03-05 11:21:30.388
LEye coords (275.0, 272.0), REye coords (277.0, 283.0), timeStamp: 2017-03-05 11:21:30.423
LEye coords (275.0, 272.0), REye coords (277.0, 284.0), timeStamp: 2017-03-05 11:21:30.456
LEye coords (276.0, 273.0), REye coords (277.0, 284.0), timeStamp: 2017-03-05 11:21:30.490
LEye coords (276.0, 274.0), REye coords (277.0, 285.0), timeStamp: 2017-03-05 11:21:30.533
LEye coords (275.0, 274.0), REye coords (276.0, 286.0), timeStamp: 2017-03-05 11:21:30.567
LEye coords (275.0, 272.0), REye coords (276.0, 284.0), timeStamp: 2017-03-05 11:21:30.600
LEye coords (274.0, 269.0), REye coords (275.0, 281.0), timeStamp: 2017-03-05 11:21:30.644
LEye coords (273.0, 267.0), REye coords (275.0, 278.0), timeStamp: 2017-03-05 11:21:30.678
LEye coords (273.0, 264.0), REye coords (274.0, 276.0), timeStamp: 2017-03-05 11:21:30.722
LEye coords (272.0, 262.0), REye coords (274.0, 273.0), timeStamp: 2017-03-05 11:21:30.755
LEye coords (272.0, 259.0), REye coords (274.0, 270.0), timeStamp: 2017-03-05 11:21:30.790
LEye coords (271.0, 257.0), REye coords (273.0, 267.0), timeStamp: 2017-03-05 11:21:30.823
LEye coords (271.0, 254.0), REye coords (273.0, 264.0), timeStamp: 2017-03-05 11:21:30.868
LEye coords (271.0, 252.0), REye coords (273.0, 262.0), timeStamp: 2017-03-05 11:21:30.902
LEye coords (270.0, 249.0), REye coords (272.0, 259.0), timeStamp: 2017-03-05 11:21:30.936
LEye coords (270.0, 247.0), REye coords (272.0, 257.0), timeStamp: 2017-03-05 11:21:30.980
LEye coords (269.0, 245.0), REye coords (271.0, 254.0), timeStamp: 2017-03-05 11:21:31.013
LEye coords (268.0, 243.0), REye coords (270.0, 252.0), timeStamp: 2017-03-05 11:21:31.046
LEye coords (267.0, 241.0), REye coords (269.0, 249.0), timeStamp: 2017-03-05 11:21:31.091
LEye coords (266.0, 239.0), REye coords (268.0, 247.0), timeStamp: 2017-03-05 11:21:31.125
LEye coords (265.0, 237.0), REye coords (268.0, 245.0), timeStamp: 2017-03-05 11:21:31.159
LEye coords (265.0, 236.0), REye coords (267.0, 243.0), timeStamp: 2017-03-05 11:21:31.203
LEye coords (264.0, 235.0), REye coords (265.0, 242.0), timeStamp: 2017-03-05 11:21:31.237
LEye coords (263.0, 234.0), REye coords (264.0, 241.0), timeStamp: 2017-03-05 11:21:31.271
LEye coords (262.0, 233.0), REye coords (264.0, 240.0), timeStamp: 2017-03-05 11:21:31.305
LEye coords (261.0, 232.0), REye coords (263.0, 239.0), timeStamp: 2017-03-05 11:21:31.350
LEye coords (260.0, 231.0), REye coords (262.0, 237.0), timeStamp: 2017-03-05 11:21:31.384
LEye coords (259.0, 231.0), REye coords (261.0, 238.0), timeStamp: 2017-03-05 11:21:31.418
