LEye coords (218.0, 175.0), REye coords (200.0, 168.0), timeStamp: 2017-03-05 11:22:24.787
LEye coords (218.0, 175.0), REye coords (200.0, 169.0), timeStamp: 2017-03-05 11:22:24.831
LEye coords (218.0, 175.0), REye coords (200.0, 170.0), timeStamp: 2017-03-05 11:22:24.864
LEye coords (218.0, 175.0), REye coords (200.0, 170.0), timeStamp: 2017-03-05 11:22:24.897
LEye coords (218.0, 175.0), REye coords (200.0, 170.0), timeStamp: 2017-03-05 11:22:24.942
LEye coords (218.0, 174.0), REye coords (201.0, 171.0), timeStamp: 2017-03-05 11:22:24.976
LEye coords (218.0, 174.0), REye coords (201.0, 171.0), timeStamp: 2017-03-05 11:22:25.010
LEye coords (218.0, 174.0), REye coords (201.0, 172.0), timeStamp: 2017-03-05 11:22:25.044
LEye coords (218.0, 175.0), REye coords (201.0, 172.0), timeStamp: 2017-03-05 11:22:25.088
LEye coords (218.0, 175.0), REye coords (201.0, 172.0), timeStamp: 2017-03-05 11:22:25.121
LEye coords (218.0, 175.0), REye coords (201.0, 173.0), timeStamp: 2017-03-05 11:22:25.154
LEye coords (253.0, 227.0), REye coords (237.0, 241.0), timeStamp: 2017-03-05 11:22:25.199
LEye coords (266.0, 266.0), REye coords (244.0, 283.0), timeStamp: 2017-03-05 11:22:25.233
LEye coords (266.0, 267.0), REye coords (245.0, 284.0), timeStamp: 2017-03-05 11:22:25.266
LEye coords (266.0, 267.0), REye coords (244.0, 284.0), timeStamp: 2017-03-05 11:22:25.310
LEye coords (266.0, 267.0), REye coords (244.0, 285.0), timeStamp: 2017-03-05 11:22:25.344
LEye coords (266.0, 266.0), REye coords (242.0, 286.0), timeStamp: 2017-03-05 11:22:25.378
LEye coords (266.0, 260.0), REye coords (245.0, 284.0), timeStamp: 2017-03-05 11:22:25.423
LEye coords (260.0, 261.0), REye coords (0.0, 0.0), timeStamp: 2017-03-05 11:22:25.456
LEye coords (258.0, 261.0), REye coords (241.0, 275.0), timeStamp: 2017-03-05 11:22:25.490
LEye coords (256.0, 261.0), REye coords (238.0, 272.0), timeStamp: 2017-03-05 11:22:25.525
LEye coords (255.0, 261.0), REye coords (237.0, 270.0), timeStamp: 2017-03-05 11:22:25.569
LEye coords (254.0, 261.0), REye coords (237.0, 268.0), timeStamp: 2017-03-05 11:22:25.602
LEye coords (254.0, 261.0), REye coords (236.0, 268.0), timeStamp: 2017-03-05 11:22:25.646
LEye coords (254.0, 262.0), REye coords (235.0, 267.0), timeStamp: 2017-03-05 11:22:25.679
LEye coords (254.0, 262.0), REye coords (235.0, 267.0), timeStamp: 2017-03-05 11:22:25.714
LEye coords (254.0, 263.0), REye coords (0.0, 0.0), timeStamp: 2017-03-05 11:22:25.747
LEye coords (254.0, 262.0), REye coords (234.0, 267.0), timeStamp: 2017-03-05 11:22:25.792
LEye coords (253.0, 260.0), REye coords (232.0, 266.0), timeStamp: 2017-03-05 11:22:25.826
LEye coords (251.0, 258.0), REye coords (231.0, 265.0), timeStamp: 2017-03-05 11:22:25.860
LEye coords (250.0, 256.0), REye coords (230.0, 264.0), timeStamp: 2017-03-05 11:22:25.904
LEye coords (250.0, 255.0), REye coords (229.0, 263.0), timeStamp: 2017-03-05 11:22:25.938
LEye coords (249.0, 254.0), REye coords (228.0, 262.0), timeStamp: 2017-03-05 11:22:25.971
LEye coords (248.0, 253.0), REye coords (227.0, 262.0), timeStamp: 2017-03-05 11:22:26.015
LEye coords (248.0, 252.0), REye coords (226.0, 261.0), timeStamp: 2017-03-05 11:22:26.047
LEye coords (247.0, 250.0), REye coords (225.0, 260.0), timeStamp: 2017-03-05 11:22:26.080
LEye coords (247.0, 249.0), REye coords (224.0, 260.0), timeStamp: 2017-03-05 11:22:26.126
LEye coords (246.0, 249.0), REye coords (224.0, 260.0), timeStamp: 2017-03-05 11:22:26.159
LEye coords (245.0, 248.0), REye coords (223.0, 260.0), timeStamp: 2017-03-05 11:22:26.192
