LEye coords (272.0, 264.0), REye coords (248.0, 288.0), timeStamp: 2017-03-05 11:22:28.640
LEye coords (274.0, 264.0), REye coords (249.0, 288.0), timeStamp: 2017-03-05 11:22:28.674
LEye coords (275.0, 265.0), REye coords (251.0, 288.0), timeStamp: 2017-03-05 11:22:28.708
LEye coords (276.0, 265.0), REye coords (252.0, 288.0), timeStamp: 2017-03-05 11:22:28.753
LEye coords (277.0, 266.0), REye coords (252.0, 288.0), timeStamp: 2017-03-05 11:22:28.787
LEye coords (278.0, 266.0), REye coords (253.0, 288.0), timeStamp: 2017-03-05 11:22:28.820
LEye coords (279.0, 267.0), REye coords (254.0, 288.0), timeStamp: 2017-03-05 11:22:28.865
LEye coords (279.0, 268.0), REye coords (255.0, 288.0), timeStamp: 2017-03-05 11:22:28.900
LEye coords (280.0, 268.0), REye coords (256.0, 288.0), timeStamp: 2017-03-05 11:22:28.933
LEye coords (281.0, 269.0), REye coords (257.0, 288.0), timeStamp: 2017-03-05 11:22:28.967
LEye coords (282.0, 270.0), REye coords (257.0, 288.0), timeStamp: 2017-03-05 11:22:29.010
LEye coords (283.0, 270.0), REye coords (258.0, 288.0), timeStamp: 2017-03-05 11:22:29.043
LEye coords (284.0, 271.0), REye coords (259.0, 288.0), timeStamp: 2017-03-05 11:22:29.088
LEye coords (285.0, 272.0), REye coords (261.0, 288.0), timeStamp: 2017-03-05 11:22:29.121
LEye coords (314.0, 303.0), REye coords (300.0, 299.0), timeStamp: 2017-03-05 11:22:29.155
LEye coords (312.0, 296.0), REye coords (303.0, 299.0), timeStamp: 2017-03-05 11:22:29.200
LEye coords (313.0, 298.0), REye coords (301.0, 300.0), timeStamp: 2017-03-05 11:22:29.234
LEye coords (313.0, 297.0), REye coords (301.0, 302.0), timeStamp: 2017-03-05 11:22:29.268
LEye coords (314.0, 297.0), REye coords (300.0, 303.0), timeStamp: 2017-03-05 11:22:29.301
LEye coords (315.0, 297.0), REye coords (300.0, 304.0), timeStamp: 2017-03-05 11:22:29.345
LEye coords (315.0, 298.0), REye coords (299.0, 305.0), timeStamp: 2017-03-05 11:22:29.380
LEye coords (316.0, 298.0), REye coords (299.0, 305.0), timeStamp: 2017-03-05 11:22:29.413
LEye coords (316.0, 298.0), REye coords (300.0, 305.0), timeStamp: 2017-03-05 11:22:29.457
LEye coords (317.0, 298.0), REye coords (299.0, 305.0), timeStamp: 2017-03-05 11:22:29.490
LEye coords (317.0, 297.0), REye coords (299.0, 306.0), timeStamp: 2017-03-05 11:22:29.525
LEye coords (317.0, 297.0), REye coords (299.0, 306.0), timeStamp: 2017-03-05 11:22:29.569
LEye coords (317.0, 297.0), REye coords (299.0, 306.0), timeStamp: 2017-03-05 11:22:29.604
