LEye coords (239.0, 220.0), REye coords (222.0, 223.0), timeStamp: 2017-03-05 11:22:34.674
LEye coords (240.0, 220.0), REye coords (223.0, 224.0), timeStamp: 2017-03-05 11:22:34.708
LEye coords (240.0, 220.0), REye coords (222.0, 224.0), timeStamp: 2017-03-05 11:22:34.742
LEye coords (240.0, 220.0), REye coords (222.0, 225.0), timeStamp: 2017-03-05 11:22:34.787
LEye coords (239.0, 220.0), REye coords (222.0, 225.0), timeStamp: 2017-03-05 11:22:34.821
LEye coords (239.0, 220.0), REye coords (222.0, 225.0), timeStamp: 2017-03-05 11:22:34.855
LEye coords (239.0, 220.0), REye coords (222.0, 226.0), timeStamp: 2017-03-05 11:22:34.889
LEye coords (239.0, 220.0), REye coords (222.0, 226.0), timeStamp: 2017-03-05 11:22:34.933
LEye coords (239.0, 220.0), REye coords (222.0, 226.0), timeStamp: 2017-03-05 11:22:34.967
LEye coords (241.0, 221.0), REye coords (223.0, 228.0), timeStamp: 2017-03-05 11:22:35.001
LEye coords (306.0, 293.0), REye coords (294.0, 297.0), timeStamp: 2017-03-05 11:22:35.045
LEye coords (305.0, 295.0), REye coords (296.0, 295.0), timeStamp: 2017-03-05 11:22:35.079
LEye coords (305.0, 297.0), REye coords (296.0, 299.0), timeStamp: 2017-03-05 11:22:35.113
LEye coords (305.0, 297.0), REye coords (296.0, 301.0), timeStamp: 2017-03-05 11:22:35.158
LEye coords (305.0, 298.0), REye coords (296.0, 300.0), timeStamp: 2017-03-05 11:22:35.192
LEye coords (307.0, 301.0), REye coords (295.0, 304.0), timeStamp: 2017-03-05 11:22:35.225
LEye coords (306.0, 299.0), REye coords (295.0, 299.0), timeStamp: 2017-03-05 11:22:35.269
LEye coords (306.0, 299.0), REye coords (294.0, 298.0), timeStamp: 2017-03-05 11:22:35.302
LEye coords (317.0, 297.0), REye coords (301.0, 300.0), timeStamp: 2017-03-05 11:22:35.336
LEye coords (321.0, 299.0), REye coords (305.0, 303.0), timeStamp: 2017-03-05 11:22:35.379
LEye coords (324.0, 300.0), REye coords (307.0, 303.0), timeStamp: 2017-03-05 11:22:35.413
LEye coords (325.0, 301.0), REye coords (308.0, 304.0), timeStamp: 2017-03-05 11:22:35.446
LEye coords (326.0, 301.0), REye coords (310.0, 305.0), timeStamp: 2017-03-05 11:22:35.481
LEye coords (328.0, 300.0), REye coords (310.0, 306.0), timeStamp: 2017-03-05 11:22:35.525
LEye coords (329.0, 299.0), REye coords (311.0, 306.0), timeStamp: 2017-03-05 11:22:35.558
LEye coords (330.0, 298.0), REye coords (312.0, 306.0), timeStamp: 2017-03-05 11:22:35.602
LEye coords (330.0, 297.0), REye coords (312.0, 306.0), timeStamp: 2017-03-05 11:22:35.636
