LEye coords (334.0, 296.0), REye coords (317.0, 305.0), timeStamp: 2017-03-05 11:22:35.748
LEye coords (335.0, 296.0), REye coords (318.0, 305.0), timeStamp: 2017-03-05 11:22:35.782
LEye coords (0.0, 0.0), REye coords (319.0, 305.0), timeStamp: 2017-03-05 11:22:35.816
LEye coords (0.0, 0.0), REye coords (319.0, 304.0), timeStamp: 2017-03-05 11:22:35.861
LEye coords (335.0, 295.0), REye coords (320.0, 304.0), timeStamp: 2017-03-05 11:22:35.894
LEye coords (0.0, 0.0), REye coords (321.0, 304.0), timeStamp: 2017-03-05 11:22:35.927
LEye coords (0.0, 0.0), REye coords (322.0, 304.0), timeStamp: 2017-03-05 11:22:35.971
LEye coords (0.0, 0.0), REye coords (323.0, 304.0), timeStamp: 2017-03-05 11:22:36.006
LEye coords (0.0, 0.0), REye coords (324.0, 304.0), timeStamp: 2017-03-05 11:22:36.040
LEye coords (0.0, 0.0), REye coords (325.0, 304.0), timeStamp: 2017-03-05 11:22:36.073
LEye coords (334.0, 292.0), REye coords (325.0, 301.0), timeStamp: 2017-03-05 11:22:36.118
LEye coords (268.0, 226.0), REye coords (270.0, 235.0), timeStamp: 2017-03-05 11:22:36.153
LEye coords (272.0, 227.0), REye coords (266.0, 236.0), timeStamp: 2017-03-05 11:22:36.186
LEye coords (273.0, 228.0), REye coords (267.0, 236.0), timeStamp: 2017-03-05 11:22:36.230
LEye coords (273.0, 231.0), REye coords (267.0, 236.0), timeStamp: 2017-03-05 11:22:36.263
LEye coords (273.0, 232.0), REye coords (267.0, 237.0), timeStamp: 2017-03-05 11:22:36.297
LEye coords (325.0, 210.0), REye coords (326.0, 224.0), timeStamp: 2017-03-05 11:22:36.341
LEye coords (325.0, 212.0), REye coords (327.0, 225.0), timeStamp: 2017-03-05 11:22:36.374
LEye coords (326.0, 214.0), REye coords (327.0, 227.0), timeStamp: 2017-03-05 11:22:36.409
LEye coords (327.0, 214.0), REye coords (326.0, 226.0), timeStamp: 2017-03-05 11:22:36.452
LEye coords (328.0, 214.0), REye coords (326.0, 226.0), timeStamp: 2017-03-05 11:22:36.487
LEye coords (330.0, 213.0), REye coords (324.0, 229.0), timeStamp: 2017-03-05 11:22:36.521
LEye coords (331.0, 218.0), REye coords (325.0, 229.0), timeStamp: 2017-03-05 11:22:36.555
LEye coords (330.0, 217.0), REye coords (324.0, 229.0), timeStamp: 2017-03-05 11:22:36.598
LEye coords (330.0, 219.0), REye coords (324.0, 230.0), timeStamp: 2017-03-05 11:22:36.632
LEye coords (330.0, 219.0), REye coords (324.0, 230.0), timeStamp: 2017-03-05 11:22:36.665
LEye coords (330.0, 219.0), REye coords (324.0, 230.0), timeStamp: 2017-03-05 11:22:36.709
LEye coords (331.0, 220.0), REye coords (324.0, 231.0), timeStamp: 2017-03-05 11:22:36.743
LEye coords (331.0, 221.0), REye coords (324.0, 230.0), timeStamp: 2017-03-05 11:22:36.777
LEye coords (330.0, 221.0), REye coords (324.0, 230.0), timeStamp: 2017-03-05 11:22:36.823
LEye coords (330.0, 222.0), REye coords (324.0, 231.0), timeStamp: 2017-03-05 11:22:36.857
