LEye coords (334.0, 222.0), REye coords (317.0, 240.0), timeStamp: 2017-03-05 11:22:33.454
LEye coords (334.0, 222.0), REye coords (318.0, 237.0), timeStamp: 2017-03-05 11:22:33.488
LEye coords (335.0, 222.0), REye coords (319.0, 236.0), timeStamp: 2017-03-05 11:22:33.522
LEye coords (335.0, 221.0), REye coords (320.0, 235.0), timeStamp: 2017-03-05 11:22:33.556
LEye coords (335.0, 221.0), REye coords (321.0, 235.0), timeStamp: 2017-03-05 11:22:33.599
LEye coords (335.0, 222.0), REye coords (322.0, 235.0), timeStamp: 2017-03-05 11:22:33.634
LEye coords (334.0, 222.0), REye coords (322.0, 234.0), timeStamp: 2017-03-05 11:22:33.668
LEye coords (334.0, 224.0), REye coords (323.0, 234.0), timeStamp: 2017-03-05 11:22:33.712
LEye coords (334.0, 224.0), REye coords (323.0, 234.0), timeStamp: 2017-03-05 11:22:33.745
LEye coords (333.0, 225.0), REye coords (323.0, 234.0), timeStamp: 2017-03-05 11:22:33.780
LEye coords (333.0, 226.0), REye coords (323.0, 234.0), timeStamp: 2017-03-05 11:22:33.823
LEye coords (264.0, 213.0), REye coords (251.0, 226.0), timeStamp: 2017-03-05 11:22:33.857
LEye coords (241.0, 212.0), REye coords (228.0, 227.0), timeStamp: 2017-03-05 11:22:33.891
LEye coords (242.0, 217.0), REye coords (228.0, 228.0), timeStamp: 2017-03-05 11:22:33.935
LEye coords (242.0, 219.0), REye coords (229.0, 227.0), timeStamp: 2017-03-05 11:22:33.969
LEye coords (241.0, 221.0), REye coords (229.0, 228.0), timeStamp: 2017-03-05 11:22:34.002
LEye coords (240.0, 225.0), REye coords (229.0, 229.0), timeStamp: 2017-03-05 11:22:34.046
LEye coords (241.0, 224.0), REye coords (226.0, 227.0), timeStamp: 2017-03-05 11:22:34.080
LEye coords (241.0, 223.0), REye coords (227.0, 225.0), timeStamp: 2017-03-05 11:22:34.113
LEye coords (240.0, 222.0), REye coords (227.0, 226.0), timeStamp: 2017-03-05 11:22:34.157
LEye coords (240.0, 222.0), REye coords (226.0, 224.0), timeStamp: 2017-03-05 11:22:34.191
LEye coords (240.0, 221.0), REye coords (226.0, 224.0), timeStamp: 2017-03-05 11:22:34.224
LEye coords (241.0, 221.0), REye coords (226.0, 223.0), timeStamp: 2017-03-05 11:22:34.269
LEye coords (241.0, 221.0), REye coords (226.0, 223.0), timeStamp: 2017-03-05 11:22:34.303
LEye coords (240.0, 221.0), REye coords (225.0, 223.0), timeStamp: 2017-03-05 11:22:34.338
LEye coords (240.0, 221.0), REye coords (225.0, 222.0), timeStamp: 2017-03-05 11:22:34.371
LEye coords (239.0, 221.0), REye coords (224.0, 222.0), timeStamp: 2017-03-05 11:22:34.416
LEye coords (239.0, 221.0), REye coords (223.0, 223.0), timeStamp: 2017-03-05 11:22:34.449
LEye coords (239.0, 220.0), REye coords (223.0, 223.0), timeStamp: 2017-03-05 11:22:34.482
LEye coords (239.0, 220.0), REye coords (223.0, 223.0), timeStamp: 2017-03-05 11:22:34.527
LEye coords (239.0, 220.0), REye coords (223.0, 223.0), timeStamp: 2017-03-05 11:22:34.561
