LEye coords (331.0, 198.0), REye coords (324.0, 205.0), timeStamp: 2017-03-05 11:22:36.969
LEye coords (330.0, 198.0), REye coords (324.0, 205.0), timeStamp: 2017-03-05 11:22:37.003
LEye coords (331.0, 199.0), REye coords (324.0, 205.0), timeStamp: 2017-03-05 11:22:37.036
LEye coords (0.0, 0.0), REye coords (324.0, 206.0), timeStamp: 2017-03-05 11:22:37.080
LEye coords (331.0, 198.0), REye coords (323.0, 206.0), timeStamp: 2017-03-05 11:22:37.113
LEye coords (331.0, 198.0), REye coords (323.0, 206.0), timeStamp: 2017-03-05 11:22:37.147
LEye coords (331.0, 197.0), REye coords (323.0, 206.0), timeStamp: 2017-03-05 11:22:37.192
LEye coords (331.0, 197.0), REye coords (323.0, 206.0), timeStamp: 2017-03-05 11:22:37.225
LEye coords (330.0, 197.0), REye coords (323.0, 206.0), timeStamp: 2017-03-05 11:22:37.259
LEye coords (330.0, 197.0), REye coords (323.0, 207.0), timeStamp: 2017-03-05 11:22:37.304
LEye coords (330.0, 197.0), REye coords (323.0, 207.0), timeStamp: 2017-03-05 11:22:37.338
LEye coords (330.0, 197.0), REye coords (323.0, 207.0), timeStamp: 2017-03-05 11:22:37.372
LEye coords (330.0, 197.0), REye coords (323.0, 208.0), timeStamp: 2017-03-05 11:22:37.406
LEye coords (279.0, 185.0), REye coords (282.0, 194.0), timeStamp: 2017-03-05 11:22:37.449
LEye coords (279.0, 191.0), REye coords (278.0, 195.0), timeStamp: 2017-03-05 11:22:37.483
LEye coords (279.0, 189.0), REye coords (277.0, 193.0), timeStamp: 2017-03-05 11:22:37.517
LEye coords (279.0, 188.0), REye coords (277.0, 193.0), timeStamp: 2017-03-05 11:22:37.560
LEye coords (278.0, 189.0), REye coords (276.0, 193.0), timeStamp: 2017-03-05 11:22:37.594
LEye coords (274.0, 189.0), REye coords (270.0, 196.0), timeStamp: 2017-03-05 11:22:37.627
LEye coords (249.0, 188.0), REye coords (240.0, 190.0), timeStamp: 2017-03-05 11:22:37.672
LEye coords (247.0, 187.0), REye coords (239.0, 188.0), timeStamp: 2017-03-05 11:22:37.706
LEye coords (247.0, 187.0), REye coords (241.0, 187.0), timeStamp: 2017-03-05 11:22:37.740
LEye coords (247.0, 186.0), REye coords (241.0, 187.0), timeStamp: 2017-03-05 11:22:37.783
LEye coords (247.0, 186.0), REye coords (242.0, 187.0), timeStamp: 2017-03-05 11:22:37.816
LEye coords (247.0, 186.0), REye coords (242.0, 186.0), timeStamp: 2017-03-05 11:22:37.849
LEye coords (247.0, 186.0), REye coords (242.0, 186.0), timeStamp: 2017-03-05 11:22:37.894
LEye coords (246.0, 186.0), REye coords (242.0, 187.0), timeStamp: 2017-03-05 11:22:37.928
LEye coords (246.0, 186.0), REye coords (241.0, 187.0), timeStamp: 2017-03-05 11:22:37.961
LEye coords (246.0, 187.0), REye coords (242.0, 186.0), timeStamp: 2017-03-05 11:22:38.007
LEye coords (246.0, 187.0), REye coords (241.0, 186.0), timeStamp: 2017-03-05 11:22:38.040
