LEye coords (289.0, 109.0), REye coords (287.0, 118.0), timeStamp: 2017-03-05 11:23:24.636
LEye coords (289.0, 109.0), REye coords (287.0, 111.0), timeStamp: 2017-03-05 11:23:24.671
LEye coords (289.0, 109.0), REye coords (285.0, 114.0), timeStamp: 2017-03-05 11:23:24.715
LEye coords (288.0, 110.0), REye coords (285.0, 116.0), timeStamp: 2017-03-05 11:23:24.748
LEye coords (288.0, 111.0), REye coords (286.0, 116.0), timeStamp: 2017-03-05 11:23:24.782
LEye coords (288.0, 111.0), REye coords (286.0, 115.0), timeStamp: 2017-03-05 11:23:24.817
LEye coords (288.0, 114.0), REye coords (286.0, 117.0), timeStamp: 2017-03-05 11:23:24.861
LEye coords (207.0, 338.0), REye coords (210.0, 349.0), timeStamp: 2017-03-05 11:23:24.896
LEye coords (206.0, 347.0), REye coords (210.0, 348.0), timeStamp: 2017-03-05 11:23:24.929
LEye coords (206.0, 345.0), REye coords (210.0, 348.0), timeStamp: 2017-03-05 11:23:24.973
LEye coords (206.0, 343.0), REye coords (210.0, 347.0), timeStamp: 2017-03-05 11:23:25.007
LEye coords (206.0, 343.0), REye coords (211.0, 345.0), timeStamp: 2017-03-05 11:23:25.041
LEye coords (206.0, 343.0), REye coords (212.0, 344.0), timeStamp: 2017-03-05 11:23:25.075
LEye coords (206.0, 337.0), REye coords (214.0, 347.0), timeStamp: 2017-03-05 11:23:25.119
LEye coords (206.0, 340.0), REye coords (212.0, 346.0), timeStamp: 2017-03-05 11:23:25.153
LEye coords (206.0, 340.0), REye coords (212.0, 346.0), timeStamp: 2017-03-05 11:23:25.195
LEye coords (205.0, 340.0), REye coords (211.0, 345.0), timeStamp: 2017-03-05 11:23:25.229
LEye coords (203.0, 336.0), REye coords (209.0, 342.0), timeStamp: 2017-03-05 11:23:25.263
LEye coords (200.0, 334.0), REye coords (207.0, 339.0), timeStamp: 2017-03-05 11:23:25.307
LEye coords (199.0, 332.0), REye coords (205.0, 336.0), timeStamp: 2017-03-05 11:23:25.341
LEye coords (198.0, 332.0), REye coords (204.0, 333.0), timeStamp: 2017-03-05 11:23:25.375
LEye coords (197.0, 330.0), REye coords (203.0, 331.0), timeStamp: 2017-03-05 11:23:25.418
LEye coords (197.0, 328.0), REye coords (202.0, 330.0), timeStamp: 2017-03-05 11:23:25.451
LEye coords (195.0, 326.0), REye coords (200.0, 328.0), timeStamp: 2017-03-05 11:23:25.486
LEye coords (194.0, 325.0), REye coords (198.0, 326.0), timeStamp: 2017-03-05 11:23:25.530
LEye coords (193.0, 324.0), REye coords (197.0, 325.0), timeStamp: 2017-03-05 11:23:25.563
LEye coords (192.0, 323.0), REye coords (196.0, 324.0), timeStamp: 2017-03-05 11:23:25.596
LEye coords (191.0, 321.0), REye coords (194.0, 323.0), timeStamp: 2017-03-05 11:23:25.640
LEye coords (190.0, 320.0), REye coords (193.0, 322.0), timeStamp: 2017-03-05 11:23:25.674
LEye coords (190.0, 319.0), REye coords (192.0, 322.0), timeStamp: 2017-03-05 11:23:25.707
