LEye coords (421.0, 257.0), REye coords (420.0, 254.0), timeStamp: 2017-03-05 11:23:22.900
LEye coords (421.0, 257.0), REye coords (420.0, 255.0), timeStamp: 2017-03-05 11:23:22.933
LEye coords (422.0, 258.0), REye coords (421.0, 255.0), timeStamp: 2017-03-05 11:23:22.966
LEye coords (423.0, 258.0), REye coords (422.0, 256.0), timeStamp: 2017-03-05 11:23:23.011
LEye coords (423.0, 258.0), REye coords (423.0, 256.0), timeStamp: 2017-03-05 11:23:23.045
LEye coords (421.0, 258.0), REye coords (422.0, 256.0), timeStamp: 2017-03-05 11:23:23.079
LEye coords (255.0, 243.0), REye coords (268.0, 249.0), timeStamp: 2017-03-05 11:23:23.123
LEye coords (262.0, 249.0), REye coords (267.0, 239.0), timeStamp: 2017-03-05 11:23:23.157
LEye coords (259.0, 250.0), REye coords (271.0, 240.0), timeStamp: 2017-03-05 11:23:23.191
LEye coords (259.0, 250.0), REye coords (270.0, 241.0), timeStamp: 2017-03-05 11:23:23.225
LEye coords (258.0, 250.0), REye coords (0.0, 0.0), timeStamp: 2017-03-05 11:23:23.270
LEye coords (257.0, 251.0), REye coords (0.0, 0.0), timeStamp: 2017-03-05 11:23:23.305
LEye coords (264.0, 248.0), REye coords (271.0, 241.0), timeStamp: 2017-03-05 11:23:23.339
LEye coords (261.0, 249.0), REye coords (270.0, 250.0), timeStamp: 2017-03-05 11:23:23.382
LEye coords (260.0, 249.0), REye coords (269.0, 252.0), timeStamp: 2017-03-05 11:23:23.416
LEye coords (259.0, 250.0), REye coords (269.0, 250.0), timeStamp: 2017-03-05 11:23:23.450
LEye coords (259.0, 250.0), REye coords (269.0, 251.0), timeStamp: 2017-03-05 11:23:23.485
LEye coords (259.0, 250.0), REye coords (269.0, 250.0), timeStamp: 2017-03-05 11:23:23.529
LEye coords (259.0, 249.0), REye coords (270.0, 250.0), timeStamp: 2017-03-05 11:23:23.563
LEye coords (286.0, 158.0), REye coords (308.0, 145.0), timeStamp: 2017-03-05 11:23:23.597
LEye coords (316.0, 88.0), REye coords (330.0, 88.0), timeStamp: 2017-03-05 11:23:23.641
LEye coords (317.0, 90.0), REye coords (330.0, 86.0), timeStamp: 2017-03-05 11:23:23.675
LEye coords (317.0, 91.0), REye coords (331.0, 86.0), timeStamp: 2017-03-05 11:23:23.708
LEye coords (318.0, 90.0), REye coords (332.0, 86.0), timeStamp: 2017-03-05 11:23:23.752
LEye coords (322.0, 90.0), REye coords (335.0, 81.0), timeStamp: 2017-03-05 11:23:23.786
LEye coords (321.0, 95.0), REye coords (337.0, 88.0), timeStamp: 2017-03-05 11:23:23.820
LEye coords (319.0, 93.0), REye coords (333.0, 89.0), timeStamp: 2017-03-05 11:23:23.854
LEye coords (321.0, 91.0), REye coords (334.0, 88.0), timeStamp: 2017-03-05 11:23:23.898
LEye coords (331.0, 89.0), REye coords (0.0, 0.0), timeStamp: 2017-03-05 11:23:23.932
LEye coords (337.0, 89.0), REye coords (0.0, 0.0), timeStamp: 2017-03-05 11:23:23.966
LEye coords (340.0, 88.0), REye coords (0.0, 0.0), timeStamp: 2017-03-05 11:23:24.008
LEye coords (343.0, 88.0), REye coords (0.0, 0.0), timeStamp: 2017-03-05 11:23:24.043
LEye coords (345.0, 88.0), REye coords (0.0, 0.0), timeStamp: 2017-03-05 11:23:24.077
LEye coords (347.0, 88.0), REye coords (0.0, 0.0), timeStamp: 2017-03-05 11:23:24.122
LEye coords (349.0, 87.0), REye coords (343.0, 87.0), timeStamp: 2017-03-05 11:23:24.156
LEye coords (350.0, 87.0), REye coords (348.0, 87.0), timeStamp: 2017-03-05 11:23:24.190
LEye coords (351.0, 88.0), REye coords (351.0, 87.0), timeStamp: 2017-03-05 11:23:24.233
LEye coords (353.0, 88.0), REye coords (353.0, 87.0), timeStamp: 2017-03-05 11:23:24.267
LEye coords (356.0, 87.0), REye coords (358.0, 86.0), timeStamp: 2017-03-05 11:23:24.302
LEye coords (358.0, 86.0), REye coords (361.0, 86.0), timeStamp: 2017-03-05 11:23:24.335
LEye coords (361.0, 85.0), REye coords (364.0, 86.0), timeStamp: 2017-03-05 11:23:24.378
LEye coords (363.0, 85.0), REye coords (367.0, 85.0), timeStamp: 2017-03-05 11:23:24.412
LEye coords (387.0, 79.0), REye coords (369.0, 85.0), timeStamp: 2017-03-05 11:23:24.446
LEye coords (385.0, 82.0), REye coords (371.0, 85.0), timeStamp: 2017-03-05 11:23:24.492
LEye coords (385.0, 81.0), REye coords (372.0, 85.0), timeStamp: 2017-03-05 11:23:24.526
