LEye coords (188.0, 316.0), REye coords (189.0, 321.0), timeStamp: 2017-03-05 11:23:25.819
LEye coords (251.0, 237.0), REye coords (251.0, 241.0), timeStamp: 2017-03-05 11:23:25.853
LEye coords (250.0, 236.0), REye coords (251.0, 240.0), timeStamp: 2017-03-05 11:23:25.898
LEye coords (249.0, 235.0), REye coords (249.0, 239.0), timeStamp: 2017-03-05 11:23:25.931
LEye coords (248.0, 235.0), REye coords (248.0, 239.0), timeStamp: 2017-03-05 11:23:25.965
LEye coords (248.0, 234.0), REye coords (247.0, 238.0), timeStamp: 2017-03-05 11:23:26.009
LEye coords (247.0, 233.0), REye coords (246.0, 238.0), timeStamp: 2017-03-05 11:23:26.042
LEye coords (247.0, 233.0), REye coords (245.0, 238.0), timeStamp: 2017-03-05 11:23:26.077
LEye coords (247.0, 233.0), REye coords (245.0, 238.0), timeStamp: 2017-03-05 11:23:26.121
LEye coords (246.0, 232.0), REye coords (244.0, 238.0), timeStamp: 2017-03-05 11:23:26.155
LEye coords (246.0, 232.0), REye coords (244.0, 238.0), timeStamp: 2017-03-05 11:23:26.189
LEye coords (246.0, 232.0), REye coords (244.0, 239.0), timeStamp: 2017-03-05 11:23:26.223
LEye coords (246.0, 232.0), REye coords (244.0, 239.0), timeStamp: 2017-03-05 11:23:26.267
LEye coords (364.0, 226.0), REye coords (371.0, 233.0), timeStamp: 2017-03-05 11:23:26.302
LEye coords (361.0, 221.0), REye coords (371.0, 233.0), timeStamp: 2017-03-05 11:23:26.336
LEye coords (359.0, 221.0), REye coords (370.0, 233.0), timeStamp: 2017-03-05 11:23:26.379
LEye coords (359.0, 221.0), REye coords (371.0, 234.0), timeStamp: 2017-03-05 11:23:26.413
LEye coords (358.0, 222.0), REye coords (371.0, 233.0), timeStamp: 2017-03-05 11:23:26.445
LEye coords (360.0, 222.0), REye coords (372.0, 229.0), timeStamp: 2017-03-05 11:23:26.490
LEye coords (360.0, 224.0), REye coords (371.0, 229.0), timeStamp: 2017-03-05 11:23:26.523
LEye coords (361.0, 225.0), REye coords (370.0, 228.0), timeStamp: 2017-03-05 11:23:26.557
LEye coords (361.0, 224.0), REye coords (371.0, 227.0), timeStamp: 2017-03-05 11:23:26.601
LEye coords (362.0, 223.0), REye coords (371.0, 227.0), timeStamp: 2017-03-05 11:23:26.634
LEye coords (362.0, 223.0), REye coords (371.0, 227.0), timeStamp: 2017-03-05 11:23:26.668
LEye coords (362.0, 222.0), REye coords (371.0, 227.0), timeStamp: 2017-03-05 11:23:26.712
LEye coords (361.0, 228.0), REye coords (369.0, 233.0), timeStamp: 2017-03-05 11:23:26.746
LEye coords (360.0, 233.0), REye coords (367.0, 238.0), timeStamp: 2017-03-05 11:23:26.780
