LEye coords (358.0, 242.0), REye coords (363.0, 245.0), timeStamp: 2017-03-05 11:23:26.893
LEye coords (357.0, 244.0), REye coords (362.0, 248.0), timeStamp: 2017-03-05 11:23:26.926
LEye coords (357.0, 247.0), REye coords (361.0, 250.0), timeStamp: 2017-03-05 11:23:26.970
LEye coords (356.0, 248.0), REye coords (361.0, 251.0), timeStamp: 2017-03-05 11:23:27.003
LEye coords (356.0, 250.0), REye coords (360.0, 252.0), timeStamp: 2017-03-05 11:23:27.037
LEye coords (356.0, 251.0), REye coords (359.0, 253.0), timeStamp: 2017-03-05 11:23:27.081
LEye coords (355.0, 252.0), REye coords (359.0, 254.0), timeStamp: 2017-03-05 11:23:27.116
LEye coords (355.0, 254.0), REye coords (358.0, 256.0), timeStamp: 2017-03-05 11:23:27.148
LEye coords (355.0, 255.0), REye coords (358.0, 257.0), timeStamp: 2017-03-05 11:23:27.192
LEye coords (353.0, 255.0), REye coords (356.0, 257.0), timeStamp: 2017-03-05 11:23:27.226
LEye coords (264.0, 231.0), REye coords (276.0, 226.0), timeStamp: 2017-03-05 11:23:27.261
LEye coords (263.0, 233.0), REye coords (277.0, 233.0), timeStamp: 2017-03-05 11:23:27.304
LEye coords (265.0, 233.0), REye coords (275.0, 235.0), timeStamp: 2017-03-05 11:23:27.338
LEye coords (265.0, 233.0), REye coords (274.0, 234.0), timeStamp: 2017-03-05 11:23:27.373
LEye coords (263.0, 232.0), REye coords (271.0, 232.0), timeStamp: 2017-03-05 11:23:27.417
LEye coords (204.0, 216.0), REye coords (213.0, 200.0), timeStamp: 2017-03-05 11:23:27.451
LEye coords (203.0, 216.0), REye coords (210.0, 197.0), timeStamp: 2017-03-05 11:23:27.484
LEye coords (202.0, 215.0), REye coords (210.0, 198.0), timeStamp: 2017-03-05 11:23:27.527
LEye coords (203.0, 214.0), REye coords (210.0, 200.0), timeStamp: 2017-03-05 11:23:27.560
LEye coords (204.0, 214.0), REye coords (209.0, 201.0), timeStamp: 2017-03-05 11:23:27.593
LEye coords (206.0, 214.0), REye coords (212.0, 202.0), timeStamp: 2017-03-05 11:23:27.637
LEye coords (205.0, 216.0), REye coords (212.0, 201.0), timeStamp: 2017-03-05 11:23:27.670
LEye coords (201.0, 216.0), REye coords (207.0, 202.0), timeStamp: 2017-03-05 11:23:27.703
LEye coords (192.0, 213.0), REye coords (195.0, 202.0), timeStamp: 2017-03-05 11:23:27.747
LEye coords (187.0, 212.0), REye coords (189.0, 201.0), timeStamp: 2017-03-05 11:23:27.779
LEye coords (185.0, 212.0), REye coords (186.0, 202.0), timeStamp: 2017-03-05 11:23:27.814
LEye coords (182.0, 212.0), REye coords (184.0, 202.0), timeStamp: 2017-03-05 11:23:27.858
LEye coords (180.0, 212.0), REye coords (183.0, 203.0), timeStamp: 2017-03-05 11:23:27.891
LEye coords (179.0, 212.0), REye coords (181.0, 203.0), timeStamp: 2017-03-05 11:23:27.937
LEye coords (177.0, 212.0), REye coords (181.0, 203.0), timeStamp: 2017-03-05 11:23:27.970
LEye coords (321.0, 206.0), REye coords (339.0, 201.0), timeStamp: 2017-03-05 11:23:28.005
LEye coords (430.0, 200.0), REye coords (432.0, 197.0), timeStamp: 2017-03-05 11:23:28.040
LEye coords (431.0, 200.0), REye coords (432.0, 197.0), timeStamp: 2017-03-05 11:23:28.073
LEye coords (430.0, 200.0), REye coords (432.0, 199.0), timeStamp: 2017-03-05 11:23:28.117
LEye coords (430.0, 199.0), REye coords (431.0, 200.0), timeStamp: 2017-03-05 11:23:28.150
LEye coords (429.0, 200.0), REye coords (0.0, 0.0), timeStamp: 2017-03-05 11:23:28.194
LEye coords (430.0, 205.0), REye coords (428.0, 202.0), timeStamp: 2017-03-05 11:23:28.227
LEye coords (415.0, 208.0), REye coords (409.0, 198.0), timeStamp: 2017-03-05 11:23:28.260
LEye coords (410.0, 207.0), REye coords (408.0, 201.0), timeStamp: 2017-03-05 11:23:28.304
LEye coords (409.0, 206.0), REye coords (408.0, 201.0), timeStamp: 2017-03-05 11:23:28.336
LEye coords (407.0, 207.0), REye coords (407.0, 201.0), timeStamp: 2017-03-05 11:23:28.371
LEye coords (406.0, 207.0), REye coords (406.0, 201.0), timeStamp: 2017-03-05 11:23:28.416
LEye coords (405.0, 207.0), REye coords (406.0, 201.0), timeStamp: 2017-03-05 11:23:28.449
LEye coords (404.0, 207.0), REye coords (406.0, 201.0), timeStamp: 2017-03-05 11:23:28.482
LEye coords (404.0, 207.0), REye coords (406.0, 201.0), timeStamp: 2017-03-05 11:23:28.527
LEye coords (403.0, 207.0), REye coords (405.0, 201.0), timeStamp: 2017-03-05 11:23:28.561
LEye coords (403.0, 207.0), REye coords (405.0, 201.0), timeStamp: 2017-03-05 11:23:28.595
LEye coords (403.0, 207.0), REye coords (405.0, 201.0), timeStamp: 2017-03-05 11:23:28.638
LEye coords (403.0, 207.0), REye coords (404.0, 201.0), timeStamp: 2017-03-05 11:23:28.673
LEye coords (403.0, 208.0), REye coords (404.0, 201.0), timeStamp: 2017-03-05 11:23:28.707
