LEye coords (244.0, 227.0), REye coords (249.0, 226.0), timeStamp: 2017-03-05 11:23:29.931
LEye coords (243.0, 227.0), REye coords (248.0, 226.0), timeStamp: 2017-03-05 11:23:29.965
LEye coords (243.0, 226.0), REye coords (248.0, 225.0), timeStamp: 2017-03-05 11:23:29.999
LEye coords (242.0, 226.0), REye coords (247.0, 224.0), timeStamp: 2017-03-05 11:23:30.044
LEye coords (242.0, 225.0), REye coords (246.0, 224.0), timeStamp: 2017-03-05 11:23:30.077
LEye coords (241.0, 224.0), REye coords (246.0, 223.0), timeStamp: 2017-03-05 11:23:30.111
LEye coords (241.0, 224.0), REye coords (245.0, 222.0), timeStamp: 2017-03-05 11:23:30.155
LEye coords (240.0, 223.0), REye coords (245.0, 221.0), timeStamp: 2017-03-05 11:23:30.189
LEye coords (240.0, 223.0), REye coords (244.0, 221.0), timeStamp: 2017-03-05 11:23:30.222
LEye coords (239.0, 222.0), REye coords (244.0, 221.0), timeStamp: 2017-03-05 11:23:30.266
LEye coords (239.0, 222.0), REye coords (243.0, 220.0), timeStamp: 2017-03-05 11:23:30.299
LEye coords (238.0, 220.0), REye coords (242.0, 218.0), timeStamp: 2017-03-05 11:23:30.333
LEye coords (209.0, 176.0), REye coords (226.0, 147.0), timeStamp: 2017-03-05 11:23:30.377
LEye coords (206.0, 179.0), REye coords (223.0, 151.0), timeStamp: 2017-03-05 11:23:30.411
LEye coords (208.0, 178.0), REye coords (222.0, 150.0), timeStamp: 2017-03-05 11:23:30.445
LEye coords (209.0, 178.0), REye coords (222.0, 150.0), timeStamp: 2017-03-05 11:23:30.489
LEye coords (208.0, 177.0), REye coords (221.0, 150.0), timeStamp: 2017-03-05 11:23:30.522
LEye coords (208.0, 175.0), REye coords (222.0, 144.0), timeStamp: 2017-03-05 11:23:30.556
LEye coords (209.0, 175.0), REye coords (220.0, 148.0), timeStamp: 2017-03-05 11:23:30.590
LEye coords (220.0, 171.0), REye coords (230.0, 146.0), timeStamp: 2017-03-05 11:23:30.634
LEye coords (224.0, 171.0), REye coords (235.0, 146.0), timeStamp: 2017-03-05 11:23:30.667
LEye coords (226.0, 170.0), REye coords (236.0, 146.0), timeStamp: 2017-03-05 11:23:30.701
LEye coords (228.0, 168.0), REye coords (237.0, 145.0), timeStamp: 2017-03-05 11:23:30.745
LEye coords (229.0, 168.0), REye coords (238.0, 143.0), timeStamp: 2017-03-05 11:23:30.778
LEye coords (229.0, 168.0), REye coords (238.0, 143.0), timeStamp: 2017-03-05 11:23:30.813
LEye coords (230.0, 167.0), REye coords (239.0, 143.0), timeStamp: 2017-03-05 11:23:30.857
