LEye coords (257.0, 247.0), REye coords (256.0, 263.0), timeStamp: 2017-03-05 11:24:15.228
LEye coords (257.0, 247.0), REye coords (256.0, 263.0), timeStamp: 2017-03-05 11:24:15.272
LEye coords (257.0, 248.0), REye coords (256.0, 264.0), timeStamp: 2017-03-05 11:24:15.307
LEye coords (257.0, 248.0), REye coords (256.0, 264.0), timeStamp: 2017-03-05 11:24:15.340
LEye coords (257.0, 248.0), REye coords (256.0, 265.0), timeStamp: 2017-03-05 11:24:15.373
LEye coords (257.0, 248.0), REye coords (256.0, 265.0), timeStamp: 2017-03-05 11:24:15.417
LEye coords (257.0, 248.0), REye coords (256.0, 265.0), timeStamp: 2017-03-05 11:24:15.451
LEye coords (257.0, 248.0), REye coords (256.0, 266.0), timeStamp: 2017-03-05 11:24:15.484
LEye coords (257.0, 248.0), REye coords (256.0, 266.0), timeStamp: 2017-03-05 11:24:15.528
LEye coords (230.0, 162.0), REye coords (234.0, 155.0), timeStamp: 2017-03-05 11:24:15.561
LEye coords (231.0, 158.0), REye coords (229.0, 149.0), timeStamp: 2017-03-05 11:24:15.605
LEye coords (230.0, 158.0), REye coords (229.0, 147.0), timeStamp: 2017-03-05 11:24:15.639
LEye coords (230.0, 159.0), REye coords (231.0, 145.0), timeStamp: 2017-03-05 11:24:15.673
LEye coords (230.0, 159.0), REye coords (230.0, 146.0), timeStamp: 2017-03-05 11:24:15.716
LEye coords (229.0, 161.0), REye coords (231.0, 150.0), timeStamp: 2017-03-05 11:24:15.750
LEye coords (230.0, 162.0), REye coords (232.0, 149.0), timeStamp: 2017-03-05 11:24:15.784
LEye coords (245.0, 173.0), REye coords (245.0, 164.0), timeStamp: 2017-03-05 11:24:15.818
LEye coords (255.0, 182.0), REye coords (256.0, 175.0), timeStamp: 2017-03-05 11:24:15.860
LEye coords (261.0, 188.0), REye coords (262.0, 180.0), timeStamp: 2017-03-05 11:24:15.894
LEye coords (266.0, 191.0), REye coords (265.0, 184.0), timeStamp: 2017-03-05 11:24:15.937
LEye coords (268.0, 193.0), REye coords (279.0, 199.0), timeStamp: 2017-03-05 11:24:15.971
LEye coords (281.0, 204.0), REye coords (283.0, 193.0), timeStamp: 2017-03-05 11:24:16.005
LEye coords (279.0, 203.0), REye coords (284.0, 195.0), timeStamp: 2017-03-05 11:24:16.040
LEye coords (292.0, 217.0), REye coords (290.0, 208.0), timeStamp: 2017-03-05 11:24:16.084
LEye coords (296.0, 224.0), REye coords (294.0, 214.0), timeStamp: 2017-03-05 11:24:16.118
LEye coords (298.0, 226.0), REye coords (296.0, 218.0), timeStamp: 2017-03-05 11:24:16.151
LEye coords (298.0, 228.0), REye coords (297.0, 222.0), timeStamp: 2017-03-05 11:24:16.195
