LEye coords (205.0, 262.0), REye coords (208.0, 285.0), timeStamp: 2017-03-05 11:24:31.553
LEye coords (205.0, 262.0), REye coords (208.0, 285.0), timeStamp: 2017-03-05 11:24:31.586
LEye coords (205.0, 262.0), REye coords (208.0, 285.0), timeStamp: 2017-03-05 11:24:31.631
LEye coords (205.0, 262.0), REye coords (208.0, 286.0), timeStamp: 2017-03-05 11:24:31.665
LEye coords (205.0, 262.0), REye coords (208.0, 286.0), timeStamp: 2017-03-05 11:24:31.698
LEye coords (206.0, 262.0), REye coords (207.0, 286.0), timeStamp: 2017-03-05 11:24:31.732
LEye coords (206.0, 262.0), REye coords (207.0, 287.0), timeStamp: 2017-03-05 11:24:31.776
LEye coords (207.0, 261.0), REye coords (208.0, 286.0), timeStamp: 2017-03-05 11:24:31.809
LEye coords (208.0, 260.0), REye coords (210.0, 285.0), timeStamp: 2017-03-05 11:24:31.843
LEye coords (209.0, 259.0), REye coords (210.0, 285.0), timeStamp: 2017-03-05 11:24:31.888
LEye coords (210.0, 258.0), REye coords (212.0, 284.0), timeStamp: 2017-03-05 11:24:31.922
LEye coords (212.0, 258.0), REye coords (213.0, 283.0), timeStamp: 2017-03-05 11:24:31.955
LEye coords (213.0, 257.0), REye coords (215.0, 282.0), timeStamp: 2017-03-05 11:24:32.001
LEye coords (214.0, 257.0), REye coords (217.0, 282.0), timeStamp: 2017-03-05 11:24:32.036
LEye coords (216.0, 256.0), REye coords (218.0, 281.0), timeStamp: 2017-03-05 11:24:32.069
LEye coords (217.0, 256.0), REye coords (219.0, 281.0), timeStamp: 2017-03-05 11:24:32.103
LEye coords (218.0, 255.0), REye coords (221.0, 280.0), timeStamp: 2017-03-05 11:24:32.147
LEye coords (220.0, 255.0), REye coords (223.0, 279.0), timeStamp: 2017-03-05 11:24:32.181
LEye coords (221.0, 254.0), REye coords (224.0, 278.0), timeStamp: 2017-03-05 11:24:32.215
LEye coords (222.0, 254.0), REye coords (226.0, 278.0), timeStamp: 2017-03-05 11:24:32.259
LEye coords (224.0, 254.0), REye coords (227.0, 277.0), timeStamp: 2017-03-05 11:24:32.293
LEye coords (264.0, 252.0), REye coords (263.0, 274.0), timeStamp: 2017-03-05 11:24:32.326
LEye coords (261.0, 252.0), REye coords (262.0, 273.0), timeStamp: 2017-03-05 11:24:32.369
LEye coords (261.0, 251.0), REye coords (263.0, 270.0), timeStamp: 2017-03-05 11:24:32.402
LEye coords (261.0, 250.0), REye coords (263.0, 272.0), timeStamp: 2017-03-05 11:24:32.436
LEye coords (262.0, 250.0), REye coords (263.0, 272.0), timeStamp: 2017-03-05 11:24:32.480
LEye coords (262.0, 251.0), REye coords (263.0, 272.0), timeStamp: 2017-03-05 11:24:32.514
LEye coords (262.0, 251.0), REye coords (263.0, 273.0), timeStamp: 2017-03-05 11:24:32.548
LEye coords (262.0, 251.0), REye coords (263.0, 274.0), timeStamp: 2017-03-05 11:24:32.593
LEye coords (263.0, 252.0), REye coords (263.0, 274.0), timeStamp: 2017-03-05 11:24:32.627
LEye coords (263.0, 252.0), REye coords (263.0, 275.0), timeStamp: 2017-03-05 11:24:32.661
LEye coords (263.0, 252.0), REye coords (264.0, 274.0), timeStamp: 2017-03-05 11:24:32.696
