LEye coords (248.0, 312.0), REye coords (242.0, 319.0), timeStamp: 2017-03-05 11:25:34.912
LEye coords (249.0, 278.0), REye coords (242.0, 284.0), timeStamp: 2017-03-05 11:25:34.957
LEye coords (249.0, 278.0), REye coords (242.0, 285.0), timeStamp: 2017-03-05 11:25:34.990
LEye coords (249.0, 279.0), REye coords (242.0, 286.0), timeStamp: 2017-03-05 11:25:35.025
LEye coords (249.0, 279.0), REye coords (242.0, 286.0), timeStamp: 2017-03-05 11:25:35.059
LEye coords (249.0, 279.0), REye coords (242.0, 287.0), timeStamp: 2017-03-05 11:25:35.102
LEye coords (249.0, 279.0), REye coords (242.0, 286.0), timeStamp: 2017-03-05 11:25:35.135
LEye coords (241.0, 207.0), REye coords (237.0, 218.0), timeStamp: 2017-03-05 11:25:35.179
LEye coords (239.0, 210.0), REye coords (235.0, 220.0), timeStamp: 2017-03-05 11:25:35.214
LEye coords (239.0, 208.0), REye coords (237.0, 220.0), timeStamp: 2017-03-05 11:25:35.247
LEye coords (240.0, 209.0), REye coords (236.0, 222.0), timeStamp: 2017-03-05 11:25:35.281
LEye coords (240.0, 210.0), REye coords (236.0, 222.0), timeStamp: 2017-03-05 11:25:35.324
LEye coords (243.0, 214.0), REye coords (241.0, 219.0), timeStamp: 2017-03-05 11:25:35.358
LEye coords (241.0, 215.0), REye coords (241.0, 222.0), timeStamp: 2017-03-05 11:25:35.391
LEye coords (248.0, 240.0), REye coords (251.0, 245.0), timeStamp: 2017-03-05 11:25:35.435
LEye coords (250.0, 250.0), REye coords (0.0, 0.0), timeStamp: 2017-03-05 11:25:35.468
LEye coords (252.0, 254.0), REye coords (0.0, 0.0), timeStamp: 2017-03-05 11:25:35.512
LEye coords (252.0, 257.0), REye coords (0.0, 0.0), timeStamp: 2017-03-05 11:25:35.545
LEye coords (252.0, 258.0), REye coords (0.0, 0.0), timeStamp: 2017-03-05 11:25:35.579
LEye coords (252.0, 260.0), REye coords (0.0, 0.0), timeStamp: 2017-03-05 11:25:35.622
LEye coords (252.0, 263.0), REye coords (252.0, 253.0), timeStamp: 2017-03-05 11:25:35.655
LEye coords (253.0, 267.0), REye coords (0.0, 0.0), timeStamp: 2017-03-05 11:25:35.689
LEye coords (255.0, 267.0), REye coords (253.0, 256.0), timeStamp: 2017-03-05 11:25:35.733
LEye coords (255.0, 267.0), REye coords (254.0, 258.0), timeStamp: 2017-03-05 11:25:35.766
LEye coords (255.0, 269.0), REye coords (254.0, 259.0), timeStamp: 2017-03-05 11:25:35.800
LEye coords (255.0, 269.0), REye coords (253.0, 261.0), timeStamp: 2017-03-05 11:25:35.845
