LEye coords (213.0, 165.0), REye coords (221.0, 162.0), timeStamp: 2017-03-05 11:26:22.288
LEye coords (216.0, 167.0), REye coords (220.0, 160.0), timeStamp: 2017-03-05 11:26:22.321
LEye coords (217.0, 166.0), REye coords (219.0, 162.0), timeStamp: 2017-03-05 11:26:22.365
LEye coords (219.0, 167.0), REye coords (219.0, 161.0), timeStamp: 2017-03-05 11:26:22.398
LEye coords (219.0, 168.0), REye coords (219.0, 162.0), timeStamp: 2017-03-05 11:26:22.431
LEye coords (222.0, 168.0), REye coords (219.0, 162.0), timeStamp: 2017-03-05 11:26:22.476
LEye coords (217.0, 169.0), REye coords (222.0, 163.0), timeStamp: 2017-03-05 11:26:22.510
LEye coords (218.0, 169.0), REye coords (220.0, 163.0), timeStamp: 2017-03-05 11:26:22.543
LEye coords (219.0, 170.0), REye coords (221.0, 163.0), timeStamp: 2017-03-05 11:26:22.588
LEye coords (219.0, 171.0), REye coords (221.0, 163.0), timeStamp: 2017-03-05 11:26:22.621
LEye coords (222.0, 172.0), REye coords (226.0, 164.0), timeStamp: 2017-03-05 11:26:22.656
LEye coords (351.0, 204.0), REye coords (356.0, 203.0), timeStamp: 2017-03-05 11:26:22.701
LEye coords (351.0, 205.0), REye coords (0.0, 0.0), timeStamp: 2017-03-05 11:26:22.735
LEye coords (350.0, 208.0), REye coords (355.0, 210.0), timeStamp: 2017-03-05 11:26:22.770
LEye coords (350.0, 207.0), REye coords (354.0, 210.0), timeStamp: 2017-03-05 11:26:22.803
LEye coords (352.0, 208.0), REye coords (355.0, 210.0), timeStamp: 2017-03-05 11:26:22.847
LEye coords (367.0, 207.0), REye coords (359.0, 210.0), timeStamp: 2017-03-05 11:26:22.881
LEye coords (404.0, 205.0), REye coords (394.0, 210.0), timeStamp: 2017-03-05 11:26:22.915
LEye coords (402.0, 207.0), REye coords (395.0, 207.0), timeStamp: 2017-03-05 11:26:22.959
LEye coords (400.0, 207.0), REye coords (396.0, 208.0), timeStamp: 2017-03-05 11:26:22.992
LEye coords (399.0, 208.0), REye coords (396.0, 208.0), timeStamp: 2017-03-05 11:26:23.025
LEye coords (402.0, 206.0), REye coords (396.0, 208.0), timeStamp: 2017-03-05 11:26:23.068
LEye coords (401.0, 205.0), REye coords (396.0, 207.0), timeStamp: 2017-03-05 11:26:23.102
LEye coords (305.0, 176.0), REye coords (318.0, 177.0), timeStamp: 2017-03-05 11:26:23.136
LEye coords (303.0, 182.0), REye coords (317.0, 182.0), timeStamp: 2017-03-05 11:26:23.180
LEye coords (304.0, 183.0), REye coords (318.0, 182.0), timeStamp: 2017-03-05 11:26:23.213
LEye coords (303.0, 184.0), REye coords (319.0, 181.0), timeStamp: 2017-03-05 11:26:23.247
LEye coords (303.0, 184.0), REye coords (319.0, 181.0), timeStamp: 2017-03-05 11:26:23.292
LEye coords (301.0, 183.0), REye coords (321.0, 180.0), timeStamp: 2017-03-05 11:26:23.325
LEye coords (301.0, 186.0), REye coords (320.0, 180.0), timeStamp: 2017-03-05 11:26:23.359
LEye coords (303.0, 186.0), REye coords (318.0, 181.0), timeStamp: 2017-03-05 11:26:23.403
LEye coords (307.0, 184.0), REye coords (322.0, 179.0), timeStamp: 2017-03-05 11:26:23.437
LEye coords (312.0, 184.0), REye coords (325.0, 181.0), timeStamp: 2017-03-05 11:26:23.471
LEye coords (315.0, 184.0), REye coords (327.0, 183.0), timeStamp: 2017-03-05 11:26:23.515
LEye coords (316.0, 184.0), REye coords (327.0, 185.0), timeStamp: 2017-03-05 11:26:23.549
LEye coords (317.0, 184.0), REye coords (329.0, 185.0), timeStamp: 2017-03-05 11:26:23.583
LEye coords (318.0, 184.0), REye coords (329.0, 186.0), timeStamp: 2017-03-05 11:26:23.616
LEye coords (319.0, 184.0), REye coords (330.0, 186.0), timeStamp: 2017-03-05 11:26:23.660
LEye coords (319.0, 184.0), REye coords (330.0, 186.0), timeStamp: 2017-03-05 11:26:23.694
LEye coords (320.0, 185.0), REye coords (331.0, 186.0), timeStamp: 2017-03-05 11:26:23.728
LEye coords (321.0, 185.0), REye coords (332.0, 185.0), timeStamp: 2017-03-05 11:26:23.773
LEye coords (321.0, 186.0), REye coords (333.0, 185.0), timeStamp: 2017-03-05 11:26:23.809
LEye coords (321.0, 186.0), REye coords (333.0, 185.0), timeStamp: 2017-03-05 11:26:23.842
LEye coords (322.0, 186.0), REye coords (334.0, 184.0), timeStamp: 2017-03-05 11:26:23.875
LEye coords (322.0, 186.0), REye coords (334.0, 184.0), timeStamp: 2017-03-05 11:26:23.920
LEye coords (323.0, 186.0), REye coords (334.0, 185.0), timeStamp: 2017-03-05 11:26:23.953
