LEye coords (183.0, 186.0), REye coords (178.0, 188.0), timeStamp: 2017-03-05 11:26:26.284
LEye coords (182.0, 186.0), REye coords (179.0, 189.0), timeStamp: 2017-03-05 11:26:26.328
LEye coords (181.0, 184.0), REye coords (183.0, 188.0), timeStamp: 2017-03-05 11:26:26.362
LEye coords (181.0, 187.0), REye coords (183.0, 185.0), timeStamp: 2017-03-05 11:26:26.395
LEye coords (182.0, 189.0), REye coords (182.0, 187.0), timeStamp: 2017-03-05 11:26:26.438
LEye coords (180.0, 188.0), REye coords (182.0, 190.0), timeStamp: 2017-03-05 11:26:26.473
LEye coords (180.0, 187.0), REye coords (182.0, 190.0), timeStamp: 2017-03-05 11:26:26.506
LEye coords (180.0, 187.0), REye coords (182.0, 191.0), timeStamp: 2017-03-05 11:26:26.540
LEye coords (179.0, 187.0), REye coords (182.0, 191.0), timeStamp: 2017-03-05 11:26:26.585
LEye coords (180.0, 187.0), REye coords (182.0, 191.0), timeStamp: 2017-03-05 11:26:26.619
LEye coords (179.0, 188.0), REye coords (182.0, 191.0), timeStamp: 2017-03-05 11:26:26.651
LEye coords (179.0, 188.0), REye coords (182.0, 191.0), timeStamp: 2017-03-05 11:26:26.695
LEye coords (179.0, 188.0), REye coords (182.0, 190.0), timeStamp: 2017-03-05 11:26:26.728
LEye coords (183.0, 186.0), REye coords (186.0, 189.0), timeStamp: 2017-03-05 11:26:26.771
LEye coords (186.0, 184.0), REye coords (189.0, 187.0), timeStamp: 2017-03-05 11:26:26.806
LEye coords (189.0, 183.0), REye coords (192.0, 185.0), timeStamp: 2017-03-05 11:26:26.839
LEye coords (192.0, 182.0), REye coords (195.0, 183.0), timeStamp: 2017-03-05 11:26:26.882
LEye coords (195.0, 181.0), REye coords (197.0, 182.0), timeStamp: 2017-03-05 11:26:26.916
LEye coords (197.0, 180.0), REye coords (199.0, 181.0), timeStamp: 2017-03-05 11:26:26.949
LEye coords (199.0, 179.0), REye coords (201.0, 181.0), timeStamp: 2017-03-05 11:26:26.993
LEye coords (200.0, 178.0), REye coords (202.0, 180.0), timeStamp: 2017-03-05 11:26:27.027
LEye coords (202.0, 177.0), REye coords (204.0, 179.0), timeStamp: 2017-03-05 11:26:27.061
LEye coords (203.0, 177.0), REye coords (205.0, 179.0), timeStamp: 2017-03-05 11:26:27.095
LEye coords (205.0, 176.0), REye coords (206.0, 179.0), timeStamp: 2017-03-05 11:26:27.138
LEye coords (206.0, 177.0), REye coords (207.0, 180.0), timeStamp: 2017-03-05 11:26:27.172
LEye coords (208.0, 177.0), REye coords (209.0, 180.0), timeStamp: 2017-03-05 11:26:27.217
LEye coords (210.0, 178.0), REye coords (210.0, 181.0), timeStamp: 2017-03-05 11:26:27.251
LEye coords (212.0, 178.0), REye coords (212.0, 181.0), timeStamp: 2017-03-05 11:26:27.285
