LEye coords (208.0, 251.0), REye coords (220.0, 262.0), timeStamp: 2017-03-05 11:26:28.693
LEye coords (208.0, 252.0), REye coords (220.0, 264.0), timeStamp: 2017-03-05 11:26:28.728
LEye coords (209.0, 251.0), REye coords (220.0, 265.0), timeStamp: 2017-03-05 11:26:28.761
LEye coords (209.0, 252.0), REye coords (220.0, 267.0), timeStamp: 2017-03-05 11:26:28.806
LEye coords (209.0, 252.0), REye coords (219.0, 268.0), timeStamp: 2017-03-05 11:26:28.839
LEye coords (0.0, 0.0), REye coords (221.0, 271.0), timeStamp: 2017-03-05 11:26:28.873
LEye coords (209.0, 253.0), REye coords (221.0, 273.0), timeStamp: 2017-03-05 11:26:28.916
LEye coords (209.0, 254.0), REye coords (221.0, 274.0), timeStamp: 2017-03-05 11:26:28.950
LEye coords (209.0, 255.0), REye coords (221.0, 275.0), timeStamp: 2017-03-05 11:26:28.984
LEye coords (0.0, 0.0), REye coords (221.0, 275.0), timeStamp: 2017-03-05 11:26:29.029
LEye coords (0.0, 0.0), REye coords (221.0, 275.0), timeStamp: 2017-03-05 11:26:29.063
LEye coords (0.0, 0.0), REye coords (221.0, 276.0), timeStamp: 2017-03-05 11:26:29.095
LEye coords (0.0, 0.0), REye coords (221.0, 276.0), timeStamp: 2017-03-05 11:26:29.138
LEye coords (0.0, 0.0), REye coords (221.0, 276.0), timeStamp: 2017-03-05 11:26:29.172
LEye coords (0.0, 0.0), REye coords (221.0, 276.0), timeStamp: 2017-03-05 11:26:29.206
LEye coords (221.0, 304.0), REye coords (223.0, 280.0), timeStamp: 2017-03-05 11:26:29.250
LEye coords (224.0, 293.0), REye coords (224.0, 284.0), timeStamp: 2017-03-05 11:26:29.284
LEye coords (226.0, 300.0), REye coords (225.0, 287.0), timeStamp: 2017-03-05 11:26:29.319
LEye coords (227.0, 303.0), REye coords (226.0, 290.0), timeStamp: 2017-03-05 11:26:29.353
LEye coords (226.0, 303.0), REye coords (227.0, 292.0), timeStamp: 2017-03-05 11:26:29.397
LEye coords (225.0, 304.0), REye coords (228.0, 295.0), timeStamp: 2017-03-05 11:26:29.432
LEye coords (225.0, 305.0), REye coords (228.0, 297.0), timeStamp: 2017-03-05 11:26:29.464
LEye coords (224.0, 308.0), REye coords (228.0, 300.0), timeStamp: 2017-03-05 11:26:29.509
LEye coords (224.0, 311.0), REye coords (227.0, 304.0), timeStamp: 2017-03-05 11:26:29.543
LEye coords (223.0, 313.0), REye coords (227.0, 307.0), timeStamp: 2017-03-05 11:26:29.576
LEye coords (217.0, 325.0), REye coords (227.0, 309.0), timeStamp: 2017-03-05 11:26:29.619
LEye coords (218.0, 327.0), REye coords (226.0, 311.0), timeStamp: 2017-03-05 11:26:29.654
LEye coords (217.0, 326.0), REye coords (226.0, 313.0), timeStamp: 2017-03-05 11:26:29.688
LEye coords (215.0, 326.0), REye coords (226.0, 316.0), timeStamp: 2017-03-05 11:26:29.731
LEye coords (216.0, 327.0), REye coords (226.0, 319.0), timeStamp: 2017-03-05 11:26:29.765
LEye coords (0.0, 0.0), REye coords (226.0, 321.0), timeStamp: 2017-03-05 11:26:29.799
LEye coords (216.0, 326.0), REye coords (225.0, 324.0), timeStamp: 2017-03-05 11:26:29.843
LEye coords (216.0, 325.0), REye coords (225.0, 326.0), timeStamp: 2017-03-05 11:26:29.877
LEye coords (216.0, 325.0), REye coords (225.0, 328.0), timeStamp: 2017-03-05 11:26:29.910
