LEye coords (158.0, 280.0), REye coords (0.0, 0.0), timeStamp: 2017-03-05 11:26:31.390
LEye coords (158.0, 253.0), REye coords (0.0, 0.0), timeStamp: 2017-03-05 11:26:31.435
LEye coords (158.0, 254.0), REye coords (0.0, 0.0), timeStamp: 2017-03-05 11:26:31.468
LEye coords (159.0, 255.0), REye coords (0.0, 0.0), timeStamp: 2017-03-05 11:26:31.501
LEye coords (159.0, 256.0), REye coords (0.0, 0.0), timeStamp: 2017-03-05 11:26:31.545
LEye coords (159.0, 257.0), REye coords (0.0, 0.0), timeStamp: 2017-03-05 11:26:31.579
LEye coords (159.0, 258.0), REye coords (0.0, 0.0), timeStamp: 2017-03-05 11:26:31.613
LEye coords (159.0, 258.0), REye coords (0.0, 0.0), timeStamp: 2017-03-05 11:26:31.657
LEye coords (159.0, 259.0), REye coords (0.0, 0.0), timeStamp: 2017-03-05 11:26:31.690
LEye coords (159.0, 260.0), REye coords (0.0, 0.0), timeStamp: 2017-03-05 11:26:31.723
LEye coords (159.0, 260.0), REye coords (0.0, 0.0), timeStamp: 2017-03-05 11:26:31.767
LEye coords (159.0, 261.0), REye coords (163.0, 269.0), timeStamp: 2017-03-05 11:26:31.801
LEye coords (305.0, 256.0), REye coords (306.0, 261.0), timeStamp: 2017-03-05 11:26:31.844
LEye coords (313.0, 261.0), REye coords (0.0, 0.0), timeStamp: 2017-03-05 11:26:31.877
LEye coords (313.0, 261.0), REye coords (321.0, 264.0), timeStamp: 2017-03-05 11:26:31.912
LEye coords (315.0, 261.0), REye coords (321.0, 263.0), timeStamp: 2017-03-05 11:26:31.945
LEye coords (315.0, 259.0), REye coords (320.0, 265.0), timeStamp: 2017-03-05 11:26:31.989
LEye coords (315.0, 262.0), REye coords (321.0, 266.0), timeStamp: 2017-03-05 11:26:32.024
LEye coords (319.0, 256.0), REye coords (325.0, 266.0), timeStamp: 2017-03-05 11:26:32.058
LEye coords (351.0, 256.0), REye coords (367.0, 262.0), timeStamp: 2017-03-05 11:26:32.102
LEye coords (361.0, 256.0), REye coords (368.0, 261.0), timeStamp: 2017-03-05 11:26:32.136
LEye coords (365.0, 257.0), REye coords (368.0, 262.0), timeStamp: 2017-03-05 11:26:32.170
LEye coords (375.0, 262.0), REye coords (368.0, 262.0), timeStamp: 2017-03-05 11:26:32.204
LEye coords (379.0, 262.0), REye coords (369.0, 262.0), timeStamp: 2017-03-05 11:26:32.247
LEye coords (379.0, 262.0), REye coords (371.0, 265.0), timeStamp: 2017-03-05 11:26:32.281
LEye coords (378.0, 263.0), REye coords (364.0, 263.0), timeStamp: 2017-03-05 11:26:32.315
LEye coords (377.0, 263.0), REye coords (364.0, 263.0), timeStamp: 2017-03-05 11:26:32.359
LEye coords (376.0, 264.0), REye coords (364.0, 262.0), timeStamp: 2017-03-05 11:26:32.393
LEye coords (376.0, 264.0), REye coords (364.0, 262.0), timeStamp: 2017-03-05 11:26:32.426
LEye coords (376.0, 265.0), REye coords (364.0, 262.0), timeStamp: 2017-03-05 11:26:32.471
LEye coords (375.0, 264.0), REye coords (364.0, 262.0), timeStamp: 2017-03-05 11:26:32.504
