LEye coords (208.0, 325.0), REye coords (208.0, 327.0), timeStamp: 2017-03-05 11:27:43.231
LEye coords (208.0, 323.0), REye coords (209.0, 328.0), timeStamp: 2017-03-05 11:27:43.265
LEye coords (208.0, 324.0), REye coords (209.0, 327.0), timeStamp: 2017-03-05 11:27:43.308
LEye coords (208.0, 325.0), REye coords (210.0, 327.0), timeStamp: 2017-03-05 11:27:43.342
LEye coords (208.0, 325.0), REye coords (210.0, 327.0), timeStamp: 2017-03-05 11:27:43.375
LEye coords (208.0, 325.0), REye coords (210.0, 326.0), timeStamp: 2017-03-05 11:27:43.419
LEye coords (208.0, 324.0), REye coords (210.0, 326.0), timeStamp: 2017-03-05 11:27:43.454
LEye coords (208.0, 324.0), REye coords (209.0, 326.0), timeStamp: 2017-03-05 11:27:43.488
LEye coords (208.0, 324.0), REye coords (209.0, 325.0), timeStamp: 2017-03-05 11:27:43.532
LEye coords (208.0, 323.0), REye coords (209.0, 324.0), timeStamp: 2017-03-05 11:27:43.565
LEye coords (208.0, 322.0), REye coords (209.0, 324.0), timeStamp: 2017-03-05 11:27:43.599
LEye coords (208.0, 322.0), REye coords (209.0, 324.0), timeStamp: 2017-03-05 11:27:43.643
LEye coords (249.0, 298.0), REye coords (262.0, 298.0), timeStamp: 2017-03-05 11:27:43.677
LEye coords (254.0, 292.0), REye coords (263.0, 292.0), timeStamp: 2017-03-05 11:27:43.711
LEye coords (254.0, 292.0), REye coords (264.0, 292.0), timeStamp: 2017-03-05 11:27:43.755
LEye coords (253.0, 293.0), REye coords (265.0, 293.0), timeStamp: 2017-03-05 11:27:43.788
LEye coords (254.0, 294.0), REye coords (265.0, 294.0), timeStamp: 2017-03-05 11:27:43.822
LEye coords (257.0, 292.0), REye coords (268.0, 298.0), timeStamp: 2017-03-05 11:27:43.866
LEye coords (322.0, 308.0), REye coords (320.0, 307.0), timeStamp: 2017-03-05 11:27:43.900
LEye coords (319.0, 307.0), REye coords (319.0, 307.0), timeStamp: 2017-03-05 11:27:43.934
LEye coords (319.0, 305.0), REye coords (320.0, 307.0), timeStamp: 2017-03-05 11:27:43.968
LEye coords (319.0, 305.0), REye coords (322.0, 306.0), timeStamp: 2017-03-05 11:27:44.012
LEye coords (317.0, 300.0), REye coords (326.0, 303.0), timeStamp: 2017-03-05 11:27:44.045
LEye coords (318.0, 289.0), REye coords (327.0, 292.0), timeStamp: 2017-03-05 11:27:44.078
LEye coords (319.0, 292.0), REye coords (324.0, 294.0), timeStamp: 2017-03-05 11:27:44.122
LEye coords (319.0, 292.0), REye coords (324.0, 295.0), timeStamp: 2017-03-05 11:27:44.156
LEye coords (318.0, 292.0), REye coords (322.0, 297.0), timeStamp: 2017-03-05 11:27:44.189
LEye coords (318.0, 292.0), REye coords (322.0, 298.0), timeStamp: 2017-03-05 11:27:44.234
LEye coords (318.0, 292.0), REye coords (322.0, 298.0), timeStamp: 2017-03-05 11:27:44.266
LEye coords (319.0, 292.0), REye coords (323.0, 299.0), timeStamp: 2017-03-05 11:27:44.300
LEye coords (319.0, 292.0), REye coords (323.0, 299.0), timeStamp: 2017-03-05 11:27:44.344
LEye coords (319.0, 292.0), REye coords (323.0, 299.0), timeStamp: 2017-03-05 11:27:44.378
LEye coords (319.0, 292.0), REye coords (323.0, 299.0), timeStamp: 2017-03-05 11:27:44.411
