LEye coords (169.0, 379.0), REye coords (174.0, 385.0), timeStamp: 2017-03-05 11:26:40.049
LEye coords (169.0, 378.0), REye coords (175.0, 386.0), timeStamp: 2017-03-05 11:26:40.093
LEye coords (169.0, 377.0), REye coords (174.0, 387.0), timeStamp: 2017-03-05 11:26:40.204
LEye coords (169.0, 377.0), REye coords (175.0, 386.0), timeStamp: 2017-03-05 11:26:40.127
LEye coords (169.0, 377.0), REye coords (174.0, 387.0), timeStamp: 2017-03-05 11:26:40.238
LEye coords (169.0, 377.0), REye coords (175.0, 386.0), timeStamp: 2017-03-05 11:26:40.160
LEye coords (148.0, 213.0), REye coords (151.0, 203.0), timeStamp: 2017-03-05 11:27:41.786
LEye coords (149.0, 213.0), REye coords (151.0, 206.0), timeStamp: 2017-03-05 11:27:41.830
LEye coords (149.0, 211.0), REye coords (152.0, 207.0), timeStamp: 2017-03-05 11:27:41.863
LEye coords (149.0, 211.0), REye coords (153.0, 207.0), timeStamp: 2017-03-05 11:27:41.898
LEye coords (149.0, 212.0), REye coords (154.0, 207.0), timeStamp: 2017-03-05 11:27:41.932
LEye coords (149.0, 212.0), REye coords (154.0, 208.0), timeStamp: 2017-03-05 11:27:41.976
LEye coords (149.0, 211.0), REye coords (154.0, 209.0), timeStamp: 2017-03-05 11:27:42.009
LEye coords (149.0, 211.0), REye coords (154.0, 210.0), timeStamp: 2017-03-05 11:27:42.043
LEye coords (149.0, 212.0), REye coords (154.0, 210.0), timeStamp: 2017-03-05 11:27:42.089
LEye coords (195.0, 398.0), REye coords (203.0, 401.0), timeStamp: 2017-03-05 11:27:42.123
LEye coords (192.0, 416.0), REye coords (202.0, 411.0), timeStamp: 2017-03-05 11:27:42.155
LEye coords (193.0, 413.0), REye coords (203.0, 408.0), timeStamp: 2017-03-05 11:27:42.199
LEye coords (193.0, 413.0), REye coords (203.0, 408.0), timeStamp: 2017-03-05 11:27:42.231
LEye coords (193.0, 413.0), REye coords (202.0, 409.0), timeStamp: 2017-03-05 11:27:42.265
LEye coords (195.0, 412.0), REye coords (201.0, 417.0), timeStamp: 2017-03-05 11:27:42.308
LEye coords (195.0, 415.0), REye coords (201.0, 423.0), timeStamp: 2017-03-05 11:27:42.342
LEye coords (194.0, 415.0), REye coords (201.0, 424.0), timeStamp: 2017-03-05 11:27:42.376
LEye coords (190.0, 419.0), REye coords (196.0, 426.0), timeStamp: 2017-03-05 11:27:42.419
LEye coords (185.0, 425.0), REye coords (192.0, 427.0), timeStamp: 2017-03-05 11:27:42.452
LEye coords (182.0, 430.0), REye coords (189.0, 428.0), timeStamp: 2017-03-05 11:27:42.496
LEye coords (181.0, 433.0), REye coords (187.0, 431.0), timeStamp: 2017-03-05 11:27:42.529
LEye coords (179.0, 435.0), REye coords (185.0, 431.0), timeStamp: 2017-03-05 11:27:42.562
LEye coords (178.0, 437.0), REye coords (184.0, 431.0), timeStamp: 2017-03-05 11:27:42.607
LEye coords (177.0, 438.0), REye coords (183.0, 432.0), timeStamp: 2017-03-05 11:27:42.640
LEye coords (176.0, 439.0), REye coords (182.0, 433.0), timeStamp: 2017-03-05 11:27:42.673
LEye coords (176.0, 440.0), REye coords (181.0, 434.0), timeStamp: 2017-03-05 11:27:42.717
LEye coords (174.0, 440.0), REye coords (179.0, 434.0), timeStamp: 2017-03-05 11:27:42.752
LEye coords (172.0, 441.0), REye coords (177.0, 434.0), timeStamp: 2017-03-05 11:27:42.786
LEye coords (170.0, 441.0), REye coords (175.0, 433.0), timeStamp: 2017-03-05 11:27:42.820
LEye coords (169.0, 441.0), REye coords (174.0, 433.0), timeStamp: 2017-03-05 11:27:42.865
LEye coords (168.0, 441.0), REye coords (172.0, 433.0), timeStamp: 2017-03-05 11:27:42.899
LEye coords (167.0, 442.0), REye coords (171.0, 432.0), timeStamp: 2017-03-05 11:27:42.931
LEye coords (166.0, 442.0), REye coords (170.0, 432.0), timeStamp: 2017-03-05 11:27:42.975
LEye coords (165.0, 441.0), REye coords (168.0, 431.0), timeStamp: 2017-03-05 11:27:43.010
LEye coords (164.0, 441.0), REye coords (158.0, 427.0), timeStamp: 2017-03-05 11:27:43.043
LEye coords (163.0, 441.0), REye coords (156.0, 429.0), timeStamp: 2017-03-05 11:27:43.087
LEye coords (156.0, 437.0), REye coords (156.0, 431.0), timeStamp: 2017-03-05 11:27:43.121
