LEye coords (257.0, 348.0), REye coords (265.0, 332.0), timeStamp: 2017-03-05 11:27:52.602
LEye coords (259.0, 348.0), REye coords (267.0, 332.0), timeStamp: 2017-03-05 11:27:52.635
LEye coords (259.0, 347.0), REye coords (267.0, 331.0), timeStamp: 2017-03-05 11:27:52.669
LEye coords (259.0, 347.0), REye coords (267.0, 331.0), timeStamp: 2017-03-05 11:27:52.702
LEye coords (260.0, 347.0), REye coords (268.0, 331.0), timeStamp: 2017-03-05 11:27:52.746
LEye coords (260.0, 346.0), REye coords (268.0, 331.0), timeStamp: 2017-03-05 11:27:52.780
LEye coords (260.0, 346.0), REye coords (268.0, 330.0), timeStamp: 2017-03-05 11:27:52.813
LEye coords (260.0, 346.0), REye coords (268.0, 331.0), timeStamp: 2017-03-05 11:27:52.858
LEye coords (261.0, 346.0), REye coords (268.0, 331.0), timeStamp: 2017-03-05 11:27:52.893
LEye coords (237.0, 295.0), REye coords (266.0, 329.0), timeStamp: 2017-03-05 11:27:52.927
LEye coords (204.0, 252.0), REye coords (206.0, 257.0), timeStamp: 2017-03-05 11:27:52.961
LEye coords (205.0, 255.0), REye coords (208.0, 251.0), timeStamp: 2017-03-05 11:27:53.006
LEye coords (205.0, 257.0), REye coords (208.0, 253.0), timeStamp: 2017-03-05 11:27:53.040
LEye coords (205.0, 258.0), REye coords (207.0, 253.0), timeStamp: 2017-03-05 11:27:53.073
LEye coords (203.0, 261.0), REye coords (207.0, 254.0), timeStamp: 2017-03-05 11:27:53.117
LEye coords (203.0, 260.0), REye coords (205.0, 253.0), timeStamp: 2017-03-05 11:27:53.151
LEye coords (191.0, 257.0), REye coords (181.0, 250.0), timeStamp: 2017-03-05 11:27:53.185
LEye coords (177.0, 258.0), REye coords (168.0, 251.0), timeStamp: 2017-03-05 11:27:53.228
LEye coords (171.0, 259.0), REye coords (164.0, 252.0), timeStamp: 2017-03-05 11:27:53.262
LEye coords (151.0, 257.0), REye coords (162.0, 252.0), timeStamp: 2017-03-05 11:27:53.296
LEye coords (155.0, 257.0), REye coords (152.0, 257.0), timeStamp: 2017-03-05 11:27:53.340
LEye coords (155.0, 261.0), REye coords (156.0, 246.0), timeStamp: 2017-03-05 11:27:53.373
LEye coords (157.0, 261.0), REye coords (161.0, 244.0), timeStamp: 2017-03-05 11:27:53.407
LEye coords (158.0, 259.0), REye coords (163.0, 244.0), timeStamp: 2017-03-05 11:27:53.452
LEye coords (159.0, 260.0), REye coords (163.0, 245.0), timeStamp: 2017-03-05 11:27:53.485
LEye coords (160.0, 259.0), REye coords (164.0, 247.0), timeStamp: 2017-03-05 11:27:53.519
LEye coords (160.0, 259.0), REye coords (165.0, 248.0), timeStamp: 2017-03-05 11:27:53.562
LEye coords (160.0, 259.0), REye coords (164.0, 250.0), timeStamp: 2017-03-05 11:27:53.596
LEye coords (161.0, 259.0), REye coords (165.0, 250.0), timeStamp: 2017-03-05 11:27:53.630
LEye coords (161.0, 260.0), REye coords (165.0, 252.0), timeStamp: 2017-03-05 11:27:53.664
