LEye coords (233.0, 188.0), REye coords (248.0, 179.0), timeStamp: 2017-03-05 11:28:53.816
LEye coords (234.0, 187.0), REye coords (244.0, 183.0), timeStamp: 2017-03-05 11:28:53.850
LEye coords (233.0, 191.0), REye coords (246.0, 183.0), timeStamp: 2017-03-05 11:28:53.884
LEye coords (235.0, 189.0), REye coords (246.0, 183.0), timeStamp: 2017-03-05 11:28:53.918
LEye coords (236.0, 188.0), REye coords (245.0, 184.0), timeStamp: 2017-03-05 11:28:53.962
LEye coords (236.0, 188.0), REye coords (244.0, 186.0), timeStamp: 2017-03-05 11:28:53.997
LEye coords (237.0, 188.0), REye coords (243.0, 186.0), timeStamp: 2017-03-05 11:28:54.030
LEye coords (238.0, 188.0), REye coords (244.0, 186.0), timeStamp: 2017-03-05 11:28:54.074
LEye coords (238.0, 189.0), REye coords (244.0, 187.0), timeStamp: 2017-03-05 11:28:54.108
LEye coords (239.0, 189.0), REye coords (244.0, 187.0), timeStamp: 2017-03-05 11:28:54.142
LEye coords (239.0, 190.0), REye coords (244.0, 187.0), timeStamp: 2017-03-05 11:28:54.176
LEye coords (296.0, 265.0), REye coords (288.0, 277.0), timeStamp: 2017-03-05 11:28:54.220
LEye coords (293.0, 265.0), REye coords (290.0, 271.0), timeStamp: 2017-03-05 11:28:54.254
LEye coords (293.0, 264.0), REye coords (292.0, 271.0), timeStamp: 2017-03-05 11:28:54.287
LEye coords (292.0, 265.0), REye coords (292.0, 271.0), timeStamp: 2017-03-05 11:28:54.332
LEye coords (292.0, 265.0), REye coords (292.0, 272.0), timeStamp: 2017-03-05 11:28:54.365
LEye coords (289.0, 265.0), REye coords (292.0, 273.0), timeStamp: 2017-03-05 11:28:54.408
LEye coords (291.0, 269.0), REye coords (290.0, 276.0), timeStamp: 2017-03-05 11:28:54.442
LEye coords (287.0, 268.0), REye coords (290.0, 277.0), timeStamp: 2017-03-05 11:28:54.475
LEye coords (287.0, 267.0), REye coords (291.0, 275.0), timeStamp: 2017-03-05 11:28:54.518
LEye coords (287.0, 268.0), REye coords (290.0, 276.0), timeStamp: 2017-03-05 11:28:54.553
LEye coords (286.0, 267.0), REye coords (290.0, 275.0), timeStamp: 2017-03-05 11:28:54.586
LEye coords (287.0, 267.0), REye coords (290.0, 274.0), timeStamp: 2017-03-05 11:28:54.630
LEye coords (287.0, 266.0), REye coords (290.0, 274.0), timeStamp: 2017-03-05 11:28:54.664
LEye coords (287.0, 267.0), REye coords (290.0, 274.0), timeStamp: 2017-03-05 11:28:54.697
LEye coords (286.0, 267.0), REye coords (289.0, 274.0), timeStamp: 2017-03-05 11:28:54.741
LEye coords (285.0, 268.0), REye coords (288.0, 275.0), timeStamp: 2017-03-05 11:28:54.775
LEye coords (284.0, 268.0), REye coords (287.0, 275.0), timeStamp: 2017-03-05 11:28:54.808
LEye coords (283.0, 268.0), REye coords (286.0, 275.0), timeStamp: 2017-03-05 11:28:54.851
