LEye coords (151.0, 189.0), REye coords (149.0, 185.0), timeStamp: 2017-03-05 11:30:20.123
LEye coords (150.0, 190.0), REye coords (148.0, 185.0), timeStamp: 2017-03-05 11:30:20.157
LEye coords (149.0, 190.0), REye coords (147.0, 186.0), timeStamp: 2017-03-05 11:30:20.190
LEye coords (149.0, 190.0), REye coords (147.0, 186.0), timeStamp: 2017-03-05 11:30:20.234
LEye coords (148.0, 190.0), REye coords (147.0, 187.0), timeStamp: 2017-03-05 11:30:20.267
LEye coords (148.0, 190.0), REye coords (146.0, 187.0), timeStamp: 2017-03-05 11:30:20.301
LEye coords (147.0, 190.0), REye coords (146.0, 188.0), timeStamp: 2017-03-05 11:30:20.343
LEye coords (147.0, 189.0), REye coords (145.0, 189.0), timeStamp: 2017-03-05 11:30:20.377
LEye coords (146.0, 189.0), REye coords (144.0, 190.0), timeStamp: 2017-03-05 11:30:20.421
LEye coords (146.0, 189.0), REye coords (144.0, 191.0), timeStamp: 2017-03-05 11:30:20.455
LEye coords (252.0, 224.0), REye coords (257.0, 231.0), timeStamp: 2017-03-05 11:30:20.489
LEye coords (250.0, 233.0), REye coords (258.0, 234.0), timeStamp: 2017-03-05 11:30:20.534
LEye coords (250.0, 231.0), REye coords (258.0, 234.0), timeStamp: 2017-03-05 11:30:20.567
LEye coords (251.0, 231.0), REye coords (258.0, 235.0), timeStamp: 2017-03-05 11:30:20.601
LEye coords (251.0, 231.0), REye coords (259.0, 235.0), timeStamp: 2017-03-05 11:30:20.634
LEye coords (250.0, 232.0), REye coords (255.0, 238.0), timeStamp: 2017-03-05 11:30:20.678
LEye coords (251.0, 234.0), REye coords (259.0, 235.0), timeStamp: 2017-03-05 11:30:20.711
LEye coords (247.0, 232.0), REye coords (251.0, 234.0), timeStamp: 2017-03-05 11:30:20.745
LEye coords (245.0, 231.0), REye coords (248.0, 233.0), timeStamp: 2017-03-05 11:30:20.788
LEye coords (243.0, 231.0), REye coords (245.0, 232.0), timeStamp: 2017-03-05 11:30:20.821
LEye coords (238.0, 228.0), REye coords (239.0, 230.0), timeStamp: 2017-03-05 11:30:20.856
LEye coords (234.0, 226.0), REye coords (235.0, 228.0), timeStamp: 2017-03-05 11:30:20.899
LEye coords (232.0, 225.0), REye coords (232.0, 227.0), timeStamp: 2017-03-05 11:30:20.932
LEye coords (230.0, 224.0), REye coords (230.0, 226.0), timeStamp: 2017-03-05 11:30:20.977
