LEye coords (215.0, 236.0), REye coords (210.0, 265.0), timeStamp: 2017-03-05 11:30:19.051
LEye coords (214.0, 238.0), REye coords (210.0, 265.0), timeStamp: 2017-03-05 11:30:19.084
LEye coords (213.0, 240.0), REye coords (210.0, 264.0), timeStamp: 2017-03-05 11:30:19.118
LEye coords (212.0, 241.0), REye coords (210.0, 264.0), timeStamp: 2017-03-05 11:30:19.163
LEye coords (211.0, 243.0), REye coords (210.0, 264.0), timeStamp: 2017-03-05 11:30:19.196
LEye coords (210.0, 244.0), REye coords (210.0, 264.0), timeStamp: 2017-03-05 11:30:19.230
LEye coords (208.0, 246.0), REye coords (210.0, 264.0), timeStamp: 2017-03-05 11:30:19.275
LEye coords (208.0, 247.0), REye coords (211.0, 264.0), timeStamp: 2017-03-05 11:30:19.309
LEye coords (207.0, 248.0), REye coords (211.0, 264.0), timeStamp: 2017-03-05 11:30:19.342
LEye coords (211.0, 242.0), REye coords (212.0, 263.0), timeStamp: 2017-03-05 11:30:19.376
LEye coords (226.0, 182.0), REye coords (227.0, 185.0), timeStamp: 2017-03-05 11:30:19.421
LEye coords (225.0, 183.0), REye coords (229.0, 182.0), timeStamp: 2017-03-05 11:30:19.456
LEye coords (209.0, 184.0), REye coords (203.0, 180.0), timeStamp: 2017-03-05 11:30:19.489
LEye coords (197.0, 185.0), REye coords (188.0, 182.0), timeStamp: 2017-03-05 11:30:19.533
LEye coords (163.0, 187.0), REye coords (180.0, 181.0), timeStamp: 2017-03-05 11:30:19.567
LEye coords (164.0, 187.0), REye coords (157.0, 175.0), timeStamp: 2017-03-05 11:30:19.602
LEye coords (163.0, 186.0), REye coords (155.0, 185.0), timeStamp: 2017-03-05 11:30:19.635
LEye coords (162.0, 185.0), REye coords (155.0, 183.0), timeStamp: 2017-03-05 11:30:19.679
LEye coords (162.0, 185.0), REye coords (155.0, 183.0), timeStamp: 2017-03-05 11:30:19.713
LEye coords (162.0, 184.0), REye coords (155.0, 185.0), timeStamp: 2017-03-05 11:30:19.747
LEye coords (162.0, 185.0), REye coords (153.0, 185.0), timeStamp: 2017-03-05 11:30:19.791
LEye coords (162.0, 185.0), REye coords (153.0, 185.0), timeStamp: 2017-03-05 11:30:19.824
LEye coords (160.0, 186.0), REye coords (153.0, 184.0), timeStamp: 2017-03-05 11:30:19.858
LEye coords (158.0, 187.0), REye coords (153.0, 183.0), timeStamp: 2017-03-05 11:30:19.902
LEye coords (156.0, 187.0), REye coords (152.0, 183.0), timeStamp: 2017-03-05 11:30:19.935
LEye coords (155.0, 187.0), REye coords (151.0, 183.0), timeStamp: 2017-03-05 11:30:19.968
LEye coords (154.0, 188.0), REye coords (151.0, 184.0), timeStamp: 2017-03-05 11:30:20.012
