LEye coords (153.0, 187.0), REye coords (153.0, 190.0), timeStamp: 2017-03-05 11:30:27.556
LEye coords (152.0, 211.0), REye coords (151.0, 216.0), timeStamp: 2017-03-05 11:30:27.600
LEye coords (151.0, 211.0), REye coords (150.0, 217.0), timeStamp: 2017-03-05 11:30:27.633
LEye coords (151.0, 212.0), REye coords (137.0, 231.0), timeStamp: 2017-03-05 11:30:27.668
LEye coords (150.0, 212.0), REye coords (141.0, 235.0), timeStamp: 2017-03-05 11:30:27.712
LEye coords (149.0, 213.0), REye coords (141.0, 233.0), timeStamp: 2017-03-05 11:30:27.745
LEye coords (149.0, 213.0), REye coords (141.0, 234.0), timeStamp: 2017-03-05 11:30:27.778
LEye coords (148.0, 213.0), REye coords (140.0, 234.0), timeStamp: 2017-03-05 11:30:27.822
LEye coords (147.0, 213.0), REye coords (140.0, 233.0), timeStamp: 2017-03-05 11:30:27.855
LEye coords (146.0, 214.0), REye coords (140.0, 234.0), timeStamp: 2017-03-05 11:30:27.890
LEye coords (261.0, 253.0), REye coords (281.0, 256.0), timeStamp: 2017-03-05 11:30:27.935
LEye coords (262.0, 259.0), REye coords (277.0, 266.0), timeStamp: 2017-03-05 11:30:27.968
LEye coords (260.0, 260.0), REye coords (278.0, 267.0), timeStamp: 2017-03-05 11:30:28.001
LEye coords (260.0, 261.0), REye coords (278.0, 267.0), timeStamp: 2017-03-05 11:30:28.045
LEye coords (261.0, 262.0), REye coords (279.0, 268.0), timeStamp: 2017-03-05 11:30:28.079
LEye coords (264.0, 264.0), REye coords (283.0, 268.0), timeStamp: 2017-03-05 11:30:28.112
LEye coords (268.0, 263.0), REye coords (289.0, 270.0), timeStamp: 2017-03-05 11:30:28.156
LEye coords (290.0, 267.0), REye coords (311.0, 272.0), timeStamp: 2017-03-05 11:30:28.190
LEye coords (298.0, 269.0), REye coords (319.0, 270.0), timeStamp: 2017-03-05 11:30:28.223
LEye coords (301.0, 270.0), REye coords (323.0, 270.0), timeStamp: 2017-03-05 11:30:28.268
LEye coords (303.0, 271.0), REye coords (326.0, 269.0), timeStamp: 2017-03-05 11:30:28.302
LEye coords (305.0, 271.0), REye coords (341.0, 262.0), timeStamp: 2017-03-05 11:30:28.336
LEye coords (306.0, 271.0), REye coords (339.0, 262.0), timeStamp: 2017-03-05 11:30:28.371
LEye coords (324.0, 260.0), REye coords (341.0, 262.0), timeStamp: 2017-03-05 11:30:28.414
LEye coords (325.0, 259.0), REye coords (341.0, 263.0), timeStamp: 2017-03-05 11:30:28.447
LEye coords (327.0, 259.0), REye coords (340.0, 263.0), timeStamp: 2017-03-05 11:30:28.481
LEye coords (327.0, 260.0), REye coords (340.0, 264.0), timeStamp: 2017-03-05 11:30:28.525
LEye coords (327.0, 260.0), REye coords (339.0, 264.0), timeStamp: 2017-03-05 11:30:28.558
LEye coords (328.0, 260.0), REye coords (339.0, 265.0), timeStamp: 2017-03-05 11:30:28.592
LEye coords (328.0, 260.0), REye coords (339.0, 265.0), timeStamp: 2017-03-05 11:30:28.637
