LEye coords (170.0, 112.0), REye coords (159.0, 112.0), timeStamp: 2017-03-05 11:31:13.088
LEye coords (170.0, 113.0), REye coords (159.0, 113.0), timeStamp: 2017-03-05 11:31:13.122
LEye coords (171.0, 114.0), REye coords (159.0, 114.0), timeStamp: 2017-03-05 11:31:13.155
LEye coords (171.0, 115.0), REye coords (160.0, 115.0), timeStamp: 2017-03-05 11:31:13.199
LEye coords (172.0, 116.0), REye coords (160.0, 116.0), timeStamp: 2017-03-05 11:31:13.232
LEye coords (172.0, 118.0), REye coords (160.0, 117.0), timeStamp: 2017-03-05 11:31:13.266
LEye coords (172.0, 119.0), REye coords (160.0, 118.0), timeStamp: 2017-03-05 11:31:13.311
LEye coords (173.0, 121.0), REye coords (161.0, 119.0), timeStamp: 2017-03-05 11:31:13.344
LEye coords (219.0, 232.0), REye coords (215.0, 241.0), timeStamp: 2017-03-05 11:31:13.378
LEye coords (0.0, 0.0), REye coords (233.0, 278.0), timeStamp: 2017-03-05 11:31:13.422
LEye coords (228.0, 269.0), REye coords (232.0, 279.0), timeStamp: 2017-03-05 11:31:13.455
LEye coords (224.0, 271.0), REye coords (234.0, 278.0), timeStamp: 2017-03-05 11:31:13.489
LEye coords (224.0, 270.0), REye coords (234.0, 278.0), timeStamp: 2017-03-05 11:31:13.523
LEye coords (224.0, 270.0), REye coords (236.0, 278.0), timeStamp: 2017-03-05 11:31:13.567
LEye coords (223.0, 273.0), REye coords (233.0, 281.0), timeStamp: 2017-03-05 11:31:13.601
LEye coords (223.0, 273.0), REye coords (234.0, 279.0), timeStamp: 2017-03-05 11:31:13.635
LEye coords (222.0, 271.0), REye coords (235.0, 280.0), timeStamp: 2017-03-05 11:31:13.678
LEye coords (223.0, 272.0), REye coords (234.0, 281.0), timeStamp: 2017-03-05 11:31:13.712
LEye coords (223.0, 272.0), REye coords (234.0, 281.0), timeStamp: 2017-03-05 11:31:13.745
LEye coords (231.0, 276.0), REye coords (241.0, 284.0), timeStamp: 2017-03-05 11:31:13.789
LEye coords (236.0, 279.0), REye coords (246.0, 287.0), timeStamp: 2017-03-05 11:31:13.822
LEye coords (240.0, 281.0), REye coords (249.0, 288.0), timeStamp: 2017-03-05 11:31:13.856
LEye coords (243.0, 284.0), REye coords (252.0, 290.0), timeStamp: 2017-03-05 11:31:13.899
LEye coords (246.0, 285.0), REye coords (255.0, 291.0), timeStamp: 2017-03-05 11:31:13.934
LEye coords (248.0, 286.0), REye coords (257.0, 292.0), timeStamp: 2017-03-05 11:31:13.968
LEye coords (250.0, 287.0), REye coords (260.0, 292.0), timeStamp: 2017-03-05 11:31:14.011
LEye coords (284.0, 318.0), REye coords (263.0, 295.0), timeStamp: 2017-03-05 11:31:14.046
LEye coords (287.0, 317.0), REye coords (266.0, 297.0), timeStamp: 2017-03-05 11:31:14.080
LEye coords (285.0, 317.0), REye coords (268.0, 299.0), timeStamp: 2017-03-05 11:31:14.123
LEye coords (285.0, 316.0), REye coords (270.0, 301.0), timeStamp: 2017-03-05 11:31:14.156
