LEye coords (279.0, 440.0), REye coords (282.0, 434.0), timeStamp: 2017-03-05 11:32:09.709
LEye coords (279.0, 440.0), REye coords (282.0, 433.0), timeStamp: 2017-03-05 11:32:09.743
LEye coords (279.0, 440.0), REye coords (283.0, 433.0), timeStamp: 2017-03-05 11:32:09.786
LEye coords (279.0, 440.0), REye coords (283.0, 433.0), timeStamp: 2017-03-05 11:32:09.820
LEye coords (279.0, 440.0), REye coords (283.0, 433.0), timeStamp: 2017-03-05 11:32:09.853
LEye coords (279.0, 440.0), REye coords (283.0, 433.0), timeStamp: 2017-03-05 11:32:09.897
LEye coords (279.0, 440.0), REye coords (283.0, 432.0), timeStamp: 2017-03-05 11:32:09.931
LEye coords (235.0, 346.0), REye coords (251.0, 354.0), timeStamp: 2017-03-05 11:32:09.964
LEye coords (230.0, 317.0), REye coords (239.0, 319.0), timeStamp: 2017-03-05 11:32:10.008
LEye coords (230.0, 322.0), REye coords (239.0, 320.0), timeStamp: 2017-03-05 11:32:10.042
LEye coords (230.0, 323.0), REye coords (239.0, 323.0), timeStamp: 2017-03-05 11:32:10.076
LEye coords (231.0, 324.0), REye coords (239.0, 323.0), timeStamp: 2017-03-05 11:32:10.119
LEye coords (234.0, 327.0), REye coords (237.0, 333.0), timeStamp: 2017-03-05 11:32:10.153
LEye coords (231.0, 329.0), REye coords (240.0, 328.0), timeStamp: 2017-03-05 11:32:10.186
LEye coords (231.0, 329.0), REye coords (241.0, 326.0), timeStamp: 2017-03-05 11:32:10.231
LEye coords (225.0, 332.0), REye coords (236.0, 330.0), timeStamp: 2017-03-05 11:32:10.265
LEye coords (221.0, 335.0), REye coords (0.0, 0.0), timeStamp: 2017-03-05 11:32:10.299
LEye coords (219.0, 337.0), REye coords (232.0, 333.0), timeStamp: 2017-03-05 11:32:10.342
LEye coords (217.0, 339.0), REye coords (230.0, 336.0), timeStamp: 2017-03-05 11:32:10.376
LEye coords (216.0, 340.0), REye coords (229.0, 336.0), timeStamp: 2017-03-05 11:32:10.410
LEye coords (215.0, 340.0), REye coords (228.0, 336.0), timeStamp: 2017-03-05 11:32:10.455
LEye coords (214.0, 341.0), REye coords (227.0, 337.0), timeStamp: 2017-03-05 11:32:10.489
LEye coords (214.0, 341.0), REye coords (227.0, 337.0), timeStamp: 2017-03-05 11:32:10.522
LEye coords (213.0, 342.0), REye coords (226.0, 338.0), timeStamp: 2017-03-05 11:32:10.566
LEye coords (213.0, 341.0), REye coords (225.0, 339.0), timeStamp: 2017-03-05 11:32:10.601
LEye coords (212.0, 342.0), REye coords (224.0, 341.0), timeStamp: 2017-03-05 11:32:10.634
LEye coords (211.0, 341.0), REye coords (222.0, 341.0), timeStamp: 2017-03-05 11:32:10.677
LEye coords (210.0, 341.0), REye coords (221.0, 341.0), timeStamp: 2017-03-05 11:32:10.710
LEye coords (209.0, 340.0), REye coords (220.0, 342.0), timeStamp: 2017-03-05 11:32:10.744
LEye coords (208.0, 340.0), REye coords (218.0, 342.0), timeStamp: 2017-03-05 11:32:10.787
LEye coords (207.0, 340.0), REye coords (217.0, 342.0), timeStamp: 2017-03-05 11:32:10.822
LEye coords (206.0, 339.0), REye coords (216.0, 343.0), timeStamp: 2017-03-05 11:32:10.855
LEye coords (206.0, 339.0), REye coords (215.0, 343.0), timeStamp: 2017-03-05 11:32:10.899
LEye coords (205.0, 338.0), REye coords (0.0, 0.0), timeStamp: 2017-03-05 11:32:10.932
LEye coords (204.0, 338.0), REye coords (0.0, 0.0), timeStamp: 2017-03-05 11:32:10.965
