LEye coords (20.0, 262.0), REye coords (43.0, 224.0), timeStamp: 2017-03-05 11:32:08.077
LEye coords (18.0, 240.0), REye coords (39.0, 223.0), timeStamp: 2017-03-05 11:32:08.121
LEye coords (21.0, 226.0), REye coords (0.0, 0.0), timeStamp: 2017-03-05 11:32:08.155
LEye coords (35.0, 210.0), REye coords (38.0, 224.0), timeStamp: 2017-03-05 11:32:08.189
LEye coords (37.0, 217.0), REye coords (35.0, 229.0), timeStamp: 2017-03-05 11:32:08.233
LEye coords (36.0, 213.0), REye coords (34.0, 227.0), timeStamp: 2017-03-05 11:32:08.266
LEye coords (37.0, 210.0), REye coords (35.0, 226.0), timeStamp: 2017-03-05 11:32:08.300
LEye coords (85.0, 208.0), REye coords (106.0, 220.0), timeStamp: 2017-03-05 11:32:08.343
LEye coords (291.0, 215.0), REye coords (155.0, 222.0), timeStamp: 2017-03-05 11:32:08.377
LEye coords (292.0, 220.0), REye coords (300.0, 234.0), timeStamp: 2017-03-05 11:32:08.410
LEye coords (293.0, 220.0), REye coords (302.0, 228.0), timeStamp: 2017-03-05 11:32:08.456
LEye coords (294.0, 220.0), REye coords (304.0, 229.0), timeStamp: 2017-03-05 11:32:08.489
LEye coords (295.0, 220.0), REye coords (305.0, 228.0), timeStamp: 2017-03-05 11:32:08.524
LEye coords (298.0, 219.0), REye coords (305.0, 228.0), timeStamp: 2017-03-05 11:32:08.558
LEye coords (351.0, 259.0), REye coords (351.0, 260.0), timeStamp: 2017-03-05 11:32:08.602
LEye coords (350.0, 264.0), REye coords (346.0, 273.0), timeStamp: 2017-03-05 11:32:08.636
LEye coords (349.0, 266.0), REye coords (347.0, 271.0), timeStamp: 2017-03-05 11:32:08.669
LEye coords (348.0, 267.0), REye coords (346.0, 271.0), timeStamp: 2017-03-05 11:32:08.714
LEye coords (347.0, 264.0), REye coords (347.0, 271.0), timeStamp: 2017-03-05 11:32:08.747
LEye coords (346.0, 267.0), REye coords (355.0, 262.0), timeStamp: 2017-03-05 11:32:08.782
LEye coords (347.0, 267.0), REye coords (357.0, 269.0), timeStamp: 2017-03-05 11:32:08.827
LEye coords (358.0, 277.0), REye coords (367.0, 284.0), timeStamp: 2017-03-05 11:32:08.860
LEye coords (364.0, 283.0), REye coords (371.0, 288.0), timeStamp: 2017-03-05 11:32:08.894
LEye coords (367.0, 287.0), REye coords (373.0, 291.0), timeStamp: 2017-03-05 11:32:08.937
LEye coords (369.0, 288.0), REye coords (373.0, 293.0), timeStamp: 2017-03-05 11:32:08.971
LEye coords (370.0, 290.0), REye coords (374.0, 294.0), timeStamp: 2017-03-05 11:32:09.005
LEye coords (371.0, 291.0), REye coords (374.0, 294.0), timeStamp: 2017-03-05 11:32:09.049
LEye coords (371.0, 292.0), REye coords (374.0, 294.0), timeStamp: 2017-03-05 11:32:09.083
LEye coords (372.0, 292.0), REye coords (374.0, 294.0), timeStamp: 2017-03-05 11:32:09.117
LEye coords (372.0, 292.0), REye coords (374.0, 294.0), timeStamp: 2017-03-05 11:32:09.151
LEye coords (372.0, 293.0), REye coords (374.0, 294.0), timeStamp: 2017-03-05 11:32:09.195
LEye coords (372.0, 293.0), REye coords (374.0, 294.0), timeStamp: 2017-03-05 11:32:09.229
LEye coords (372.0, 293.0), REye coords (374.0, 294.0), timeStamp: 2017-03-05 11:32:09.263
LEye coords (372.0, 294.0), REye coords (375.0, 292.0), timeStamp: 2017-03-05 11:32:09.306
LEye coords (372.0, 294.0), REye coords (375.0, 292.0), timeStamp: 2017-03-05 11:32:09.340
LEye coords (372.0, 294.0), REye coords (375.0, 291.0), timeStamp: 2017-03-05 11:32:09.374
LEye coords (372.0, 294.0), REye coords (375.0, 291.0), timeStamp: 2017-03-05 11:32:09.418
LEye coords (372.0, 294.0), REye coords (375.0, 291.0), timeStamp: 2017-03-05 11:32:09.452
LEye coords (372.0, 294.0), REye coords (375.0, 291.0), timeStamp: 2017-03-05 11:32:09.486
LEye coords (372.0, 294.0), REye coords (376.0, 290.0), timeStamp: 2017-03-05 11:32:09.529
LEye coords (372.0, 293.0), REye coords (376.0, 290.0), timeStamp: 2017-03-05 11:32:09.564
