LEye coords (243.0, 123.0), REye coords (244.0, 129.0), timeStamp: 2017-03-05 11:32:22.326
LEye coords (243.0, 123.0), REye coords (245.0, 129.0), timeStamp: 2017-03-05 11:32:22.369
LEye coords (243.0, 123.0), REye coords (245.0, 129.0), timeStamp: 2017-03-05 11:32:22.402
LEye coords (244.0, 123.0), REye coords (245.0, 129.0), timeStamp: 2017-03-05 11:32:22.436
LEye coords (244.0, 122.0), REye coords (245.0, 128.0), timeStamp: 2017-03-05 11:32:22.480
LEye coords (244.0, 121.0), REye coords (245.0, 128.0), timeStamp: 2017-03-05 11:32:22.514
LEye coords (244.0, 121.0), REye coords (245.0, 127.0), timeStamp: 2017-03-05 11:32:22.558
LEye coords (244.0, 120.0), REye coords (246.0, 127.0), timeStamp: 2017-03-05 11:32:22.591
LEye coords (244.0, 120.0), REye coords (246.0, 127.0), timeStamp: 2017-03-05 11:32:22.626
LEye coords (244.0, 120.0), REye coords (246.0, 126.0), timeStamp: 2017-03-05 11:32:22.659
LEye coords (244.0, 120.0), REye coords (246.0, 126.0), timeStamp: 2017-03-05 11:32:22.703
LEye coords (244.0, 121.0), REye coords (246.0, 127.0), timeStamp: 2017-03-05 11:32:22.737
LEye coords (243.0, 122.0), REye coords (247.0, 128.0), timeStamp: 2017-03-05 11:32:22.772
LEye coords (243.0, 123.0), REye coords (247.0, 128.0), timeStamp: 2017-03-05 11:32:22.816
LEye coords (243.0, 125.0), REye coords (246.0, 129.0), timeStamp: 2017-03-05 11:32:22.849
LEye coords (242.0, 126.0), REye coords (246.0, 130.0), timeStamp: 2017-03-05 11:32:22.882
LEye coords (242.0, 127.0), REye coords (246.0, 132.0), timeStamp: 2017-03-05 11:32:22.926
LEye coords (242.0, 129.0), REye coords (246.0, 133.0), timeStamp: 2017-03-05 11:32:22.960
LEye coords (241.0, 130.0), REye coords (245.0, 134.0), timeStamp: 2017-03-05 11:32:22.993
LEye coords (241.0, 131.0), REye coords (245.0, 136.0), timeStamp: 2017-03-05 11:32:23.036
LEye coords (241.0, 132.0), REye coords (245.0, 137.0), timeStamp: 2017-03-05 11:32:23.070
LEye coords (241.0, 133.0), REye coords (245.0, 138.0), timeStamp: 2017-03-05 11:32:23.103
LEye coords (241.0, 135.0), REye coords (245.0, 140.0), timeStamp: 2017-03-05 11:32:23.148
LEye coords (241.0, 137.0), REye coords (245.0, 142.0), timeStamp: 2017-03-05 11:32:23.183
