LEye coords (0.0, 0.0), REye coords (0.0, 0.0), timeStamp: 2017-03-05 11:33:09.891
LEye coords (0.0, 0.0), REye coords (0.0, 0.0), timeStamp: 2017-03-05 11:33:09.925
LEye coords (0.0, 0.0), REye coords (0.0, 0.0), timeStamp: 2017-03-05 11:33:09.968
LEye coords (0.0, 0.0), REye coords (0.0, 0.0), timeStamp: 2017-03-05 11:33:10.002
LEye coords (0.0, 0.0), REye coords (0.0, 0.0), timeStamp: 2017-03-05 11:33:10.037
LEye coords (0.0, 0.0), REye coords (0.0, 0.0), timeStamp: 2017-03-05 11:33:10.071
LEye coords (0.0, 0.0), REye coords (0.0, 0.0), timeStamp: 2017-03-05 11:33:10.116
LEye coords (0.0, 0.0), REye coords (0.0, 0.0), timeStamp: 2017-03-05 11:33:10.149
LEye coords (0.0, 0.0), REye coords (0.0, 0.0), timeStamp: 2017-03-05 11:33:10.183
LEye coords (312.0, 414.0), REye coords (317.0, 410.0), timeStamp: 2017-03-05 11:33:10.228
LEye coords (311.0, 408.0), REye coords (316.0, 404.0), timeStamp: 2017-03-05 11:33:10.261
LEye coords (310.0, 405.0), REye coords (316.0, 399.0), timeStamp: 2017-03-05 11:33:10.295
LEye coords (309.0, 402.0), REye coords (316.0, 395.0), timeStamp: 2017-03-05 11:33:10.339
LEye coords (308.0, 399.0), REye coords (315.0, 392.0), timeStamp: 2017-03-05 11:33:10.373
LEye coords (308.0, 397.0), REye coords (315.0, 389.0), timeStamp: 2017-03-05 11:33:10.406
LEye coords (307.0, 395.0), REye coords (315.0, 386.0), timeStamp: 2017-03-05 11:33:10.440
LEye coords (307.0, 393.0), REye coords (315.0, 384.0), timeStamp: 2017-03-05 11:33:10.485
LEye coords (307.0, 392.0), REye coords (315.0, 382.0), timeStamp: 2017-03-05 11:33:10.519
LEye coords (306.0, 390.0), REye coords (315.0, 380.0), timeStamp: 2017-03-05 11:33:10.553
LEye coords (306.0, 388.0), REye coords (315.0, 379.0), timeStamp: 2017-03-05 11:33:10.596
LEye coords (308.0, 390.0), REye coords (316.0, 379.0), timeStamp: 2017-03-05 11:33:10.630
