LEye coords (394.0, 277.0), REye coords (390.0, 276.0), timeStamp: 2017-03-05 11:33:13.518
LEye coords (395.0, 277.0), REye coords (390.0, 276.0), timeStamp: 2017-03-05 11:33:13.552
LEye coords (395.0, 277.0), REye coords (390.0, 275.0), timeStamp: 2017-03-05 11:33:13.596
LEye coords (395.0, 277.0), REye coords (391.0, 274.0), timeStamp: 2017-03-05 11:33:13.697
LEye coords (394.0, 277.0), REye coords (391.0, 273.0), timeStamp: 2017-03-05 11:33:13.742
LEye coords (267.0, 184.0), REye coords (251.0, 169.0), timeStamp: 2017-03-05 11:34:27.135
LEye coords (268.0, 184.0), REye coords (251.0, 170.0), timeStamp: 2017-03-05 11:34:27.168
LEye coords (271.0, 180.0), REye coords (251.0, 177.0), timeStamp: 2017-03-05 11:34:27.202
LEye coords (271.0, 185.0), REye coords (248.0, 175.0), timeStamp: 2017-03-05 11:34:27.245
LEye coords (271.0, 184.0), REye coords (249.0, 176.0), timeStamp: 2017-03-05 11:34:27.277
LEye coords (270.0, 184.0), REye coords (249.0, 176.0), timeStamp: 2017-03-05 11:34:27.311
LEye coords (270.0, 184.0), REye coords (249.0, 177.0), timeStamp: 2017-03-05 11:34:27.355
LEye coords (270.0, 184.0), REye coords (248.0, 178.0), timeStamp: 2017-03-05 11:34:27.388
LEye coords (271.0, 184.0), REye coords (248.0, 179.0), timeStamp: 2017-03-05 11:34:27.432
LEye coords (271.0, 184.0), REye coords (248.0, 180.0), timeStamp: 2017-03-05 11:34:27.466
LEye coords (271.0, 184.0), REye coords (248.0, 181.0), timeStamp: 2017-03-05 11:34:27.500
LEye coords (272.0, 184.0), REye coords (249.0, 183.0), timeStamp: 2017-03-05 11:34:27.545
LEye coords (314.0, 224.0), REye coords (298.0, 222.0), timeStamp: 2017-03-05 11:34:27.579
LEye coords (317.0, 222.0), REye coords (298.0, 220.0), timeStamp: 2017-03-05 11:34:27.612
LEye coords (316.0, 223.0), REye coords (298.0, 223.0), timeStamp: 2017-03-05 11:34:27.646
LEye coords (316.0, 223.0), REye coords (298.0, 224.0), timeStamp: 2017-03-05 11:34:27.691
LEye coords (315.0, 224.0), REye coords (298.0, 223.0), timeStamp: 2017-03-05 11:34:27.724
LEye coords (315.0, 225.0), REye coords (298.0, 225.0), timeStamp: 2017-03-05 11:34:27.758
LEye coords (315.0, 226.0), REye coords (301.0, 227.0), timeStamp: 2017-03-05 11:34:27.802
LEye coords (315.0, 226.0), REye coords (296.0, 226.0), timeStamp: 2017-03-05 11:34:27.836
LEye coords (315.0, 226.0), REye coords (298.0, 226.0), timeStamp: 2017-03-05 11:34:27.869
LEye coords (314.0, 227.0), REye coords (298.0, 228.0), timeStamp: 2017-03-05 11:34:27.913
LEye coords (315.0, 231.0), REye coords (299.0, 226.0), timeStamp: 2017-03-05 11:34:27.946
