LEye coords (250.0, 286.0), REye coords (232.0, 292.0), timeStamp: 2017-03-05 11:34:30.424
LEye coords (251.0, 286.0), REye coords (232.0, 292.0), timeStamp: 2017-03-05 11:34:30.458
LEye coords (252.0, 285.0), REye coords (231.0, 293.0), timeStamp: 2017-03-05 11:34:30.501
LEye coords (252.0, 284.0), REye coords (231.0, 293.0), timeStamp: 2017-03-05 11:34:30.535
LEye coords (252.0, 284.0), REye coords (231.0, 293.0), timeStamp: 2017-03-05 11:34:30.569
LEye coords (252.0, 284.0), REye coords (230.0, 294.0), timeStamp: 2017-03-05 11:34:30.612
LEye coords (252.0, 285.0), REye coords (230.0, 294.0), timeStamp: 2017-03-05 11:34:30.645
LEye coords (251.0, 285.0), REye coords (230.0, 294.0), timeStamp: 2017-03-05 11:34:30.679
LEye coords (251.0, 286.0), REye coords (230.0, 294.0), timeStamp: 2017-03-05 11:34:30.723
LEye coords (251.0, 286.0), REye coords (230.0, 294.0), timeStamp: 2017-03-05 11:34:30.756
LEye coords (251.0, 284.0), REye coords (230.0, 293.0), timeStamp: 2017-03-05 11:34:30.790
LEye coords (250.0, 283.0), REye coords (229.0, 292.0), timeStamp: 2017-03-05 11:34:30.835
LEye coords (250.0, 282.0), REye coords (229.0, 292.0), timeStamp: 2017-03-05 11:34:30.869
LEye coords (250.0, 281.0), REye coords (228.0, 291.0), timeStamp: 2017-03-05 11:34:30.903
LEye coords (252.0, 282.0), REye coords (230.0, 292.0), timeStamp: 2017-03-05 11:34:30.946
LEye coords (254.0, 283.0), REye coords (232.0, 293.0), timeStamp: 2017-03-05 11:34:30.980
LEye coords (255.0, 284.0), REye coords (234.0, 293.0), timeStamp: 2017-03-05 11:34:31.013
LEye coords (257.0, 285.0), REye coords (236.0, 294.0), timeStamp: 2017-03-05 11:34:31.057
LEye coords (260.0, 286.0), REye coords (274.0, 313.0), timeStamp: 2017-03-05 11:34:31.089
LEye coords (326.0, 334.0), REye coords (311.0, 334.0), timeStamp: 2017-03-05 11:34:31.133
LEye coords (326.0, 335.0), REye coords (311.0, 335.0), timeStamp: 2017-03-05 11:34:31.167
LEye coords (324.0, 336.0), REye coords (311.0, 336.0), timeStamp: 2017-03-05 11:34:31.201
LEye coords (324.0, 335.0), REye coords (310.0, 335.0), timeStamp: 2017-03-05 11:34:31.236
LEye coords (323.0, 335.0), REye coords (311.0, 335.0), timeStamp: 2017-03-05 11:34:31.280
LEye coords (323.0, 335.0), REye coords (306.0, 341.0), timeStamp: 2017-03-05 11:34:31.313
