LEye coords (159.0, 178.0), REye coords (157.0, 177.0), timeStamp: 2017-03-05 10:53:11.518
LEye coords (159.0, 178.0), REye coords (157.0, 177.0), timeStamp: 2017-03-05 10:53:11.552
LEye coords (159.0, 178.0), REye coords (157.0, 177.0), timeStamp: 2017-03-05 10:53:11.586
LEye coords (159.0, 178.0), REye coords (157.0, 177.0), timeStamp: 2017-03-05 10:53:11.620
LEye coords (159.0, 178.0), REye coords (157.0, 177.0), timeStamp: 2017-03-05 10:53:11.664
LEye coords (159.0, 178.0), REye coords (157.0, 178.0), timeStamp: 2017-03-05 10:53:11.698
LEye coords (159.0, 178.0), REye coords (157.0, 178.0), timeStamp: 2017-03-05 10:53:11.732
LEye coords (159.0, 178.0), REye coords (156.0, 178.0), timeStamp: 2017-03-05 10:53:11.776
LEye coords (159.0, 178.0), REye coords (156.0, 178.0), timeStamp: 2017-03-05 10:53:11.809
LEye coords (210.0, 160.0), REye coords (217.0, 143.0), timeStamp: 2017-03-05 10:53:11.842
LEye coords (208.0, 165.0), REye coords (213.0, 160.0), timeStamp: 2017-03-05 10:53:11.885
LEye coords (209.0, 163.0), REye coords (214.0, 159.0), timeStamp: 2017-03-05 10:53:11.918
LEye coords (209.0, 163.0), REye coords (214.0, 160.0), timeStamp: 2017-03-05 10:53:11.952
LEye coords (210.0, 163.0), REye coords (214.0, 160.0), timeStamp: 2017-03-05 10:53:11.996
LEye coords (243.0, 176.0), REye coords (245.0, 175.0), timeStamp: 2017-03-05 10:53:12.030
LEye coords (243.0, 181.0), REye coords (250.0, 169.0), timeStamp: 2017-03-05 10:53:12.065
LEye coords (241.0, 181.0), REye coords (248.0, 169.0), timeStamp: 2017-03-05 10:53:12.099
LEye coords (242.0, 182.0), REye coords (248.0, 170.0), timeStamp: 2017-03-05 10:53:12.143
LEye coords (242.0, 183.0), REye coords (247.0, 171.0), timeStamp: 2017-03-05 10:53:12.176
LEye coords (243.0, 183.0), REye coords (247.0, 173.0), timeStamp: 2017-03-05 10:53:12.210
LEye coords (243.0, 183.0), REye coords (247.0, 175.0), timeStamp: 2017-03-05 10:53:12.255
LEye coords (243.0, 184.0), REye coords (247.0, 175.0), timeStamp: 2017-03-05 10:53:12.289
LEye coords (244.0, 184.0), REye coords (247.0, 176.0), timeStamp: 2017-03-05 10:53:12.323
LEye coords (244.0, 185.0), REye coords (247.0, 176.0), timeStamp: 2017-03-05 10:53:12.357
LEye coords (244.0, 185.0), REye coords (247.0, 177.0), timeStamp: 2017-03-05 10:53:12.400
LEye coords (244.0, 185.0), REye coords (247.0, 177.0), timeStamp: 2017-03-05 10:53:12.434
LEye coords (244.0, 185.0), REye coords (247.0, 177.0), timeStamp: 2017-03-05 10:53:12.478
LEye coords (244.0, 186.0), REye coords (247.0, 178.0), timeStamp: 2017-03-05 10:53:12.511
LEye coords (245.0, 186.0), REye coords (247.0, 178.0), timeStamp: 2017-03-05 10:53:12.546
LEye coords (245.0, 187.0), REye coords (247.0, 178.0), timeStamp: 2017-03-05 10:53:12.580
LEye coords (245.0, 187.0), REye coords (247.0, 179.0), timeStamp: 2017-03-05 10:53:12.624
LEye coords (245.0, 187.0), REye coords (248.0, 179.0), timeStamp: 2017-03-05 10:53:12.658
LEye coords (245.0, 187.0), REye coords (248.0, 180.0), timeStamp: 2017-03-05 10:53:12.701
LEye coords (245.0, 187.0), REye coords (248.0, 181.0), timeStamp: 2017-03-05 10:53:12.734
LEye coords (245.0, 187.0), REye coords (248.0, 182.0), timeStamp: 2017-03-05 10:53:12.769
LEye coords (246.0, 188.0), REye coords (248.0, 182.0), timeStamp: 2017-03-05 10:53:12.803
LEye coords (246.0, 189.0), REye coords (248.0, 184.0), timeStamp: 2017-03-05 10:53:12.847
LEye coords (247.0, 190.0), REye coords (248.0, 186.0), timeStamp: 2017-03-05 10:53:12.881
LEye coords (247.0, 191.0), REye coords (251.0, 208.0), timeStamp: 2017-03-05 10:53:12.915
LEye coords (254.0, 208.0), REye coords (251.0, 210.0), timeStamp: 2017-03-05 10:53:12.959
LEye coords (254.0, 207.0), REye coords (250.0, 210.0), timeStamp: 2017-03-05 10:53:12.994
LEye coords (254.0, 209.0), REye coords (250.0, 209.0), timeStamp: 2017-03-05 10:53:13.027
LEye coords (256.0, 208.0), REye coords (252.0, 211.0), timeStamp: 2017-03-05 10:53:13.061
LEye coords (258.0, 210.0), REye coords (253.0, 213.0), timeStamp: 2017-03-05 10:53:13.105
LEye coords (259.0, 211.0), REye coords (254.0, 214.0), timeStamp: 2017-03-05 10:53:13.137
LEye coords (259.0, 213.0), REye coords (255.0, 216.0), timeStamp: 2017-03-05 10:53:13.182
LEye coords (260.0, 214.0), REye coords (256.0, 216.0), timeStamp: 2017-03-05 10:53:13.216
LEye coords (260.0, 214.0), REye coords (257.0, 217.0), timeStamp: 2017-03-05 10:53:13.249
LEye coords (261.0, 215.0), REye coords (258.0, 217.0), timeStamp: 2017-03-05 10:53:13.293
LEye coords (261.0, 215.0), REye coords (259.0, 218.0), timeStamp: 2017-03-05 10:53:13.326
LEye coords (262.0, 216.0), REye coords (258.0, 220.0), timeStamp: 2017-03-05 10:53:13.359
LEye coords (262.0, 216.0), REye coords (259.0, 220.0), timeStamp: 2017-03-05 10:53:13.403
LEye coords (262.0, 217.0), REye coords (259.0, 220.0), timeStamp: 2017-03-05 10:53:13.435
LEye coords (262.0, 217.0), REye coords (259.0, 220.0), timeStamp: 2017-03-05 10:53:13.469
LEye coords (262.0, 219.0), REye coords (260.0, 221.0), timeStamp: 2017-03-05 10:53:13.546
