LEye coords (204.0, 191.0), REye coords (212.0, 190.0), timeStamp: 2017-03-05 10:53:21.249
LEye coords (204.0, 191.0), REye coords (213.0, 189.0), timeStamp: 2017-03-05 10:53:21.283
LEye coords (204.0, 191.0), REye coords (213.0, 189.0), timeStamp: 2017-03-05 10:53:21.317
LEye coords (204.0, 191.0), REye coords (214.0, 189.0), timeStamp: 2017-03-05 10:53:21.362
LEye coords (204.0, 191.0), REye coords (214.0, 189.0), timeStamp: 2017-03-05 10:53:21.397
LEye coords (204.0, 191.0), REye coords (215.0, 188.0), timeStamp: 2017-03-05 10:53:21.430
LEye coords (204.0, 191.0), REye coords (216.0, 188.0), timeStamp: 2017-03-05 10:53:21.464
LEye coords (204.0, 191.0), REye coords (0.0, 0.0), timeStamp: 2017-03-05 10:53:21.509
LEye coords (204.0, 191.0), REye coords (0.0, 0.0), timeStamp: 2017-03-05 10:53:21.542
LEye coords (204.0, 190.0), REye coords (0.0, 0.0), timeStamp: 2017-03-05 10:53:21.575
LEye coords (203.0, 190.0), REye coords (0.0, 0.0), timeStamp: 2017-03-05 10:53:21.619
LEye coords (203.0, 190.0), REye coords (0.0, 0.0), timeStamp: 2017-03-05 10:53:21.652
LEye coords (203.0, 190.0), REye coords (0.0, 0.0), timeStamp: 2017-03-05 10:53:21.686
LEye coords (203.0, 189.0), REye coords (0.0, 0.0), timeStamp: 2017-03-05 10:53:21.730
LEye coords (203.0, 189.0), REye coords (0.0, 0.0), timeStamp: 2017-03-05 10:53:21.763
LEye coords (203.0, 189.0), REye coords (0.0, 0.0), timeStamp: 2017-03-05 10:53:21.796
LEye coords (203.0, 189.0), REye coords (0.0, 0.0), timeStamp: 2017-03-05 10:53:21.841
LEye coords (203.0, 189.0), REye coords (0.0, 0.0), timeStamp: 2017-03-05 10:53:21.876
LEye coords (203.0, 189.0), REye coords (0.0, 0.0), timeStamp: 2017-03-05 10:53:21.910
LEye coords (203.0, 189.0), REye coords (0.0, 0.0), timeStamp: 2017-03-05 10:53:21.943
LEye coords (203.0, 189.0), REye coords (0.0, 0.0), timeStamp: 2017-03-05 10:53:21.986
LEye coords (203.0, 189.0), REye coords (217.0, 187.0), timeStamp: 2017-03-05 10:53:22.020
LEye coords (203.0, 188.0), REye coords (217.0, 187.0), timeStamp: 2017-03-05 10:53:22.065
