LEye coords (158.0, 312.0), REye coords (157.0, 316.0), timeStamp: 2017-03-05 10:53:29.613
LEye coords (158.0, 312.0), REye coords (157.0, 317.0), timeStamp: 2017-03-05 10:53:29.648
LEye coords (158.0, 312.0), REye coords (157.0, 317.0), timeStamp: 2017-03-05 10:53:29.681
LEye coords (158.0, 311.0), REye coords (157.0, 318.0), timeStamp: 2017-03-05 10:53:29.726
LEye coords (158.0, 311.0), REye coords (157.0, 319.0), timeStamp: 2017-03-05 10:53:29.760
LEye coords (158.0, 311.0), REye coords (157.0, 320.0), timeStamp: 2017-03-05 10:53:29.794
LEye coords (158.0, 311.0), REye coords (157.0, 320.0), timeStamp: 2017-03-05 10:53:29.827
LEye coords (164.0, 234.0), REye coords (167.0, 232.0), timeStamp: 2017-03-05 10:53:29.871
LEye coords (166.0, 216.0), REye coords (170.0, 191.0), timeStamp: 2017-03-05 10:53:29.903
LEye coords (165.0, 214.0), REye coords (169.0, 195.0), timeStamp: 2017-03-05 10:53:29.948
LEye coords (165.0, 217.0), REye coords (169.0, 196.0), timeStamp: 2017-03-05 10:53:29.980
LEye coords (165.0, 216.0), REye coords (169.0, 197.0), timeStamp: 2017-03-05 10:53:30.015
LEye coords (164.0, 210.0), REye coords (166.0, 195.0), timeStamp: 2017-03-05 10:53:30.058
LEye coords (163.0, 208.0), REye coords (165.0, 191.0), timeStamp: 2017-03-05 10:53:30.092
LEye coords (163.0, 210.0), REye coords (165.0, 190.0), timeStamp: 2017-03-05 10:53:30.125
LEye coords (164.0, 210.0), REye coords (165.0, 190.0), timeStamp: 2017-03-05 10:53:30.169
LEye coords (164.0, 210.0), REye coords (165.0, 189.0), timeStamp: 2017-03-05 10:53:30.203
LEye coords (164.0, 210.0), REye coords (166.0, 188.0), timeStamp: 2017-03-05 10:53:30.236
LEye coords (164.0, 209.0), REye coords (166.0, 187.0), timeStamp: 2017-03-05 10:53:30.281
LEye coords (165.0, 210.0), REye coords (166.0, 188.0), timeStamp: 2017-03-05 10:53:30.314
LEye coords (165.0, 210.0), REye coords (166.0, 188.0), timeStamp: 2017-03-05 10:53:30.348
LEye coords (165.0, 210.0), REye coords (166.0, 189.0), timeStamp: 2017-03-05 10:53:30.392
LEye coords (165.0, 211.0), REye coords (166.0, 188.0), timeStamp: 2017-03-05 10:53:30.426
LEye coords (165.0, 210.0), REye coords (166.0, 188.0), timeStamp: 2017-03-05 10:53:30.459
LEye coords (165.0, 211.0), REye coords (166.0, 188.0), timeStamp: 2017-03-05 10:53:30.493
LEye coords (165.0, 210.0), REye coords (166.0, 188.0), timeStamp: 2017-03-05 10:53:30.536
LEye coords (165.0, 207.0), REye coords (166.0, 185.0), timeStamp: 2017-03-05 10:53:30.571
LEye coords (165.0, 205.0), REye coords (165.0, 182.0), timeStamp: 2017-03-05 10:53:30.605
LEye coords (164.0, 202.0), REye coords (164.0, 181.0), timeStamp: 2017-03-05 10:53:30.648
LEye coords (164.0, 200.0), REye coords (164.0, 179.0), timeStamp: 2017-03-05 10:53:30.682
LEye coords (164.0, 199.0), REye coords (163.0, 177.0), timeStamp: 2017-03-05 10:53:30.716
LEye coords (164.0, 197.0), REye coords (163.0, 175.0), timeStamp: 2017-03-05 10:53:30.761
LEye coords (163.0, 195.0), REye coords (162.0, 174.0), timeStamp: 2017-03-05 10:53:30.794
LEye coords (163.0, 193.0), REye coords (162.0, 172.0), timeStamp: 2017-03-05 10:53:30.827
LEye coords (163.0, 192.0), REye coords (161.0, 171.0), timeStamp: 2017-03-05 10:53:30.871
LEye coords (163.0, 190.0), REye coords (161.0, 169.0), timeStamp: 2017-03-05 10:53:30.904
LEye coords (163.0, 188.0), REye coords (160.0, 168.0), timeStamp: 2017-03-05 10:53:30.937
LEye coords (163.0, 186.0), REye coords (160.0, 166.0), timeStamp: 2017-03-05 10:53:30.982
LEye coords (162.0, 185.0), REye coords (159.0, 165.0), timeStamp: 2017-03-05 10:53:31.015
LEye coords (162.0, 184.0), REye coords (159.0, 164.0), timeStamp: 2017-03-05 10:53:31.049
LEye coords (162.0, 182.0), REye coords (159.0, 163.0), timeStamp: 2017-03-05 10:53:31.092
LEye coords (162.0, 182.0), REye coords (159.0, 162.0), timeStamp: 2017-03-05 10:53:31.126
LEye coords (162.0, 180.0), REye coords (159.0, 160.0), timeStamp: 2017-03-05 10:53:31.160
LEye coords (163.0, 178.0), REye coords (160.0, 158.0), timeStamp: 2017-03-05 10:53:31.203
LEye coords (163.0, 176.0), REye coords (160.0, 157.0), timeStamp: 2017-03-05 10:53:31.237
LEye coords (163.0, 174.0), REye coords (161.0, 155.0), timeStamp: 2017-03-05 10:53:31.270
LEye coords (164.0, 173.0), REye coords (161.0, 153.0), timeStamp: 2017-03-05 10:53:31.315
LEye coords (164.0, 172.0), REye coords (162.0, 152.0), timeStamp: 2017-03-05 10:53:31.350
LEye coords (165.0, 171.0), REye coords (162.0, 152.0), timeStamp: 2017-03-05 10:53:31.383
LEye coords (165.0, 171.0), REye coords (163.0, 151.0), timeStamp: 2017-03-05 10:53:31.428
LEye coords (166.0, 170.0), REye coords (164.0, 150.0), timeStamp: 2017-03-05 10:53:31.460
LEye coords (166.0, 170.0), REye coords (165.0, 150.0), timeStamp: 2017-03-05 10:53:31.494
LEye coords (166.0, 169.0), REye coords (166.0, 149.0), timeStamp: 2017-03-05 10:53:31.539
LEye coords (168.0, 169.0), REye coords (167.0, 148.0), timeStamp: 2017-03-05 10:53:31.574
LEye coords (0.0, 0.0), REye coords (168.0, 148.0), timeStamp: 2017-03-05 10:53:31.608
LEye coords (169.0, 168.0), REye coords (169.0, 147.0), timeStamp: 2017-03-05 10:53:31.642
LEye coords (0.0, 0.0), REye coords (171.0, 147.0), timeStamp: 2017-03-05 10:53:31.687
LEye coords (170.0, 168.0), REye coords (172.0, 146.0), timeStamp: 2017-03-05 10:53:31.721
LEye coords (0.0, 0.0), REye coords (173.0, 146.0), timeStamp: 2017-03-05 10:53:31.755
LEye coords (170.0, 168.0), REye coords (175.0, 146.0), timeStamp: 2017-03-05 10:53:31.834
