LEye coords (238.0, 217.0), REye coords (244.0, 220.0), timeStamp: 2017-03-05 11:41:44.189
LEye coords (239.0, 216.0), REye coords (244.0, 220.0), timeStamp: 2017-03-05 11:41:44.234
LEye coords (239.0, 216.0), REye coords (244.0, 220.0), timeStamp: 2017-03-05 11:41:44.268
LEye coords (239.0, 216.0), REye coords (244.0, 220.0), timeStamp: 2017-03-05 11:41:44.302
LEye coords (239.0, 216.0), REye coords (244.0, 220.0), timeStamp: 2017-03-05 11:41:44.346
LEye coords (239.0, 216.0), REye coords (245.0, 220.0), timeStamp: 2017-03-05 11:41:44.379
LEye coords (240.0, 216.0), REye coords (245.0, 220.0), timeStamp: 2017-03-05 11:41:44.413
LEye coords (240.0, 216.0), REye coords (245.0, 220.0), timeStamp: 2017-03-05 11:41:44.457
LEye coords (240.0, 216.0), REye coords (245.0, 220.0), timeStamp: 2017-03-05 11:41:44.490
LEye coords (241.0, 214.0), REye coords (247.0, 218.0), timeStamp: 2017-03-05 11:41:44.524
LEye coords (267.0, 169.0), REye coords (268.0, 173.0), timeStamp: 2017-03-05 11:41:44.568
LEye coords (267.0, 169.0), REye coords (270.0, 173.0), timeStamp: 2017-03-05 11:41:44.601
LEye coords (266.0, 169.0), REye coords (269.0, 173.0), timeStamp: 2017-03-05 11:41:44.635
LEye coords (265.0, 168.0), REye coords (268.0, 171.0), timeStamp: 2017-03-05 11:41:44.679
LEye coords (264.0, 168.0), REye coords (268.0, 171.0), timeStamp: 2017-03-05 11:41:44.712
LEye coords (264.0, 167.0), REye coords (268.0, 171.0), timeStamp: 2017-03-05 11:41:44.747
LEye coords (263.0, 167.0), REye coords (267.0, 171.0), timeStamp: 2017-03-05 11:41:44.781
LEye coords (263.0, 168.0), REye coords (268.0, 171.0), timeStamp: 2017-03-05 11:41:44.825
LEye coords (268.0, 166.0), REye coords (272.0, 168.0), timeStamp: 2017-03-05 11:41:44.859
LEye coords (271.0, 165.0), REye coords (275.0, 167.0), timeStamp: 2017-03-05 11:41:44.892
LEye coords (274.0, 164.0), REye coords (277.0, 166.0), timeStamp: 2017-03-05 11:41:44.937
LEye coords (277.0, 162.0), REye coords (280.0, 164.0), timeStamp: 2017-03-05 11:41:44.971
LEye coords (279.0, 162.0), REye coords (281.0, 163.0), timeStamp: 2017-03-05 11:41:45.005
LEye coords (281.0, 161.0), REye coords (283.0, 162.0), timeStamp: 2017-03-05 11:41:45.049
LEye coords (282.0, 160.0), REye coords (285.0, 162.0), timeStamp: 2017-03-05 11:41:45.082
LEye coords (284.0, 160.0), REye coords (286.0, 161.0), timeStamp: 2017-03-05 11:41:45.116
LEye coords (285.0, 160.0), REye coords (287.0, 160.0), timeStamp: 2017-03-05 11:41:45.161
LEye coords (287.0, 159.0), REye coords (288.0, 160.0), timeStamp: 2017-03-05 11:41:45.195
LEye coords (288.0, 158.0), REye coords (289.0, 159.0), timeStamp: 2017-03-05 11:41:45.228
LEye coords (289.0, 158.0), REye coords (298.0, 157.0), timeStamp: 2017-03-05 11:41:45.262
