LEye coords (114.0, 133.0), REye coords (0.0, 0.0), timeStamp: 2017-03-05 11:41:46.530
LEye coords (113.0, 133.0), REye coords (0.0, 0.0), timeStamp: 2017-03-05 11:41:46.564
LEye coords (113.0, 134.0), REye coords (0.0, 0.0), timeStamp: 2017-03-05 11:41:46.600
LEye coords (113.0, 134.0), REye coords (0.0, 0.0), timeStamp: 2017-03-05 11:41:46.633
LEye coords (113.0, 134.0), REye coords (0.0, 0.0), timeStamp: 2017-03-05 11:41:46.677
LEye coords (113.0, 134.0), REye coords (0.0, 0.0), timeStamp: 2017-03-05 11:41:46.710
LEye coords (113.0, 134.0), REye coords (0.0, 0.0), timeStamp: 2017-03-05 11:41:46.743
LEye coords (112.0, 135.0), REye coords (0.0, 0.0), timeStamp: 2017-03-05 11:41:46.788
LEye coords (112.0, 135.0), REye coords (0.0, 0.0), timeStamp: 2017-03-05 11:41:46.822
LEye coords (112.0, 135.0), REye coords (0.0, 0.0), timeStamp: 2017-03-05 11:41:46.855
LEye coords (112.0, 135.0), REye coords (0.0, 0.0), timeStamp: 2017-03-05 11:41:46.900
LEye coords (112.0, 135.0), REye coords (0.0, 0.0), timeStamp: 2017-03-05 11:41:46.933
LEye coords (112.0, 135.0), REye coords (0.0, 0.0), timeStamp: 2017-03-05 11:41:46.967
LEye coords (112.0, 136.0), REye coords (0.0, 0.0), timeStamp: 2017-03-05 11:41:47.010
LEye coords (113.0, 134.0), REye coords (129.0, 115.0), timeStamp: 2017-03-05 11:41:47.044
LEye coords (114.0, 133.0), REye coords (131.0, 114.0), timeStamp: 2017-03-05 11:41:47.078
LEye coords (115.0, 132.0), REye coords (132.0, 113.0), timeStamp: 2017-03-05 11:41:47.112
LEye coords (116.0, 131.0), REye coords (132.0, 113.0), timeStamp: 2017-03-05 11:41:47.156
LEye coords (117.0, 129.0), REye coords (0.0, 0.0), timeStamp: 2017-03-05 11:41:47.190
LEye coords (118.0, 128.0), REye coords (0.0, 0.0), timeStamp: 2017-03-05 11:41:47.224
LEye coords (120.0, 127.0), REye coords (0.0, 0.0), timeStamp: 2017-03-05 11:41:47.269
LEye coords (121.0, 126.0), REye coords (0.0, 0.0), timeStamp: 2017-03-05 11:41:47.302
LEye coords (122.0, 124.0), REye coords (133.0, 112.0), timeStamp: 2017-03-05 11:41:47.335
LEye coords (124.0, 124.0), REye coords (134.0, 114.0), timeStamp: 2017-03-05 11:41:47.379
LEye coords (125.0, 123.0), REye coords (135.0, 114.0), timeStamp: 2017-03-05 11:41:47.412
LEye coords (127.0, 122.0), REye coords (136.0, 115.0), timeStamp: 2017-03-05 11:41:47.455
LEye coords (129.0, 122.0), REye coords (137.0, 116.0), timeStamp: 2017-03-05 11:41:47.489
LEye coords (130.0, 121.0), REye coords (137.0, 117.0), timeStamp: 2017-03-05 11:41:47.522
LEye coords (132.0, 121.0), REye coords (137.0, 117.0), timeStamp: 2017-03-05 11:41:47.556
LEye coords (133.0, 121.0), REye coords (138.0, 117.0), timeStamp: 2017-03-05 11:41:47.601
LEye coords (134.0, 120.0), REye coords (138.0, 118.0), timeStamp: 2017-03-05 11:41:47.635
LEye coords (135.0, 120.0), REye coords (139.0, 118.0), timeStamp: 2017-03-05 11:41:47.669
