LEye coords (236.0, 217.0), REye coords (234.0, 226.0), timeStamp: 2017-03-05 11:41:45.373
LEye coords (235.0, 219.0), REye coords (234.0, 227.0), timeStamp: 2017-03-05 11:41:45.417
LEye coords (235.0, 220.0), REye coords (234.0, 228.0), timeStamp: 2017-03-05 11:41:45.450
LEye coords (235.0, 222.0), REye coords (234.0, 228.0), timeStamp: 2017-03-05 11:41:45.494
LEye coords (235.0, 224.0), REye coords (235.0, 228.0), timeStamp: 2017-03-05 11:41:45.528
LEye coords (235.0, 225.0), REye coords (235.0, 229.0), timeStamp: 2017-03-05 11:41:45.562
LEye coords (234.0, 225.0), REye coords (235.0, 228.0), timeStamp: 2017-03-05 11:41:45.596
LEye coords (234.0, 225.0), REye coords (235.0, 228.0), timeStamp: 2017-03-05 11:41:45.639
LEye coords (235.0, 225.0), REye coords (235.0, 228.0), timeStamp: 2017-03-05 11:41:45.673
LEye coords (234.0, 226.0), REye coords (235.0, 228.0), timeStamp: 2017-03-05 11:41:45.706
LEye coords (233.0, 226.0), REye coords (234.0, 229.0), timeStamp: 2017-03-05 11:41:45.750
LEye coords (174.0, 233.0), REye coords (177.0, 238.0), timeStamp: 2017-03-05 11:41:45.783
LEye coords (173.0, 222.0), REye coords (174.0, 226.0), timeStamp: 2017-03-05 11:41:45.817
LEye coords (172.0, 226.0), REye coords (174.0, 233.0), timeStamp: 2017-03-05 11:41:45.861
LEye coords (172.0, 228.0), REye coords (175.0, 235.0), timeStamp: 2017-03-05 11:41:45.895
LEye coords (173.0, 230.0), REye coords (175.0, 236.0), timeStamp: 2017-03-05 11:41:45.929
LEye coords (173.0, 233.0), REye coords (173.0, 236.0), timeStamp: 2017-03-05 11:41:45.972
LEye coords (159.0, 247.0), REye coords (160.0, 244.0), timeStamp: 2017-03-05 11:41:46.005
LEye coords (151.0, 258.0), REye coords (0.0, 0.0), timeStamp: 2017-03-05 11:41:46.039
LEye coords (148.0, 262.0), REye coords (0.0, 0.0), timeStamp: 2017-03-05 11:41:46.083
LEye coords (148.0, 265.0), REye coords (0.0, 0.0), timeStamp: 2017-03-05 11:41:46.117
LEye coords (147.0, 267.0), REye coords (0.0, 0.0), timeStamp: 2017-03-05 11:41:46.151
LEye coords (147.0, 269.0), REye coords (0.0, 0.0), timeStamp: 2017-03-05 11:41:46.195
LEye coords (146.0, 270.0), REye coords (0.0, 0.0), timeStamp: 2017-03-05 11:41:46.229
LEye coords (145.0, 271.0), REye coords (0.0, 0.0), timeStamp: 2017-03-05 11:41:46.262
LEye coords (145.0, 272.0), REye coords (0.0, 0.0), timeStamp: 2017-03-05 11:41:46.306
LEye coords (143.0, 280.0), REye coords (0.0, 0.0), timeStamp: 2017-03-05 11:41:46.340
LEye coords (143.0, 288.0), REye coords (0.0, 0.0), timeStamp: 2017-03-05 11:41:46.375
LEye coords (142.0, 285.0), REye coords (0.0, 0.0), timeStamp: 2017-03-05 11:41:46.418
