LEye coords (217.0, 200.0), REye coords (218.0, 199.0), timeStamp: 2017-03-05 11:41:47.782
LEye coords (226.0, 203.0), REye coords (219.0, 200.0), timeStamp: 2017-03-05 11:41:47.816
LEye coords (223.0, 204.0), REye coords (219.0, 200.0), timeStamp: 2017-03-05 11:41:47.861
LEye coords (222.0, 203.0), REye coords (220.0, 201.0), timeStamp: 2017-03-05 11:41:47.895
LEye coords (222.0, 204.0), REye coords (220.0, 201.0), timeStamp: 2017-03-05 11:41:47.929
LEye coords (222.0, 205.0), REye coords (221.0, 202.0), timeStamp: 2017-03-05 11:41:47.972
LEye coords (222.0, 205.0), REye coords (222.0, 203.0), timeStamp: 2017-03-05 11:41:48.006
LEye coords (222.0, 206.0), REye coords (222.0, 203.0), timeStamp: 2017-03-05 11:41:48.040
LEye coords (222.0, 205.0), REye coords (223.0, 204.0), timeStamp: 2017-03-05 11:41:48.083
LEye coords (222.0, 205.0), REye coords (223.0, 205.0), timeStamp: 2017-03-05 11:41:48.117
LEye coords (222.0, 205.0), REye coords (224.0, 206.0), timeStamp: 2017-03-05 11:41:48.150
LEye coords (317.0, 206.0), REye coords (315.0, 203.0), timeStamp: 2017-03-05 11:41:48.193
LEye coords (316.0, 207.0), REye coords (323.0, 204.0), timeStamp: 2017-03-05 11:41:48.228
LEye coords (315.0, 206.0), REye coords (323.0, 203.0), timeStamp: 2017-03-05 11:41:48.262
LEye coords (315.0, 204.0), REye coords (322.0, 203.0), timeStamp: 2017-03-05 11:41:48.306
LEye coords (315.0, 204.0), REye coords (321.0, 203.0), timeStamp: 2017-03-05 11:41:48.338
LEye coords (315.0, 202.0), REye coords (318.0, 204.0), timeStamp: 2017-03-05 11:41:48.371
LEye coords (315.0, 208.0), REye coords (318.0, 209.0), timeStamp: 2017-03-05 11:41:48.416
LEye coords (317.0, 206.0), REye coords (317.0, 207.0), timeStamp: 2017-03-05 11:41:48.450
LEye coords (349.0, 205.0), REye coords (344.0, 205.0), timeStamp: 2017-03-05 11:41:48.484
LEye coords (0.0, 0.0), REye coords (0.0, 0.0), timeStamp: 2017-03-05 11:41:48.519
LEye coords (365.0, 205.0), REye coords (360.0, 205.0), timeStamp: 2017-03-05 11:41:48.563
LEye coords (414.0, 205.0), REye coords (408.0, 201.0), timeStamp: 2017-03-05 11:41:48.595
LEye coords (414.0, 204.0), REye coords (407.0, 204.0), timeStamp: 2017-03-05 11:41:48.629
LEye coords (408.0, 207.0), REye coords (402.0, 206.0), timeStamp: 2017-03-05 11:41:48.673
LEye coords (406.0, 208.0), REye coords (399.0, 209.0), timeStamp: 2017-03-05 11:41:48.706
LEye coords (404.0, 208.0), REye coords (399.0, 209.0), timeStamp: 2017-03-05 11:41:48.750
LEye coords (403.0, 209.0), REye coords (398.0, 209.0), timeStamp: 2017-03-05 11:41:48.786
LEye coords (403.0, 209.0), REye coords (397.0, 209.0), timeStamp: 2017-03-05 11:41:48.818
LEye coords (403.0, 209.0), REye coords (396.0, 208.0), timeStamp: 2017-03-05 11:41:48.852
