LEye coords (313.0, 191.0), REye coords (285.0, 195.0), timeStamp: 2017-03-05 11:42:35.863
LEye coords (313.0, 198.0), REye coords (285.0, 201.0), timeStamp: 2017-03-05 11:42:35.898
LEye coords (313.0, 198.0), REye coords (285.0, 201.0), timeStamp: 2017-03-05 11:42:35.931
LEye coords (313.0, 198.0), REye coords (285.0, 201.0), timeStamp: 2017-03-05 11:42:35.975
LEye coords (313.0, 198.0), REye coords (285.0, 201.0), timeStamp: 2017-03-05 11:42:36.009
LEye coords (313.0, 197.0), REye coords (285.0, 201.0), timeStamp: 2017-03-05 11:42:36.043
LEye coords (314.0, 197.0), REye coords (286.0, 201.0), timeStamp: 2017-03-05 11:42:36.087
LEye coords (314.0, 197.0), REye coords (286.0, 201.0), timeStamp: 2017-03-05 11:42:36.120
LEye coords (314.0, 197.0), REye coords (286.0, 201.0), timeStamp: 2017-03-05 11:42:36.154
LEye coords (314.0, 198.0), REye coords (286.0, 201.0), timeStamp: 2017-03-05 11:42:36.198
LEye coords (312.0, 199.0), REye coords (284.0, 202.0), timeStamp: 2017-03-05 11:42:36.232
LEye coords (238.0, 237.0), REye coords (224.0, 244.0), timeStamp: 2017-03-05 11:42:36.265
LEye coords (237.0, 240.0), REye coords (221.0, 246.0), timeStamp: 2017-03-05 11:42:36.310
LEye coords (237.0, 242.0), REye coords (221.0, 248.0), timeStamp: 2017-03-05 11:42:36.344
LEye coords (236.0, 242.0), REye coords (221.0, 247.0), timeStamp: 2017-03-05 11:42:36.379
LEye coords (230.0, 239.0), REye coords (215.0, 244.0), timeStamp: 2017-03-05 11:42:36.412
LEye coords (198.0, 213.0), REye coords (188.0, 216.0), timeStamp: 2017-03-05 11:42:36.455
LEye coords (196.0, 216.0), REye coords (187.0, 215.0), timeStamp: 2017-03-05 11:42:36.489
LEye coords (197.0, 214.0), REye coords (185.0, 217.0), timeStamp: 2017-03-05 11:42:36.522
LEye coords (197.0, 214.0), REye coords (184.0, 217.0), timeStamp: 2017-03-05 11:42:36.565
LEye coords (198.0, 214.0), REye coords (184.0, 218.0), timeStamp: 2017-03-05 11:42:36.599
LEye coords (197.0, 214.0), REye coords (183.0, 217.0), timeStamp: 2017-03-05 11:42:36.632
LEye coords (197.0, 214.0), REye coords (182.0, 217.0), timeStamp: 2017-03-05 11:42:36.677
LEye coords (197.0, 214.0), REye coords (182.0, 218.0), timeStamp: 2017-03-05 11:42:36.711
LEye coords (197.0, 213.0), REye coords (181.0, 218.0), timeStamp: 2017-03-05 11:42:36.744
LEye coords (198.0, 213.0), REye coords (181.0, 217.0), timeStamp: 2017-03-05 11:42:36.788
