LEye coords (248.0, 175.0), REye coords (223.0, 175.0), timeStamp: 2017-03-05 11:42:41.261
LEye coords (248.0, 175.0), REye coords (224.0, 175.0), timeStamp: 2017-03-05 11:42:41.305
LEye coords (249.0, 175.0), REye coords (225.0, 175.0), timeStamp: 2017-03-05 11:42:41.339
LEye coords (249.0, 175.0), REye coords (225.0, 175.0), timeStamp: 2017-03-05 11:42:41.374
LEye coords (249.0, 175.0), REye coords (226.0, 175.0), timeStamp: 2017-03-05 11:42:41.407
LEye coords (250.0, 175.0), REye coords (227.0, 175.0), timeStamp: 2017-03-05 11:42:41.452
LEye coords (250.0, 175.0), REye coords (227.0, 175.0), timeStamp: 2017-03-05 11:42:41.486
LEye coords (251.0, 175.0), REye coords (228.0, 175.0), timeStamp: 2017-03-05 11:42:41.519
LEye coords (251.0, 175.0), REye coords (229.0, 175.0), timeStamp: 2017-03-05 11:42:41.563
LEye coords (251.0, 175.0), REye coords (230.0, 175.0), timeStamp: 2017-03-05 11:42:41.596
LEye coords (252.0, 175.0), REye coords (231.0, 175.0), timeStamp: 2017-03-05 11:42:41.630
LEye coords (311.0, 186.0), REye coords (294.0, 180.0), timeStamp: 2017-03-05 11:42:41.673
LEye coords (310.0, 187.0), REye coords (285.0, 193.0), timeStamp: 2017-03-05 11:42:41.706
LEye coords (311.0, 188.0), REye coords (286.0, 189.0), timeStamp: 2017-03-05 11:42:41.750
LEye coords (311.0, 187.0), REye coords (287.0, 188.0), timeStamp: 2017-03-05 11:42:41.784
LEye coords (297.0, 185.0), REye coords (273.0, 186.0), timeStamp: 2017-03-05 11:42:41.817
LEye coords (289.0, 183.0), REye coords (266.0, 186.0), timeStamp: 2017-03-05 11:42:41.851
LEye coords (284.0, 182.0), REye coords (261.0, 185.0), timeStamp: 2017-03-05 11:42:41.895
LEye coords (280.0, 181.0), REye coords (257.0, 185.0), timeStamp: 2017-03-05 11:42:41.929
LEye coords (277.0, 181.0), REye coords (254.0, 184.0), timeStamp: 2017-03-05 11:42:41.963
LEye coords (275.0, 180.0), REye coords (251.0, 184.0), timeStamp: 2017-03-05 11:42:42.007
LEye coords (259.0, 177.0), REye coords (249.0, 184.0), timeStamp: 2017-03-05 11:42:42.041
LEye coords (260.0, 176.0), REye coords (238.0, 180.0), timeStamp: 2017-03-05 11:42:42.076
LEye coords (264.0, 173.0), REye coords (239.0, 174.0), timeStamp: 2017-03-05 11:42:42.120
LEye coords (266.0, 173.0), REye coords (240.0, 174.0), timeStamp: 2017-03-05 11:42:42.154
LEye coords (267.0, 173.0), REye coords (242.0, 174.0), timeStamp: 2017-03-05 11:42:42.187
LEye coords (267.0, 173.0), REye coords (243.0, 173.0), timeStamp: 2017-03-05 11:42:42.231
LEye coords (267.0, 173.0), REye coords (242.0, 173.0), timeStamp: 2017-03-05 11:42:42.265
LEye coords (267.0, 173.0), REye coords (242.0, 174.0), timeStamp: 2017-03-05 11:42:42.299
LEye coords (267.0, 174.0), REye coords (243.0, 174.0), timeStamp: 2017-03-05 11:42:42.333
LEye coords (267.0, 174.0), REye coords (243.0, 174.0), timeStamp: 2017-03-05 11:42:42.378
LEye coords (267.0, 174.0), REye coords (243.0, 174.0), timeStamp: 2017-03-05 11:42:42.411
