LEye coords (203.0, 127.0), REye coords (185.0, 127.0), timeStamp: 2017-03-05 11:42:47.110
LEye coords (203.0, 127.0), REye coords (185.0, 127.0), timeStamp: 2017-03-05 11:42:47.144
LEye coords (203.0, 127.0), REye coords (185.0, 126.0), timeStamp: 2017-03-05 11:42:47.188
LEye coords (203.0, 127.0), REye coords (185.0, 126.0), timeStamp: 2017-03-05 11:42:47.223
LEye coords (203.0, 127.0), REye coords (185.0, 126.0), timeStamp: 2017-03-05 11:42:47.257
LEye coords (203.0, 127.0), REye coords (185.0, 126.0), timeStamp: 2017-03-05 11:42:47.301
LEye coords (203.0, 127.0), REye coords (185.0, 126.0), timeStamp: 2017-03-05 11:42:47.334
LEye coords (203.0, 127.0), REye coords (185.0, 126.0), timeStamp: 2017-03-05 11:42:47.367
LEye coords (203.0, 127.0), REye coords (185.0, 126.0), timeStamp: 2017-03-05 11:42:47.413
LEye coords (203.0, 127.0), REye coords (186.0, 126.0), timeStamp: 2017-03-05 11:42:47.447
LEye coords (168.0, 109.0), REye coords (151.0, 110.0), timeStamp: 2017-03-05 11:42:47.481
LEye coords (165.0, 111.0), REye coords (150.0, 109.0), timeStamp: 2017-03-05 11:42:47.515
LEye coords (165.0, 112.0), REye coords (151.0, 110.0), timeStamp: 2017-03-05 11:42:47.560
LEye coords (165.0, 111.0), REye coords (151.0, 109.0), timeStamp: 2017-03-05 11:42:47.593
LEye coords (165.0, 111.0), REye coords (151.0, 110.0), timeStamp: 2017-03-05 11:42:47.627
LEye coords (135.0, 109.0), REye coords (127.0, 103.0), timeStamp: 2017-03-05 11:42:47.671
LEye coords (135.0, 109.0), REye coords (127.0, 103.0), timeStamp: 2017-03-05 11:42:47.703
LEye coords (135.0, 108.0), REye coords (125.0, 105.0), timeStamp: 2017-03-05 11:42:47.738
LEye coords (135.0, 108.0), REye coords (124.0, 106.0), timeStamp: 2017-03-05 11:42:47.781
LEye coords (135.0, 108.0), REye coords (123.0, 106.0), timeStamp: 2017-03-05 11:42:47.815
LEye coords (124.0, 105.0), REye coords (120.0, 105.0), timeStamp: 2017-03-05 11:42:47.849
LEye coords (126.0, 103.0), REye coords (107.0, 104.0), timeStamp: 2017-03-05 11:42:47.893
LEye coords (126.0, 103.0), REye coords (108.0, 105.0), timeStamp: 2017-03-05 11:42:47.926
LEye coords (126.0, 104.0), REye coords (107.0, 104.0), timeStamp: 2017-03-05 11:42:47.960
LEye coords (125.0, 103.0), REye coords (106.0, 103.0), timeStamp: 2017-03-05 11:42:48.004
LEye coords (125.0, 104.0), REye coords (106.0, 103.0), timeStamp: 2017-03-05 11:42:48.038
LEye coords (124.0, 104.0), REye coords (105.0, 102.0), timeStamp: 2017-03-05 11:42:48.072
LEye coords (124.0, 104.0), REye coords (105.0, 102.0), timeStamp: 2017-03-05 11:42:48.106
