LEye coords (174.0, 260.0), REye coords (175.0, 270.0), timeStamp: 2017-03-05 11:44:16.756
LEye coords (232.0, 173.0), REye coords (233.0, 181.0), timeStamp: 2017-03-05 11:44:16.790
LEye coords (232.0, 174.0), REye coords (233.0, 181.0), timeStamp: 2017-03-05 11:44:16.823
LEye coords (232.0, 175.0), REye coords (233.0, 182.0), timeStamp: 2017-03-05 11:44:16.867
LEye coords (232.0, 175.0), REye coords (232.0, 183.0), timeStamp: 2017-03-05 11:44:16.901
LEye coords (232.0, 176.0), REye coords (232.0, 183.0), timeStamp: 2017-03-05 11:44:16.934
LEye coords (232.0, 176.0), REye coords (232.0, 184.0), timeStamp: 2017-03-05 11:44:16.979
LEye coords (232.0, 177.0), REye coords (231.0, 185.0), timeStamp: 2017-03-05 11:44:17.014
LEye coords (232.0, 178.0), REye coords (231.0, 185.0), timeStamp: 2017-03-05 11:44:17.049
LEye coords (232.0, 178.0), REye coords (231.0, 186.0), timeStamp: 2017-03-05 11:44:17.082
LEye coords (231.0, 179.0), REye coords (231.0, 186.0), timeStamp: 2017-03-05 11:44:17.127
LEye coords (234.0, 179.0), REye coords (275.0, 189.0), timeStamp: 2017-03-05 11:44:17.160
LEye coords (309.0, 178.0), REye coords (314.0, 181.0), timeStamp: 2017-03-05 11:44:17.194
LEye coords (308.0, 176.0), REye coords (316.0, 182.0), timeStamp: 2017-03-05 11:44:17.238
LEye coords (308.0, 176.0), REye coords (316.0, 183.0), timeStamp: 2017-03-05 11:44:17.271
LEye coords (308.0, 176.0), REye coords (316.0, 183.0), timeStamp: 2017-03-05 11:44:17.305
LEye coords (308.0, 176.0), REye coords (317.0, 185.0), timeStamp: 2017-03-05 11:44:17.348
LEye coords (308.0, 176.0), REye coords (319.0, 180.0), timeStamp: 2017-03-05 11:44:17.382
LEye coords (308.0, 175.0), REye coords (320.0, 179.0), timeStamp: 2017-03-05 11:44:17.416
LEye coords (308.0, 175.0), REye coords (320.0, 178.0), timeStamp: 2017-03-05 11:44:17.460
LEye coords (308.0, 174.0), REye coords (319.0, 178.0), timeStamp: 2017-03-05 11:44:17.493
LEye coords (308.0, 174.0), REye coords (320.0, 178.0), timeStamp: 2017-03-05 11:44:17.526
LEye coords (308.0, 173.0), REye coords (320.0, 178.0), timeStamp: 2017-03-05 11:44:17.570
LEye coords (308.0, 173.0), REye coords (320.0, 178.0), timeStamp: 2017-03-05 11:44:17.604
LEye coords (308.0, 173.0), REye coords (319.0, 178.0), timeStamp: 2017-03-05 11:44:17.637
