LEye coords (217.0, 138.0), REye coords (240.0, 183.0), timeStamp: 2017-03-05 11:44:14.753
LEye coords (231.0, 165.0), REye coords (0.0, 0.0), timeStamp: 2017-03-05 11:44:14.786
LEye coords (230.0, 164.0), REye coords (0.0, 0.0), timeStamp: 2017-03-05 11:44:14.830
LEye coords (230.0, 164.0), REye coords (0.0, 0.0), timeStamp: 2017-03-05 11:44:14.864
LEye coords (231.0, 165.0), REye coords (0.0, 0.0), timeStamp: 2017-03-05 11:44:14.897
LEye coords (233.0, 174.0), REye coords (0.0, 0.0), timeStamp: 2017-03-05 11:44:14.942
LEye coords (231.0, 171.0), REye coords (0.0, 0.0), timeStamp: 2017-03-05 11:44:14.975
LEye coords (230.0, 173.0), REye coords (251.0, 180.0), timeStamp: 2017-03-05 11:44:15.009
LEye coords (230.0, 174.0), REye coords (249.0, 177.0), timeStamp: 2017-03-05 11:44:15.053
LEye coords (230.0, 174.0), REye coords (247.0, 174.0), timeStamp: 2017-03-05 11:44:15.087
LEye coords (230.0, 174.0), REye coords (247.0, 176.0), timeStamp: 2017-03-05 11:44:15.122
LEye coords (294.0, 187.0), REye coords (300.0, 187.0), timeStamp: 2017-03-05 11:44:15.165
LEye coords (332.0, 184.0), REye coords (337.0, 204.0), timeStamp: 2017-03-05 11:44:15.198
LEye coords (331.0, 188.0), REye coords (336.0, 205.0), timeStamp: 2017-03-05 11:44:15.231
LEye coords (330.0, 191.0), REye coords (335.0, 205.0), timeStamp: 2017-03-05 11:44:15.275
LEye coords (330.0, 192.0), REye coords (336.0, 206.0), timeStamp: 2017-03-05 11:44:15.309
LEye coords (331.0, 191.0), REye coords (336.0, 206.0), timeStamp: 2017-03-05 11:44:15.342
LEye coords (330.0, 190.0), REye coords (338.0, 204.0), timeStamp: 2017-03-05 11:44:15.385
LEye coords (331.0, 193.0), REye coords (337.0, 205.0), timeStamp: 2017-03-05 11:44:15.419
LEye coords (332.0, 191.0), REye coords (338.0, 205.0), timeStamp: 2017-03-05 11:44:15.452
LEye coords (332.0, 192.0), REye coords (339.0, 206.0), timeStamp: 2017-03-05 11:44:15.496
LEye coords (332.0, 193.0), REye coords (338.0, 206.0), timeStamp: 2017-03-05 11:44:15.530
LEye coords (331.0, 192.0), REye coords (338.0, 205.0), timeStamp: 2017-03-05 11:44:15.563
LEye coords (331.0, 192.0), REye coords (338.0, 204.0), timeStamp: 2017-03-05 11:44:15.607
LEye coords (331.0, 193.0), REye coords (338.0, 204.0), timeStamp: 2017-03-05 11:44:15.639
LEye coords (330.0, 193.0), REye coords (337.0, 204.0), timeStamp: 2017-03-05 11:44:15.683
LEye coords (330.0, 193.0), REye coords (337.0, 203.0), timeStamp: 2017-03-05 11:44:15.717
