LEye coords (76.0, 255.0), REye coords (72.0, 262.0), timeStamp: 2017-03-05 11:44:18.903
LEye coords (75.0, 256.0), REye coords (71.0, 263.0), timeStamp: 2017-03-05 11:44:18.937
LEye coords (74.0, 257.0), REye coords (70.0, 264.0), timeStamp: 2017-03-05 11:44:18.971
LEye coords (73.0, 257.0), REye coords (69.0, 265.0), timeStamp: 2017-03-05 11:44:19.015
LEye coords (72.0, 257.0), REye coords (68.0, 265.0), timeStamp: 2017-03-05 11:44:19.049
LEye coords (72.0, 257.0), REye coords (62.0, 275.0), timeStamp: 2017-03-05 11:44:19.084
LEye coords (71.0, 257.0), REye coords (62.0, 273.0), timeStamp: 2017-03-05 11:44:19.117
LEye coords (133.0, 236.0), REye coords (99.0, 264.0), timeStamp: 2017-03-05 11:44:19.161
LEye coords (133.0, 245.0), REye coords (0.0, 0.0), timeStamp: 2017-03-05 11:44:19.194
LEye coords (134.0, 248.0), REye coords (111.0, 262.0), timeStamp: 2017-03-05 11:44:19.227
LEye coords (134.0, 247.0), REye coords (117.0, 262.0), timeStamp: 2017-03-05 11:44:19.271
LEye coords (134.0, 247.0), REye coords (136.0, 262.0), timeStamp: 2017-03-05 11:44:19.305
LEye coords (131.0, 249.0), REye coords (134.0, 262.0), timeStamp: 2017-03-05 11:44:19.339
LEye coords (133.0, 251.0), REye coords (133.0, 262.0), timeStamp: 2017-03-05 11:44:19.382
LEye coords (133.0, 253.0), REye coords (133.0, 261.0), timeStamp: 2017-03-05 11:44:19.415
LEye coords (133.0, 250.0), REye coords (133.0, 261.0), timeStamp: 2017-03-05 11:44:19.449
LEye coords (140.0, 251.0), REye coords (138.0, 262.0), timeStamp: 2017-03-05 11:44:19.493
LEye coords (144.0, 252.0), REye coords (142.0, 262.0), timeStamp: 2017-03-05 11:44:19.526
LEye coords (147.0, 253.0), REye coords (145.0, 262.0), timeStamp: 2017-03-05 11:44:19.560
LEye coords (150.0, 253.0), REye coords (147.0, 262.0), timeStamp: 2017-03-05 11:44:19.604
LEye coords (151.0, 253.0), REye coords (149.0, 262.0), timeStamp: 2017-03-05 11:44:19.638
LEye coords (153.0, 253.0), REye coords (150.0, 263.0), timeStamp: 2017-03-05 11:44:19.672
LEye coords (154.0, 253.0), REye coords (151.0, 263.0), timeStamp: 2017-03-05 11:44:19.715
LEye coords (155.0, 254.0), REye coords (153.0, 263.0), timeStamp: 2017-03-05 11:44:19.748
LEye coords (155.0, 253.0), REye coords (153.0, 263.0), timeStamp: 2017-03-05 11:44:19.783
LEye coords (156.0, 253.0), REye coords (154.0, 263.0), timeStamp: 2017-03-05 11:44:19.827
LEye coords (156.0, 253.0), REye coords (155.0, 264.0), timeStamp: 2017-03-05 11:44:19.861
