LEye coords (245.0, 100.0), REye coords (247.0, 85.0), timeStamp: 2017-03-05 11:44:21.050
LEye coords (246.0, 100.0), REye coords (249.0, 86.0), timeStamp: 2017-03-05 11:44:21.084
LEye coords (248.0, 100.0), REye coords (250.0, 85.0), timeStamp: 2017-03-05 11:44:21.117
LEye coords (249.0, 100.0), REye coords (251.0, 84.0), timeStamp: 2017-03-05 11:44:21.162
LEye coords (258.0, 104.0), REye coords (252.0, 84.0), timeStamp: 2017-03-05 11:44:21.196
LEye coords (255.0, 101.0), REye coords (253.0, 84.0), timeStamp: 2017-03-05 11:44:21.230
LEye coords (258.0, 102.0), REye coords (254.0, 83.0), timeStamp: 2017-03-05 11:44:21.264
LEye coords (254.0, 121.0), REye coords (246.0, 167.0), timeStamp: 2017-03-05 11:44:21.308
LEye coords (253.0, 132.0), REye coords (247.0, 170.0), timeStamp: 2017-03-05 11:44:21.342
LEye coords (251.0, 138.0), REye coords (249.0, 168.0), timeStamp: 2017-03-05 11:44:21.376
LEye coords (251.0, 143.0), REye coords (250.0, 167.0), timeStamp: 2017-03-05 11:44:21.410
LEye coords (250.0, 146.0), REye coords (250.0, 168.0), timeStamp: 2017-03-05 11:44:21.453
LEye coords (249.0, 169.0), REye coords (251.0, 172.0), timeStamp: 2017-03-05 11:44:21.486
LEye coords (259.0, 161.0), REye coords (264.0, 168.0), timeStamp: 2017-03-05 11:44:21.530
LEye coords (274.0, 156.0), REye coords (279.0, 161.0), timeStamp: 2017-03-05 11:44:21.564
LEye coords (278.0, 155.0), REye coords (283.0, 160.0), timeStamp: 2017-03-05 11:44:21.598
LEye coords (280.0, 156.0), REye coords (286.0, 160.0), timeStamp: 2017-03-05 11:44:21.632
LEye coords (282.0, 156.0), REye coords (287.0, 159.0), timeStamp: 2017-03-05 11:44:21.677
LEye coords (285.0, 153.0), REye coords (290.0, 157.0), timeStamp: 2017-03-05 11:44:21.710
LEye coords (0.0, 0.0), REye coords (294.0, 154.0), timeStamp: 2017-03-05 11:44:21.743
LEye coords (0.0, 0.0), REye coords (315.0, 135.0), timeStamp: 2017-03-05 11:44:21.789
LEye coords (0.0, 0.0), REye coords (310.0, 132.0), timeStamp: 2017-03-05 11:44:21.822
LEye coords (288.0, 150.0), REye coords (311.0, 134.0), timeStamp: 2017-03-05 11:44:21.855
LEye coords (0.0, 0.0), REye coords (311.0, 134.0), timeStamp: 2017-03-05 11:44:21.899
LEye coords (308.0, 131.0), REye coords (311.0, 135.0), timeStamp: 2017-03-05 11:44:21.933
LEye coords (309.0, 132.0), REye coords (312.0, 136.0), timeStamp: 2017-03-05 11:44:21.967
