LEye coords (156.0, 177.0), REye coords (161.0, 175.0), timeStamp: 2017-03-05 11:45:02.827
LEye coords (162.0, 209.0), REye coords (167.0, 208.0), timeStamp: 2017-03-05 11:45:02.870
LEye coords (162.0, 209.0), REye coords (167.0, 207.0), timeStamp: 2017-03-05 11:45:02.903
LEye coords (162.0, 209.0), REye coords (166.0, 208.0), timeStamp: 2017-03-05 11:45:02.937
LEye coords (162.0, 209.0), REye coords (166.0, 208.0), timeStamp: 2017-03-05 11:45:02.980
LEye coords (162.0, 209.0), REye coords (166.0, 208.0), timeStamp: 2017-03-05 11:45:03.014
LEye coords (162.0, 209.0), REye coords (165.0, 208.0), timeStamp: 2017-03-05 11:45:03.047
LEye coords (162.0, 209.0), REye coords (165.0, 209.0), timeStamp: 2017-03-05 11:45:03.091
LEye coords (162.0, 210.0), REye coords (165.0, 209.0), timeStamp: 2017-03-05 11:45:03.125
LEye coords (163.0, 210.0), REye coords (167.0, 210.0), timeStamp: 2017-03-05 11:45:03.159
LEye coords (290.0, 210.0), REye coords (306.0, 208.0), timeStamp: 2017-03-05 11:45:03.203
LEye coords (286.0, 209.0), REye coords (300.0, 215.0), timeStamp: 2017-03-05 11:45:03.236
LEye coords (287.0, 207.0), REye coords (300.0, 215.0), timeStamp: 2017-03-05 11:45:03.280
LEye coords (287.0, 207.0), REye coords (299.0, 215.0), timeStamp: 2017-03-05 11:45:03.314
LEye coords (287.0, 207.0), REye coords (300.0, 216.0), timeStamp: 2017-03-05 11:45:03.348
LEye coords (292.0, 207.0), REye coords (300.0, 217.0), timeStamp: 2017-03-05 11:45:03.382
LEye coords (291.0, 204.0), REye coords (299.0, 213.0), timeStamp: 2017-03-05 11:45:03.426
LEye coords (290.0, 209.0), REye coords (298.0, 214.0), timeStamp: 2017-03-05 11:45:03.459
LEye coords (293.0, 207.0), REye coords (299.0, 212.0), timeStamp: 2017-03-05 11:45:03.492
LEye coords (296.0, 201.0), REye coords (301.0, 207.0), timeStamp: 2017-03-05 11:45:03.536
LEye coords (299.0, 198.0), REye coords (303.0, 203.0), timeStamp: 2017-03-05 11:45:03.571
LEye coords (301.0, 196.0), REye coords (304.0, 201.0), timeStamp: 2017-03-05 11:45:03.605
LEye coords (302.0, 195.0), REye coords (305.0, 200.0), timeStamp: 2017-03-05 11:45:03.647
LEye coords (303.0, 193.0), REye coords (305.0, 199.0), timeStamp: 2017-03-05 11:45:03.681
LEye coords (305.0, 192.0), REye coords (307.0, 198.0), timeStamp: 2017-03-05 11:45:03.715
