LEye coords (238.0, 174.0), REye coords (241.0, 173.0), timeStamp: 2017-03-05 11:45:06.417
LEye coords (238.0, 174.0), REye coords (241.0, 173.0), timeStamp: 2017-03-05 11:45:06.460
LEye coords (238.0, 174.0), REye coords (241.0, 173.0), timeStamp: 2017-03-05 11:45:06.493
LEye coords (238.0, 174.0), REye coords (240.0, 173.0), timeStamp: 2017-03-05 11:45:06.527
LEye coords (238.0, 174.0), REye coords (240.0, 173.0), timeStamp: 2017-03-05 11:45:06.572
LEye coords (238.0, 174.0), REye coords (240.0, 173.0), timeStamp: 2017-03-05 11:45:06.604
LEye coords (239.0, 174.0), REye coords (240.0, 173.0), timeStamp: 2017-03-05 11:45:06.637
LEye coords (239.0, 174.0), REye coords (241.0, 173.0), timeStamp: 2017-03-05 11:45:06.681
LEye coords (239.0, 175.0), REye coords (241.0, 174.0), timeStamp: 2017-03-05 11:45:06.715
LEye coords (239.0, 175.0), REye coords (241.0, 174.0), timeStamp: 2017-03-05 11:45:06.759
LEye coords (239.0, 175.0), REye coords (241.0, 174.0), timeStamp: 2017-03-05 11:45:06.793
LEye coords (239.0, 175.0), REye coords (241.0, 175.0), timeStamp: 2017-03-05 11:45:06.826
LEye coords (240.0, 175.0), REye coords (242.0, 175.0), timeStamp: 2017-03-05 11:45:06.870
LEye coords (296.0, 194.0), REye coords (301.0, 198.0), timeStamp: 2017-03-05 11:45:06.903
LEye coords (294.0, 195.0), REye coords (302.0, 198.0), timeStamp: 2017-03-05 11:45:06.936
LEye coords (294.0, 195.0), REye coords (304.0, 197.0), timeStamp: 2017-03-05 11:45:06.971
LEye coords (294.0, 196.0), REye coords (303.0, 198.0), timeStamp: 2017-03-05 11:45:07.014
LEye coords (295.0, 195.0), REye coords (304.0, 198.0), timeStamp: 2017-03-05 11:45:07.047
LEye coords (318.0, 196.0), REye coords (322.0, 203.0), timeStamp: 2017-03-05 11:45:07.091
LEye coords (328.0, 202.0), REye coords (336.0, 202.0), timeStamp: 2017-03-05 11:45:07.124
LEye coords (329.0, 203.0), REye coords (335.0, 203.0), timeStamp: 2017-03-05 11:45:07.158
LEye coords (329.0, 203.0), REye coords (334.0, 204.0), timeStamp: 2017-03-05 11:45:07.202
