LEye coords (159.0, 169.0), REye coords (163.0, 164.0), timeStamp: 2017-03-05 11:45:05.162
LEye coords (159.0, 150.0), REye coords (163.0, 146.0), timeStamp: 2017-03-05 11:45:05.195
LEye coords (158.0, 149.0), REye coords (163.0, 145.0), timeStamp: 2017-03-05 11:45:05.239
LEye coords (158.0, 150.0), REye coords (162.0, 145.0), timeStamp: 2017-03-05 11:45:05.273
LEye coords (158.0, 150.0), REye coords (162.0, 145.0), timeStamp: 2017-03-05 11:45:05.306
LEye coords (157.0, 150.0), REye coords (162.0, 145.0), timeStamp: 2017-03-05 11:45:05.351
LEye coords (157.0, 150.0), REye coords (162.0, 145.0), timeStamp: 2017-03-05 11:45:05.385
LEye coords (157.0, 150.0), REye coords (162.0, 145.0), timeStamp: 2017-03-05 11:45:05.419
LEye coords (157.0, 150.0), REye coords (162.0, 145.0), timeStamp: 2017-03-05 11:45:05.464
LEye coords (157.0, 150.0), REye coords (161.0, 145.0), timeStamp: 2017-03-05 11:45:05.498
LEye coords (157.0, 150.0), REye coords (162.0, 145.0), timeStamp: 2017-03-05 11:45:05.532
LEye coords (157.0, 150.0), REye coords (161.0, 145.0), timeStamp: 2017-03-05 11:45:05.565
LEye coords (156.0, 150.0), REye coords (161.0, 145.0), timeStamp: 2017-03-05 11:45:05.609
LEye coords (252.0, 152.0), REye coords (251.0, 151.0), timeStamp: 2017-03-05 11:45:05.644
LEye coords (256.0, 155.0), REye coords (261.0, 157.0), timeStamp: 2017-03-05 11:45:05.677
LEye coords (255.0, 156.0), REye coords (261.0, 158.0), timeStamp: 2017-03-05 11:45:05.722
LEye coords (255.0, 154.0), REye coords (261.0, 157.0), timeStamp: 2017-03-05 11:45:05.756
LEye coords (254.0, 155.0), REye coords (261.0, 156.0), timeStamp: 2017-03-05 11:45:05.789
LEye coords (252.0, 153.0), REye coords (262.0, 154.0), timeStamp: 2017-03-05 11:45:05.823
LEye coords (234.0, 153.0), REye coords (240.0, 155.0), timeStamp: 2017-03-05 11:45:05.867
LEye coords (235.0, 154.0), REye coords (240.0, 153.0), timeStamp: 2017-03-05 11:45:05.901
LEye coords (235.0, 155.0), REye coords (241.0, 153.0), timeStamp: 2017-03-05 11:45:05.935
LEye coords (236.0, 155.0), REye coords (241.0, 153.0), timeStamp: 2017-03-05 11:45:05.979
LEye coords (237.0, 155.0), REye coords (242.0, 153.0), timeStamp: 2017-03-05 11:45:06.012
LEye coords (237.0, 156.0), REye coords (242.0, 153.0), timeStamp: 2017-03-05 11:45:06.046
LEye coords (237.0, 156.0), REye coords (242.0, 153.0), timeStamp: 2017-03-05 11:45:06.090
LEye coords (237.0, 156.0), REye coords (242.0, 153.0), timeStamp: 2017-03-05 11:45:06.124
LEye coords (238.0, 156.0), REye coords (242.0, 153.0), timeStamp: 2017-03-05 11:45:06.158
LEye coords (238.0, 156.0), REye coords (242.0, 153.0), timeStamp: 2017-03-05 11:45:06.202
LEye coords (238.0, 155.0), REye coords (241.0, 153.0), timeStamp: 2017-03-05 11:45:06.236
LEye coords (238.0, 155.0), REye coords (241.0, 153.0), timeStamp: 2017-03-05 11:45:06.270
LEye coords (238.0, 155.0), REye coords (241.0, 153.0), timeStamp: 2017-03-05 11:45:06.315
