LEye coords (314.0, 187.0), REye coords (321.0, 192.0), timeStamp: 2017-03-05 11:45:14.158
LEye coords (315.0, 187.0), REye coords (321.0, 193.0), timeStamp: 2017-03-05 11:45:14.192
LEye coords (315.0, 187.0), REye coords (321.0, 193.0), timeStamp: 2017-03-05 11:45:14.226
LEye coords (316.0, 187.0), REye coords (321.0, 194.0), timeStamp: 2017-03-05 11:45:14.271
LEye coords (316.0, 187.0), REye coords (321.0, 194.0), timeStamp: 2017-03-05 11:45:14.304
LEye coords (316.0, 187.0), REye coords (321.0, 195.0), timeStamp: 2017-03-05 11:45:14.337
LEye coords (316.0, 187.0), REye coords (321.0, 195.0), timeStamp: 2017-03-05 11:45:14.382
LEye coords (264.0, 194.0), REye coords (267.0, 207.0), timeStamp: 2017-03-05 11:45:14.415
LEye coords (240.0, 205.0), REye coords (253.0, 210.0), timeStamp: 2017-03-05 11:45:14.450
LEye coords (241.0, 204.0), REye coords (253.0, 210.0), timeStamp: 2017-03-05 11:45:14.493
LEye coords (242.0, 203.0), REye coords (254.0, 210.0), timeStamp: 2017-03-05 11:45:14.527
LEye coords (243.0, 204.0), REye coords (254.0, 211.0), timeStamp: 2017-03-05 11:45:14.561
LEye coords (241.0, 211.0), REye coords (257.0, 212.0), timeStamp: 2017-03-05 11:45:14.605
LEye coords (242.0, 209.0), REye coords (257.0, 204.0), timeStamp: 2017-03-05 11:45:14.639
LEye coords (240.0, 210.0), REye coords (252.0, 208.0), timeStamp: 2017-03-05 11:45:14.673
LEye coords (232.0, 208.0), REye coords (244.0, 209.0), timeStamp: 2017-03-05 11:45:14.706
LEye coords (228.0, 206.0), REye coords (240.0, 209.0), timeStamp: 2017-03-05 11:45:14.751
LEye coords (226.0, 206.0), REye coords (238.0, 209.0), timeStamp: 2017-03-05 11:45:14.784
LEye coords (224.0, 206.0), REye coords (237.0, 208.0), timeStamp: 2017-03-05 11:45:14.818
LEye coords (223.0, 205.0), REye coords (235.0, 209.0), timeStamp: 2017-03-05 11:45:14.863
LEye coords (223.0, 205.0), REye coords (234.0, 208.0), timeStamp: 2017-03-05 11:45:14.897
LEye coords (222.0, 205.0), REye coords (234.0, 208.0), timeStamp: 2017-03-05 11:45:14.930
LEye coords (222.0, 205.0), REye coords (233.0, 208.0), timeStamp: 2017-03-05 11:45:14.974
LEye coords (222.0, 205.0), REye coords (234.0, 208.0), timeStamp: 2017-03-05 11:45:15.008
LEye coords (415.0, 206.0), REye coords (407.0, 208.0), timeStamp: 2017-03-05 11:45:15.042
LEye coords (407.0, 207.0), REye coords (407.0, 212.0), timeStamp: 2017-03-05 11:45:15.076
LEye coords (404.0, 209.0), REye coords (405.0, 215.0), timeStamp: 2017-03-05 11:45:15.121
LEye coords (403.0, 209.0), REye coords (405.0, 216.0), timeStamp: 2017-03-05 11:45:15.155
LEye coords (403.0, 211.0), REye coords (405.0, 216.0), timeStamp: 2017-03-05 11:45:15.187
LEye coords (401.0, 217.0), REye coords (406.0, 218.0), timeStamp: 2017-03-05 11:45:15.231
LEye coords (403.0, 215.0), REye coords (405.0, 216.0), timeStamp: 2017-03-05 11:45:15.265
LEye coords (402.0, 215.0), REye coords (407.0, 216.0), timeStamp: 2017-03-05 11:45:15.299
LEye coords (401.0, 215.0), REye coords (407.0, 214.0), timeStamp: 2017-03-05 11:45:15.343
LEye coords (400.0, 217.0), REye coords (407.0, 215.0), timeStamp: 2017-03-05 11:45:15.377
LEye coords (400.0, 217.0), REye coords (406.0, 215.0), timeStamp: 2017-03-05 11:45:15.410
LEye coords (400.0, 217.0), REye coords (405.0, 215.0), timeStamp: 2017-03-05 11:45:15.454
LEye coords (405.0, 218.0), REye coords (410.0, 217.0), timeStamp: 2017-03-05 11:45:15.487
LEye coords (409.0, 219.0), REye coords (412.0, 218.0), timeStamp: 2017-03-05 11:45:15.521
LEye coords (411.0, 219.0), REye coords (414.0, 220.0), timeStamp: 2017-03-05 11:45:15.565
LEye coords (413.0, 220.0), REye coords (416.0, 221.0), timeStamp: 2017-03-05 11:45:15.599
LEye coords (415.0, 220.0), REye coords (418.0, 222.0), timeStamp: 2017-03-05 11:45:15.632
LEye coords (416.0, 221.0), REye coords (419.0, 222.0), timeStamp: 2017-03-05 11:45:15.676
LEye coords (417.0, 222.0), REye coords (420.0, 222.0), timeStamp: 2017-03-05 11:45:15.709
LEye coords (418.0, 222.0), REye coords (421.0, 223.0), timeStamp: 2017-03-05 11:45:15.743
LEye coords (419.0, 223.0), REye coords (422.0, 224.0), timeStamp: 2017-03-05 11:45:15.787
LEye coords (420.0, 223.0), REye coords (423.0, 224.0), timeStamp: 2017-03-05 11:45:15.821
LEye coords (420.0, 224.0), REye coords (424.0, 225.0), timeStamp: 2017-03-05 11:45:15.855
