LEye coords (388.0, 256.0), REye coords (391.0, 257.0), timeStamp: 2017-03-05 11:45:15.966
LEye coords (387.0, 256.0), REye coords (391.0, 257.0), timeStamp: 2017-03-05 11:45:16.010
LEye coords (386.0, 257.0), REye coords (390.0, 258.0), timeStamp: 2017-03-05 11:45:16.044
LEye coords (386.0, 257.0), REye coords (390.0, 258.0), timeStamp: 2017-03-05 11:45:16.079
LEye coords (386.0, 258.0), REye coords (390.0, 258.0), timeStamp: 2017-03-05 11:45:16.112
LEye coords (385.0, 259.0), REye coords (389.0, 259.0), timeStamp: 2017-03-05 11:45:16.157
LEye coords (385.0, 259.0), REye coords (389.0, 259.0), timeStamp: 2017-03-05 11:45:16.192
LEye coords (383.0, 259.0), REye coords (389.0, 260.0), timeStamp: 2017-03-05 11:45:16.225
LEye coords (234.0, 227.0), REye coords (242.0, 233.0), timeStamp: 2017-03-05 11:45:16.268
LEye coords (234.0, 231.0), REye coords (243.0, 237.0), timeStamp: 2017-03-05 11:45:16.302
LEye coords (234.0, 235.0), REye coords (243.0, 235.0), timeStamp: 2017-03-05 11:45:16.336
LEye coords (235.0, 235.0), REye coords (244.0, 236.0), timeStamp: 2017-03-05 11:45:16.379
LEye coords (234.0, 234.0), REye coords (243.0, 237.0), timeStamp: 2017-03-05 11:45:16.412
LEye coords (237.0, 231.0), REye coords (246.0, 235.0), timeStamp: 2017-03-05 11:45:16.447
LEye coords (180.0, 218.0), REye coords (191.0, 213.0), timeStamp: 2017-03-05 11:45:16.491
LEye coords (181.0, 217.0), REye coords (190.0, 217.0), timeStamp: 2017-03-05 11:45:16.525
LEye coords (181.0, 216.0), REye coords (191.0, 216.0), timeStamp: 2017-03-05 11:45:16.558
LEye coords (181.0, 214.0), REye coords (190.0, 216.0), timeStamp: 2017-03-05 11:45:16.602
LEye coords (182.0, 210.0), REye coords (191.0, 209.0), timeStamp: 2017-03-05 11:45:16.637
LEye coords (183.0, 212.0), REye coords (190.0, 212.0), timeStamp: 2017-03-05 11:45:16.670
LEye coords (182.0, 211.0), REye coords (191.0, 213.0), timeStamp: 2017-03-05 11:45:16.705
LEye coords (180.0, 210.0), REye coords (192.0, 213.0), timeStamp: 2017-03-05 11:45:16.749
LEye coords (185.0, 211.0), REye coords (197.0, 215.0), timeStamp: 2017-03-05 11:45:16.784
LEye coords (187.0, 212.0), REye coords (200.0, 216.0), timeStamp: 2017-03-05 11:45:16.816
