LEye coords (225.0, 218.0), REye coords (236.0, 225.0), timeStamp: 2017-03-05 11:46:10.566
LEye coords (225.0, 215.0), REye coords (236.0, 222.0), timeStamp: 2017-03-05 11:46:10.599
LEye coords (224.0, 213.0), REye coords (235.0, 220.0), timeStamp: 2017-03-05 11:46:10.634
LEye coords (224.0, 211.0), REye coords (234.0, 218.0), timeStamp: 2017-03-05 11:46:10.666
LEye coords (223.0, 208.0), REye coords (234.0, 215.0), timeStamp: 2017-03-05 11:46:10.709
LEye coords (223.0, 206.0), REye coords (233.0, 213.0), timeStamp: 2017-03-05 11:46:10.742
LEye coords (223.0, 204.0), REye coords (233.0, 211.0), timeStamp: 2017-03-05 11:46:10.787
LEye coords (223.0, 203.0), REye coords (233.0, 209.0), timeStamp: 2017-03-05 11:46:10.822
LEye coords (223.0, 201.0), REye coords (233.0, 208.0), timeStamp: 2017-03-05 11:46:10.855
LEye coords (223.0, 200.0), REye coords (233.0, 207.0), timeStamp: 2017-03-05 11:46:10.890
LEye coords (224.0, 199.0), REye coords (233.0, 206.0), timeStamp: 2017-03-05 11:46:10.933
LEye coords (225.0, 198.0), REye coords (234.0, 205.0), timeStamp: 2017-03-05 11:46:10.967
LEye coords (225.0, 197.0), REye coords (234.0, 205.0), timeStamp: 2017-03-05 11:46:11.000
LEye coords (226.0, 196.0), REye coords (234.0, 204.0), timeStamp: 2017-03-05 11:46:11.044
LEye coords (226.0, 196.0), REye coords (235.0, 204.0), timeStamp: 2017-03-05 11:46:11.078
LEye coords (227.0, 197.0), REye coords (235.0, 205.0), timeStamp: 2017-03-05 11:46:11.111
LEye coords (227.0, 198.0), REye coords (235.0, 206.0), timeStamp: 2017-03-05 11:46:11.155
LEye coords (226.0, 200.0), REye coords (235.0, 207.0), timeStamp: 2017-03-05 11:46:11.189
LEye coords (224.0, 202.0), REye coords (234.0, 209.0), timeStamp: 2017-03-05 11:46:11.222
LEye coords (0.0, 0.0), REye coords (232.0, 211.0), timeStamp: 2017-03-05 11:46:11.266
LEye coords (187.0, 233.0), REye coords (197.0, 239.0), timeStamp: 2017-03-05 11:46:11.300
LEye coords (0.0, 0.0), REye coords (200.0, 239.0), timeStamp: 2017-03-05 11:46:11.333
LEye coords (200.0, 235.0), REye coords (206.0, 242.0), timeStamp: 2017-03-05 11:46:11.377
LEye coords (202.0, 238.0), REye coords (210.0, 243.0), timeStamp: 2017-03-05 11:46:11.410
LEye coords (202.0, 237.0), REye coords (211.0, 244.0), timeStamp: 2017-03-05 11:46:11.445
LEye coords (201.0, 236.0), REye coords (212.0, 244.0), timeStamp: 2017-03-05 11:46:11.489
LEye coords (201.0, 237.0), REye coords (213.0, 243.0), timeStamp: 2017-03-05 11:46:11.524
LEye coords (202.0, 237.0), REye coords (214.0, 243.0), timeStamp: 2017-03-05 11:46:11.558
