LEye coords (201.0, 226.0), REye coords (207.0, 234.0), timeStamp: 2017-03-05 11:46:12.888
LEye coords (202.0, 225.0), REye coords (207.0, 234.0), timeStamp: 2017-03-05 11:46:12.932
LEye coords (202.0, 225.0), REye coords (207.0, 234.0), timeStamp: 2017-03-05 11:46:12.967
LEye coords (202.0, 226.0), REye coords (207.0, 233.0), timeStamp: 2017-03-05 11:46:13.000
LEye coords (202.0, 226.0), REye coords (207.0, 233.0), timeStamp: 2017-03-05 11:46:13.044
LEye coords (203.0, 227.0), REye coords (207.0, 233.0), timeStamp: 2017-03-05 11:46:13.077
LEye coords (203.0, 227.0), REye coords (207.0, 232.0), timeStamp: 2017-03-05 11:46:13.111
LEye coords (203.0, 226.0), REye coords (207.0, 232.0), timeStamp: 2017-03-05 11:46:13.154
LEye coords (203.0, 227.0), REye coords (207.0, 231.0), timeStamp: 2017-03-05 11:46:13.188
LEye coords (203.0, 227.0), REye coords (208.0, 232.0), timeStamp: 2017-03-05 11:46:13.221
LEye coords (203.0, 226.0), REye coords (208.0, 232.0), timeStamp: 2017-03-05 11:46:13.266
LEye coords (203.0, 226.0), REye coords (208.0, 232.0), timeStamp: 2017-03-05 11:46:13.299
LEye coords (203.0, 226.0), REye coords (208.0, 232.0), timeStamp: 2017-03-05 11:46:13.332
LEye coords (203.0, 227.0), REye coords (208.0, 232.0), timeStamp: 2017-03-05 11:46:13.376
LEye coords (203.0, 227.0), REye coords (208.0, 233.0), timeStamp: 2017-03-05 11:46:13.410
LEye coords (203.0, 228.0), REye coords (209.0, 234.0), timeStamp: 2017-03-05 11:46:13.445
LEye coords (203.0, 229.0), REye coords (210.0, 235.0), timeStamp: 2017-03-05 11:46:13.489
LEye coords (203.0, 231.0), REye coords (211.0, 236.0), timeStamp: 2017-03-05 11:46:13.522
LEye coords (204.0, 232.0), REye coords (212.0, 236.0), timeStamp: 2017-03-05 11:46:13.555
LEye coords (204.0, 233.0), REye coords (213.0, 237.0), timeStamp: 2017-03-05 11:46:13.600
LEye coords (204.0, 234.0), REye coords (214.0, 238.0), timeStamp: 2017-03-05 11:46:13.634
LEye coords (205.0, 235.0), REye coords (214.0, 239.0), timeStamp: 2017-03-05 11:46:13.668
LEye coords (205.0, 236.0), REye coords (215.0, 240.0), timeStamp: 2017-03-05 11:46:13.702
LEye coords (205.0, 237.0), REye coords (215.0, 241.0), timeStamp: 2017-03-05 11:46:13.747
LEye coords (205.0, 238.0), REye coords (216.0, 242.0), timeStamp: 2017-03-05 11:46:13.782
LEye coords (205.0, 239.0), REye coords (216.0, 243.0), timeStamp: 2017-03-05 11:46:13.816
