LEye coords (268.0, 211.0), REye coords (268.0, 200.0), timeStamp: 2017-03-05 11:46:22.144
LEye coords (269.0, 210.0), REye coords (268.0, 200.0), timeStamp: 2017-03-05 11:46:22.178
LEye coords (269.0, 210.0), REye coords (268.0, 201.0), timeStamp: 2017-03-05 11:46:22.222
LEye coords (269.0, 211.0), REye coords (268.0, 201.0), timeStamp: 2017-03-05 11:46:22.256
LEye coords (269.0, 211.0), REye coords (268.0, 203.0), timeStamp: 2017-03-05 11:46:22.289
LEye coords (269.0, 211.0), REye coords (268.0, 203.0), timeStamp: 2017-03-05 11:46:22.334
LEye coords (269.0, 211.0), REye coords (268.0, 204.0), timeStamp: 2017-03-05 11:46:22.368
LEye coords (270.0, 211.0), REye coords (268.0, 204.0), timeStamp: 2017-03-05 11:46:22.402
LEye coords (156.0, 227.0), REye coords (159.0, 226.0), timeStamp: 2017-03-05 11:46:22.445
LEye coords (135.0, 237.0), REye coords (140.0, 235.0), timeStamp: 2017-03-05 11:46:22.479
LEye coords (134.0, 241.0), REye coords (140.0, 237.0), timeStamp: 2017-03-05 11:46:22.512
LEye coords (134.0, 241.0), REye coords (141.0, 236.0), timeStamp: 2017-03-05 11:46:22.556
LEye coords (135.0, 244.0), REye coords (141.0, 234.0), timeStamp: 2017-03-05 11:46:22.590
LEye coords (137.0, 237.0), REye coords (144.0, 229.0), timeStamp: 2017-03-05 11:46:22.622
LEye coords (137.0, 237.0), REye coords (140.0, 229.0), timeStamp: 2017-03-05 11:46:22.666
LEye coords (136.0, 237.0), REye coords (142.0, 230.0), timeStamp: 2017-03-05 11:46:22.699
LEye coords (130.0, 243.0), REye coords (134.0, 238.0), timeStamp: 2017-03-05 11:46:22.733
LEye coords (0.0, 0.0), REye coords (130.0, 242.0), timeStamp: 2017-03-05 11:46:22.777
LEye coords (126.0, 246.0), REye coords (127.0, 244.0), timeStamp: 2017-03-05 11:46:22.811
LEye coords (125.0, 249.0), REye coords (125.0, 245.0), timeStamp: 2017-03-05 11:46:22.845
LEye coords (124.0, 251.0), REye coords (124.0, 245.0), timeStamp: 2017-03-05 11:46:22.888
LEye coords (123.0, 252.0), REye coords (123.0, 246.0), timeStamp: 2017-03-05 11:46:22.921
LEye coords (121.0, 252.0), REye coords (123.0, 247.0), timeStamp: 2017-03-05 11:46:22.955
LEye coords (121.0, 252.0), REye coords (122.0, 247.0), timeStamp: 2017-03-05 11:46:22.999
LEye coords (120.0, 254.0), REye coords (122.0, 248.0), timeStamp: 2017-03-05 11:46:23.034
LEye coords (120.0, 254.0), REye coords (122.0, 249.0), timeStamp: 2017-03-05 11:46:23.067
LEye coords (119.0, 256.0), REye coords (122.0, 249.0), timeStamp: 2017-03-05 11:46:23.112
LEye coords (119.0, 256.0), REye coords (121.0, 249.0), timeStamp: 2017-03-05 11:46:23.146
LEye coords (119.0, 257.0), REye coords (121.0, 249.0), timeStamp: 2017-03-05 11:46:23.178
LEye coords (119.0, 258.0), REye coords (121.0, 250.0), timeStamp: 2017-03-05 11:46:23.223
