LEye coords (248.0, 188.0), REye coords (249.0, 186.0), timeStamp: 2017-03-05 11:47:06.036
LEye coords (249.0, 190.0), REye coords (249.0, 188.0), timeStamp: 2017-03-05 11:47:06.081
LEye coords (250.0, 191.0), REye coords (249.0, 189.0), timeStamp: 2017-03-05 11:47:06.115
LEye coords (250.0, 192.0), REye coords (249.0, 190.0), timeStamp: 2017-03-05 11:47:06.151
LEye coords (251.0, 193.0), REye coords (250.0, 192.0), timeStamp: 2017-03-05 11:47:06.185
LEye coords (252.0, 194.0), REye coords (250.0, 193.0), timeStamp: 2017-03-05 11:47:06.228
LEye coords (252.0, 195.0), REye coords (250.0, 194.0), timeStamp: 2017-03-05 11:47:06.262
LEye coords (253.0, 196.0), REye coords (251.0, 194.0), timeStamp: 2017-03-05 11:47:06.295
LEye coords (253.0, 196.0), REye coords (251.0, 195.0), timeStamp: 2017-03-05 11:47:06.339
LEye coords (254.0, 196.0), REye coords (251.0, 195.0), timeStamp: 2017-03-05 11:47:06.372
LEye coords (254.0, 195.0), REye coords (251.0, 194.0), timeStamp: 2017-03-05 11:47:06.405
LEye coords (254.0, 195.0), REye coords (251.0, 194.0), timeStamp: 2017-03-05 11:47:06.451
LEye coords (254.0, 195.0), REye coords (250.0, 194.0), timeStamp: 2017-03-05 11:47:06.484
LEye coords (254.0, 195.0), REye coords (250.0, 194.0), timeStamp: 2017-03-05 11:47:06.518
LEye coords (254.0, 194.0), REye coords (250.0, 193.0), timeStamp: 2017-03-05 11:47:06.562
LEye coords (254.0, 194.0), REye coords (250.0, 193.0), timeStamp: 2017-03-05 11:47:06.596
LEye coords (254.0, 193.0), REye coords (250.0, 192.0), timeStamp: 2017-03-05 11:47:06.630
LEye coords (253.0, 193.0), REye coords (250.0, 191.0), timeStamp: 2017-03-05 11:47:06.664
LEye coords (254.0, 192.0), REye coords (251.0, 190.0), timeStamp: 2017-03-05 11:47:06.708
LEye coords (254.0, 191.0), REye coords (251.0, 190.0), timeStamp: 2017-03-05 11:47:06.742
LEye coords (254.0, 190.0), REye coords (251.0, 189.0), timeStamp: 2017-03-05 11:47:06.776
LEye coords (255.0, 189.0), REye coords (252.0, 188.0), timeStamp: 2017-03-05 11:47:06.821
