LEye coords (266.0, 196.0), REye coords (263.0, 195.0), timeStamp: 2017-03-05 11:47:06.932
LEye coords (266.0, 195.0), REye coords (264.0, 195.0), timeStamp: 2017-03-05 11:47:06.966
LEye coords (266.0, 195.0), REye coords (264.0, 194.0), timeStamp: 2017-03-05 11:47:06.999
LEye coords (267.0, 194.0), REye coords (264.0, 194.0), timeStamp: 2017-03-05 11:47:07.043
LEye coords (267.0, 194.0), REye coords (264.0, 193.0), timeStamp: 2017-03-05 11:47:07.078
LEye coords (267.0, 193.0), REye coords (264.0, 193.0), timeStamp: 2017-03-05 11:47:07.112
LEye coords (267.0, 193.0), REye coords (264.0, 193.0), timeStamp: 2017-03-05 11:47:07.145
LEye coords (267.0, 193.0), REye coords (265.0, 192.0), timeStamp: 2017-03-05 11:47:07.189
LEye coords (268.0, 193.0), REye coords (265.0, 192.0), timeStamp: 2017-03-05 11:47:07.222
LEye coords (268.0, 193.0), REye coords (266.0, 192.0), timeStamp: 2017-03-05 11:47:07.266
LEye coords (269.0, 193.0), REye coords (266.0, 192.0), timeStamp: 2017-03-05 11:47:07.299
LEye coords (269.0, 193.0), REye coords (267.0, 192.0), timeStamp: 2017-03-05 11:47:07.333
LEye coords (267.0, 193.0), REye coords (265.0, 192.0), timeStamp: 2017-03-05 11:47:07.376
LEye coords (219.0, 199.0), REye coords (262.0, 192.0), timeStamp: 2017-03-05 11:47:07.409
LEye coords (213.0, 200.0), REye coords (215.0, 193.0), timeStamp: 2017-03-05 11:47:07.442
LEye coords (181.0, 204.0), REye coords (148.0, 205.0), timeStamp: 2017-03-05 11:47:07.486
LEye coords (171.0, 205.0), REye coords (147.0, 205.0), timeStamp: 2017-03-05 11:47:07.520
LEye coords (166.0, 206.0), REye coords (144.0, 206.0), timeStamp: 2017-03-05 11:47:07.554
LEye coords (152.0, 212.0), REye coords (144.0, 206.0), timeStamp: 2017-03-05 11:47:07.598
LEye coords (154.0, 212.0), REye coords (139.0, 210.0), timeStamp: 2017-03-05 11:47:07.632
LEye coords (154.0, 210.0), REye coords (140.0, 213.0), timeStamp: 2017-03-05 11:47:07.666
LEye coords (148.0, 214.0), REye coords (142.0, 211.0), timeStamp: 2017-03-05 11:47:07.709
LEye coords (144.0, 217.0), REye coords (138.0, 214.0), timeStamp: 2017-03-05 11:47:07.742
LEye coords (141.0, 219.0), REye coords (134.0, 217.0), timeStamp: 2017-03-05 11:47:07.775
LEye coords (136.0, 223.0), REye coords (128.0, 221.0), timeStamp: 2017-03-05 11:47:07.820
LEye coords (132.0, 225.0), REye coords (125.0, 223.0), timeStamp: 2017-03-05 11:47:07.854
LEye coords (130.0, 228.0), REye coords (122.0, 225.0), timeStamp: 2017-03-05 11:47:07.888
LEye coords (127.0, 229.0), REye coords (120.0, 227.0), timeStamp: 2017-03-05 11:47:07.922
LEye coords (127.0, 230.0), REye coords (119.0, 228.0), timeStamp: 2017-03-05 11:47:07.966
LEye coords (127.0, 231.0), REye coords (119.0, 229.0), timeStamp: 2017-03-05 11:47:07.999
