LEye coords (126.0, 233.0), REye coords (118.0, 231.0), timeStamp: 2017-03-05 11:47:08.112
LEye coords (115.0, 350.0), REye coords (109.0, 348.0), timeStamp: 2017-03-05 11:47:08.145
LEye coords (115.0, 350.0), REye coords (108.0, 349.0), timeStamp: 2017-03-05 11:47:08.189
LEye coords (115.0, 350.0), REye coords (108.0, 350.0), timeStamp: 2017-03-05 11:47:08.223
LEye coords (115.0, 351.0), REye coords (108.0, 351.0), timeStamp: 2017-03-05 11:47:08.256
LEye coords (115.0, 351.0), REye coords (108.0, 352.0), timeStamp: 2017-03-05 11:47:08.300
LEye coords (115.0, 351.0), REye coords (109.0, 353.0), timeStamp: 2017-03-05 11:47:08.333
LEye coords (115.0, 352.0), REye coords (109.0, 354.0), timeStamp: 2017-03-05 11:47:08.368
LEye coords (115.0, 352.0), REye coords (109.0, 354.0), timeStamp: 2017-03-05 11:47:08.413
LEye coords (114.0, 353.0), REye coords (109.0, 355.0), timeStamp: 2017-03-05 11:47:08.447
LEye coords (114.0, 354.0), REye coords (108.0, 355.0), timeStamp: 2017-03-05 11:47:08.480
LEye coords (116.0, 354.0), REye coords (149.0, 358.0), timeStamp: 2017-03-05 11:47:08.514
LEye coords (184.0, 349.0), REye coords (184.0, 347.0), timeStamp: 2017-03-05 11:47:08.558
LEye coords (184.0, 348.0), REye coords (184.0, 347.0), timeStamp: 2017-03-05 11:47:08.592
LEye coords (182.0, 348.0), REye coords (184.0, 346.0), timeStamp: 2017-03-05 11:47:08.626
LEye coords (182.0, 347.0), REye coords (184.0, 345.0), timeStamp: 2017-03-05 11:47:08.669
LEye coords (187.0, 330.0), REye coords (211.0, 282.0), timeStamp: 2017-03-05 11:47:08.703
LEye coords (191.0, 321.0), REye coords (207.0, 276.0), timeStamp: 2017-03-05 11:47:08.736
LEye coords (207.0, 285.0), REye coords (207.0, 278.0), timeStamp: 2017-03-05 11:47:08.781
LEye coords (205.0, 285.0), REye coords (208.0, 276.0), timeStamp: 2017-03-05 11:47:08.815
LEye coords (205.0, 285.0), REye coords (208.0, 275.0), timeStamp: 2017-03-05 11:47:08.848
LEye coords (208.0, 273.0), REye coords (211.0, 237.0), timeStamp: 2017-03-05 11:47:08.893
LEye coords (210.0, 263.0), REye coords (220.0, 220.0), timeStamp: 2017-03-05 11:47:08.926
LEye coords (211.0, 256.0), REye coords (224.0, 215.0), timeStamp: 2017-03-05 11:47:08.959
LEye coords (212.0, 252.0), REye coords (223.0, 218.0), timeStamp: 2017-03-05 11:47:09.004
LEye coords (213.0, 249.0), REye coords (223.0, 216.0), timeStamp: 2017-03-05 11:47:09.038
LEye coords (213.0, 247.0), REye coords (223.0, 214.0), timeStamp: 2017-03-05 11:47:09.071
LEye coords (213.0, 245.0), REye coords (223.0, 215.0), timeStamp: 2017-03-05 11:47:09.116
LEye coords (214.0, 243.0), REye coords (222.0, 215.0), timeStamp: 2017-03-05 11:47:09.150
LEye coords (214.0, 242.0), REye coords (222.0, 216.0), timeStamp: 2017-03-05 11:47:09.183
LEye coords (216.0, 239.0), REye coords (223.0, 210.0), timeStamp: 2017-03-05 11:47:09.228
LEye coords (217.0, 237.0), REye coords (224.0, 210.0), timeStamp: 2017-03-05 11:47:09.261
LEye coords (219.0, 235.0), REye coords (225.0, 209.0), timeStamp: 2017-03-05 11:47:09.296
LEye coords (220.0, 233.0), REye coords (232.0, 203.0), timeStamp: 2017-03-05 11:47:09.330
LEye coords (221.0, 232.0), REye coords (232.0, 199.0), timeStamp: 2017-03-05 11:47:09.374
LEye coords (223.0, 231.0), REye coords (232.0, 203.0), timeStamp: 2017-03-05 11:47:09.408
LEye coords (224.0, 229.0), REye coords (232.0, 204.0), timeStamp: 2017-03-05 11:47:09.441
LEye coords (224.0, 227.0), REye coords (232.0, 201.0), timeStamp: 2017-03-05 11:47:09.485
LEye coords (225.0, 225.0), REye coords (231.0, 199.0), timeStamp: 2017-03-05 11:47:09.519
LEye coords (226.0, 224.0), REye coords (231.0, 198.0), timeStamp: 2017-03-05 11:47:09.552
