LEye coords (181.0, 282.0), REye coords (192.0, 294.0), timeStamp: 2017-03-05 11:48:03.966
LEye coords (181.0, 282.0), REye coords (192.0, 292.0), timeStamp: 2017-03-05 11:48:04.000
LEye coords (181.0, 283.0), REye coords (191.0, 293.0), timeStamp: 2017-03-05 11:48:04.034
LEye coords (177.0, 284.0), REye coords (191.0, 295.0), timeStamp: 2017-03-05 11:48:04.067
LEye coords (178.0, 280.0), REye coords (189.0, 293.0), timeStamp: 2017-03-05 11:48:04.112
LEye coords (180.0, 279.0), REye coords (190.0, 295.0), timeStamp: 2017-03-05 11:48:04.146
LEye coords (180.0, 281.0), REye coords (189.0, 297.0), timeStamp: 2017-03-05 11:48:04.180
LEye coords (179.0, 283.0), REye coords (190.0, 296.0), timeStamp: 2017-03-05 11:48:04.224
LEye coords (179.0, 283.0), REye coords (189.0, 296.0), timeStamp: 2017-03-05 11:48:04.259
LEye coords (219.0, 254.0), REye coords (233.0, 235.0), timeStamp: 2017-03-05 11:48:04.291
LEye coords (229.0, 241.0), REye coords (245.0, 227.0), timeStamp: 2017-03-05 11:48:04.326
LEye coords (230.0, 242.0), REye coords (244.0, 230.0), timeStamp: 2017-03-05 11:48:04.370
LEye coords (229.0, 244.0), REye coords (242.0, 235.0), timeStamp: 2017-03-05 11:48:04.404
LEye coords (229.0, 245.0), REye coords (243.0, 234.0), timeStamp: 2017-03-05 11:48:04.438
LEye coords (230.0, 241.0), REye coords (246.0, 222.0), timeStamp: 2017-03-05 11:48:04.481
LEye coords (226.0, 255.0), REye coords (242.0, 228.0), timeStamp: 2017-03-05 11:48:04.515
LEye coords (228.0, 248.0), REye coords (241.0, 236.0), timeStamp: 2017-03-05 11:48:04.548
LEye coords (228.0, 248.0), REye coords (240.0, 243.0), timeStamp: 2017-03-05 11:48:04.593
LEye coords (228.0, 250.0), REye coords (239.0, 245.0), timeStamp: 2017-03-05 11:48:04.625
LEye coords (227.0, 250.0), REye coords (240.0, 244.0), timeStamp: 2017-03-05 11:48:04.669
LEye coords (227.0, 251.0), REye coords (240.0, 245.0), timeStamp: 2017-03-05 11:48:04.704
LEye coords (227.0, 251.0), REye coords (239.0, 246.0), timeStamp: 2017-03-05 11:48:04.738
LEye coords (228.0, 251.0), REye coords (239.0, 246.0), timeStamp: 2017-03-05 11:48:04.771
LEye coords (228.0, 251.0), REye coords (239.0, 247.0), timeStamp: 2017-03-05 11:48:04.815
LEye coords (229.0, 251.0), REye coords (239.0, 248.0), timeStamp: 2017-03-05 11:48:04.848
LEye coords (229.0, 253.0), REye coords (239.0, 250.0), timeStamp: 2017-03-05 11:48:04.882
LEye coords (230.0, 254.0), REye coords (239.0, 252.0), timeStamp: 2017-03-05 11:48:04.927
LEye coords (230.0, 255.0), REye coords (239.0, 253.0), timeStamp: 2017-03-05 11:48:04.960
LEye coords (231.0, 257.0), REye coords (239.0, 255.0), timeStamp: 2017-03-05 11:48:04.994
LEye coords (231.0, 258.0), REye coords (239.0, 256.0), timeStamp: 2017-03-05 11:48:05.038
