LEye coords (228.0, 167.0), REye coords (241.0, 160.0), timeStamp: 2017-03-05 11:48:06.220
LEye coords (228.0, 168.0), REye coords (241.0, 159.0), timeStamp: 2017-03-05 11:48:06.254
LEye coords (229.0, 167.0), REye coords (241.0, 159.0), timeStamp: 2017-03-05 11:48:06.298
LEye coords (229.0, 167.0), REye coords (241.0, 159.0), timeStamp: 2017-03-05 11:48:06.331
LEye coords (0.0, 0.0), REye coords (241.0, 159.0), timeStamp: 2017-03-05 11:48:06.365
LEye coords (0.0, 0.0), REye coords (241.0, 159.0), timeStamp: 2017-03-05 11:48:06.399
LEye coords (0.0, 0.0), REye coords (241.0, 159.0), timeStamp: 2017-03-05 11:48:06.444
LEye coords (0.0, 0.0), REye coords (241.0, 159.0), timeStamp: 2017-03-05 11:48:06.477
LEye coords (0.0, 0.0), REye coords (241.0, 159.0), timeStamp: 2017-03-05 11:48:06.511
LEye coords (0.0, 0.0), REye coords (241.0, 159.0), timeStamp: 2017-03-05 11:48:06.556
LEye coords (0.0, 0.0), REye coords (241.0, 160.0), timeStamp: 2017-03-05 11:48:06.590
LEye coords (0.0, 0.0), REye coords (241.0, 160.0), timeStamp: 2017-03-05 11:48:06.624
LEye coords (0.0, 0.0), REye coords (241.0, 161.0), timeStamp: 2017-03-05 11:48:06.668
LEye coords (0.0, 0.0), REye coords (241.0, 161.0), timeStamp: 2017-03-05 11:48:06.701
LEye coords (0.0, 0.0), REye coords (241.0, 161.0), timeStamp: 2017-03-05 11:48:06.735
LEye coords (0.0, 0.0), REye coords (241.0, 161.0), timeStamp: 2017-03-05 11:48:06.769
LEye coords (0.0, 0.0), REye coords (241.0, 162.0), timeStamp: 2017-03-05 11:48:06.813
LEye coords (0.0, 0.0), REye coords (241.0, 162.0), timeStamp: 2017-03-05 11:48:06.847
LEye coords (0.0, 0.0), REye coords (241.0, 162.0), timeStamp: 2017-03-05 11:48:06.880
LEye coords (0.0, 0.0), REye coords (240.0, 163.0), timeStamp: 2017-03-05 11:48:06.924
LEye coords (0.0, 0.0), REye coords (240.0, 163.0), timeStamp: 2017-03-05 11:48:06.959
LEye coords (230.0, 167.0), REye coords (240.0, 164.0), timeStamp: 2017-03-05 11:48:06.992
LEye coords (230.0, 168.0), REye coords (240.0, 164.0), timeStamp: 2017-03-05 11:48:07.036
LEye coords (231.0, 168.0), REye coords (240.0, 166.0), timeStamp: 2017-03-05 11:48:07.070
LEye coords (231.0, 168.0), REye coords (239.0, 167.0), timeStamp: 2017-03-05 11:48:07.104
