LEye coords (101.0, 163.0), REye coords (77.0, 139.0), timeStamp: 2017-03-05 11:48:12.403
LEye coords (101.0, 163.0), REye coords (78.0, 140.0), timeStamp: 2017-03-05 11:48:12.437
LEye coords (101.0, 162.0), REye coords (78.0, 141.0), timeStamp: 2017-03-05 11:48:12.471
LEye coords (101.0, 162.0), REye coords (78.0, 141.0), timeStamp: 2017-03-05 11:48:12.516
LEye coords (101.0, 162.0), REye coords (78.0, 141.0), timeStamp: 2017-03-05 11:48:12.549
LEye coords (101.0, 162.0), REye coords (78.0, 142.0), timeStamp: 2017-03-05 11:48:12.583
LEye coords (101.0, 162.0), REye coords (79.0, 143.0), timeStamp: 2017-03-05 11:48:12.617
LEye coords (101.0, 162.0), REye coords (79.0, 143.0), timeStamp: 2017-03-05 11:48:12.661
LEye coords (101.0, 162.0), REye coords (79.0, 143.0), timeStamp: 2017-03-05 11:48:12.694
LEye coords (191.0, 198.0), REye coords (193.0, 197.0), timeStamp: 2017-03-05 11:48:12.739
LEye coords (189.0, 202.0), REye coords (191.0, 207.0), timeStamp: 2017-03-05 11:48:12.771
LEye coords (190.0, 204.0), REye coords (192.0, 202.0), timeStamp: 2017-03-05 11:48:12.805
LEye coords (189.0, 204.0), REye coords (192.0, 202.0), timeStamp: 2017-03-05 11:48:12.849
LEye coords (189.0, 204.0), REye coords (193.0, 205.0), timeStamp: 2017-03-05 11:48:12.882
LEye coords (192.0, 203.0), REye coords (191.0, 200.0), timeStamp: 2017-03-05 11:48:12.916
LEye coords (198.0, 198.0), REye coords (208.0, 198.0), timeStamp: 2017-03-05 11:48:12.950
LEye coords (232.0, 178.0), REye coords (240.0, 178.0), timeStamp: 2017-03-05 11:48:12.993
LEye coords (242.0, 171.0), REye coords (251.0, 171.0), timeStamp: 2017-03-05 11:48:13.027
LEye coords (249.0, 167.0), REye coords (256.0, 167.0), timeStamp: 2017-03-05 11:48:13.070
LEye coords (264.0, 159.0), REye coords (268.0, 153.0), timeStamp: 2017-03-05 11:48:13.104
LEye coords (266.0, 159.0), REye coords (276.0, 134.0), timeStamp: 2017-03-05 11:48:13.138
LEye coords (267.0, 160.0), REye coords (277.0, 130.0), timeStamp: 2017-03-05 11:48:13.182
LEye coords (277.0, 162.0), REye coords (288.0, 129.0), timeStamp: 2017-03-05 11:48:13.216
LEye coords (281.0, 161.0), REye coords (294.0, 129.0), timeStamp: 2017-03-05 11:48:13.249
LEye coords (283.0, 161.0), REye coords (297.0, 129.0), timeStamp: 2017-03-05 11:48:13.293
LEye coords (285.0, 160.0), REye coords (299.0, 128.0), timeStamp: 2017-03-05 11:48:13.326
LEye coords (286.0, 159.0), REye coords (301.0, 128.0), timeStamp: 2017-03-05 11:48:13.359
LEye coords (286.0, 160.0), REye coords (301.0, 130.0), timeStamp: 2017-03-05 11:48:13.404
LEye coords (287.0, 160.0), REye coords (302.0, 131.0), timeStamp: 2017-03-05 11:48:13.439
LEye coords (287.0, 161.0), REye coords (302.0, 134.0), timeStamp: 2017-03-05 11:48:13.473
LEye coords (287.0, 162.0), REye coords (302.0, 138.0), timeStamp: 2017-03-05 11:48:13.506
LEye coords (288.0, 162.0), REye coords (302.0, 140.0), timeStamp: 2017-03-05 11:48:13.550
LEye coords (288.0, 163.0), REye coords (301.0, 143.0), timeStamp: 2017-03-05 11:48:13.583
LEye coords (288.0, 163.0), REye coords (301.0, 146.0), timeStamp: 2017-03-05 11:48:13.617
LEye coords (288.0, 163.0), REye coords (301.0, 148.0), timeStamp: 2017-03-05 11:48:13.663
