LEye coords (277.0, 176.0), REye coords (294.0, 126.0), timeStamp: 2017-03-05 11:49:01.364
LEye coords (277.0, 177.0), REye coords (295.0, 126.0), timeStamp: 2017-03-05 11:49:01.398
LEye coords (277.0, 177.0), REye coords (295.0, 126.0), timeStamp: 2017-03-05 11:49:01.442
LEye coords (277.0, 177.0), REye coords (296.0, 126.0), timeStamp: 2017-03-05 11:49:01.476
LEye coords (277.0, 178.0), REye coords (296.0, 126.0), timeStamp: 2017-03-05 11:49:01.510
LEye coords (278.0, 178.0), REye coords (296.0, 126.0), timeStamp: 2017-03-05 11:49:01.553
LEye coords (278.0, 179.0), REye coords (297.0, 126.0), timeStamp: 2017-03-05 11:49:01.589
LEye coords (258.0, 322.0), REye coords (261.0, 312.0), timeStamp: 2017-03-05 11:49:01.623
LEye coords (258.0, 325.0), REye coords (263.0, 319.0), timeStamp: 2017-03-05 11:49:01.657
LEye coords (256.0, 321.0), REye coords (266.0, 309.0), timeStamp: 2017-03-05 11:49:01.702
LEye coords (249.0, 281.0), REye coords (260.0, 260.0), timeStamp: 2017-03-05 11:49:01.736
LEye coords (247.0, 262.0), REye coords (258.0, 229.0), timeStamp: 2017-03-05 11:49:01.770
LEye coords (234.0, 204.0), REye coords (250.0, 136.0), timeStamp: 2017-03-05 11:49:01.803
LEye coords (238.0, 204.0), REye coords (243.0, 175.0), timeStamp: 2017-03-05 11:49:01.848
LEye coords (237.0, 209.0), REye coords (245.0, 159.0), timeStamp: 2017-03-05 11:49:01.881
LEye coords (237.0, 208.0), REye coords (244.0, 166.0), timeStamp: 2017-03-05 11:49:01.915
LEye coords (229.0, 208.0), REye coords (237.0, 170.0), timeStamp: 2017-03-05 11:49:01.960
LEye coords (225.0, 209.0), REye coords (233.0, 174.0), timeStamp: 2017-03-05 11:49:01.993
LEye coords (223.0, 210.0), REye coords (230.0, 177.0), timeStamp: 2017-03-05 11:49:02.026
LEye coords (220.0, 209.0), REye coords (228.0, 179.0), timeStamp: 2017-03-05 11:49:02.070
LEye coords (218.0, 209.0), REye coords (226.0, 180.0), timeStamp: 2017-03-05 11:49:02.103
LEye coords (216.0, 209.0), REye coords (0.0, 0.0), timeStamp: 2017-03-05 11:49:02.137
LEye coords (214.0, 208.0), REye coords (0.0, 0.0), timeStamp: 2017-03-05 11:49:02.182
LEye coords (213.0, 207.0), REye coords (225.0, 180.0), timeStamp: 2017-03-05 11:49:02.216
LEye coords (211.0, 207.0), REye coords (0.0, 0.0), timeStamp: 2017-03-05 11:49:02.249
LEye coords (210.0, 207.0), REye coords (224.0, 180.0), timeStamp: 2017-03-05 11:49:02.292
LEye coords (209.0, 206.0), REye coords (223.0, 180.0), timeStamp: 2017-03-05 11:49:02.326
