LEye coords (277.0, 336.0), REye coords (284.0, 323.0), timeStamp: 2017-03-05 11:49:00.102
LEye coords (277.0, 337.0), REye coords (284.0, 323.0), timeStamp: 2017-03-05 11:49:00.146
LEye coords (277.0, 337.0), REye coords (284.0, 323.0), timeStamp: 2017-03-05 11:49:00.180
LEye coords (277.0, 337.0), REye coords (284.0, 323.0), timeStamp: 2017-03-05 11:49:00.214
LEye coords (277.0, 337.0), REye coords (284.0, 323.0), timeStamp: 2017-03-05 11:49:00.257
LEye coords (277.0, 338.0), REye coords (283.0, 323.0), timeStamp: 2017-03-05 11:49:00.290
LEye coords (241.0, 217.0), REye coords (255.0, 222.0), timeStamp: 2017-03-05 11:49:00.325
LEye coords (233.0, 196.0), REye coords (243.0, 195.0), timeStamp: 2017-03-05 11:49:00.368
LEye coords (234.0, 196.0), REye coords (245.0, 193.0), timeStamp: 2017-03-05 11:49:00.403
LEye coords (235.0, 197.0), REye coords (245.0, 192.0), timeStamp: 2017-03-05 11:49:00.436
LEye coords (235.0, 197.0), REye coords (244.0, 192.0), timeStamp: 2017-03-05 11:49:00.481
LEye coords (263.0, 140.0), REye coords (284.0, 97.0), timeStamp: 2017-03-05 11:49:00.514
LEye coords (265.0, 136.0), REye coords (284.0, 108.0), timeStamp: 2017-03-05 11:49:00.548
LEye coords (266.0, 136.0), REye coords (287.0, 101.0), timeStamp: 2017-03-05 11:49:00.592
LEye coords (267.0, 138.0), REye coords (284.0, 103.0), timeStamp: 2017-03-05 11:49:00.625
LEye coords (267.0, 137.0), REye coords (282.0, 103.0), timeStamp: 2017-03-05 11:49:00.659
LEye coords (269.0, 134.0), REye coords (281.0, 91.0), timeStamp: 2017-03-05 11:49:00.703
LEye coords (268.0, 137.0), REye coords (287.0, 92.0), timeStamp: 2017-03-05 11:49:00.738
LEye coords (268.0, 136.0), REye coords (285.0, 90.0), timeStamp: 2017-03-05 11:49:00.771
LEye coords (274.0, 139.0), REye coords (291.0, 94.0), timeStamp: 2017-03-05 11:49:00.814
LEye coords (278.0, 141.0), REye coords (295.0, 98.0), timeStamp: 2017-03-05 11:49:00.849
LEye coords (281.0, 143.0), REye coords (297.0, 100.0), timeStamp: 2017-03-05 11:49:00.882
LEye coords (283.0, 142.0), REye coords (299.0, 101.0), timeStamp: 2017-03-05 11:49:00.917
LEye coords (284.0, 141.0), REye coords (300.0, 101.0), timeStamp: 2017-03-05 11:49:00.962
LEye coords (285.0, 141.0), REye coords (301.0, 102.0), timeStamp: 2017-03-05 11:49:00.996
LEye coords (286.0, 141.0), REye coords (302.0, 101.0), timeStamp: 2017-03-05 11:49:01.029
LEye coords (287.0, 141.0), REye coords (302.0, 102.0), timeStamp: 2017-03-05 11:49:01.073
LEye coords (287.0, 141.0), REye coords (303.0, 101.0), timeStamp: 2017-03-05 11:49:01.107
LEye coords (288.0, 142.0), REye coords (303.0, 102.0), timeStamp: 2017-03-05 11:49:01.141
LEye coords (288.0, 141.0), REye coords (304.0, 102.0), timeStamp: 2017-03-05 11:49:01.175
LEye coords (288.0, 141.0), REye coords (305.0, 102.0), timeStamp: 2017-03-05 11:49:01.218
LEye coords (288.0, 141.0), REye coords (305.0, 102.0), timeStamp: 2017-03-05 11:49:01.252
