LEye coords (96.0, 99.0), REye coords (94.0, 97.0), timeStamp: 2017-03-05 11:49:04.031
LEye coords (96.0, 99.0), REye coords (94.0, 96.0), timeStamp: 2017-03-05 11:49:04.065
LEye coords (96.0, 99.0), REye coords (94.0, 97.0), timeStamp: 2017-03-05 11:49:04.100
LEye coords (95.0, 100.0), REye coords (94.0, 97.0), timeStamp: 2017-03-05 11:49:04.146
LEye coords (95.0, 100.0), REye coords (94.0, 97.0), timeStamp: 2017-03-05 11:49:04.179
LEye coords (95.0, 101.0), REye coords (94.0, 97.0), timeStamp: 2017-03-05 11:49:04.212
LEye coords (95.0, 101.0), REye coords (94.0, 98.0), timeStamp: 2017-03-05 11:49:04.256
LEye coords (211.0, 112.0), REye coords (224.0, 105.0), timeStamp: 2017-03-05 11:49:04.289
LEye coords (211.0, 112.0), REye coords (214.0, 108.0), timeStamp: 2017-03-05 11:49:04.323
LEye coords (210.0, 112.0), REye coords (213.0, 110.0), timeStamp: 2017-03-05 11:49:04.367
LEye coords (210.0, 113.0), REye coords (213.0, 111.0), timeStamp: 2017-03-05 11:49:04.401
LEye coords (210.0, 113.0), REye coords (213.0, 112.0), timeStamp: 2017-03-05 11:49:04.434
LEye coords (210.0, 114.0), REye coords (215.0, 112.0), timeStamp: 2017-03-05 11:49:04.478
LEye coords (210.0, 113.0), REye coords (219.0, 110.0), timeStamp: 2017-03-05 11:49:04.512
LEye coords (255.0, 118.0), REye coords (265.0, 115.0), timeStamp: 2017-03-05 11:49:04.546
LEye coords (269.0, 120.0), REye coords (283.0, 116.0), timeStamp: 2017-03-05 11:49:04.580
LEye coords (277.0, 121.0), REye coords (291.0, 117.0), timeStamp: 2017-03-05 11:49:04.624
LEye coords (300.0, 126.0), REye coords (313.0, 122.0), timeStamp: 2017-03-05 11:49:04.658
LEye coords (301.0, 125.0), REye coords (314.0, 120.0), timeStamp: 2017-03-05 11:49:04.691
LEye coords (302.0, 124.0), REye coords (313.0, 121.0), timeStamp: 2017-03-05 11:49:04.735
LEye coords (311.0, 124.0), REye coords (328.0, 120.0), timeStamp: 2017-03-05 11:49:04.768
LEye coords (322.0, 122.0), REye coords (339.0, 119.0), timeStamp: 2017-03-05 11:49:04.802
LEye coords (328.0, 121.0), REye coords (346.0, 118.0), timeStamp: 2017-03-05 11:49:04.846
LEye coords (333.0, 121.0), REye coords (352.0, 117.0), timeStamp: 2017-03-05 11:49:04.880
LEye coords (336.0, 121.0), REye coords (355.0, 117.0), timeStamp: 2017-03-05 11:49:04.914
LEye coords (338.0, 121.0), REye coords (376.0, 113.0), timeStamp: 2017-03-05 11:49:04.958
LEye coords (340.0, 120.0), REye coords (378.0, 111.0), timeStamp: 2017-03-05 11:49:04.991
LEye coords (342.0, 120.0), REye coords (377.0, 111.0), timeStamp: 2017-03-05 11:49:05.024
LEye coords (354.0, 121.0), REye coords (376.0, 111.0), timeStamp: 2017-03-05 11:49:05.068
LEye coords (354.0, 120.0), REye coords (375.0, 112.0), timeStamp: 2017-03-05 11:49:05.103
LEye coords (353.0, 120.0), REye coords (375.0, 112.0), timeStamp: 2017-03-05 11:49:05.137
LEye coords (353.0, 120.0), REye coords (374.0, 113.0), timeStamp: 2017-03-05 11:49:05.181
LEye coords (355.0, 121.0), REye coords (374.0, 113.0), timeStamp: 2017-03-05 11:49:05.216
LEye coords (356.0, 121.0), REye coords (375.0, 113.0), timeStamp: 2017-03-05 11:49:05.250
LEye coords (356.0, 121.0), REye coords (375.0, 113.0), timeStamp: 2017-03-05 11:49:05.283
LEye coords (357.0, 121.0), REye coords (376.0, 113.0), timeStamp: 2017-03-05 11:49:05.327
LEye coords (358.0, 121.0), REye coords (376.0, 113.0), timeStamp: 2017-03-05 11:49:05.361
