LEye coords (256.0, 230.0), REye coords (264.0, 220.0), timeStamp: 2017-03-05 11:49:06.736
LEye coords (257.0, 230.0), REye coords (264.0, 221.0), timeStamp: 2017-03-05 11:49:06.770
LEye coords (258.0, 230.0), REye coords (265.0, 220.0), timeStamp: 2017-03-05 11:49:06.803
LEye coords (258.0, 230.0), REye coords (265.0, 221.0), timeStamp: 2017-03-05 11:49:06.837
LEye coords (259.0, 230.0), REye coords (266.0, 221.0), timeStamp: 2017-03-05 11:49:06.882
LEye coords (260.0, 230.0), REye coords (267.0, 221.0), timeStamp: 2017-03-05 11:49:06.915
LEye coords (261.0, 230.0), REye coords (267.0, 221.0), timeStamp: 2017-03-05 11:49:06.949
LEye coords (261.0, 230.0), REye coords (267.0, 221.0), timeStamp: 2017-03-05 11:49:06.995
LEye coords (261.0, 230.0), REye coords (268.0, 222.0), timeStamp: 2017-03-05 11:49:07.028
LEye coords (261.0, 230.0), REye coords (268.0, 222.0), timeStamp: 2017-03-05 11:49:07.062
LEye coords (261.0, 231.0), REye coords (268.0, 222.0), timeStamp: 2017-03-05 11:49:07.097
LEye coords (261.0, 231.0), REye coords (268.0, 222.0), timeStamp: 2017-03-05 11:49:07.141
LEye coords (212.0, 254.0), REye coords (215.0, 249.0), timeStamp: 2017-03-05 11:49:07.176
LEye coords (211.0, 258.0), REye coords (214.0, 253.0), timeStamp: 2017-03-05 11:49:07.210
LEye coords (211.0, 258.0), REye coords (215.0, 253.0), timeStamp: 2017-03-05 11:49:07.254
LEye coords (211.0, 260.0), REye coords (214.0, 252.0), timeStamp: 2017-03-05 11:49:07.287
LEye coords (210.0, 260.0), REye coords (214.0, 252.0), timeStamp: 2017-03-05 11:49:07.322
LEye coords (211.0, 262.0), REye coords (212.0, 253.0), timeStamp: 2017-03-05 11:49:07.365
LEye coords (213.0, 262.0), REye coords (211.0, 252.0), timeStamp: 2017-03-05 11:49:07.398
LEye coords (208.0, 262.0), REye coords (204.0, 254.0), timeStamp: 2017-03-05 11:49:07.432
LEye coords (206.0, 263.0), REye coords (201.0, 256.0), timeStamp: 2017-03-05 11:49:07.476
LEye coords (204.0, 262.0), REye coords (199.0, 255.0), timeStamp: 2017-03-05 11:49:07.509
LEye coords (203.0, 262.0), REye coords (0.0, 0.0), timeStamp: 2017-03-05 11:49:07.542
LEye coords (199.0, 262.0), REye coords (196.0, 254.0), timeStamp: 2017-03-05 11:49:07.586
LEye coords (196.0, 263.0), REye coords (194.0, 255.0), timeStamp: 2017-03-05 11:49:07.619
LEye coords (193.0, 263.0), REye coords (193.0, 254.0), timeStamp: 2017-03-05 11:49:07.653
LEye coords (192.0, 264.0), REye coords (192.0, 255.0), timeStamp: 2017-03-05 11:49:07.698
LEye coords (191.0, 264.0), REye coords (191.0, 255.0), timeStamp: 2017-03-05 11:49:07.732
LEye coords (189.0, 264.0), REye coords (189.0, 256.0), timeStamp: 2017-03-05 11:49:07.765
LEye coords (187.0, 264.0), REye coords (187.0, 257.0), timeStamp: 2017-03-05 11:49:07.799
LEye coords (186.0, 265.0), REye coords (185.0, 258.0), timeStamp: 2017-03-05 11:49:07.843
LEye coords (185.0, 265.0), REye coords (183.0, 259.0), timeStamp: 2017-03-05 11:49:07.877
LEye coords (184.0, 265.0), REye coords (182.0, 261.0), timeStamp: 2017-03-05 11:49:07.921
LEye coords (183.0, 265.0), REye coords (181.0, 261.0), timeStamp: 2017-03-05 11:49:07.954
LEye coords (182.0, 266.0), REye coords (180.0, 262.0), timeStamp: 2017-03-05 11:49:07.988
LEye coords (181.0, 266.0), REye coords (179.0, 263.0), timeStamp: 2017-03-05 11:49:08.022
LEye coords (181.0, 266.0), REye coords (178.0, 264.0), timeStamp: 2017-03-05 11:49:08.067
