LEye coords (159.0, 304.0), REye coords (171.0, 300.0), timeStamp: 2017-03-05 11:50:05.622
LEye coords (159.0, 304.0), REye coords (171.0, 300.0), timeStamp: 2017-03-05 11:50:05.655
LEye coords (0.0, 0.0), REye coords (172.0, 301.0), timeStamp: 2017-03-05 11:50:05.689
LEye coords (160.0, 304.0), REye coords (172.0, 301.0), timeStamp: 2017-03-05 11:50:05.723
LEye coords (160.0, 304.0), REye coords (172.0, 302.0), timeStamp: 2017-03-05 11:50:05.766
LEye coords (160.0, 304.0), REye coords (172.0, 303.0), timeStamp: 2017-03-05 11:50:05.800
LEye coords (160.0, 305.0), REye coords (172.0, 303.0), timeStamp: 2017-03-05 11:50:05.834
LEye coords (160.0, 305.0), REye coords (173.0, 303.0), timeStamp: 2017-03-05 11:50:05.877
LEye coords (160.0, 305.0), REye coords (173.0, 304.0), timeStamp: 2017-03-05 11:50:05.910
LEye coords (161.0, 305.0), REye coords (172.0, 304.0), timeStamp: 2017-03-05 11:50:05.945
LEye coords (161.0, 305.0), REye coords (172.0, 305.0), timeStamp: 2017-03-05 11:50:05.989
LEye coords (159.0, 303.0), REye coords (144.0, 275.0), timeStamp: 2017-03-05 11:50:06.024
LEye coords (130.0, 267.0), REye coords (133.0, 258.0), timeStamp: 2017-03-05 11:50:06.058
LEye coords (89.0, 264.0), REye coords (113.0, 256.0), timeStamp: 2017-03-05 11:50:06.101
LEye coords (82.0, 259.0), REye coords (99.0, 245.0), timeStamp: 2017-03-05 11:50:06.135
LEye coords (80.0, 262.0), REye coords (93.0, 248.0), timeStamp: 2017-03-05 11:50:06.169
LEye coords (79.0, 264.0), REye coords (78.0, 252.0), timeStamp: 2017-03-05 11:50:06.203
LEye coords (74.0, 259.0), REye coords (75.0, 250.0), timeStamp: 2017-03-05 11:50:06.247
LEye coords (77.0, 260.0), REye coords (75.0, 247.0), timeStamp: 2017-03-05 11:50:06.280
LEye coords (77.0, 264.0), REye coords (76.0, 250.0), timeStamp: 2017-03-05 11:50:06.314
LEye coords (76.0, 266.0), REye coords (77.0, 250.0), timeStamp: 2017-03-05 11:50:06.358
LEye coords (76.0, 267.0), REye coords (77.0, 251.0), timeStamp: 2017-03-05 11:50:06.391
LEye coords (75.0, 268.0), REye coords (76.0, 251.0), timeStamp: 2017-03-05 11:50:06.425
LEye coords (74.0, 268.0), REye coords (73.0, 245.0), timeStamp: 2017-03-05 11:50:06.468
LEye coords (74.0, 268.0), REye coords (71.0, 241.0), timeStamp: 2017-03-05 11:50:06.503
LEye coords (74.0, 269.0), REye coords (70.0, 239.0), timeStamp: 2017-03-05 11:50:06.536
LEye coords (74.0, 268.0), REye coords (70.0, 240.0), timeStamp: 2017-03-05 11:50:06.580
