LEye coords (270.0, 187.0), REye coords (277.0, 175.0), timeStamp: 2017-03-05 11:50:01.991
LEye coords (271.0, 187.0), REye coords (277.0, 174.0), timeStamp: 2017-03-05 11:50:02.025
LEye coords (271.0, 186.0), REye coords (276.0, 173.0), timeStamp: 2017-03-05 11:50:02.058
LEye coords (271.0, 186.0), REye coords (276.0, 174.0), timeStamp: 2017-03-05 11:50:02.103
LEye coords (271.0, 186.0), REye coords (276.0, 173.0), timeStamp: 2017-03-05 11:50:02.137
LEye coords (271.0, 186.0), REye coords (275.0, 174.0), timeStamp: 2017-03-05 11:50:02.171
LEye coords (272.0, 186.0), REye coords (275.0, 174.0), timeStamp: 2017-03-05 11:50:02.206
LEye coords (272.0, 185.0), REye coords (275.0, 174.0), timeStamp: 2017-03-05 11:50:02.251
LEye coords (272.0, 185.0), REye coords (275.0, 174.0), timeStamp: 2017-03-05 11:50:02.284
LEye coords (273.0, 184.0), REye coords (275.0, 174.0), timeStamp: 2017-03-05 11:50:02.318
LEye coords (273.0, 184.0), REye coords (275.0, 174.0), timeStamp: 2017-03-05 11:50:02.361
LEye coords (273.0, 184.0), REye coords (275.0, 175.0), timeStamp: 2017-03-05 11:50:02.394
LEye coords (273.0, 184.0), REye coords (275.0, 175.0), timeStamp: 2017-03-05 11:50:02.429
LEye coords (252.0, 239.0), REye coords (274.0, 178.0), timeStamp: 2017-03-05 11:50:02.473
LEye coords (249.0, 241.0), REye coords (260.0, 231.0), timeStamp: 2017-03-05 11:50:02.507
LEye coords (248.0, 239.0), REye coords (259.0, 230.0), timeStamp: 2017-03-05 11:50:02.541
LEye coords (243.0, 232.0), REye coords (245.0, 220.0), timeStamp: 2017-03-05 11:50:02.585
LEye coords (240.0, 226.0), REye coords (242.0, 213.0), timeStamp: 2017-03-05 11:50:02.618
LEye coords (239.0, 222.0), REye coords (240.0, 211.0), timeStamp: 2017-03-05 11:50:02.652
LEye coords (238.0, 220.0), REye coords (239.0, 209.0), timeStamp: 2017-03-05 11:50:02.696
LEye coords (233.0, 207.0), REye coords (239.0, 207.0), timeStamp: 2017-03-05 11:50:02.730
LEye coords (227.0, 199.0), REye coords (238.0, 206.0), timeStamp: 2017-03-05 11:50:02.764
LEye coords (228.0, 199.0), REye coords (237.0, 204.0), timeStamp: 2017-03-05 11:50:02.799
LEye coords (227.0, 198.0), REye coords (233.0, 196.0), timeStamp: 2017-03-05 11:50:02.842
LEye coords (227.0, 197.0), REye coords (231.0, 196.0), timeStamp: 2017-03-05 11:50:02.877
LEye coords (227.0, 197.0), REye coords (230.0, 196.0), timeStamp: 2017-03-05 11:50:02.912
LEye coords (227.0, 197.0), REye coords (231.0, 193.0), timeStamp: 2017-03-05 11:50:02.955
LEye coords (227.0, 197.0), REye coords (232.0, 193.0), timeStamp: 2017-03-05 11:50:02.989
LEye coords (227.0, 197.0), REye coords (233.0, 192.0), timeStamp: 2017-03-05 11:50:03.024
