LEye coords (209.0, 262.0), REye coords (214.0, 256.0), timeStamp: 2017-03-05 11:50:03.136
LEye coords (209.0, 262.0), REye coords (215.0, 255.0), timeStamp: 2017-03-05 11:50:03.170
LEye coords (209.0, 262.0), REye coords (215.0, 255.0), timeStamp: 2017-03-05 11:50:03.215
LEye coords (209.0, 262.0), REye coords (215.0, 255.0), timeStamp: 2017-03-05 11:50:03.250
LEye coords (210.0, 263.0), REye coords (215.0, 254.0), timeStamp: 2017-03-05 11:50:03.283
LEye coords (210.0, 263.0), REye coords (216.0, 255.0), timeStamp: 2017-03-05 11:50:03.317
LEye coords (210.0, 264.0), REye coords (216.0, 254.0), timeStamp: 2017-03-05 11:50:03.362
LEye coords (210.0, 264.0), REye coords (216.0, 254.0), timeStamp: 2017-03-05 11:50:03.396
LEye coords (210.0, 264.0), REye coords (216.0, 254.0), timeStamp: 2017-03-05 11:50:03.429
LEye coords (210.0, 265.0), REye coords (216.0, 254.0), timeStamp: 2017-03-05 11:50:03.474
LEye coords (212.0, 263.0), REye coords (254.0, 174.0), timeStamp: 2017-03-05 11:50:03.508
LEye coords (214.0, 261.0), REye coords (241.0, 209.0), timeStamp: 2017-03-05 11:50:03.541
LEye coords (216.0, 260.0), REye coords (247.0, 187.0), timeStamp: 2017-03-05 11:50:03.575
LEye coords (218.0, 258.0), REye coords (248.0, 179.0), timeStamp: 2017-03-05 11:50:03.618
LEye coords (219.0, 256.0), REye coords (249.0, 178.0), timeStamp: 2017-03-05 11:50:03.652
LEye coords (221.0, 255.0), REye coords (256.0, 167.0), timeStamp: 2017-03-05 11:50:03.696
LEye coords (223.0, 253.0), REye coords (260.0, 166.0), timeStamp: 2017-03-05 11:50:03.729
LEye coords (294.0, 239.0), REye coords (283.0, 178.0), timeStamp: 2017-03-05 11:50:03.762
LEye coords (293.0, 235.0), REye coords (291.0, 181.0), timeStamp: 2017-03-05 11:50:03.805
LEye coords (293.0, 230.0), REye coords (295.0, 183.0), timeStamp: 2017-03-05 11:50:03.839
LEye coords (293.0, 232.0), REye coords (309.0, 182.0), timeStamp: 2017-03-05 11:50:03.871
LEye coords (294.0, 231.0), REye coords (311.0, 190.0), timeStamp: 2017-03-05 11:50:03.916
LEye coords (299.0, 223.0), REye coords (314.0, 188.0), timeStamp: 2017-03-05 11:50:03.950
LEye coords (303.0, 220.0), REye coords (317.0, 184.0), timeStamp: 2017-03-05 11:50:03.984
LEye coords (304.0, 219.0), REye coords (318.0, 181.0), timeStamp: 2017-03-05 11:50:04.027
LEye coords (303.0, 218.0), REye coords (319.0, 180.0), timeStamp: 2017-03-05 11:50:04.060
LEye coords (303.0, 218.0), REye coords (320.0, 179.0), timeStamp: 2017-03-05 11:50:04.094
LEye coords (303.0, 218.0), REye coords (320.0, 178.0), timeStamp: 2017-03-05 11:50:04.138
LEye coords (304.0, 218.0), REye coords (320.0, 177.0), timeStamp: 2017-03-05 11:50:04.172
LEye coords (304.0, 218.0), REye coords (321.0, 176.0), timeStamp: 2017-03-05 11:50:04.206
LEye coords (304.0, 218.0), REye coords (321.0, 175.0), timeStamp: 2017-03-05 11:50:04.250
LEye coords (305.0, 218.0), REye coords (321.0, 175.0), timeStamp: 2017-03-05 11:50:04.283
