LEye coords (205.0, 265.0), REye coords (213.0, 260.0), timeStamp: 2017-03-05 11:50:57.058
LEye coords (205.0, 264.0), REye coords (212.0, 259.0), timeStamp: 2017-03-05 11:50:57.092
LEye coords (205.0, 263.0), REye coords (212.0, 257.0), timeStamp: 2017-03-05 11:50:57.138
LEye coords (205.0, 262.0), REye coords (212.0, 256.0), timeStamp: 2017-03-05 11:50:57.171
LEye coords (205.0, 261.0), REye coords (212.0, 254.0), timeStamp: 2017-03-05 11:50:57.205
LEye coords (205.0, 259.0), REye coords (212.0, 253.0), timeStamp: 2017-03-05 11:50:57.249
LEye coords (205.0, 258.0), REye coords (212.0, 252.0), timeStamp: 2017-03-05 11:50:57.284
LEye coords (205.0, 258.0), REye coords (212.0, 251.0), timeStamp: 2017-03-05 11:50:57.317
LEye coords (204.0, 258.0), REye coords (211.0, 250.0), timeStamp: 2017-03-05 11:50:57.361
LEye coords (204.0, 257.0), REye coords (211.0, 250.0), timeStamp: 2017-03-05 11:50:57.394
LEye coords (204.0, 257.0), REye coords (211.0, 249.0), timeStamp: 2017-03-05 11:50:57.429
LEye coords (204.0, 256.0), REye coords (211.0, 249.0), timeStamp: 2017-03-05 11:50:57.462
LEye coords (202.0, 255.0), REye coords (210.0, 247.0), timeStamp: 2017-03-05 11:50:57.507
LEye coords (201.0, 254.0), REye coords (209.0, 246.0), timeStamp: 2017-03-05 11:50:57.541
LEye coords (200.0, 253.0), REye coords (208.0, 244.0), timeStamp: 2017-03-05 11:50:57.574
LEye coords (198.0, 251.0), REye coords (207.0, 242.0), timeStamp: 2017-03-05 11:50:57.619
LEye coords (197.0, 249.0), REye coords (202.0, 175.0), timeStamp: 2017-03-05 11:50:57.652
LEye coords (196.0, 248.0), REye coords (196.0, 200.0), timeStamp: 2017-03-05 11:50:57.686
LEye coords (195.0, 246.0), REye coords (197.0, 201.0), timeStamp: 2017-03-05 11:50:57.729
LEye coords (193.0, 244.0), REye coords (197.0, 203.0), timeStamp: 2017-03-05 11:50:57.763
LEye coords (192.0, 242.0), REye coords (197.0, 197.0), timeStamp: 2017-03-05 11:50:57.797
LEye coords (191.0, 240.0), REye coords (196.0, 201.0), timeStamp: 2017-03-05 11:50:57.840
