LEye coords (139.0, 245.0), REye coords (144.0, 227.0), timeStamp: 2017-03-05 11:51:02.356
LEye coords (138.0, 243.0), REye coords (143.0, 224.0), timeStamp: 2017-03-05 11:51:02.391
LEye coords (137.0, 241.0), REye coords (143.0, 222.0), timeStamp: 2017-03-05 11:51:02.424
LEye coords (137.0, 240.0), REye coords (142.0, 220.0), timeStamp: 2017-03-05 11:51:02.470
LEye coords (136.0, 238.0), REye coords (142.0, 218.0), timeStamp: 2017-03-05 11:51:02.503
LEye coords (135.0, 237.0), REye coords (142.0, 216.0), timeStamp: 2017-03-05 11:51:02.537
LEye coords (135.0, 235.0), REye coords (141.0, 215.0), timeStamp: 2017-03-05 11:51:02.571
LEye coords (134.0, 234.0), REye coords (141.0, 213.0), timeStamp: 2017-03-05 11:51:02.615
LEye coords (134.0, 233.0), REye coords (141.0, 212.0), timeStamp: 2017-03-05 11:51:02.649
LEye coords (133.0, 232.0), REye coords (141.0, 212.0), timeStamp: 2017-03-05 11:51:02.684
LEye coords (133.0, 232.0), REye coords (144.0, 219.0), timeStamp: 2017-03-05 11:51:02.718
LEye coords (133.0, 232.0), REye coords (140.0, 219.0), timeStamp: 2017-03-05 11:51:02.762
LEye coords (133.0, 233.0), REye coords (144.0, 223.0), timeStamp: 2017-03-05 11:51:02.796
LEye coords (191.0, 192.0), REye coords (163.0, 207.0), timeStamp: 2017-03-05 11:51:02.839
LEye coords (190.0, 189.0), REye coords (172.0, 200.0), timeStamp: 2017-03-05 11:51:02.873
LEye coords (189.0, 190.0), REye coords (200.0, 174.0), timeStamp: 2017-03-05 11:51:02.907
LEye coords (190.0, 191.0), REye coords (199.0, 178.0), timeStamp: 2017-03-05 11:51:02.940
LEye coords (190.0, 191.0), REye coords (198.0, 178.0), timeStamp: 2017-03-05 11:51:02.985
LEye coords (217.0, 154.0), REye coords (207.0, 161.0), timeStamp: 2017-03-05 11:51:03.019
LEye coords (220.0, 149.0), REye coords (213.0, 153.0), timeStamp: 2017-03-05 11:51:03.052
LEye coords (220.0, 151.0), REye coords (217.0, 147.0), timeStamp: 2017-03-05 11:51:03.096
LEye coords (220.0, 150.0), REye coords (219.0, 144.0), timeStamp: 2017-03-05 11:51:03.130
LEye coords (220.0, 150.0), REye coords (221.0, 140.0), timeStamp: 2017-03-05 11:51:03.164
LEye coords (223.0, 156.0), REye coords (233.0, 132.0), timeStamp: 2017-03-05 11:51:03.208
LEye coords (221.0, 190.0), REye coords (234.0, 157.0), timeStamp: 2017-03-05 11:51:03.242
LEye coords (220.0, 189.0), REye coords (231.0, 165.0), timeStamp: 2017-03-05 11:51:03.275
LEye coords (220.0, 190.0), REye coords (231.0, 165.0), timeStamp: 2017-03-05 11:51:03.310
LEye coords (219.0, 191.0), REye coords (232.0, 163.0), timeStamp: 2017-03-05 11:51:03.355
LEye coords (219.0, 191.0), REye coords (232.0, 163.0), timeStamp: 2017-03-05 11:51:03.389
LEye coords (220.0, 191.0), REye coords (232.0, 163.0), timeStamp: 2017-03-05 11:51:03.422
