LEye coords (305.0, 182.0), REye coords (324.0, 182.0), timeStamp: 2017-03-05 11:51:07.055
LEye coords (0.0, 0.0), REye coords (324.0, 182.0), timeStamp: 2017-03-05 11:51:07.088
LEye coords (0.0, 0.0), REye coords (325.0, 183.0), timeStamp: 2017-03-05 11:51:07.122
LEye coords (0.0, 0.0), REye coords (326.0, 183.0), timeStamp: 2017-03-05 11:51:07.168
LEye coords (0.0, 0.0), REye coords (327.0, 184.0), timeStamp: 2017-03-05 11:51:07.201
LEye coords (0.0, 0.0), REye coords (328.0, 185.0), timeStamp: 2017-03-05 11:51:07.236
LEye coords (0.0, 0.0), REye coords (328.0, 185.0), timeStamp: 2017-03-05 11:51:07.280
LEye coords (0.0, 0.0), REye coords (328.0, 186.0), timeStamp: 2017-03-05 11:51:07.313
LEye coords (302.0, 183.0), REye coords (283.0, 182.0), timeStamp: 2017-03-05 11:51:07.347
LEye coords (93.0, 169.0), REye coords (87.0, 165.0), timeStamp: 2017-03-05 11:51:07.392
LEye coords (94.0, 177.0), REye coords (84.0, 155.0), timeStamp: 2017-03-05 11:51:07.426
LEye coords (97.0, 176.0), REye coords (88.0, 158.0), timeStamp: 2017-03-05 11:51:07.459
LEye coords (96.0, 176.0), REye coords (89.0, 159.0), timeStamp: 2017-03-05 11:51:07.492
LEye coords (95.0, 176.0), REye coords (91.0, 166.0), timeStamp: 2017-03-05 11:51:07.536
LEye coords (96.0, 176.0), REye coords (93.0, 159.0), timeStamp: 2017-03-05 11:51:07.570
LEye coords (96.0, 176.0), REye coords (93.0, 160.0), timeStamp: 2017-03-05 11:51:07.604
LEye coords (92.0, 175.0), REye coords (94.0, 161.0), timeStamp: 2017-03-05 11:51:07.649
LEye coords (93.0, 175.0), REye coords (93.0, 162.0), timeStamp: 2017-03-05 11:51:07.683
LEye coords (93.0, 176.0), REye coords (92.0, 162.0), timeStamp: 2017-03-05 11:51:07.717
LEye coords (93.0, 176.0), REye coords (93.0, 163.0), timeStamp: 2017-03-05 11:51:07.761
LEye coords (90.0, 179.0), REye coords (90.0, 167.0), timeStamp: 2017-03-05 11:51:07.794
LEye coords (89.0, 181.0), REye coords (89.0, 169.0), timeStamp: 2017-03-05 11:51:07.827
LEye coords (87.0, 183.0), REye coords (87.0, 172.0), timeStamp: 2017-03-05 11:51:07.872
LEye coords (86.0, 184.0), REye coords (86.0, 174.0), timeStamp: 2017-03-05 11:51:07.906
LEye coords (85.0, 185.0), REye coords (85.0, 176.0), timeStamp: 2017-03-05 11:51:07.939
LEye coords (84.0, 186.0), REye coords (84.0, 177.0), timeStamp: 2017-03-05 11:51:07.974
LEye coords (307.0, 161.0), REye coords (327.0, 159.0), timeStamp: 2017-03-05 11:51:08.018
LEye coords (338.0, 157.0), REye coords (352.0, 153.0), timeStamp: 2017-03-05 11:51:08.052
LEye coords (339.0, 156.0), REye coords (351.0, 154.0), timeStamp: 2017-03-05 11:51:08.086
LEye coords (339.0, 156.0), REye coords (0.0, 0.0), timeStamp: 2017-03-05 11:51:08.130
LEye coords (338.0, 157.0), REye coords (350.0, 154.0), timeStamp: 2017-03-05 11:51:08.164
LEye coords (338.0, 161.0), REye coords (351.0, 154.0), timeStamp: 2017-03-05 11:51:08.198
LEye coords (338.0, 161.0), REye coords (348.0, 155.0), timeStamp: 2017-03-05 11:51:08.242
LEye coords (337.0, 161.0), REye coords (349.0, 154.0), timeStamp: 2017-03-05 11:51:08.276
LEye coords (335.0, 163.0), REye coords (349.0, 155.0), timeStamp: 2017-03-05 11:51:08.310
LEye coords (342.0, 162.0), REye coords (357.0, 157.0), timeStamp: 2017-03-05 11:51:08.344
LEye coords (346.0, 163.0), REye coords (361.0, 158.0), timeStamp: 2017-03-05 11:51:08.389
LEye coords (349.0, 163.0), REye coords (363.0, 159.0), timeStamp: 2017-03-05 11:51:08.422
LEye coords (351.0, 164.0), REye coords (365.0, 160.0), timeStamp: 2017-03-05 11:51:08.455
LEye coords (352.0, 165.0), REye coords (366.0, 161.0), timeStamp: 2017-03-05 11:51:08.499
LEye coords (354.0, 165.0), REye coords (367.0, 161.0), timeStamp: 2017-03-05 11:51:08.533
LEye coords (355.0, 165.0), REye coords (368.0, 161.0), timeStamp: 2017-03-05 11:51:08.566
LEye coords (356.0, 165.0), REye coords (368.0, 161.0), timeStamp: 2017-03-05 11:51:08.612
LEye coords (356.0, 165.0), REye coords (369.0, 162.0), timeStamp: 2017-03-05 11:51:08.646
LEye coords (357.0, 165.0), REye coords (370.0, 162.0), timeStamp: 2017-03-05 11:51:08.679
LEye coords (358.0, 165.0), REye coords (370.0, 162.0), timeStamp: 2017-03-05 11:51:08.723
LEye coords (358.0, 165.0), REye coords (371.0, 162.0), timeStamp: 2017-03-05 11:51:08.755
