LEye coords (240.0, 199.0), REye coords (247.0, 147.0), timeStamp: 2017-03-05 11:51:46.918
LEye coords (241.0, 198.0), REye coords (253.0, 138.0), timeStamp: 2017-03-05 11:51:46.951
LEye coords (241.0, 197.0), REye coords (253.0, 139.0), timeStamp: 2017-03-05 11:51:46.984
LEye coords (242.0, 196.0), REye coords (252.0, 139.0), timeStamp: 2017-03-05 11:51:47.029
LEye coords (242.0, 196.0), REye coords (248.0, 153.0), timeStamp: 2017-03-05 11:51:47.062
LEye coords (242.0, 196.0), REye coords (248.0, 152.0), timeStamp: 2017-03-05 11:51:47.096
LEye coords (242.0, 197.0), REye coords (248.0, 151.0), timeStamp: 2017-03-05 11:51:47.140
LEye coords (242.0, 197.0), REye coords (237.0, 204.0), timeStamp: 2017-03-05 11:51:47.173
LEye coords (242.0, 197.0), REye coords (242.0, 196.0), timeStamp: 2017-03-05 11:51:47.208
LEye coords (242.0, 198.0), REye coords (245.0, 194.0), timeStamp: 2017-03-05 11:51:47.252
LEye coords (242.0, 198.0), REye coords (244.0, 195.0), timeStamp: 2017-03-05 11:51:47.285
LEye coords (242.0, 198.0), REye coords (242.0, 197.0), timeStamp: 2017-03-05 11:51:47.319
LEye coords (242.0, 198.0), REye coords (242.0, 199.0), timeStamp: 2017-03-05 11:51:47.353
LEye coords (242.0, 199.0), REye coords (242.0, 199.0), timeStamp: 2017-03-05 11:51:47.398
LEye coords (244.0, 202.0), REye coords (262.0, 251.0), timeStamp: 2017-03-05 11:51:47.432
LEye coords (261.0, 251.0), REye coords (268.0, 259.0), timeStamp: 2017-03-05 11:51:47.464
LEye coords (261.0, 253.0), REye coords (269.0, 260.0), timeStamp: 2017-03-05 11:51:47.508
LEye coords (258.0, 253.0), REye coords (270.0, 260.0), timeStamp: 2017-03-05 11:51:47.541
LEye coords (259.0, 253.0), REye coords (269.0, 261.0), timeStamp: 2017-03-05 11:51:47.575
LEye coords (259.0, 253.0), REye coords (266.0, 262.0), timeStamp: 2017-03-05 11:51:47.620
LEye coords (0.0, 0.0), REye coords (255.0, 269.0), timeStamp: 2017-03-05 11:51:47.654
LEye coords (258.0, 255.0), REye coords (254.0, 271.0), timeStamp: 2017-03-05 11:51:47.688
LEye coords (258.0, 256.0), REye coords (252.0, 272.0), timeStamp: 2017-03-05 11:51:47.732
LEye coords (257.0, 256.0), REye coords (252.0, 274.0), timeStamp: 2017-03-05 11:51:47.765
LEye coords (257.0, 257.0), REye coords (253.0, 274.0), timeStamp: 2017-03-05 11:51:47.799
LEye coords (256.0, 258.0), REye coords (253.0, 275.0), timeStamp: 2017-03-05 11:51:47.843
LEye coords (256.0, 259.0), REye coords (254.0, 276.0), timeStamp: 2017-03-05 11:51:47.877
LEye coords (256.0, 260.0), REye coords (254.0, 276.0), timeStamp: 2017-03-05 11:51:47.911
LEye coords (256.0, 261.0), REye coords (254.0, 277.0), timeStamp: 2017-03-05 11:51:47.945
LEye coords (256.0, 263.0), REye coords (255.0, 278.0), timeStamp: 2017-03-05 11:51:47.989
