LEye coords (73.0, 190.0), REye coords (52.0, 167.0), timeStamp: 2017-03-05 11:51:50.877
LEye coords (75.0, 189.0), REye coords (53.0, 168.0), timeStamp: 2017-03-05 11:51:50.910
LEye coords (77.0, 190.0), REye coords (54.0, 169.0), timeStamp: 2017-03-05 11:51:50.943
LEye coords (77.0, 190.0), REye coords (55.0, 170.0), timeStamp: 2017-03-05 11:51:50.988
LEye coords (78.0, 190.0), REye coords (57.0, 171.0), timeStamp: 2017-03-05 11:51:51.022
LEye coords (79.0, 190.0), REye coords (59.0, 173.0), timeStamp: 2017-03-05 11:51:51.055
LEye coords (79.0, 190.0), REye coords (61.0, 174.0), timeStamp: 2017-03-05 11:51:51.099
LEye coords (146.0, 173.0), REye coords (139.0, 160.0), timeStamp: 2017-03-05 11:51:51.132
LEye coords (146.0, 175.0), REye coords (142.0, 159.0), timeStamp: 2017-03-05 11:51:51.166
LEye coords (143.0, 168.0), REye coords (141.0, 161.0), timeStamp: 2017-03-05 11:51:51.210
LEye coords (144.0, 169.0), REye coords (141.0, 159.0), timeStamp: 2017-03-05 11:51:51.244
LEye coords (145.0, 170.0), REye coords (141.0, 161.0), timeStamp: 2017-03-05 11:51:51.278
LEye coords (182.0, 231.0), REye coords (169.0, 240.0), timeStamp: 2017-03-05 11:51:51.321
LEye coords (183.0, 263.0), REye coords (182.0, 275.0), timeStamp: 2017-03-05 11:51:51.355
LEye coords (184.0, 260.0), REye coords (183.0, 277.0), timeStamp: 2017-03-05 11:51:51.390
LEye coords (183.0, 259.0), REye coords (182.0, 277.0), timeStamp: 2017-03-05 11:51:51.434
LEye coords (184.0, 259.0), REye coords (182.0, 277.0), timeStamp: 2017-03-05 11:51:51.468
LEye coords (182.0, 264.0), REye coords (183.0, 279.0), timeStamp: 2017-03-05 11:51:51.501
LEye coords (185.0, 268.0), REye coords (181.0, 280.0), timeStamp: 2017-03-05 11:51:51.535
LEye coords (209.0, 270.0), REye coords (206.0, 283.0), timeStamp: 2017-03-05 11:51:51.579
LEye coords (216.0, 271.0), REye coords (216.0, 284.0), timeStamp: 2017-03-05 11:51:51.613
LEye coords (220.0, 272.0), REye coords (220.0, 284.0), timeStamp: 2017-03-05 11:51:51.647
LEye coords (221.0, 273.0), REye coords (222.0, 285.0), timeStamp: 2017-03-05 11:51:51.691
LEye coords (222.0, 273.0), REye coords (224.0, 286.0), timeStamp: 2017-03-05 11:51:51.725
LEye coords (222.0, 272.0), REye coords (0.0, 0.0), timeStamp: 2017-03-05 11:51:51.759
LEye coords (223.0, 272.0), REye coords (0.0, 0.0), timeStamp: 2017-03-05 11:51:51.804
LEye coords (223.0, 271.0), REye coords (0.0, 0.0), timeStamp: 2017-03-05 11:51:51.838
LEye coords (224.0, 273.0), REye coords (226.0, 288.0), timeStamp: 2017-03-05 11:51:51.871
LEye coords (225.0, 274.0), REye coords (234.0, 297.0), timeStamp: 2017-03-05 11:51:51.905
LEye coords (225.0, 275.0), REye coords (236.0, 298.0), timeStamp: 2017-03-05 11:51:51.950
LEye coords (229.0, 284.0), REye coords (235.0, 297.0), timeStamp: 2017-03-05 11:51:51.984
LEye coords (229.0, 287.0), REye coords (234.0, 296.0), timeStamp: 2017-03-05 11:51:52.017
LEye coords (228.0, 285.0), REye coords (234.0, 296.0), timeStamp: 2017-03-05 11:51:52.062
LEye coords (227.0, 285.0), REye coords (234.0, 295.0), timeStamp: 2017-03-05 11:51:52.096
