LEye coords (145.0, 366.0), REye coords (148.0, 377.0), timeStamp: 2017-03-05 11:51:52.210
LEye coords (145.0, 366.0), REye coords (148.0, 377.0), timeStamp: 2017-03-05 11:51:52.245
LEye coords (145.0, 366.0), REye coords (148.0, 377.0), timeStamp: 2017-03-05 11:51:52.279
LEye coords (145.0, 367.0), REye coords (148.0, 377.0), timeStamp: 2017-03-05 11:51:52.322
LEye coords (145.0, 367.0), REye coords (148.0, 377.0), timeStamp: 2017-03-05 11:51:52.355
LEye coords (145.0, 366.0), REye coords (148.0, 377.0), timeStamp: 2017-03-05 11:51:52.388
LEye coords (145.0, 366.0), REye coords (148.0, 376.0), timeStamp: 2017-03-05 11:51:52.433
LEye coords (145.0, 366.0), REye coords (148.0, 376.0), timeStamp: 2017-03-05 11:51:52.467
LEye coords (145.0, 366.0), REye coords (148.0, 375.0), timeStamp: 2017-03-05 11:51:52.501
LEye coords (145.0, 366.0), REye coords (148.0, 376.0), timeStamp: 2017-03-05 11:51:52.534
LEye coords (145.0, 362.0), REye coords (149.0, 372.0), timeStamp: 2017-03-05 11:51:52.579
LEye coords (145.0, 357.0), REye coords (157.0, 310.0), timeStamp: 2017-03-05 11:51:52.612
LEye coords (145.0, 353.0), REye coords (158.0, 313.0), timeStamp: 2017-03-05 11:51:52.646
LEye coords (145.0, 349.0), REye coords (156.0, 312.0), timeStamp: 2017-03-05 11:51:52.691
LEye coords (139.0, 268.0), REye coords (151.0, 299.0), timeStamp: 2017-03-05 11:51:52.725
LEye coords (135.0, 253.0), REye coords (150.0, 284.0), timeStamp: 2017-03-05 11:51:52.759
LEye coords (135.0, 252.0), REye coords (149.0, 275.0), timeStamp: 2017-03-05 11:51:52.804
LEye coords (135.0, 253.0), REye coords (149.0, 269.0), timeStamp: 2017-03-05 11:51:52.837
LEye coords (135.0, 254.0), REye coords (148.0, 266.0), timeStamp: 2017-03-05 11:51:52.871
LEye coords (135.0, 254.0), REye coords (147.0, 263.0), timeStamp: 2017-03-05 11:51:52.904
LEye coords (135.0, 254.0), REye coords (147.0, 261.0), timeStamp: 2017-03-05 11:51:52.948
LEye coords (135.0, 253.0), REye coords (151.0, 236.0), timeStamp: 2017-03-05 11:51:52.983
LEye coords (135.0, 252.0), REye coords (147.0, 240.0), timeStamp: 2017-03-05 11:51:53.018
LEye coords (135.0, 252.0), REye coords (147.0, 238.0), timeStamp: 2017-03-05 11:51:53.062
LEye coords (135.0, 251.0), REye coords (148.0, 238.0), timeStamp: 2017-03-05 11:51:53.096
LEye coords (136.0, 251.0), REye coords (148.0, 237.0), timeStamp: 2017-03-05 11:51:53.129
LEye coords (135.0, 251.0), REye coords (148.0, 236.0), timeStamp: 2017-03-05 11:51:53.173
LEye coords (135.0, 251.0), REye coords (147.0, 235.0), timeStamp: 2017-03-05 11:51:53.206
LEye coords (135.0, 251.0), REye coords (146.0, 235.0), timeStamp: 2017-03-05 11:51:53.241
LEye coords (135.0, 250.0), REye coords (146.0, 236.0), timeStamp: 2017-03-05 11:51:53.284
