LEye coords (199.0, 250.0), REye coords (204.0, 232.0), timeStamp: 2017-03-05 11:51:56.387
LEye coords (321.0, 174.0), REye coords (330.0, 161.0), timeStamp: 2017-03-05 11:51:56.420
LEye coords (322.0, 174.0), REye coords (330.0, 162.0), timeStamp: 2017-03-05 11:51:56.464
LEye coords (322.0, 175.0), REye coords (331.0, 162.0), timeStamp: 2017-03-05 11:51:56.497
LEye coords (322.0, 175.0), REye coords (331.0, 163.0), timeStamp: 2017-03-05 11:51:56.541
LEye coords (321.0, 175.0), REye coords (332.0, 162.0), timeStamp: 2017-03-05 11:51:56.574
LEye coords (321.0, 175.0), REye coords (332.0, 162.0), timeStamp: 2017-03-05 11:51:56.608
LEye coords (321.0, 176.0), REye coords (332.0, 162.0), timeStamp: 2017-03-05 11:51:56.652
LEye coords (321.0, 176.0), REye coords (333.0, 161.0), timeStamp: 2017-03-05 11:51:56.686
LEye coords (321.0, 176.0), REye coords (334.0, 159.0), timeStamp: 2017-03-05 11:51:56.720
LEye coords (195.0, 231.0), REye coords (195.0, 242.0), timeStamp: 2017-03-05 11:51:56.763
LEye coords (169.0, 248.0), REye coords (171.0, 256.0), timeStamp: 2017-03-05 11:51:56.797
LEye coords (171.0, 247.0), REye coords (174.0, 255.0), timeStamp: 2017-03-05 11:51:56.830
LEye coords (172.0, 245.0), REye coords (174.0, 255.0), timeStamp: 2017-03-05 11:51:56.874
LEye coords (172.0, 245.0), REye coords (174.0, 256.0), timeStamp: 2017-03-05 11:51:56.908
LEye coords (175.0, 245.0), REye coords (173.0, 255.0), timeStamp: 2017-03-05 11:51:56.941
LEye coords (122.0, 275.0), REye coords (129.0, 278.0), timeStamp: 2017-03-05 11:51:56.985
LEye coords (121.0, 276.0), REye coords (129.0, 277.0), timeStamp: 2017-03-05 11:51:57.019
LEye coords (121.0, 276.0), REye coords (128.0, 279.0), timeStamp: 2017-03-05 11:51:57.052
LEye coords (0.0, 0.0), REye coords (126.0, 280.0), timeStamp: 2017-03-05 11:51:57.097
LEye coords (121.0, 276.0), REye coords (117.0, 285.0), timeStamp: 2017-03-05 11:51:57.132
LEye coords (115.0, 281.0), REye coords (116.0, 283.0), timeStamp: 2017-03-05 11:51:57.165
LEye coords (118.0, 282.0), REye coords (115.0, 285.0), timeStamp: 2017-03-05 11:51:57.198
LEye coords (117.0, 280.0), REye coords (115.0, 286.0), timeStamp: 2017-03-05 11:51:57.242
LEye coords (135.0, 278.0), REye coords (128.0, 285.0), timeStamp: 2017-03-05 11:51:57.276
LEye coords (145.0, 277.0), REye coords (136.0, 285.0), timeStamp: 2017-03-05 11:51:57.310
LEye coords (151.0, 277.0), REye coords (142.0, 285.0), timeStamp: 2017-03-05 11:51:57.354
LEye coords (155.0, 277.0), REye coords (145.0, 285.0), timeStamp: 2017-03-05 11:51:57.386
LEye coords (159.0, 276.0), REye coords (187.0, 281.0), timeStamp: 2017-03-05 11:51:57.420
LEye coords (294.0, 193.0), REye coords (310.0, 186.0), timeStamp: 2017-03-05 11:51:57.466
LEye coords (298.0, 198.0), REye coords (308.0, 191.0), timeStamp: 2017-03-05 11:51:57.498
LEye coords (296.0, 197.0), REye coords (306.0, 192.0), timeStamp: 2017-03-05 11:51:57.532
LEye coords (295.0, 197.0), REye coords (306.0, 193.0), timeStamp: 2017-03-05 11:51:57.577
LEye coords (295.0, 198.0), REye coords (304.0, 192.0), timeStamp: 2017-03-05 11:51:57.611
LEye coords (295.0, 201.0), REye coords (309.0, 191.0), timeStamp: 2017-03-05 11:51:57.646
LEye coords (0.0, 0.0), REye coords (324.0, 175.0), timeStamp: 2017-03-05 11:51:57.689
LEye coords (331.0, 166.0), REye coords (330.0, 165.0), timeStamp: 2017-03-05 11:51:57.723
LEye coords (332.0, 164.0), REye coords (0.0, 0.0), timeStamp: 2017-03-05 11:51:57.757
LEye coords (332.0, 164.0), REye coords (333.0, 161.0), timeStamp: 2017-03-05 11:51:57.790
LEye coords (330.0, 156.0), REye coords (325.0, 118.0), timeStamp: 2017-03-05 11:51:57.834
LEye coords (317.0, 132.0), REye coords (325.0, 114.0), timeStamp: 2017-03-05 11:51:57.867
LEye coords (318.0, 128.0), REye coords (326.0, 113.0), timeStamp: 2017-03-05 11:51:57.901
LEye coords (318.0, 128.0), REye coords (325.0, 113.0), timeStamp: 2017-03-05 11:51:57.945
LEye coords (318.0, 127.0), REye coords (325.0, 114.0), timeStamp: 2017-03-05 11:51:57.979
LEye coords (320.0, 125.0), REye coords (328.0, 109.0), timeStamp: 2017-03-05 11:51:58.012
LEye coords (321.0, 123.0), REye coords (330.0, 105.0), timeStamp: 2017-03-05 11:51:58.058
LEye coords (322.0, 122.0), REye coords (331.0, 103.0), timeStamp: 2017-03-05 11:51:58.091
LEye coords (322.0, 121.0), REye coords (332.0, 102.0), timeStamp: 2017-03-05 11:51:58.125
LEye coords (322.0, 120.0), REye coords (332.0, 102.0), timeStamp: 2017-03-05 11:51:58.169
