LEye coords (129.0, 188.0), REye coords (123.0, 165.0), timeStamp: 2017-03-05 11:52:03.420
LEye coords (129.0, 188.0), REye coords (124.0, 166.0), timeStamp: 2017-03-05 11:52:03.453
LEye coords (129.0, 188.0), REye coords (124.0, 166.0), timeStamp: 2017-03-05 11:52:03.498
LEye coords (129.0, 189.0), REye coords (125.0, 166.0), timeStamp: 2017-03-05 11:52:03.532
LEye coords (129.0, 189.0), REye coords (125.0, 166.0), timeStamp: 2017-03-05 11:52:03.565
LEye coords (130.0, 189.0), REye coords (125.0, 166.0), timeStamp: 2017-03-05 11:52:03.609
LEye coords (130.0, 189.0), REye coords (126.0, 166.0), timeStamp: 2017-03-05 11:52:03.644
LEye coords (130.0, 189.0), REye coords (126.0, 167.0), timeStamp: 2017-03-05 11:52:03.678
LEye coords (206.0, 175.0), REye coords (222.0, 155.0), timeStamp: 2017-03-05 11:52:03.711
LEye coords (212.0, 176.0), REye coords (0.0, 0.0), timeStamp: 2017-03-05 11:52:03.756
LEye coords (212.0, 176.0), REye coords (219.0, 154.0), timeStamp: 2017-03-05 11:52:03.789
LEye coords (213.0, 177.0), REye coords (221.0, 154.0), timeStamp: 2017-03-05 11:52:03.822
LEye coords (214.0, 177.0), REye coords (224.0, 143.0), timeStamp: 2017-03-05 11:52:03.867
LEye coords (215.0, 170.0), REye coords (225.0, 139.0), timeStamp: 2017-03-05 11:52:03.900
LEye coords (216.0, 175.0), REye coords (229.0, 110.0), timeStamp: 2017-03-05 11:52:03.934
LEye coords (216.0, 176.0), REye coords (225.0, 109.0), timeStamp: 2017-03-05 11:52:03.978
LEye coords (216.0, 175.0), REye coords (225.0, 108.0), timeStamp: 2017-03-05 11:52:04.013
LEye coords (215.0, 174.0), REye coords (225.0, 110.0), timeStamp: 2017-03-05 11:52:04.046
LEye coords (218.0, 173.0), REye coords (226.0, 113.0), timeStamp: 2017-03-05 11:52:04.091
LEye coords (218.0, 173.0), REye coords (226.0, 112.0), timeStamp: 2017-03-05 11:52:04.125
LEye coords (218.0, 172.0), REye coords (227.0, 113.0), timeStamp: 2017-03-05 11:52:04.158
LEye coords (218.0, 172.0), REye coords (226.0, 114.0), timeStamp: 2017-03-05 11:52:04.203
LEye coords (218.0, 171.0), REye coords (225.0, 115.0), timeStamp: 2017-03-05 11:52:04.235
LEye coords (218.0, 171.0), REye coords (225.0, 117.0), timeStamp: 2017-03-05 11:52:04.270
