LEye coords (269.0, 165.0), REye coords (281.0, 139.0), timeStamp: 2017-03-05 11:52:06.672
LEye coords (263.0, 165.0), REye coords (294.0, 139.0), timeStamp: 2017-03-05 11:52:38.691
LEye coords (263.0, 166.0), REye coords (293.0, 137.0), timeStamp: 2017-03-05 11:52:38.725
LEye coords (266.0, 166.0), REye coords (290.0, 141.0), timeStamp: 2017-03-05 11:52:38.771
LEye coords (264.0, 164.0), REye coords (290.0, 139.0), timeStamp: 2017-03-05 11:52:38.804
LEye coords (266.0, 166.0), REye coords (291.0, 139.0), timeStamp: 2017-03-05 11:52:38.838
LEye coords (266.0, 166.0), REye coords (291.0, 139.0), timeStamp: 2017-03-05 11:52:38.881
LEye coords (266.0, 167.0), REye coords (291.0, 138.0), timeStamp: 2017-03-05 11:52:38.915
LEye coords (266.0, 167.0), REye coords (290.0, 139.0), timeStamp: 2017-03-05 11:52:38.948
LEye coords (266.0, 168.0), REye coords (290.0, 140.0), timeStamp: 2017-03-05 11:52:38.982
LEye coords (266.0, 168.0), REye coords (290.0, 140.0), timeStamp: 2017-03-05 11:52:39.027
LEye coords (266.0, 168.0), REye coords (290.0, 140.0), timeStamp: 2017-03-05 11:52:39.060
LEye coords (266.0, 168.0), REye coords (288.0, 143.0), timeStamp: 2017-03-05 11:52:39.095
LEye coords (266.0, 169.0), REye coords (286.0, 146.0), timeStamp: 2017-03-05 11:52:39.138
LEye coords (184.0, 151.0), REye coords (193.0, 113.0), timeStamp: 2017-03-05 11:52:39.171
LEye coords (187.0, 154.0), REye coords (190.0, 118.0), timeStamp: 2017-03-05 11:52:39.215
LEye coords (188.0, 155.0), REye coords (191.0, 119.0), timeStamp: 2017-03-05 11:52:39.248
LEye coords (187.0, 155.0), REye coords (190.0, 119.0), timeStamp: 2017-03-05 11:52:39.282
LEye coords (187.0, 155.0), REye coords (190.0, 118.0), timeStamp: 2017-03-05 11:52:39.326
LEye coords (188.0, 156.0), REye coords (188.0, 143.0), timeStamp: 2017-03-05 11:52:39.360
LEye coords (186.0, 158.0), REye coords (187.0, 137.0), timeStamp: 2017-03-05 11:52:39.394
LEye coords (188.0, 157.0), REye coords (189.0, 142.0), timeStamp: 2017-03-05 11:52:39.427
LEye coords (188.0, 158.0), REye coords (189.0, 145.0), timeStamp: 2017-03-05 11:52:39.471
LEye coords (185.0, 159.0), REye coords (184.0, 139.0), timeStamp: 2017-03-05 11:52:39.505
LEye coords (182.0, 159.0), REye coords (181.0, 140.0), timeStamp: 2017-03-05 11:52:39.539
LEye coords (180.0, 160.0), REye coords (180.0, 141.0), timeStamp: 2017-03-05 11:52:39.582
LEye coords (179.0, 160.0), REye coords (178.0, 143.0), timeStamp: 2017-03-05 11:52:39.616
LEye coords (178.0, 160.0), REye coords (178.0, 144.0), timeStamp: 2017-03-05 11:52:39.649
LEye coords (178.0, 161.0), REye coords (176.0, 145.0), timeStamp: 2017-03-05 11:52:39.693
LEye coords (177.0, 161.0), REye coords (176.0, 146.0), timeStamp: 2017-03-05 11:52:39.726
LEye coords (177.0, 161.0), REye coords (175.0, 146.0), timeStamp: 2017-03-05 11:52:39.761
LEye coords (177.0, 161.0), REye coords (175.0, 147.0), timeStamp: 2017-03-05 11:52:39.806
LEye coords (177.0, 161.0), REye coords (175.0, 148.0), timeStamp: 2017-03-05 11:52:39.839
LEye coords (178.0, 161.0), REye coords (176.0, 149.0), timeStamp: 2017-03-05 11:52:39.873
LEye coords (179.0, 162.0), REye coords (176.0, 149.0), timeStamp: 2017-03-05 11:52:39.919
