LEye coords (207.0, 152.0), REye coords (0.0, 0.0), timeStamp: 2017-03-05 11:53:44.716
LEye coords (207.0, 153.0), REye coords (0.0, 0.0), timeStamp: 2017-03-05 11:53:44.761
LEye coords (208.0, 154.0), REye coords (0.0, 0.0), timeStamp: 2017-03-05 11:53:44.795
LEye coords (208.0, 154.0), REye coords (0.0, 0.0), timeStamp: 2017-03-05 11:53:44.829
LEye coords (209.0, 155.0), REye coords (0.0, 0.0), timeStamp: 2017-03-05 11:53:44.862
LEye coords (209.0, 156.0), REye coords (0.0, 0.0), timeStamp: 2017-03-05 11:53:44.906
LEye coords (209.0, 156.0), REye coords (0.0, 0.0), timeStamp: 2017-03-05 11:53:44.941
LEye coords (209.0, 157.0), REye coords (0.0, 0.0), timeStamp: 2017-03-05 11:53:44.974
LEye coords (210.0, 158.0), REye coords (0.0, 0.0), timeStamp: 2017-03-05 11:53:45.017
LEye coords (210.0, 158.0), REye coords (0.0, 0.0), timeStamp: 2017-03-05 11:53:45.051
LEye coords (210.0, 159.0), REye coords (0.0, 0.0), timeStamp: 2017-03-05 11:53:45.084
LEye coords (210.0, 160.0), REye coords (0.0, 0.0), timeStamp: 2017-03-05 11:53:45.128
LEye coords (210.0, 160.0), REye coords (0.0, 0.0), timeStamp: 2017-03-05 11:53:45.162
LEye coords (210.0, 160.0), REye coords (0.0, 0.0), timeStamp: 2017-03-05 11:53:45.195
LEye coords (210.0, 161.0), REye coords (0.0, 0.0), timeStamp: 2017-03-05 11:53:45.241
LEye coords (211.0, 161.0), REye coords (202.0, 115.0), timeStamp: 2017-03-05 11:53:45.275
LEye coords (212.0, 162.0), REye coords (223.0, 150.0), timeStamp: 2017-03-05 11:53:45.308
LEye coords (213.0, 162.0), REye coords (220.0, 150.0), timeStamp: 2017-03-05 11:53:45.352
LEye coords (214.0, 163.0), REye coords (219.0, 151.0), timeStamp: 2017-03-05 11:53:45.386
LEye coords (215.0, 164.0), REye coords (219.0, 152.0), timeStamp: 2017-03-05 11:53:45.419
LEye coords (216.0, 164.0), REye coords (219.0, 153.0), timeStamp: 2017-03-05 11:53:45.464
LEye coords (217.0, 164.0), REye coords (220.0, 153.0), timeStamp: 2017-03-05 11:53:45.498
LEye coords (218.0, 165.0), REye coords (220.0, 153.0), timeStamp: 2017-03-05 11:53:45.532
LEye coords (219.0, 165.0), REye coords (219.0, 152.0), timeStamp: 2017-03-05 11:53:45.565
LEye coords (220.0, 165.0), REye coords (220.0, 152.0), timeStamp: 2017-03-05 11:53:45.609
