LEye coords (258.0, 140.0), REye coords (252.0, 114.0), timeStamp: 2017-03-05 11:53:53.417
LEye coords (258.0, 141.0), REye coords (252.0, 113.0), timeStamp: 2017-03-05 11:53:53.450
LEye coords (258.0, 141.0), REye coords (252.0, 113.0), timeStamp: 2017-03-05 11:53:53.494
LEye coords (258.0, 141.0), REye coords (252.0, 113.0), timeStamp: 2017-03-05 11:53:53.528
LEye coords (259.0, 142.0), REye coords (252.0, 113.0), timeStamp: 2017-03-05 11:53:53.561
LEye coords (259.0, 142.0), REye coords (251.0, 112.0), timeStamp: 2017-03-05 11:53:53.605
LEye coords (259.0, 142.0), REye coords (251.0, 112.0), timeStamp: 2017-03-05 11:53:53.640
LEye coords (260.0, 143.0), REye coords (251.0, 111.0), timeStamp: 2017-03-05 11:53:53.674
LEye coords (261.0, 144.0), REye coords (251.0, 111.0), timeStamp: 2017-03-05 11:53:53.708
LEye coords (261.0, 145.0), REye coords (251.0, 112.0), timeStamp: 2017-03-05 11:53:53.752
LEye coords (199.0, 170.0), REye coords (200.0, 141.0), timeStamp: 2017-03-05 11:53:53.786
LEye coords (198.0, 170.0), REye coords (196.0, 129.0), timeStamp: 2017-03-05 11:53:53.819
LEye coords (201.0, 169.0), REye coords (197.0, 136.0), timeStamp: 2017-03-05 11:53:53.863
LEye coords (202.0, 170.0), REye coords (199.0, 130.0), timeStamp: 2017-03-05 11:53:53.897
LEye coords (176.0, 174.0), REye coords (173.0, 137.0), timeStamp: 2017-03-05 11:53:53.930
LEye coords (100.0, 182.0), REye coords (95.0, 162.0), timeStamp: 2017-03-05 11:53:53.974
LEye coords (100.0, 184.0), REye coords (100.0, 176.0), timeStamp: 2017-03-05 11:53:54.008
LEye coords (100.0, 183.0), REye coords (101.0, 176.0), timeStamp: 2017-03-05 11:53:54.041
LEye coords (101.0, 183.0), REye coords (101.0, 174.0), timeStamp: 2017-03-05 11:53:54.084
LEye coords (101.0, 184.0), REye coords (102.0, 174.0), timeStamp: 2017-03-05 11:53:54.117
LEye coords (101.0, 184.0), REye coords (100.0, 170.0), timeStamp: 2017-03-05 11:53:54.161
LEye coords (101.0, 184.0), REye coords (100.0, 172.0), timeStamp: 2017-03-05 11:53:54.195
LEye coords (101.0, 184.0), REye coords (100.0, 173.0), timeStamp: 2017-03-05 11:53:54.229
LEye coords (102.0, 184.0), REye coords (100.0, 174.0), timeStamp: 2017-03-05 11:53:54.263
LEye coords (102.0, 185.0), REye coords (100.0, 174.0), timeStamp: 2017-03-05 11:53:54.306
LEye coords (102.0, 185.0), REye coords (100.0, 174.0), timeStamp: 2017-03-05 11:53:54.340
LEye coords (102.0, 185.0), REye coords (100.0, 175.0), timeStamp: 2017-03-05 11:53:54.374
LEye coords (102.0, 186.0), REye coords (100.0, 176.0), timeStamp: 2017-03-05 11:53:54.418
LEye coords (103.0, 186.0), REye coords (100.0, 177.0), timeStamp: 2017-03-05 11:53:54.452
LEye coords (103.0, 187.0), REye coords (99.0, 178.0), timeStamp: 2017-03-05 11:53:54.486
LEye coords (104.0, 188.0), REye coords (99.0, 180.0), timeStamp: 2017-03-05 11:53:54.529
LEye coords (104.0, 189.0), REye coords (99.0, 181.0), timeStamp: 2017-03-05 11:53:54.561
LEye coords (104.0, 190.0), REye coords (99.0, 182.0), timeStamp: 2017-03-05 11:53:54.595
LEye coords (104.0, 191.0), REye coords (99.0, 184.0), timeStamp: 2017-03-05 11:53:54.640
LEye coords (104.0, 192.0), REye coords (99.0, 185.0), timeStamp: 2017-03-05 11:53:54.674
LEye coords (104.0, 193.0), REye coords (99.0, 186.0), timeStamp: 2017-03-05 11:53:54.708
