LEye coords (186.0, 259.0), REye coords (198.0, 205.0), timeStamp: 2017-03-05 11:54:27.838
LEye coords (185.0, 263.0), REye coords (202.0, 195.0), timeStamp: 2017-03-05 11:54:27.871
LEye coords (188.0, 261.0), REye coords (200.0, 208.0), timeStamp: 2017-03-05 11:54:27.905
LEye coords (188.0, 261.0), REye coords (199.0, 206.0), timeStamp: 2017-03-05 11:54:27.949
LEye coords (188.0, 263.0), REye coords (199.0, 206.0), timeStamp: 2017-03-05 11:54:27.983
LEye coords (188.0, 263.0), REye coords (199.0, 204.0), timeStamp: 2017-03-05 11:54:28.017
LEye coords (188.0, 263.0), REye coords (199.0, 204.0), timeStamp: 2017-03-05 11:54:28.061
LEye coords (188.0, 264.0), REye coords (200.0, 203.0), timeStamp: 2017-03-05 11:54:28.094
LEye coords (187.0, 264.0), REye coords (199.0, 202.0), timeStamp: 2017-03-05 11:54:28.128
LEye coords (188.0, 265.0), REye coords (199.0, 202.0), timeStamp: 2017-03-05 11:54:28.173
LEye coords (188.0, 265.0), REye coords (199.0, 204.0), timeStamp: 2017-03-05 11:54:28.207
LEye coords (188.0, 265.0), REye coords (198.0, 205.0), timeStamp: 2017-03-05 11:54:28.240
LEye coords (185.0, 265.0), REye coords (164.0, 248.0), timeStamp: 2017-03-05 11:54:28.285
LEye coords (183.0, 265.0), REye coords (167.0, 183.0), timeStamp: 2017-03-05 11:54:28.319
LEye coords (181.0, 265.0), REye coords (168.0, 192.0), timeStamp: 2017-03-05 11:54:28.353
LEye coords (179.0, 264.0), REye coords (162.0, 190.0), timeStamp: 2017-03-05 11:54:28.396
LEye coords (176.0, 262.0), REye coords (158.0, 189.0), timeStamp: 2017-03-05 11:54:28.430
LEye coords (174.0, 261.0), REye coords (147.0, 192.0), timeStamp: 2017-03-05 11:54:28.462
LEye coords (173.0, 261.0), REye coords (152.0, 184.0), timeStamp: 2017-03-05 11:54:28.505
LEye coords (171.0, 260.0), REye coords (149.0, 186.0), timeStamp: 2017-03-05 11:54:28.539
LEye coords (170.0, 261.0), REye coords (151.0, 190.0), timeStamp: 2017-03-05 11:54:28.573
LEye coords (169.0, 261.0), REye coords (153.0, 205.0), timeStamp: 2017-03-05 11:54:28.617
LEye coords (168.0, 261.0), REye coords (153.0, 213.0), timeStamp: 2017-03-05 11:54:28.649
LEye coords (167.0, 261.0), REye coords (154.0, 217.0), timeStamp: 2017-03-05 11:54:28.683
LEye coords (166.0, 261.0), REye coords (154.0, 220.0), timeStamp: 2017-03-05 11:54:28.727
LEye coords (165.0, 261.0), REye coords (154.0, 224.0), timeStamp: 2017-03-05 11:54:28.759
LEye coords (164.0, 261.0), REye coords (154.0, 226.0), timeStamp: 2017-03-05 11:54:28.803
