LEye coords (274.0, 176.0), REye coords (277.0, 148.0), timeStamp: 2017-03-05 11:54:32.871
LEye coords (274.0, 176.0), REye coords (278.0, 147.0), timeStamp: 2017-03-05 11:54:32.904
LEye coords (275.0, 176.0), REye coords (280.0, 145.0), timeStamp: 2017-03-05 11:54:32.949
LEye coords (275.0, 176.0), REye coords (280.0, 143.0), timeStamp: 2017-03-05 11:54:32.983
LEye coords (275.0, 175.0), REye coords (281.0, 141.0), timeStamp: 2017-03-05 11:54:33.017
LEye coords (276.0, 175.0), REye coords (282.0, 140.0), timeStamp: 2017-03-05 11:54:33.051
LEye coords (276.0, 175.0), REye coords (283.0, 139.0), timeStamp: 2017-03-05 11:54:33.095
LEye coords (276.0, 175.0), REye coords (284.0, 138.0), timeStamp: 2017-03-05 11:54:33.128
LEye coords (276.0, 176.0), REye coords (285.0, 137.0), timeStamp: 2017-03-05 11:54:33.162
LEye coords (276.0, 175.0), REye coords (285.0, 135.0), timeStamp: 2017-03-05 11:54:33.206
LEye coords (276.0, 176.0), REye coords (286.0, 134.0), timeStamp: 2017-03-05 11:54:33.239
LEye coords (276.0, 176.0), REye coords (287.0, 133.0), timeStamp: 2017-03-05 11:54:33.273
LEye coords (277.0, 176.0), REye coords (287.0, 133.0), timeStamp: 2017-03-05 11:54:33.317
LEye coords (276.0, 176.0), REye coords (287.0, 134.0), timeStamp: 2017-03-05 11:54:33.351
LEye coords (110.0, 157.0), REye coords (86.0, 129.0), timeStamp: 2017-03-05 11:54:33.385
LEye coords (89.0, 165.0), REye coords (61.0, 136.0), timeStamp: 2017-03-05 11:54:33.429
LEye coords (89.0, 166.0), REye coords (61.0, 136.0), timeStamp: 2017-03-05 11:54:33.462
LEye coords (89.0, 167.0), REye coords (60.0, 135.0), timeStamp: 2017-03-05 11:54:33.495
LEye coords (89.0, 167.0), REye coords (60.0, 134.0), timeStamp: 2017-03-05 11:54:33.540
LEye coords (89.0, 169.0), REye coords (54.0, 134.0), timeStamp: 2017-03-05 11:54:33.574
LEye coords (92.0, 168.0), REye coords (55.0, 137.0), timeStamp: 2017-03-05 11:54:33.608
LEye coords (91.0, 168.0), REye coords (57.0, 137.0), timeStamp: 2017-03-05 11:54:33.652
LEye coords (91.0, 169.0), REye coords (57.0, 141.0), timeStamp: 2017-03-05 11:54:33.685
LEye coords (90.0, 169.0), REye coords (56.0, 141.0), timeStamp: 2017-03-05 11:54:33.719
LEye coords (90.0, 176.0), REye coords (58.0, 199.0), timeStamp: 2017-03-05 11:54:33.753
LEye coords (90.0, 181.0), REye coords (62.0, 197.0), timeStamp: 2017-03-05 11:54:33.797
LEye coords (89.0, 185.0), REye coords (61.0, 197.0), timeStamp: 2017-03-05 11:54:33.831
LEye coords (89.0, 187.0), REye coords (62.0, 197.0), timeStamp: 2017-03-05 11:54:33.875
LEye coords (90.0, 190.0), REye coords (62.0, 197.0), timeStamp: 2017-03-05 11:54:33.908
LEye coords (90.0, 192.0), REye coords (62.0, 197.0), timeStamp: 2017-03-05 11:54:33.942
LEye coords (91.0, 194.0), REye coords (64.0, 197.0), timeStamp: 2017-03-05 11:54:33.977
LEye coords (91.0, 195.0), REye coords (64.0, 198.0), timeStamp: 2017-03-05 11:54:34.021
LEye coords (91.0, 197.0), REye coords (64.0, 198.0), timeStamp: 2017-03-05 11:54:34.055
LEye coords (92.0, 198.0), REye coords (65.0, 198.0), timeStamp: 2017-03-05 11:54:34.091
LEye coords (93.0, 199.0), REye coords (64.0, 198.0), timeStamp: 2017-03-05 11:54:34.124
LEye coords (93.0, 200.0), REye coords (64.0, 198.0), timeStamp: 2017-03-05 11:54:34.169
LEye coords (94.0, 201.0), REye coords (64.0, 197.0), timeStamp: 2017-03-05 11:54:34.204
LEye coords (94.0, 201.0), REye coords (64.0, 198.0), timeStamp: 2017-03-05 11:54:34.236
LEye coords (94.0, 202.0), REye coords (64.0, 198.0), timeStamp: 2017-03-05 11:54:34.281
LEye coords (95.0, 202.0), REye coords (65.0, 198.0), timeStamp: 2017-03-05 11:54:34.315
