LEye coords (247.0, 149.0), REye coords (242.0, 120.0), timeStamp: 2017-03-05 11:54:35.502
LEye coords (248.0, 149.0), REye coords (243.0, 118.0), timeStamp: 2017-03-05 11:54:35.536
LEye coords (248.0, 149.0), REye coords (243.0, 120.0), timeStamp: 2017-03-05 11:54:35.570
LEye coords (248.0, 149.0), REye coords (243.0, 122.0), timeStamp: 2017-03-05 11:54:35.604
LEye coords (248.0, 150.0), REye coords (244.0, 122.0), timeStamp: 2017-03-05 11:54:35.647
LEye coords (248.0, 150.0), REye coords (244.0, 122.0), timeStamp: 2017-03-05 11:54:35.682
LEye coords (248.0, 151.0), REye coords (245.0, 123.0), timeStamp: 2017-03-05 11:54:35.715
LEye coords (249.0, 151.0), REye coords (245.0, 124.0), timeStamp: 2017-03-05 11:54:35.759
LEye coords (249.0, 152.0), REye coords (245.0, 125.0), timeStamp: 2017-03-05 11:54:35.792
LEye coords (249.0, 152.0), REye coords (246.0, 125.0), timeStamp: 2017-03-05 11:54:35.826
LEye coords (249.0, 153.0), REye coords (246.0, 125.0), timeStamp: 2017-03-05 11:54:35.870
LEye coords (249.0, 153.0), REye coords (246.0, 126.0), timeStamp: 2017-03-05 11:54:35.904
LEye coords (250.0, 154.0), REye coords (246.0, 127.0), timeStamp: 2017-03-05 11:54:35.938
LEye coords (314.0, 157.0), REye coords (306.0, 151.0), timeStamp: 2017-03-05 11:54:35.983
LEye coords (332.0, 164.0), REye coords (330.0, 147.0), timeStamp: 2017-03-05 11:54:36.016
LEye coords (331.0, 163.0), REye coords (333.0, 139.0), timeStamp: 2017-03-05 11:54:36.050
LEye coords (329.0, 163.0), REye coords (335.0, 137.0), timeStamp: 2017-03-05 11:54:36.095
LEye coords (330.0, 164.0), REye coords (333.0, 139.0), timeStamp: 2017-03-05 11:54:36.128
LEye coords (328.0, 167.0), REye coords (336.0, 136.0), timeStamp: 2017-03-05 11:54:36.162
LEye coords (327.0, 168.0), REye coords (328.0, 151.0), timeStamp: 2017-03-05 11:54:36.196
LEye coords (327.0, 169.0), REye coords (332.0, 144.0), timeStamp: 2017-03-05 11:54:36.240
LEye coords (327.0, 169.0), REye coords (332.0, 141.0), timeStamp: 2017-03-05 11:54:36.274
LEye coords (328.0, 168.0), REye coords (331.0, 140.0), timeStamp: 2017-03-05 11:54:36.307
LEye coords (328.0, 168.0), REye coords (330.0, 146.0), timeStamp: 2017-03-05 11:54:36.352
LEye coords (329.0, 169.0), REye coords (329.0, 151.0), timeStamp: 2017-03-05 11:54:36.386
LEye coords (330.0, 169.0), REye coords (328.0, 155.0), timeStamp: 2017-03-05 11:54:36.420
LEye coords (330.0, 170.0), REye coords (328.0, 157.0), timeStamp: 2017-03-05 11:54:36.463
LEye coords (330.0, 171.0), REye coords (327.0, 159.0), timeStamp: 2017-03-05 11:54:36.496
LEye coords (330.0, 172.0), REye coords (327.0, 161.0), timeStamp: 2017-03-05 11:54:36.530
