LEye coords (235.0, 180.0), REye coords (231.0, 136.0), timeStamp: 2017-03-05 11:54:42.229
LEye coords (235.0, 180.0), REye coords (231.0, 138.0), timeStamp: 2017-03-05 11:54:42.273
LEye coords (236.0, 180.0), REye coords (231.0, 140.0), timeStamp: 2017-03-05 11:54:42.307
LEye coords (236.0, 181.0), REye coords (231.0, 142.0), timeStamp: 2017-03-05 11:54:42.341
LEye coords (237.0, 181.0), REye coords (231.0, 144.0), timeStamp: 2017-03-05 11:54:42.385
LEye coords (237.0, 181.0), REye coords (230.0, 146.0), timeStamp: 2017-03-05 11:54:42.420
LEye coords (238.0, 181.0), REye coords (231.0, 149.0), timeStamp: 2017-03-05 11:54:42.454
LEye coords (238.0, 181.0), REye coords (231.0, 150.0), timeStamp: 2017-03-05 11:54:42.487
LEye coords (239.0, 182.0), REye coords (231.0, 153.0), timeStamp: 2017-03-05 11:54:42.531
LEye coords (239.0, 182.0), REye coords (231.0, 155.0), timeStamp: 2017-03-05 11:54:42.565
LEye coords (239.0, 183.0), REye coords (231.0, 157.0), timeStamp: 2017-03-05 11:54:42.599
LEye coords (238.0, 183.0), REye coords (231.0, 160.0), timeStamp: 2017-03-05 11:54:42.642
LEye coords (238.0, 184.0), REye coords (231.0, 162.0), timeStamp: 2017-03-05 11:54:42.676
LEye coords (238.0, 185.0), REye coords (231.0, 164.0), timeStamp: 2017-03-05 11:54:42.719
LEye coords (237.0, 186.0), REye coords (231.0, 166.0), timeStamp: 2017-03-05 11:54:42.754
LEye coords (195.0, 207.0), REye coords (190.0, 172.0), timeStamp: 2017-03-05 11:54:42.788
LEye coords (191.0, 206.0), REye coords (189.0, 144.0), timeStamp: 2017-03-05 11:54:42.822
LEye coords (192.0, 205.0), REye coords (187.0, 140.0), timeStamp: 2017-03-05 11:54:42.865
LEye coords (193.0, 205.0), REye coords (186.0, 141.0), timeStamp: 2017-03-05 11:54:42.898
LEye coords (187.0, 199.0), REye coords (178.0, 139.0), timeStamp: 2017-03-05 11:54:42.932
LEye coords (165.0, 179.0), REye coords (150.0, 136.0), timeStamp: 2017-03-05 11:54:42.976
LEye coords (166.0, 179.0), REye coords (154.0, 134.0), timeStamp: 2017-03-05 11:54:43.009
LEye coords (167.0, 180.0), REye coords (150.0, 135.0), timeStamp: 2017-03-05 11:54:43.052
LEye coords (166.0, 180.0), REye coords (150.0, 134.0), timeStamp: 2017-03-05 11:54:43.087
LEye coords (165.0, 180.0), REye coords (149.0, 133.0), timeStamp: 2017-03-05 11:54:43.121
LEye coords (165.0, 181.0), REye coords (149.0, 134.0), timeStamp: 2017-03-05 11:54:43.154
LEye coords (165.0, 180.0), REye coords (148.0, 134.0), timeStamp: 2017-03-05 11:54:43.198
LEye coords (164.0, 180.0), REye coords (148.0, 134.0), timeStamp: 2017-03-05 11:54:43.231
LEye coords (164.0, 180.0), REye coords (148.0, 134.0), timeStamp: 2017-03-05 11:54:43.275
LEye coords (164.0, 180.0), REye coords (148.0, 134.0), timeStamp: 2017-03-05 11:54:43.308
