LEye coords (288.0, 104.0), REye coords (306.0, 115.0), timeStamp: 2017-03-05 11:55:20.759
LEye coords (288.0, 105.0), REye coords (305.0, 115.0), timeStamp: 2017-03-05 11:55:20.803
LEye coords (288.0, 106.0), REye coords (305.0, 115.0), timeStamp: 2017-03-05 11:55:20.836
LEye coords (288.0, 107.0), REye coords (304.0, 115.0), timeStamp: 2017-03-05 11:55:20.871
LEye coords (288.0, 108.0), REye coords (304.0, 117.0), timeStamp: 2017-03-05 11:55:20.915
LEye coords (288.0, 109.0), REye coords (304.0, 118.0), timeStamp: 2017-03-05 11:55:20.949
LEye coords (287.0, 111.0), REye coords (303.0, 119.0), timeStamp: 2017-03-05 11:55:20.984
LEye coords (287.0, 112.0), REye coords (302.0, 120.0), timeStamp: 2017-03-05 11:55:21.018
LEye coords (287.0, 113.0), REye coords (301.0, 120.0), timeStamp: 2017-03-05 11:55:21.063
LEye coords (286.0, 115.0), REye coords (301.0, 121.0), timeStamp: 2017-03-05 11:55:21.097
LEye coords (285.0, 117.0), REye coords (300.0, 121.0), timeStamp: 2017-03-05 11:55:21.130
LEye coords (230.0, 153.0), REye coords (253.0, 135.0), timeStamp: 2017-03-05 11:55:21.164
LEye coords (228.0, 153.0), REye coords (252.0, 160.0), timeStamp: 2017-03-05 11:55:21.209
LEye coords (231.0, 152.0), REye coords (249.0, 161.0), timeStamp: 2017-03-05 11:55:21.243
LEye coords (233.0, 153.0), REye coords (250.0, 163.0), timeStamp: 2017-03-05 11:55:21.277
LEye coords (233.0, 153.0), REye coords (250.0, 165.0), timeStamp: 2017-03-05 11:55:21.321
LEye coords (237.0, 158.0), REye coords (249.0, 167.0), timeStamp: 2017-03-05 11:55:21.354
LEye coords (254.0, 180.0), REye coords (264.0, 186.0), timeStamp: 2017-03-05 11:55:21.387
LEye coords (251.0, 178.0), REye coords (266.0, 185.0), timeStamp: 2017-03-05 11:55:21.432
LEye coords (250.0, 178.0), REye coords (264.0, 187.0), timeStamp: 2017-03-05 11:55:21.465
LEye coords (250.0, 178.0), REye coords (265.0, 187.0), timeStamp: 2017-03-05 11:55:21.499
LEye coords (251.0, 179.0), REye coords (265.0, 187.0), timeStamp: 2017-03-05 11:55:21.543
LEye coords (251.0, 179.0), REye coords (265.0, 187.0), timeStamp: 2017-03-05 11:55:21.577
LEye coords (251.0, 179.0), REye coords (265.0, 188.0), timeStamp: 2017-03-05 11:55:21.611
