LEye coords (228.0, 210.0), REye coords (240.0, 238.0), timeStamp: 2017-03-05 11:55:19.503
LEye coords (230.0, 218.0), REye coords (240.0, 237.0), timeStamp: 2017-03-05 11:55:19.537
LEye coords (226.0, 213.0), REye coords (240.0, 237.0), timeStamp: 2017-03-05 11:55:19.580
LEye coords (227.0, 214.0), REye coords (241.0, 237.0), timeStamp: 2017-03-05 11:55:19.614
LEye coords (227.0, 214.0), REye coords (241.0, 238.0), timeStamp: 2017-03-05 11:55:19.648
LEye coords (226.0, 213.0), REye coords (241.0, 238.0), timeStamp: 2017-03-05 11:55:19.692
LEye coords (226.0, 213.0), REye coords (241.0, 238.0), timeStamp: 2017-03-05 11:55:19.725
LEye coords (226.0, 213.0), REye coords (241.0, 238.0), timeStamp: 2017-03-05 11:55:19.758
LEye coords (226.0, 213.0), REye coords (242.0, 238.0), timeStamp: 2017-03-05 11:55:19.802
LEye coords (226.0, 213.0), REye coords (242.0, 238.0), timeStamp: 2017-03-05 11:55:19.835
LEye coords (260.0, 134.0), REye coords (274.0, 145.0), timeStamp: 2017-03-05 11:55:19.869
LEye coords (260.0, 125.0), REye coords (276.0, 121.0), timeStamp: 2017-03-05 11:55:19.913
LEye coords (262.0, 124.0), REye coords (282.0, 113.0), timeStamp: 2017-03-05 11:55:19.946
LEye coords (261.0, 126.0), REye coords (282.0, 113.0), timeStamp: 2017-03-05 11:55:19.989
LEye coords (262.0, 125.0), REye coords (283.0, 111.0), timeStamp: 2017-03-05 11:55:20.023
LEye coords (262.0, 122.0), REye coords (285.0, 103.0), timeStamp: 2017-03-05 11:55:20.056
LEye coords (264.0, 121.0), REye coords (284.0, 102.0), timeStamp: 2017-03-05 11:55:20.090
LEye coords (273.0, 110.0), REye coords (292.0, 107.0), timeStamp: 2017-03-05 11:55:20.134
LEye coords (279.0, 104.0), REye coords (300.0, 108.0), timeStamp: 2017-03-05 11:55:20.168
LEye coords (283.0, 102.0), REye coords (305.0, 111.0), timeStamp: 2017-03-05 11:55:20.211
LEye coords (284.0, 100.0), REye coords (308.0, 111.0), timeStamp: 2017-03-05 11:55:20.245
LEye coords (285.0, 98.0), REye coords (310.0, 111.0), timeStamp: 2017-03-05 11:55:20.278
LEye coords (286.0, 98.0), REye coords (311.0, 113.0), timeStamp: 2017-03-05 11:55:20.322
LEye coords (288.0, 97.0), REye coords (311.0, 114.0), timeStamp: 2017-03-05 11:55:20.356
LEye coords (288.0, 97.0), REye coords (311.0, 114.0), timeStamp: 2017-03-05 11:55:20.389
LEye coords (288.0, 97.0), REye coords (310.0, 114.0), timeStamp: 2017-03-05 11:55:20.433
LEye coords (288.0, 97.0), REye coords (310.0, 114.0), timeStamp: 2017-03-05 11:55:20.468
LEye coords (288.0, 97.0), REye coords (309.0, 114.0), timeStamp: 2017-03-05 11:55:20.502
LEye coords (288.0, 97.0), REye coords (309.0, 113.0), timeStamp: 2017-03-05 11:55:20.536
LEye coords (288.0, 97.0), REye coords (308.0, 114.0), timeStamp: 2017-03-05 11:55:20.580
LEye coords (288.0, 98.0), REye coords (308.0, 114.0), timeStamp: 2017-03-05 11:55:20.613
LEye coords (288.0, 99.0), REye coords (307.0, 114.0), timeStamp: 2017-03-05 11:55:20.646
