LEye coords (323.0, 136.0), REye coords (338.0, 124.0), timeStamp: 2017-03-05 11:55:26.204
LEye coords (323.0, 136.0), REye coords (338.0, 124.0), timeStamp: 2017-03-05 11:55:26.238
LEye coords (322.0, 137.0), REye coords (337.0, 126.0), timeStamp: 2017-03-05 11:55:26.272
LEye coords (322.0, 137.0), REye coords (337.0, 127.0), timeStamp: 2017-03-05 11:55:26.315
LEye coords (322.0, 137.0), REye coords (337.0, 127.0), timeStamp: 2017-03-05 11:55:26.348
LEye coords (322.0, 137.0), REye coords (336.0, 128.0), timeStamp: 2017-03-05 11:55:26.392
LEye coords (321.0, 138.0), REye coords (336.0, 129.0), timeStamp: 2017-03-05 11:55:26.426
LEye coords (261.0, 210.0), REye coords (278.0, 213.0), timeStamp: 2017-03-05 11:55:26.460
LEye coords (253.0, 225.0), REye coords (275.0, 224.0), timeStamp: 2017-03-05 11:55:26.493
LEye coords (254.0, 226.0), REye coords (276.0, 223.0), timeStamp: 2017-03-05 11:55:26.536
LEye coords (253.0, 226.0), REye coords (276.0, 226.0), timeStamp: 2017-03-05 11:55:26.569
LEye coords (253.0, 226.0), REye coords (274.0, 226.0), timeStamp: 2017-03-05 11:55:26.613
LEye coords (256.0, 221.0), REye coords (268.0, 232.0), timeStamp: 2017-03-05 11:55:26.647
LEye coords (256.0, 226.0), REye coords (275.0, 226.0), timeStamp: 2017-03-05 11:55:26.679
LEye coords (268.0, 237.0), REye coords (285.0, 238.0), timeStamp: 2017-03-05 11:55:26.724
LEye coords (273.0, 242.0), REye coords (291.0, 245.0), timeStamp: 2017-03-05 11:55:26.758
LEye coords (274.0, 246.0), REye coords (294.0, 249.0), timeStamp: 2017-03-05 11:55:26.792
LEye coords (275.0, 249.0), REye coords (295.0, 252.0), timeStamp: 2017-03-05 11:55:26.827
LEye coords (276.0, 251.0), REye coords (295.0, 255.0), timeStamp: 2017-03-05 11:55:26.870
LEye coords (277.0, 253.0), REye coords (295.0, 256.0), timeStamp: 2017-03-05 11:55:26.903
LEye coords (277.0, 253.0), REye coords (295.0, 258.0), timeStamp: 2017-03-05 11:55:26.948
LEye coords (281.0, 255.0), REye coords (297.0, 261.0), timeStamp: 2017-03-05 11:55:26.981
LEye coords (284.0, 256.0), REye coords (299.0, 262.0), timeStamp: 2017-03-05 11:55:27.015
LEye coords (286.0, 256.0), REye coords (300.0, 264.0), timeStamp: 2017-03-05 11:55:27.049
LEye coords (288.0, 257.0), REye coords (301.0, 265.0), timeStamp: 2017-03-05 11:55:27.093
LEye coords (307.0, 266.0), REye coords (309.0, 277.0), timeStamp: 2017-03-05 11:55:27.126
LEye coords (307.0, 263.0), REye coords (308.0, 278.0), timeStamp: 2017-03-05 11:55:27.161
