LEye coords (250.0, 212.0), REye coords (268.0, 221.0), timeStamp: 2017-03-05 11:55:28.458
LEye coords (250.0, 212.0), REye coords (268.0, 220.0), timeStamp: 2017-03-05 11:55:28.501
LEye coords (250.0, 212.0), REye coords (268.0, 220.0), timeStamp: 2017-03-05 11:55:28.536
LEye coords (250.0, 211.0), REye coords (268.0, 220.0), timeStamp: 2017-03-05 11:55:28.570
LEye coords (250.0, 211.0), REye coords (268.0, 219.0), timeStamp: 2017-03-05 11:55:28.605
LEye coords (250.0, 211.0), REye coords (268.0, 219.0), timeStamp: 2017-03-05 11:55:28.649
LEye coords (250.0, 211.0), REye coords (269.0, 219.0), timeStamp: 2017-03-05 11:55:28.684
LEye coords (249.0, 211.0), REye coords (269.0, 218.0), timeStamp: 2017-03-05 11:55:28.719
LEye coords (249.0, 211.0), REye coords (270.0, 218.0), timeStamp: 2017-03-05 11:55:28.752
LEye coords (249.0, 211.0), REye coords (271.0, 217.0), timeStamp: 2017-03-05 11:55:28.796
LEye coords (201.0, 217.0), REye coords (214.0, 230.0), timeStamp: 2017-03-05 11:55:28.829
LEye coords (177.0, 219.0), REye coords (201.0, 229.0), timeStamp: 2017-03-05 11:55:28.863
LEye coords (178.0, 221.0), REye coords (201.0, 227.0), timeStamp: 2017-03-05 11:55:28.906
LEye coords (179.0, 221.0), REye coords (200.0, 231.0), timeStamp: 2017-03-05 11:55:28.941
LEye coords (178.0, 220.0), REye coords (200.0, 232.0), timeStamp: 2017-03-05 11:55:28.975
LEye coords (177.0, 223.0), REye coords (195.0, 237.0), timeStamp: 2017-03-05 11:55:29.019
LEye coords (178.0, 220.0), REye coords (201.0, 235.0), timeStamp: 2017-03-05 11:55:29.053
LEye coords (177.0, 219.0), REye coords (199.0, 236.0), timeStamp: 2017-03-05 11:55:29.087
LEye coords (176.0, 218.0), REye coords (198.0, 234.0), timeStamp: 2017-03-05 11:55:29.130
LEye coords (178.0, 218.0), REye coords (197.0, 231.0), timeStamp: 2017-03-05 11:55:29.165
LEye coords (180.0, 221.0), REye coords (199.0, 234.0), timeStamp: 2017-03-05 11:55:29.197
LEye coords (181.0, 223.0), REye coords (200.0, 237.0), timeStamp: 2017-03-05 11:55:29.241
LEye coords (182.0, 224.0), REye coords (200.0, 239.0), timeStamp: 2017-03-05 11:55:29.275
LEye coords (182.0, 225.0), REye coords (201.0, 240.0), timeStamp: 2017-03-05 11:55:29.310
