LEye coords (132.0, 257.0), REye coords (139.0, 279.0), timeStamp: 2017-03-05 11:55:31.204
LEye coords (133.0, 259.0), REye coords (139.0, 279.0), timeStamp: 2017-03-05 11:55:31.238
LEye coords (132.0, 261.0), REye coords (139.0, 279.0), timeStamp: 2017-03-05 11:55:31.271
LEye coords (132.0, 263.0), REye coords (139.0, 280.0), timeStamp: 2017-03-05 11:55:31.304
LEye coords (132.0, 265.0), REye coords (139.0, 281.0), timeStamp: 2017-03-05 11:55:31.349
LEye coords (132.0, 267.0), REye coords (136.0, 283.0), timeStamp: 2017-03-05 11:55:31.384
LEye coords (131.0, 269.0), REye coords (137.0, 282.0), timeStamp: 2017-03-05 11:55:31.418
LEye coords (131.0, 270.0), REye coords (136.0, 285.0), timeStamp: 2017-03-05 11:55:31.453
LEye coords (131.0, 272.0), REye coords (137.0, 286.0), timeStamp: 2017-03-05 11:55:31.496
LEye coords (131.0, 274.0), REye coords (137.0, 289.0), timeStamp: 2017-03-05 11:55:31.530
LEye coords (131.0, 275.0), REye coords (137.0, 291.0), timeStamp: 2017-03-05 11:55:31.564
LEye coords (131.0, 277.0), REye coords (137.0, 294.0), timeStamp: 2017-03-05 11:55:31.609
LEye coords (131.0, 278.0), REye coords (138.0, 293.0), timeStamp: 2017-03-05 11:55:31.642
LEye coords (167.0, 282.0), REye coords (178.0, 295.0), timeStamp: 2017-03-05 11:55:31.676
LEye coords (190.0, 301.0), REye coords (196.0, 318.0), timeStamp: 2017-03-05 11:55:31.722
LEye coords (190.0, 299.0), REye coords (195.0, 321.0), timeStamp: 2017-03-05 11:55:31.755
LEye coords (190.0, 299.0), REye coords (195.0, 321.0), timeStamp: 2017-03-05 11:55:31.789
LEye coords (190.0, 300.0), REye coords (195.0, 322.0), timeStamp: 2017-03-05 11:55:31.823
LEye coords (193.0, 296.0), REye coords (197.0, 315.0), timeStamp: 2017-03-05 11:55:31.867
LEye coords (193.0, 297.0), REye coords (198.0, 314.0), timeStamp: 2017-03-05 11:55:31.900
LEye coords (195.0, 295.0), REye coords (200.0, 310.0), timeStamp: 2017-03-05 11:55:31.934
LEye coords (201.0, 289.0), REye coords (206.0, 303.0), timeStamp: 2017-03-05 11:55:31.978
LEye coords (205.0, 285.0), REye coords (210.0, 298.0), timeStamp: 2017-03-05 11:55:32.011
LEye coords (207.0, 283.0), REye coords (212.0, 298.0), timeStamp: 2017-03-05 11:55:32.055
LEye coords (208.0, 282.0), REye coords (214.0, 296.0), timeStamp: 2017-03-05 11:55:32.089
LEye coords (209.0, 281.0), REye coords (214.0, 294.0), timeStamp: 2017-03-05 11:55:32.122
LEye coords (210.0, 280.0), REye coords (215.0, 293.0), timeStamp: 2017-03-05 11:55:32.156
