LEye coords (345.0, 186.0), REye coords (342.0, 189.0), timeStamp: 2017-03-05 11:56:40.592
LEye coords (346.0, 186.0), REye coords (342.0, 189.0), timeStamp: 2017-03-05 11:56:40.626
LEye coords (346.0, 187.0), REye coords (342.0, 190.0), timeStamp: 2017-03-05 11:56:40.671
LEye coords (347.0, 187.0), REye coords (342.0, 190.0), timeStamp: 2017-03-05 11:56:40.704
LEye coords (347.0, 188.0), REye coords (342.0, 191.0), timeStamp: 2017-03-05 11:56:40.738
LEye coords (348.0, 188.0), REye coords (342.0, 191.0), timeStamp: 2017-03-05 11:56:40.782
LEye coords (348.0, 189.0), REye coords (341.0, 191.0), timeStamp: 2017-03-05 11:56:40.816
LEye coords (348.0, 189.0), REye coords (341.0, 192.0), timeStamp: 2017-03-05 11:56:40.850
LEye coords (347.0, 191.0), REye coords (339.0, 192.0), timeStamp: 2017-03-05 11:56:40.894
LEye coords (252.0, 204.0), REye coords (255.0, 193.0), timeStamp: 2017-03-05 11:56:40.927
LEye coords (254.0, 203.0), REye coords (0.0, 0.0), timeStamp: 2017-03-05 11:56:40.960
LEye coords (253.0, 203.0), REye coords (0.0, 0.0), timeStamp: 2017-03-05 11:56:41.004
LEye coords (252.0, 204.0), REye coords (0.0, 0.0), timeStamp: 2017-03-05 11:56:41.039
LEye coords (257.0, 203.0), REye coords (276.0, 197.0), timeStamp: 2017-03-05 11:56:41.071
LEye coords (324.0, 209.0), REye coords (301.0, 203.0), timeStamp: 2017-03-05 11:56:41.114
LEye coords (323.0, 208.0), REye coords (308.0, 208.0), timeStamp: 2017-03-05 11:56:41.148
LEye coords (323.0, 210.0), REye coords (311.0, 212.0), timeStamp: 2017-03-05 11:56:41.181
LEye coords (323.0, 210.0), REye coords (313.0, 213.0), timeStamp: 2017-03-05 11:56:41.225
LEye coords (323.0, 210.0), REye coords (315.0, 212.0), timeStamp: 2017-03-05 11:56:41.259
