LEye coords (328.0, 179.0), REye coords (334.0, 172.0), timeStamp: 2017-03-05 11:56:41.403
LEye coords (327.0, 179.0), REye coords (333.0, 174.0), timeStamp: 2017-03-05 11:56:41.448
LEye coords (327.0, 179.0), REye coords (332.0, 176.0), timeStamp: 2017-03-05 11:56:41.482
LEye coords (328.0, 179.0), REye coords (331.0, 177.0), timeStamp: 2017-03-05 11:56:41.516
LEye coords (328.0, 180.0), REye coords (331.0, 177.0), timeStamp: 2017-03-05 11:56:41.560
LEye coords (327.0, 180.0), REye coords (330.0, 178.0), timeStamp: 2017-03-05 11:56:41.593
LEye coords (327.0, 180.0), REye coords (330.0, 178.0), timeStamp: 2017-03-05 11:56:41.628
LEye coords (328.0, 180.0), REye coords (330.0, 178.0), timeStamp: 2017-03-05 11:56:41.662
LEye coords (327.0, 180.0), REye coords (330.0, 179.0), timeStamp: 2017-03-05 11:56:41.706
LEye coords (327.0, 181.0), REye coords (329.0, 179.0), timeStamp: 2017-03-05 11:56:41.740
LEye coords (323.0, 181.0), REye coords (285.0, 173.0), timeStamp: 2017-03-05 11:56:41.783
LEye coords (320.0, 181.0), REye coords (288.0, 177.0), timeStamp: 2017-03-05 11:56:41.817
LEye coords (317.0, 181.0), REye coords (287.0, 177.0), timeStamp: 2017-03-05 11:56:41.850
LEye coords (314.0, 180.0), REye coords (287.0, 176.0), timeStamp: 2017-03-05 11:56:41.884
LEye coords (312.0, 180.0), REye coords (286.0, 175.0), timeStamp: 2017-03-05 11:56:41.928
LEye coords (310.0, 180.0), REye coords (285.0, 175.0), timeStamp: 2017-03-05 11:56:41.961
LEye coords (308.0, 180.0), REye coords (285.0, 175.0), timeStamp: 2017-03-05 11:56:42.005
LEye coords (306.0, 180.0), REye coords (285.0, 175.0), timeStamp: 2017-03-05 11:56:42.038
LEye coords (304.0, 180.0), REye coords (284.0, 174.0), timeStamp: 2017-03-05 11:56:42.071
LEye coords (302.0, 180.0), REye coords (284.0, 173.0), timeStamp: 2017-03-05 11:56:42.106
