LEye coords (169.0, 298.0), REye coords (151.0, 319.0), timeStamp: 2017-03-05 11:56:43.223
LEye coords (169.0, 298.0), REye coords (153.0, 318.0), timeStamp: 2017-03-05 11:56:43.257
LEye coords (169.0, 299.0), REye coords (153.0, 317.0), timeStamp: 2017-03-05 11:56:43.300
LEye coords (169.0, 299.0), REye coords (154.0, 318.0), timeStamp: 2017-03-05 11:56:43.335
LEye coords (169.0, 299.0), REye coords (154.0, 318.0), timeStamp: 2017-03-05 11:56:43.369
LEye coords (164.0, 301.0), REye coords (154.0, 318.0), timeStamp: 2017-03-05 11:56:43.403
LEye coords (168.0, 292.0), REye coords (155.0, 318.0), timeStamp: 2017-03-05 11:56:43.448
LEye coords (183.0, 260.0), REye coords (203.0, 226.0), timeStamp: 2017-03-05 11:56:43.482
LEye coords (189.0, 250.0), REye coords (203.0, 226.0), timeStamp: 2017-03-05 11:56:43.516
LEye coords (191.0, 244.0), REye coords (203.0, 226.0), timeStamp: 2017-03-05 11:56:43.550
LEye coords (198.0, 231.0), REye coords (202.0, 226.0), timeStamp: 2017-03-05 11:56:43.594
LEye coords (197.0, 228.0), REye coords (202.0, 226.0), timeStamp: 2017-03-05 11:56:43.628
LEye coords (197.0, 228.0), REye coords (199.0, 231.0), timeStamp: 2017-03-05 11:56:43.662
LEye coords (197.0, 228.0), REye coords (198.0, 231.0), timeStamp: 2017-03-05 11:56:43.707
LEye coords (198.0, 229.0), REye coords (198.0, 227.0), timeStamp: 2017-03-05 11:56:43.740
LEye coords (198.0, 229.0), REye coords (198.0, 227.0), timeStamp: 2017-03-05 11:56:43.774
LEye coords (195.0, 232.0), REye coords (195.0, 232.0), timeStamp: 2017-03-05 11:56:43.818
LEye coords (193.0, 234.0), REye coords (192.0, 237.0), timeStamp: 2017-03-05 11:56:43.852
LEye coords (194.0, 236.0), REye coords (195.0, 239.0), timeStamp: 2017-03-05 11:56:43.888
LEye coords (345.0, 227.0), REye coords (342.0, 234.0), timeStamp: 2017-03-05 11:56:43.921
LEye coords (342.0, 225.0), REye coords (346.0, 222.0), timeStamp: 2017-03-05 11:56:43.966
LEye coords (342.0, 229.0), REye coords (346.0, 223.0), timeStamp: 2017-03-05 11:56:44.000
LEye coords (342.0, 228.0), REye coords (344.0, 225.0), timeStamp: 2017-03-05 11:56:44.033
LEye coords (343.0, 228.0), REye coords (344.0, 224.0), timeStamp: 2017-03-05 11:56:44.076
LEye coords (341.0, 236.0), REye coords (343.0, 233.0), timeStamp: 2017-03-05 11:56:44.110
LEye coords (343.0, 233.0), REye coords (344.0, 234.0), timeStamp: 2017-03-05 11:56:44.143
LEye coords (344.0, 234.0), REye coords (343.0, 234.0), timeStamp: 2017-03-05 11:56:44.187
LEye coords (344.0, 234.0), REye coords (336.0, 239.0), timeStamp: 2017-03-05 11:56:44.220
LEye coords (345.0, 235.0), REye coords (338.0, 238.0), timeStamp: 2017-03-05 11:56:44.254
LEye coords (345.0, 235.0), REye coords (339.0, 237.0), timeStamp: 2017-03-05 11:56:44.299
LEye coords (345.0, 235.0), REye coords (340.0, 237.0), timeStamp: 2017-03-05 11:56:44.332
LEye coords (342.0, 235.0), REye coords (337.0, 236.0), timeStamp: 2017-03-05 11:56:44.366
LEye coords (339.0, 235.0), REye coords (336.0, 235.0), timeStamp: 2017-03-05 11:56:44.410
LEye coords (337.0, 235.0), REye coords (335.0, 234.0), timeStamp: 2017-03-05 11:56:44.444
LEye coords (336.0, 235.0), REye coords (334.0, 234.0), timeStamp: 2017-03-05 11:56:44.478
LEye coords (334.0, 236.0), REye coords (333.0, 234.0), timeStamp: 2017-03-05 11:56:44.522
LEye coords (333.0, 236.0), REye coords (332.0, 234.0), timeStamp: 2017-03-05 11:56:44.556
LEye coords (332.0, 236.0), REye coords (331.0, 235.0), timeStamp: 2017-03-05 11:56:44.589
LEye coords (331.0, 236.0), REye coords (330.0, 235.0), timeStamp: 2017-03-05 11:56:44.623
LEye coords (330.0, 236.0), REye coords (329.0, 235.0), timeStamp: 2017-03-05 11:56:44.667
LEye coords (329.0, 236.0), REye coords (328.0, 235.0), timeStamp: 2017-03-05 11:56:44.701
LEye coords (328.0, 236.0), REye coords (327.0, 235.0), timeStamp: 2017-03-05 11:56:44.734
LEye coords (327.0, 236.0), REye coords (326.0, 235.0), timeStamp: 2017-03-05 11:56:44.778
LEye coords (326.0, 237.0), REye coords (325.0, 236.0), timeStamp: 2017-03-05 11:56:44.811
