LEye coords (324.0, 223.0), REye coords (323.0, 222.0), timeStamp: 2017-03-05 11:56:44.923
LEye coords (323.0, 224.0), REye coords (322.0, 222.0), timeStamp: 2017-03-05 11:56:44.957
LEye coords (322.0, 224.0), REye coords (322.0, 222.0), timeStamp: 2017-03-05 11:56:45.002
LEye coords (321.0, 224.0), REye coords (321.0, 222.0), timeStamp: 2017-03-05 11:56:45.035
LEye coords (320.0, 224.0), REye coords (320.0, 222.0), timeStamp: 2017-03-05 11:56:45.069
LEye coords (319.0, 224.0), REye coords (320.0, 223.0), timeStamp: 2017-03-05 11:56:45.113
LEye coords (318.0, 225.0), REye coords (319.0, 223.0), timeStamp: 2017-03-05 11:56:45.146
LEye coords (318.0, 225.0), REye coords (319.0, 224.0), timeStamp: 2017-03-05 11:56:45.180
LEye coords (317.0, 225.0), REye coords (318.0, 224.0), timeStamp: 2017-03-05 11:56:45.225
LEye coords (241.0, 213.0), REye coords (247.0, 211.0), timeStamp: 2017-03-05 11:56:45.259
LEye coords (238.0, 211.0), REye coords (254.0, 211.0), timeStamp: 2017-03-05 11:56:45.293
LEye coords (238.0, 213.0), REye coords (253.0, 213.0), timeStamp: 2017-03-05 11:56:45.327
LEye coords (238.0, 214.0), REye coords (255.0, 212.0), timeStamp: 2017-03-05 11:56:45.370
LEye coords (218.0, 213.0), REye coords (231.0, 209.0), timeStamp: 2017-03-05 11:56:45.405
LEye coords (158.0, 214.0), REye coords (167.0, 195.0), timeStamp: 2017-03-05 11:56:45.437
LEye coords (157.0, 211.0), REye coords (165.0, 200.0), timeStamp: 2017-03-05 11:56:45.482
LEye coords (159.0, 210.0), REye coords (166.0, 198.0), timeStamp: 2017-03-05 11:56:45.515
LEye coords (159.0, 211.0), REye coords (166.0, 196.0), timeStamp: 2017-03-05 11:56:45.559
LEye coords (159.0, 211.0), REye coords (166.0, 196.0), timeStamp: 2017-03-05 11:56:45.592
LEye coords (164.0, 208.0), REye coords (172.0, 194.0), timeStamp: 2017-03-05 11:56:45.626
LEye coords (382.0, 119.0), REye coords (383.0, 108.0), timeStamp: 2017-03-05 11:56:45.659
LEye coords (377.0, 106.0), REye coords (386.0, 108.0), timeStamp: 2017-03-05 11:56:45.702
LEye coords (377.0, 114.0), REye coords (384.0, 111.0), timeStamp: 2017-03-05 11:56:45.737
LEye coords (378.0, 116.0), REye coords (383.0, 111.0), timeStamp: 2017-03-05 11:56:45.771
LEye coords (378.0, 117.0), REye coords (383.0, 111.0), timeStamp: 2017-03-05 11:56:45.815
LEye coords (373.0, 120.0), REye coords (384.0, 107.0), timeStamp: 2017-03-05 11:56:45.850
LEye coords (376.0, 120.0), REye coords (370.0, 121.0), timeStamp: 2017-03-05 11:56:45.884
LEye coords (349.0, 130.0), REye coords (362.0, 114.0), timeStamp: 2017-03-05 11:56:45.928
LEye coords (272.0, 152.0), REye coords (281.0, 143.0), timeStamp: 2017-03-05 11:56:45.962
LEye coords (232.0, 169.0), REye coords (237.0, 159.0), timeStamp: 2017-03-05 11:56:45.995
LEye coords (119.0, 219.0), REye coords (117.0, 193.0), timeStamp: 2017-03-05 11:56:46.039
LEye coords (120.0, 222.0), REye coords (116.0, 198.0), timeStamp: 2017-03-05 11:56:46.073
LEye coords (119.0, 221.0), REye coords (116.0, 197.0), timeStamp: 2017-03-05 11:56:46.106
LEye coords (125.0, 219.0), REye coords (121.0, 196.0), timeStamp: 2017-03-05 11:56:46.149
LEye coords (128.0, 217.0), REye coords (124.0, 198.0), timeStamp: 2017-03-05 11:56:46.183
LEye coords (134.0, 215.0), REye coords (128.0, 197.0), timeStamp: 2017-03-05 11:56:46.216
LEye coords (204.0, 172.0), REye coords (222.0, 149.0), timeStamp: 2017-03-05 11:56:46.261
LEye coords (367.0, 49.0), REye coords (382.0, 43.0), timeStamp: 2017-03-05 11:56:46.296
LEye coords (369.0, 45.0), REye coords (378.0, 50.0), timeStamp: 2017-03-05 11:56:46.330
LEye coords (368.0, 44.0), REye coords (377.0, 51.0), timeStamp: 2017-03-05 11:56:46.364
LEye coords (367.0, 47.0), REye coords (375.0, 53.0), timeStamp: 2017-03-05 11:56:46.409
LEye coords (370.0, 45.0), REye coords (374.0, 51.0), timeStamp: 2017-03-05 11:56:46.442
LEye coords (371.0, 45.0), REye coords (374.0, 54.0), timeStamp: 2017-03-05 11:56:46.475
LEye coords (369.0, 51.0), REye coords (371.0, 57.0), timeStamp: 2017-03-05 11:56:46.518
LEye coords (369.0, 48.0), REye coords (371.0, 57.0), timeStamp: 2017-03-05 11:56:46.552
LEye coords (368.0, 51.0), REye coords (371.0, 57.0), timeStamp: 2017-03-05 11:56:46.585
LEye coords (367.0, 53.0), REye coords (370.0, 58.0), timeStamp: 2017-03-05 11:56:46.630
LEye coords (367.0, 54.0), REye coords (370.0, 60.0), timeStamp: 2017-03-05 11:56:46.663
LEye coords (366.0, 56.0), REye coords (369.0, 61.0), timeStamp: 2017-03-05 11:56:46.697
LEye coords (365.0, 58.0), REye coords (369.0, 61.0), timeStamp: 2017-03-05 11:56:46.741
LEye coords (365.0, 59.0), REye coords (368.0, 62.0), timeStamp: 2017-03-05 11:56:46.775
LEye coords (364.0, 60.0), REye coords (368.0, 62.0), timeStamp: 2017-03-05 11:56:46.809
LEye coords (364.0, 63.0), REye coords (368.0, 64.0), timeStamp: 2017-03-05 11:56:46.853
LEye coords (363.0, 65.0), REye coords (368.0, 65.0), timeStamp: 2017-03-05 11:56:46.886
LEye coords (363.0, 67.0), REye coords (367.0, 67.0), timeStamp: 2017-03-05 11:56:46.920
LEye coords (362.0, 69.0), REye coords (367.0, 68.0), timeStamp: 2017-03-05 11:56:46.963
LEye coords (362.0, 71.0), REye coords (366.0, 69.0), timeStamp: 2017-03-05 11:56:46.997
LEye coords (362.0, 73.0), REye coords (366.0, 71.0), timeStamp: 2017-03-05 11:56:47.031
LEye coords (361.0, 74.0), REye coords (366.0, 72.0), timeStamp: 2017-03-05 11:56:47.075
LEye coords (361.0, 75.0), REye coords (365.0, 72.0), timeStamp: 2017-03-05 11:56:47.110
LEye coords (361.0, 76.0), REye coords (366.0, 73.0), timeStamp: 2017-03-05 11:56:47.143
LEye coords (361.0, 78.0), REye coords (366.0, 73.0), timeStamp: 2017-03-05 11:56:47.178
