LEye coords (202.0, 292.0), REye coords (205.0, 288.0), timeStamp: 2017-03-05 11:56:51.587
LEye coords (202.0, 293.0), REye coords (204.0, 290.0), timeStamp: 2017-03-05 11:56:51.620
LEye coords (202.0, 294.0), REye coords (204.0, 291.0), timeStamp: 2017-03-05 11:56:51.665
LEye coords (201.0, 295.0), REye coords (203.0, 292.0), timeStamp: 2017-03-05 11:56:51.699
LEye coords (201.0, 296.0), REye coords (203.0, 293.0), timeStamp: 2017-03-05 11:56:51.733
LEye coords (201.0, 296.0), REye coords (203.0, 294.0), timeStamp: 2017-03-05 11:56:51.767
LEye coords (201.0, 296.0), REye coords (203.0, 295.0), timeStamp: 2017-03-05 11:56:51.810
LEye coords (200.0, 296.0), REye coords (203.0, 296.0), timeStamp: 2017-03-05 11:56:51.844
LEye coords (200.0, 296.0), REye coords (203.0, 297.0), timeStamp: 2017-03-05 11:56:51.878
LEye coords (200.0, 296.0), REye coords (203.0, 297.0), timeStamp: 2017-03-05 11:56:51.923
LEye coords (200.0, 296.0), REye coords (203.0, 298.0), timeStamp: 2017-03-05 11:56:51.957
LEye coords (199.0, 296.0), REye coords (202.0, 299.0), timeStamp: 2017-03-05 11:56:51.991
LEye coords (198.0, 296.0), REye coords (201.0, 299.0), timeStamp: 2017-03-05 11:56:52.035
LEye coords (197.0, 296.0), REye coords (200.0, 299.0), timeStamp: 2017-03-05 11:56:52.068
LEye coords (196.0, 297.0), REye coords (199.0, 298.0), timeStamp: 2017-03-05 11:56:52.101
LEye coords (169.0, 279.0), REye coords (172.0, 282.0), timeStamp: 2017-03-05 11:56:52.145
LEye coords (171.0, 277.0), REye coords (174.0, 273.0), timeStamp: 2017-03-05 11:56:52.180
LEye coords (170.0, 280.0), REye coords (173.0, 276.0), timeStamp: 2017-03-05 11:56:52.213
LEye coords (169.0, 280.0), REye coords (173.0, 272.0), timeStamp: 2017-03-05 11:56:52.257
LEye coords (169.0, 281.0), REye coords (173.0, 272.0), timeStamp: 2017-03-05 11:56:52.291
LEye coords (171.0, 281.0), REye coords (174.0, 273.0), timeStamp: 2017-03-05 11:56:52.325
LEye coords (173.0, 281.0), REye coords (176.0, 274.0), timeStamp: 2017-03-05 11:56:52.359
