LEye coords (208.0, 277.0), REye coords (210.0, 269.0), timeStamp: 2017-03-05 11:57:44.398
LEye coords (164.0, 278.0), REye coords (166.0, 270.0), timeStamp: 2017-03-05 11:57:44.442
LEye coords (165.0, 279.0), REye coords (167.0, 271.0), timeStamp: 2017-03-05 11:57:44.475
LEye coords (166.0, 280.0), REye coords (168.0, 272.0), timeStamp: 2017-03-05 11:57:44.510
LEye coords (166.0, 281.0), REye coords (169.0, 273.0), timeStamp: 2017-03-05 11:57:44.554
LEye coords (167.0, 282.0), REye coords (170.0, 274.0), timeStamp: 2017-03-05 11:57:44.587
LEye coords (167.0, 283.0), REye coords (170.0, 275.0), timeStamp: 2017-03-05 11:57:44.621
LEye coords (168.0, 283.0), REye coords (171.0, 276.0), timeStamp: 2017-03-05 11:57:44.665
LEye coords (168.0, 283.0), REye coords (171.0, 277.0), timeStamp: 2017-03-05 11:57:44.698
LEye coords (169.0, 284.0), REye coords (172.0, 277.0), timeStamp: 2017-03-05 11:57:44.731
LEye coords (169.0, 285.0), REye coords (172.0, 278.0), timeStamp: 2017-03-05 11:57:44.766
LEye coords (169.0, 285.0), REye coords (172.0, 278.0), timeStamp: 2017-03-05 11:57:44.810
LEye coords (169.0, 286.0), REye coords (172.0, 278.0), timeStamp: 2017-03-05 11:57:44.844
LEye coords (169.0, 286.0), REye coords (172.0, 279.0), timeStamp: 2017-03-05 11:57:44.878
LEye coords (169.0, 286.0), REye coords (172.0, 279.0), timeStamp: 2017-03-05 11:57:44.923
LEye coords (169.0, 286.0), REye coords (171.0, 279.0), timeStamp: 2017-03-05 11:57:44.956
LEye coords (169.0, 287.0), REye coords (171.0, 281.0), timeStamp: 2017-03-05 11:57:44.989
LEye coords (169.0, 288.0), REye coords (170.0, 282.0), timeStamp: 2017-03-05 11:57:45.033
LEye coords (168.0, 289.0), REye coords (169.0, 284.0), timeStamp: 2017-03-05 11:57:45.068
LEye coords (168.0, 290.0), REye coords (168.0, 285.0), timeStamp: 2017-03-05 11:57:45.102
LEye coords (167.0, 290.0), REye coords (168.0, 287.0), timeStamp: 2017-03-05 11:57:45.135
LEye coords (167.0, 291.0), REye coords (167.0, 288.0), timeStamp: 2017-03-05 11:57:45.180
LEye coords (166.0, 292.0), REye coords (166.0, 290.0), timeStamp: 2017-03-05 11:57:45.213
