LEye coords (168.0, 234.0), REye coords (181.0, 192.0), timeStamp: 2017-03-05 11:58:45.099
LEye coords (168.0, 235.0), REye coords (181.0, 193.0), timeStamp: 2017-03-05 11:58:45.133
LEye coords (168.0, 235.0), REye coords (182.0, 195.0), timeStamp: 2017-03-05 11:58:45.167
LEye coords (169.0, 235.0), REye coords (182.0, 197.0), timeStamp: 2017-03-05 11:58:45.212
LEye coords (169.0, 236.0), REye coords (182.0, 198.0), timeStamp: 2017-03-05 11:58:45.247
LEye coords (170.0, 236.0), REye coords (183.0, 200.0), timeStamp: 2017-03-05 11:58:45.281
LEye coords (170.0, 236.0), REye coords (183.0, 201.0), timeStamp: 2017-03-05 11:58:45.315
LEye coords (171.0, 237.0), REye coords (183.0, 203.0), timeStamp: 2017-03-05 11:58:45.360
LEye coords (171.0, 237.0), REye coords (184.0, 204.0), timeStamp: 2017-03-05 11:58:45.394
LEye coords (171.0, 238.0), REye coords (184.0, 206.0), timeStamp: 2017-03-05 11:58:45.429
LEye coords (229.0, 246.0), REye coords (246.0, 233.0), timeStamp: 2017-03-05 11:58:45.464
LEye coords (277.0, 266.0), REye coords (298.0, 261.0), timeStamp: 2017-03-05 11:58:45.507
LEye coords (277.0, 269.0), REye coords (298.0, 262.0), timeStamp: 2017-03-05 11:58:45.540
LEye coords (276.0, 269.0), REye coords (295.0, 263.0), timeStamp: 2017-03-05 11:58:45.575
LEye coords (276.0, 271.0), REye coords (295.0, 263.0), timeStamp: 2017-03-05 11:58:45.619
LEye coords (277.0, 271.0), REye coords (295.0, 264.0), timeStamp: 2017-03-05 11:58:45.653
LEye coords (275.0, 266.0), REye coords (298.0, 260.0), timeStamp: 2017-03-05 11:58:45.686
LEye coords (268.0, 274.0), REye coords (288.0, 263.0), timeStamp: 2017-03-05 11:58:45.730
LEye coords (265.0, 275.0), REye coords (285.0, 263.0), timeStamp: 2017-03-05 11:58:45.764
LEye coords (263.0, 276.0), REye coords (286.0, 253.0), timeStamp: 2017-03-05 11:58:45.798
LEye coords (262.0, 277.0), REye coords (287.0, 246.0), timeStamp: 2017-03-05 11:58:45.833
LEye coords (261.0, 277.0), REye coords (287.0, 241.0), timeStamp: 2017-03-05 11:58:45.877
LEye coords (260.0, 277.0), REye coords (288.0, 235.0), timeStamp: 2017-03-05 11:58:45.911
LEye coords (260.0, 276.0), REye coords (286.0, 238.0), timeStamp: 2017-03-05 11:58:45.945
LEye coords (259.0, 276.0), REye coords (284.0, 242.0), timeStamp: 2017-03-05 11:58:45.989
