LEye coords (178.0, 115.0), REye coords (187.0, 111.0), timeStamp: 2017-03-05 11:59:34.842
LEye coords (178.0, 115.0), REye coords (187.0, 111.0), timeStamp: 2017-03-05 11:59:34.877
LEye coords (178.0, 115.0), REye coords (187.0, 110.0), timeStamp: 2017-03-05 11:59:34.911
LEye coords (178.0, 115.0), REye coords (187.0, 111.0), timeStamp: 2017-03-05 11:59:34.956
LEye coords (178.0, 115.0), REye coords (187.0, 111.0), timeStamp: 2017-03-05 11:59:34.989
LEye coords (178.0, 115.0), REye coords (187.0, 111.0), timeStamp: 2017-03-05 11:59:35.021
LEye coords (178.0, 115.0), REye coords (187.0, 112.0), timeStamp: 2017-03-05 11:59:35.066
LEye coords (178.0, 115.0), REye coords (187.0, 112.0), timeStamp: 2017-03-05 11:59:35.101
LEye coords (178.0, 116.0), REye coords (186.0, 112.0), timeStamp: 2017-03-05 11:59:35.133
LEye coords (178.0, 116.0), REye coords (187.0, 112.0), timeStamp: 2017-03-05 11:59:35.176
LEye coords (178.0, 116.0), REye coords (186.0, 113.0), timeStamp: 2017-03-05 11:59:35.211
LEye coords (176.0, 116.0), REye coords (185.0, 112.0), timeStamp: 2017-03-05 11:59:35.244
LEye coords (174.0, 115.0), REye coords (162.0, 91.0), timeStamp: 2017-03-05 11:59:35.289
LEye coords (173.0, 115.0), REye coords (162.0, 104.0), timeStamp: 2017-03-05 11:59:35.323
LEye coords (171.0, 115.0), REye coords (161.0, 104.0), timeStamp: 2017-03-05 11:59:35.356
LEye coords (170.0, 115.0), REye coords (161.0, 103.0), timeStamp: 2017-03-05 11:59:35.400
LEye coords (168.0, 115.0), REye coords (160.0, 103.0), timeStamp: 2017-03-05 11:59:35.435
LEye coords (167.0, 115.0), REye coords (160.0, 103.0), timeStamp: 2017-03-05 11:59:35.468
LEye coords (165.0, 115.0), REye coords (160.0, 103.0), timeStamp: 2017-03-05 11:59:35.502
LEye coords (164.0, 115.0), REye coords (159.0, 101.0), timeStamp: 2017-03-05 11:59:35.547
LEye coords (163.0, 114.0), REye coords (160.0, 102.0), timeStamp: 2017-03-05 11:59:35.579
LEye coords (162.0, 114.0), REye coords (160.0, 103.0), timeStamp: 2017-03-05 11:59:35.613
