LEye coords (253.0, 259.0), REye coords (273.0, 248.0), timeStamp: 2017-03-05 11:59:40.506
LEye coords (254.0, 260.0), REye coords (273.0, 250.0), timeStamp: 2017-03-05 11:59:40.539
LEye coords (255.0, 260.0), REye coords (273.0, 252.0), timeStamp: 2017-03-05 11:59:40.573
LEye coords (255.0, 260.0), REye coords (273.0, 252.0), timeStamp: 2017-03-05 11:59:40.616
LEye coords (255.0, 260.0), REye coords (273.0, 253.0), timeStamp: 2017-03-05 11:59:40.651
LEye coords (254.0, 259.0), REye coords (273.0, 250.0), timeStamp: 2017-03-05 11:59:40.684
LEye coords (253.0, 260.0), REye coords (274.0, 247.0), timeStamp: 2017-03-05 11:59:40.730
LEye coords (254.0, 260.0), REye coords (274.0, 245.0), timeStamp: 2017-03-05 11:59:40.764
LEye coords (253.0, 260.0), REye coords (274.0, 242.0), timeStamp: 2017-03-05 11:59:40.797
LEye coords (253.0, 259.0), REye coords (274.0, 243.0), timeStamp: 2017-03-05 11:59:40.841
LEye coords (177.0, 157.0), REye coords (206.0, 149.0), timeStamp: 2017-03-05 11:59:40.874
LEye coords (172.0, 161.0), REye coords (197.0, 157.0), timeStamp: 2017-03-05 11:59:40.908
LEye coords (175.0, 162.0), REye coords (199.0, 155.0), timeStamp: 2017-03-05 11:59:40.942
LEye coords (176.0, 165.0), REye coords (197.0, 149.0), timeStamp: 2017-03-05 11:59:40.987
LEye coords (177.0, 167.0), REye coords (198.0, 148.0), timeStamp: 2017-03-05 11:59:41.021
LEye coords (178.0, 169.0), REye coords (193.0, 141.0), timeStamp: 2017-03-05 11:59:41.054
LEye coords (173.0, 173.0), REye coords (197.0, 151.0), timeStamp: 2017-03-05 11:59:41.098
LEye coords (167.0, 169.0), REye coords (188.0, 153.0), timeStamp: 2017-03-05 11:59:41.131
LEye coords (165.0, 170.0), REye coords (186.0, 154.0), timeStamp: 2017-03-05 11:59:41.166
LEye coords (165.0, 170.0), REye coords (185.0, 152.0), timeStamp: 2017-03-05 11:59:41.209
LEye coords (164.0, 170.0), REye coords (184.0, 154.0), timeStamp: 2017-03-05 11:59:41.244
LEye coords (165.0, 169.0), REye coords (184.0, 152.0), timeStamp: 2017-03-05 11:59:41.277
LEye coords (164.0, 170.0), REye coords (183.0, 153.0), timeStamp: 2017-03-05 11:59:41.320
LEye coords (164.0, 170.0), REye coords (183.0, 153.0), timeStamp: 2017-03-05 11:59:41.353
LEye coords (164.0, 169.0), REye coords (183.0, 154.0), timeStamp: 2017-03-05 11:59:41.386
LEye coords (164.0, 169.0), REye coords (183.0, 152.0), timeStamp: 2017-03-05 11:59:41.431
LEye coords (164.0, 169.0), REye coords (183.0, 152.0), timeStamp: 2017-03-05 11:59:41.465
