LEye coords (184.0, 162.0), REye coords (199.0, 138.0), timeStamp: 2017-03-05 11:59:42.501
LEye coords (184.0, 163.0), REye coords (200.0, 140.0), timeStamp: 2017-03-05 11:59:42.534
LEye coords (184.0, 164.0), REye coords (200.0, 143.0), timeStamp: 2017-03-05 11:59:42.580
LEye coords (184.0, 166.0), REye coords (199.0, 145.0), timeStamp: 2017-03-05 11:59:42.615
LEye coords (185.0, 167.0), REye coords (199.0, 145.0), timeStamp: 2017-03-05 11:59:42.648
LEye coords (185.0, 168.0), REye coords (199.0, 147.0), timeStamp: 2017-03-05 11:59:42.683
LEye coords (185.0, 170.0), REye coords (199.0, 147.0), timeStamp: 2017-03-05 11:59:42.727
LEye coords (185.0, 171.0), REye coords (199.0, 147.0), timeStamp: 2017-03-05 11:59:42.761
LEye coords (185.0, 172.0), REye coords (199.0, 149.0), timeStamp: 2017-03-05 11:59:42.795
LEye coords (186.0, 173.0), REye coords (198.0, 149.0), timeStamp: 2017-03-05 11:59:42.830
LEye coords (187.0, 174.0), REye coords (199.0, 151.0), timeStamp: 2017-03-05 11:59:42.873
LEye coords (0.0, 0.0), REye coords (269.0, 187.0), timeStamp: 2017-03-05 11:59:42.907
LEye coords (0.0, 0.0), REye coords (267.0, 185.0), timeStamp: 2017-03-05 11:59:42.941
LEye coords (0.0, 0.0), REye coords (269.0, 184.0), timeStamp: 2017-03-05 11:59:42.985
LEye coords (240.0, 181.0), REye coords (269.0, 182.0), timeStamp: 2017-03-05 11:59:43.019
LEye coords (0.0, 0.0), REye coords (268.0, 183.0), timeStamp: 2017-03-05 11:59:43.052
LEye coords (0.0, 0.0), REye coords (264.0, 182.0), timeStamp: 2017-03-05 11:59:43.096
LEye coords (0.0, 0.0), REye coords (270.0, 147.0), timeStamp: 2017-03-05 11:59:43.130
LEye coords (0.0, 0.0), REye coords (270.0, 146.0), timeStamp: 2017-03-05 11:59:43.164
LEye coords (0.0, 0.0), REye coords (271.0, 146.0), timeStamp: 2017-03-05 11:59:43.207
LEye coords (0.0, 0.0), REye coords (271.0, 146.0), timeStamp: 2017-03-05 11:59:43.242
LEye coords (233.0, 176.0), REye coords (268.0, 143.0), timeStamp: 2017-03-05 11:59:43.276
LEye coords (231.0, 178.0), REye coords (265.0, 139.0), timeStamp: 2017-03-05 11:59:43.320
LEye coords (0.0, 0.0), REye coords (263.0, 138.0), timeStamp: 2017-03-05 11:59:43.355
LEye coords (0.0, 0.0), REye coords (255.0, 130.0), timeStamp: 2017-03-05 11:59:43.389
LEye coords (0.0, 0.0), REye coords (258.0, 130.0), timeStamp: 2017-03-05 11:59:43.422
LEye coords (240.0, 157.0), REye coords (272.0, 125.0), timeStamp: 2017-03-05 11:59:43.466
LEye coords (248.0, 156.0), REye coords (276.0, 123.0), timeStamp: 2017-03-05 11:59:43.500
LEye coords (263.0, 150.0), REye coords (276.0, 121.0), timeStamp: 2017-03-05 11:59:43.533
LEye coords (257.0, 126.0), REye coords (277.0, 121.0), timeStamp: 2017-03-05 11:59:43.577
LEye coords (260.0, 141.0), REye coords (275.0, 121.0), timeStamp: 2017-03-05 11:59:43.611
