LEye coords (249.0, 183.0), REye coords (260.0, 131.0), timeStamp: 2017-03-05 11:59:45.649
LEye coords (250.0, 184.0), REye coords (261.0, 132.0), timeStamp: 2017-03-05 11:59:45.684
LEye coords (249.0, 186.0), REye coords (263.0, 133.0), timeStamp: 2017-03-05 11:59:45.718
LEye coords (249.0, 187.0), REye coords (264.0, 133.0), timeStamp: 2017-03-05 11:59:45.762
LEye coords (249.0, 188.0), REye coords (265.0, 133.0), timeStamp: 2017-03-05 11:59:45.795
LEye coords (250.0, 189.0), REye coords (266.0, 133.0), timeStamp: 2017-03-05 11:59:45.829
LEye coords (250.0, 189.0), REye coords (266.0, 134.0), timeStamp: 2017-03-05 11:59:45.873
LEye coords (0.0, 0.0), REye coords (267.0, 135.0), timeStamp: 2017-03-05 11:59:45.907
LEye coords (0.0, 0.0), REye coords (267.0, 136.0), timeStamp: 2017-03-05 11:59:45.941
LEye coords (0.0, 0.0), REye coords (268.0, 137.0), timeStamp: 2017-03-05 11:59:45.986
LEye coords (248.0, 189.0), REye coords (267.0, 139.0), timeStamp: 2017-03-05 11:59:46.018
LEye coords (246.0, 189.0), REye coords (266.0, 142.0), timeStamp: 2017-03-05 11:59:46.052
LEye coords (245.0, 189.0), REye coords (265.0, 144.0), timeStamp: 2017-03-05 11:59:46.096
LEye coords (244.0, 188.0), REye coords (265.0, 146.0), timeStamp: 2017-03-05 11:59:46.130
LEye coords (243.0, 188.0), REye coords (264.0, 147.0), timeStamp: 2017-03-05 11:59:46.163
LEye coords (244.0, 188.0), REye coords (263.0, 146.0), timeStamp: 2017-03-05 11:59:46.198
LEye coords (244.0, 187.0), REye coords (263.0, 145.0), timeStamp: 2017-03-05 11:59:46.244
LEye coords (245.0, 185.0), REye coords (263.0, 144.0), timeStamp: 2017-03-05 11:59:46.277
LEye coords (245.0, 184.0), REye coords (263.0, 143.0), timeStamp: 2017-03-05 11:59:46.310
LEye coords (245.0, 184.0), REye coords (263.0, 142.0), timeStamp: 2017-03-05 11:59:46.354
LEye coords (246.0, 183.0), REye coords (263.0, 142.0), timeStamp: 2017-03-05 11:59:46.388
LEye coords (246.0, 182.0), REye coords (262.0, 141.0), timeStamp: 2017-03-05 11:59:46.422
LEye coords (246.0, 180.0), REye coords (262.0, 140.0), timeStamp: 2017-03-05 11:59:46.466
LEye coords (246.0, 180.0), REye coords (262.0, 139.0), timeStamp: 2017-03-05 11:59:46.500
LEye coords (246.0, 179.0), REye coords (261.0, 137.0), timeStamp: 2017-03-05 11:59:46.533
LEye coords (247.0, 178.0), REye coords (261.0, 137.0), timeStamp: 2017-03-05 11:59:46.577
LEye coords (247.0, 176.0), REye coords (261.0, 136.0), timeStamp: 2017-03-05 11:59:46.611
LEye coords (248.0, 175.0), REye coords (261.0, 134.0), timeStamp: 2017-03-05 11:59:46.644
LEye coords (249.0, 174.0), REye coords (261.0, 134.0), timeStamp: 2017-03-05 11:59:46.689
LEye coords (249.0, 173.0), REye coords (261.0, 133.0), timeStamp: 2017-03-05 11:59:46.722
LEye coords (250.0, 171.0), REye coords (260.0, 133.0), timeStamp: 2017-03-05 11:59:46.756
LEye coords (250.0, 171.0), REye coords (261.0, 132.0), timeStamp: 2017-03-05 11:59:46.789
