LEye coords (355.0, 201.0), REye coords (356.0, 211.0), timeStamp: 2017-02-23 17:40:53.282
LEye coords (354.0, 201.0), REye coords (356.0, 211.0), timeStamp: 2017-02-23 17:40:53.326
LEye coords (354.0, 201.0), REye coords (356.0, 211.0), timeStamp: 2017-02-23 17:40:53.359
LEye coords (354.0, 202.0), REye coords (356.0, 211.0), timeStamp: 2017-02-23 17:40:53.392
LEye coords (354.0, 203.0), REye coords (356.0, 212.0), timeStamp: 2017-02-23 17:40:53.438
LEye coords (354.0, 203.0), REye coords (356.0, 212.0), timeStamp: 2017-02-23 17:40:53.471
LEye coords (353.0, 204.0), REye coords (356.0, 212.0), timeStamp: 2017-02-23 17:40:53.505
LEye coords (239.0, 210.0), REye coords (241.0, 215.0), timeStamp: 2017-02-23 17:40:53.550
LEye coords (237.0, 210.0), REye coords (246.0, 211.0), timeStamp: 2017-02-23 17:40:53.584
LEye coords (236.0, 210.0), REye coords (246.0, 211.0), timeStamp: 2017-02-23 17:40:53.617
LEye coords (234.0, 204.0), REye coords (244.0, 205.0), timeStamp: 2017-02-23 17:40:53.661
LEye coords (231.0, 183.0), REye coords (238.0, 186.0), timeStamp: 2017-02-23 17:40:53.694
LEye coords (221.0, 118.0), REye coords (225.0, 129.0), timeStamp: 2017-02-23 17:40:53.727
LEye coords (223.0, 114.0), REye coords (229.0, 126.0), timeStamp: 2017-02-23 17:40:53.770
LEye coords (223.0, 114.0), REye coords (228.0, 126.0), timeStamp: 2017-02-23 17:40:53.803
LEye coords (223.0, 112.0), REye coords (228.0, 127.0), timeStamp: 2017-02-23 17:40:53.847
LEye coords (224.0, 112.0), REye coords (226.0, 126.0), timeStamp: 2017-02-23 17:40:53.881
LEye coords (224.0, 108.0), REye coords (225.0, 125.0), timeStamp: 2017-02-23 17:40:53.914
LEye coords (223.0, 107.0), REye coords (224.0, 124.0), timeStamp: 2017-02-23 17:40:53.957
LEye coords (223.0, 106.0), REye coords (223.0, 124.0), timeStamp: 2017-02-23 17:40:53.990
LEye coords (222.0, 105.0), REye coords (222.0, 124.0), timeStamp: 2017-02-23 17:40:54.025
LEye coords (222.0, 104.0), REye coords (222.0, 124.0), timeStamp: 2017-02-23 17:40:54.059
LEye coords (221.0, 104.0), REye coords (220.0, 124.0), timeStamp: 2017-02-23 17:40:54.103
LEye coords (219.0, 105.0), REye coords (219.0, 126.0), timeStamp: 2017-02-23 17:40:54.137
LEye coords (218.0, 106.0), REye coords (218.0, 127.0), timeStamp: 2017-02-23 17:40:54.170
LEye coords (217.0, 107.0), REye coords (217.0, 127.0), timeStamp: 2017-02-23 17:40:54.215
LEye coords (216.0, 108.0), REye coords (216.0, 128.0), timeStamp: 2017-02-23 17:40:54.248
LEye coords (215.0, 110.0), REye coords (215.0, 130.0), timeStamp: 2017-02-23 17:40:54.282
LEye coords (214.0, 111.0), REye coords (215.0, 130.0), timeStamp: 2017-02-23 17:40:54.325
LEye coords (214.0, 112.0), REye coords (214.0, 132.0), timeStamp: 2017-02-23 17:40:54.359
LEye coords (213.0, 114.0), REye coords (329.0, 139.0), timeStamp: 2017-02-23 17:40:54.393
LEye coords (212.0, 115.0), REye coords (219.0, 137.0), timeStamp: 2017-02-23 17:40:54.437
LEye coords (212.0, 116.0), REye coords (0.0, 0.0), timeStamp: 2017-02-23 17:40:54.470
LEye coords (211.0, 117.0), REye coords (0.0, 0.0), timeStamp: 2017-02-23 17:40:54.503
LEye coords (211.0, 118.0), REye coords (0.0, 0.0), timeStamp: 2017-02-23 17:40:54.549
LEye coords (210.0, 120.0), REye coords (0.0, 0.0), timeStamp: 2017-02-23 17:40:54.581
LEye coords (210.0, 121.0), REye coords (0.0, 0.0), timeStamp: 2017-02-23 17:40:54.615
LEye coords (209.0, 123.0), REye coords (0.0, 0.0), timeStamp: 2017-02-23 17:40:54.659
LEye coords (208.0, 124.0), REye coords (0.0, 0.0), timeStamp: 2017-02-23 17:40:54.693
LEye coords (208.0, 126.0), REye coords (0.0, 0.0), timeStamp: 2017-02-23 17:40:54.726
LEye coords (209.0, 128.0), REye coords (0.0, 0.0), timeStamp: 2017-02-23 17:40:54.771
LEye coords (209.0, 129.0), REye coords (0.0, 0.0), timeStamp: 2017-02-23 17:40:54.804
LEye coords (209.0, 131.0), REye coords (0.0, 0.0), timeStamp: 2017-02-23 17:40:54.839
LEye coords (209.0, 132.0), REye coords (0.0, 0.0), timeStamp: 2017-02-23 17:40:54.874
LEye coords (209.0, 133.0), REye coords (0.0, 0.0), timeStamp: 2017-02-23 17:40:54.919
LEye coords (209.0, 135.0), REye coords (0.0, 0.0), timeStamp: 2017-02-23 17:40:54.953
LEye coords (210.0, 136.0), REye coords (0.0, 0.0), timeStamp: 2017-02-23 17:40:54.985
LEye coords (210.0, 137.0), REye coords (0.0, 0.0), timeStamp: 2017-02-23 17:40:55.030
LEye coords (211.0, 138.0), REye coords (0.0, 0.0), timeStamp: 2017-02-23 17:40:55.063
LEye coords (211.0, 139.0), REye coords (0.0, 0.0), timeStamp: 2017-02-23 17:40:55.097
LEye coords (211.0, 140.0), REye coords (0.0, 0.0), timeStamp: 2017-02-23 17:40:55.141
LEye coords (212.0, 140.0), REye coords (222.0, 143.0), timeStamp: 2017-02-23 17:40:55.175
LEye coords (212.0, 141.0), REye coords (0.0, 0.0), timeStamp: 2017-02-23 17:40:55.209
LEye coords (212.0, 142.0), REye coords (0.0, 0.0), timeStamp: 2017-02-23 17:40:55.243
