LEye coords (245.0, 159.0), REye coords (270.0, 149.0), timeStamp: 2017-02-23 17:44:03.785
LEye coords (245.0, 159.0), REye coords (270.0, 149.0), timeStamp: 2017-02-23 17:44:03.818
LEye coords (244.0, 159.0), REye coords (271.0, 149.0), timeStamp: 2017-02-23 17:44:03.851
LEye coords (244.0, 159.0), REye coords (271.0, 148.0), timeStamp: 2017-02-23 17:44:03.895
LEye coords (244.0, 159.0), REye coords (271.0, 148.0), timeStamp: 2017-02-23 17:44:03.930
LEye coords (244.0, 159.0), REye coords (271.0, 148.0), timeStamp: 2017-02-23 17:44:03.964
LEye coords (244.0, 159.0), REye coords (271.0, 148.0), timeStamp: 2017-02-23 17:44:04.007
LEye coords (244.0, 159.0), REye coords (271.0, 148.0), timeStamp: 2017-02-23 17:44:04.041
LEye coords (244.0, 159.0), REye coords (270.0, 149.0), timeStamp: 2017-02-23 17:44:04.075
LEye coords (244.0, 159.0), REye coords (270.0, 149.0), timeStamp: 2017-02-23 17:44:04.119
LEye coords (314.0, 282.0), REye coords (302.0, 290.0), timeStamp: 2017-02-23 17:44:04.152
LEye coords (307.0, 286.0), REye coords (284.0, 301.0), timeStamp: 2017-02-23 17:44:04.186
LEye coords (308.0, 286.0), REye coords (294.0, 295.0), timeStamp: 2017-02-23 17:44:04.229
LEye coords (308.0, 287.0), REye coords (296.0, 294.0), timeStamp: 2017-02-23 17:44:04.263
LEye coords (304.0, 281.0), REye coords (295.0, 285.0), timeStamp: 2017-02-23 17:44:04.296
LEye coords (268.0, 93.0), REye coords (314.0, 95.0), timeStamp: 2017-02-23 17:44:04.340
LEye coords (271.0, 95.0), REye coords (313.0, 101.0), timeStamp: 2017-02-23 17:44:04.374
LEye coords (270.0, 97.0), REye coords (314.0, 100.0), timeStamp: 2017-02-23 17:44:04.408
LEye coords (269.0, 97.0), REye coords (315.0, 98.0), timeStamp: 2017-02-23 17:44:04.442
LEye coords (283.0, 95.0), REye coords (329.0, 97.0), timeStamp: 2017-02-23 17:44:04.487
LEye coords (346.0, 81.0), REye coords (391.0, 94.0), timeStamp: 2017-02-23 17:44:04.521
LEye coords (349.0, 86.0), REye coords (386.0, 99.0), timeStamp: 2017-02-23 17:44:04.554
LEye coords (347.0, 87.0), REye coords (386.0, 99.0), timeStamp: 2017-02-23 17:44:04.599
LEye coords (348.0, 86.0), REye coords (385.0, 99.0), timeStamp: 2017-02-23 17:44:04.633
LEye coords (348.0, 87.0), REye coords (387.0, 98.0), timeStamp: 2017-02-23 17:44:04.666
LEye coords (348.0, 86.0), REye coords (387.0, 98.0), timeStamp: 2017-02-23 17:44:04.711
LEye coords (348.0, 86.0), REye coords (387.0, 97.0), timeStamp: 2017-02-23 17:44:04.744
LEye coords (348.0, 86.0), REye coords (388.0, 96.0), timeStamp: 2017-02-23 17:44:04.778
LEye coords (348.0, 86.0), REye coords (388.0, 96.0), timeStamp: 2017-02-23 17:44:04.822
LEye coords (347.0, 85.0), REye coords (388.0, 96.0), timeStamp: 2017-02-23 17:44:04.856
LEye coords (347.0, 85.0), REye coords (388.0, 95.0), timeStamp: 2017-02-23 17:44:04.889
LEye coords (346.0, 85.0), REye coords (387.0, 94.0), timeStamp: 2017-02-23 17:44:04.933
LEye coords (346.0, 85.0), REye coords (387.0, 94.0), timeStamp: 2017-02-23 17:44:04.966
LEye coords (345.0, 85.0), REye coords (387.0, 94.0), timeStamp: 2017-02-23 17:44:04.999
LEye coords (345.0, 85.0), REye coords (387.0, 94.0), timeStamp: 2017-02-23 17:44:05.043
LEye coords (344.0, 85.0), REye coords (386.0, 94.0), timeStamp: 2017-02-23 17:44:05.077
LEye coords (344.0, 85.0), REye coords (386.0, 94.0), timeStamp: 2017-02-23 17:44:05.111
LEye coords (343.0, 85.0), REye coords (386.0, 94.0), timeStamp: 2017-02-23 17:44:05.155
LEye coords (343.0, 85.0), REye coords (386.0, 94.0), timeStamp: 2017-02-23 17:44:05.189
LEye coords (343.0, 84.0), REye coords (386.0, 94.0), timeStamp: 2017-02-23 17:44:05.223
LEye coords (343.0, 84.0), REye coords (386.0, 94.0), timeStamp: 2017-02-23 17:44:05.257
LEye coords (343.0, 84.0), REye coords (386.0, 94.0), timeStamp: 2017-02-23 17:44:05.301
LEye coords (343.0, 84.0), REye coords (386.0, 93.0), timeStamp: 2017-02-23 17:44:05.335
LEye coords (342.0, 84.0), REye coords (386.0, 93.0), timeStamp: 2017-02-23 17:44:05.378
LEye coords (342.0, 84.0), REye coords (386.0, 93.0), timeStamp: 2017-02-23 17:44:05.412
LEye coords (342.0, 84.0), REye coords (386.0, 92.0), timeStamp: 2017-02-23 17:44:05.445
LEye coords (342.0, 84.0), REye coords (386.0, 92.0), timeStamp: 2017-02-23 17:44:05.479
LEye coords (342.0, 83.0), REye coords (386.0, 92.0), timeStamp: 2017-02-23 17:44:05.523
LEye coords (342.0, 83.0), REye coords (386.0, 92.0), timeStamp: 2017-02-23 17:44:05.556
LEye coords (342.0, 83.0), REye coords (386.0, 92.0), timeStamp: 2017-02-23 17:44:05.600
LEye coords (341.0, 83.0), REye coords (386.0, 92.0), timeStamp: 2017-02-23 17:44:05.633
LEye coords (341.0, 83.0), REye coords (386.0, 92.0), timeStamp: 2017-02-23 17:44:05.666
LEye coords (341.0, 83.0), REye coords (385.0, 92.0), timeStamp: 2017-02-23 17:44:05.710
LEye coords (341.0, 83.0), REye coords (386.0, 92.0), timeStamp: 2017-02-23 17:44:05.745
