LEye coords (128.0, 198.0), REye coords (140.0, 195.0), timeStamp: 2017-02-23 17:46:27.308
LEye coords (128.0, 200.0), REye coords (140.0, 196.0), timeStamp: 2017-02-23 17:46:27.342
LEye coords (128.0, 201.0), REye coords (139.0, 197.0), timeStamp: 2017-02-23 17:46:27.385
LEye coords (128.0, 202.0), REye coords (138.0, 199.0), timeStamp: 2017-02-23 17:46:27.418
LEye coords (129.0, 204.0), REye coords (138.0, 200.0), timeStamp: 2017-02-23 17:46:27.452
LEye coords (129.0, 205.0), REye coords (137.0, 200.0), timeStamp: 2017-02-23 17:46:27.496
LEye coords (185.0, 241.0), REye coords (173.0, 245.0), timeStamp: 2017-02-23 17:46:27.530
LEye coords (199.0, 259.0), REye coords (190.0, 257.0), timeStamp: 2017-02-23 17:46:27.573
LEye coords (199.0, 257.0), REye coords (188.0, 258.0), timeStamp: 2017-02-23 17:46:27.608
LEye coords (199.0, 258.0), REye coords (187.0, 255.0), timeStamp: 2017-02-23 17:46:27.641
LEye coords (225.0, 243.0), REye coords (215.0, 243.0), timeStamp: 2017-02-23 17:46:27.675
LEye coords (310.0, 187.0), REye coords (303.0, 194.0), timeStamp: 2017-02-23 17:46:27.719
LEye coords (312.0, 184.0), REye coords (302.0, 182.0), timeStamp: 2017-02-23 17:46:27.753
LEye coords (311.0, 184.0), REye coords (303.0, 179.0), timeStamp: 2017-02-23 17:46:27.787
LEye coords (311.0, 181.0), REye coords (303.0, 177.0), timeStamp: 2017-02-23 17:46:27.832
LEye coords (311.0, 180.0), REye coords (302.0, 178.0), timeStamp: 2017-02-23 17:46:27.865
LEye coords (311.0, 179.0), REye coords (302.0, 180.0), timeStamp: 2017-02-23 17:46:27.899
LEye coords (311.0, 177.0), REye coords (302.0, 179.0), timeStamp: 2017-02-23 17:46:27.943
LEye coords (316.0, 176.0), REye coords (307.0, 180.0), timeStamp: 2017-02-23 17:46:27.977
LEye coords (320.0, 176.0), REye coords (311.0, 179.0), timeStamp: 2017-02-23 17:46:28.011
LEye coords (323.0, 176.0), REye coords (314.0, 179.0), timeStamp: 2017-02-23 17:46:28.045
LEye coords (325.0, 175.0), REye coords (317.0, 179.0), timeStamp: 2017-02-23 17:46:28.089
LEye coords (328.0, 175.0), REye coords (319.0, 179.0), timeStamp: 2017-02-23 17:46:28.122
LEye coords (330.0, 176.0), REye coords (322.0, 179.0), timeStamp: 2017-02-23 17:46:28.166
LEye coords (332.0, 176.0), REye coords (324.0, 180.0), timeStamp: 2017-02-23 17:46:28.200
LEye coords (334.0, 176.0), REye coords (0.0, 0.0), timeStamp: 2017-02-23 17:46:28.234
LEye coords (337.0, 176.0), REye coords (0.0, 0.0), timeStamp: 2017-02-23 17:46:28.267
LEye coords (339.0, 177.0), REye coords (0.0, 0.0), timeStamp: 2017-02-23 17:46:28.312
LEye coords (341.0, 177.0), REye coords (0.0, 0.0), timeStamp: 2017-02-23 17:46:28.346
LEye coords (342.0, 178.0), REye coords (0.0, 0.0), timeStamp: 2017-02-23 17:46:28.380
LEye coords (344.0, 178.0), REye coords (0.0, 0.0), timeStamp: 2017-02-23 17:46:28.424
LEye coords (345.0, 178.0), REye coords (0.0, 0.0), timeStamp: 2017-02-23 17:46:28.457
LEye coords (346.0, 178.0), REye coords (0.0, 0.0), timeStamp: 2017-02-23 17:46:28.490
LEye coords (347.0, 178.0), REye coords (0.0, 0.0), timeStamp: 2017-02-23 17:46:28.534
LEye coords (349.0, 179.0), REye coords (0.0, 0.0), timeStamp: 2017-02-23 17:46:28.567
LEye coords (357.0, 191.0), REye coords (0.0, 0.0), timeStamp: 2017-02-23 17:46:28.611
LEye coords (360.0, 188.0), REye coords (0.0, 0.0), timeStamp: 2017-02-23 17:46:28.645
LEye coords (359.0, 188.0), REye coords (0.0, 0.0), timeStamp: 2017-02-23 17:46:28.679
LEye coords (359.0, 187.0), REye coords (0.0, 0.0), timeStamp: 2017-02-23 17:46:28.713
LEye coords (360.0, 188.0), REye coords (0.0, 0.0), timeStamp: 2017-02-23 17:46:28.757
LEye coords (360.0, 188.0), REye coords (0.0, 0.0), timeStamp: 2017-02-23 17:46:28.790
