LEye coords (184.0, 217.0), REye coords (177.0, 204.0), timeStamp: 2017-02-23 17:46:40.860
LEye coords (184.0, 217.0), REye coords (177.0, 205.0), timeStamp: 2017-02-23 17:46:40.894
LEye coords (184.0, 217.0), REye coords (177.0, 205.0), timeStamp: 2017-02-23 17:46:40.928
LEye coords (185.0, 217.0), REye coords (177.0, 206.0), timeStamp: 2017-02-23 17:46:40.961
LEye coords (185.0, 217.0), REye coords (177.0, 206.0), timeStamp: 2017-02-23 17:46:41.005
LEye coords (185.0, 217.0), REye coords (177.0, 207.0), timeStamp: 2017-02-23 17:46:41.039
LEye coords (218.0, 157.0), REye coords (207.0, 145.0), timeStamp: 2017-02-23 17:46:41.072
LEye coords (220.0, 149.0), REye coords (207.0, 134.0), timeStamp: 2017-02-23 17:46:41.117
LEye coords (220.0, 150.0), REye coords (207.0, 137.0), timeStamp: 2017-02-23 17:46:41.151
LEye coords (219.0, 150.0), REye coords (207.0, 139.0), timeStamp: 2017-02-23 17:46:41.185
LEye coords (206.0, 150.0), REye coords (195.0, 135.0), timeStamp: 2017-02-23 17:46:41.228
LEye coords (164.0, 150.0), REye coords (159.0, 131.0), timeStamp: 2017-02-23 17:46:41.262
LEye coords (165.0, 143.0), REye coords (160.0, 128.0), timeStamp: 2017-02-23 17:46:41.296
LEye coords (163.0, 143.0), REye coords (161.0, 130.0), timeStamp: 2017-02-23 17:46:41.340
LEye coords (163.0, 142.0), REye coords (160.0, 130.0), timeStamp: 2017-02-23 17:46:41.374
LEye coords (163.0, 142.0), REye coords (160.0, 132.0), timeStamp: 2017-02-23 17:46:41.408
LEye coords (164.0, 137.0), REye coords (162.0, 127.0), timeStamp: 2017-02-23 17:46:41.452
LEye coords (164.0, 130.0), REye coords (163.0, 121.0), timeStamp: 2017-02-23 17:46:41.485
LEye coords (165.0, 125.0), REye coords (164.0, 116.0), timeStamp: 2017-02-23 17:46:41.519
LEye coords (165.0, 121.0), REye coords (164.0, 113.0), timeStamp: 2017-02-23 17:46:41.563
LEye coords (166.0, 118.0), REye coords (165.0, 109.0), timeStamp: 2017-02-23 17:46:41.596
LEye coords (166.0, 115.0), REye coords (165.0, 107.0), timeStamp: 2017-02-23 17:46:41.630
LEye coords (167.0, 112.0), REye coords (166.0, 105.0), timeStamp: 2017-02-23 17:46:41.674
LEye coords (167.0, 110.0), REye coords (166.0, 103.0), timeStamp: 2017-02-23 17:46:41.707
LEye coords (168.0, 108.0), REye coords (167.0, 102.0), timeStamp: 2017-02-23 17:46:41.741
LEye coords (168.0, 107.0), REye coords (167.0, 100.0), timeStamp: 2017-02-23 17:46:41.786
LEye coords (168.0, 105.0), REye coords (167.0, 99.0), timeStamp: 2017-02-23 17:46:41.819
LEye coords (169.0, 104.0), REye coords (168.0, 97.0), timeStamp: 2017-02-23 17:46:41.852
LEye coords (169.0, 103.0), REye coords (168.0, 96.0), timeStamp: 2017-02-23 17:46:41.897
LEye coords (169.0, 102.0), REye coords (168.0, 96.0), timeStamp: 2017-02-23 17:46:41.931
LEye coords (170.0, 101.0), REye coords (169.0, 95.0), timeStamp: 2017-02-23 17:46:41.965
LEye coords (170.0, 101.0), REye coords (169.0, 94.0), timeStamp: 2017-02-23 17:46:41.999
