LEye coords (276.0, 165.0), REye coords (274.0, 159.0), timeStamp: 2017-02-23 17:50:38.802
LEye coords (276.0, 166.0), REye coords (274.0, 160.0), timeStamp: 2017-02-23 17:50:38.835
LEye coords (276.0, 166.0), REye coords (274.0, 160.0), timeStamp: 2017-02-23 17:50:38.868
LEye coords (276.0, 167.0), REye coords (274.0, 160.0), timeStamp: 2017-02-23 17:50:38.913
LEye coords (276.0, 167.0), REye coords (275.0, 160.0), timeStamp: 2017-02-23 17:50:38.946
LEye coords (277.0, 168.0), REye coords (275.0, 160.0), timeStamp: 2017-02-23 17:50:38.980
LEye coords (276.0, 168.0), REye coords (275.0, 161.0), timeStamp: 2017-02-23 17:50:39.023
LEye coords (276.0, 169.0), REye coords (275.0, 162.0), timeStamp: 2017-02-23 17:50:39.057
LEye coords (277.0, 170.0), REye coords (275.0, 163.0), timeStamp: 2017-02-23 17:50:39.090
LEye coords (278.0, 172.0), REye coords (276.0, 165.0), timeStamp: 2017-02-23 17:50:39.134
LEye coords (279.0, 174.0), REye coords (277.0, 167.0), timeStamp: 2017-02-23 17:50:39.168
LEye coords (345.0, 188.0), REye coords (347.0, 185.0), timeStamp: 2017-02-23 17:50:39.201
LEye coords (341.0, 185.0), REye coords (324.0, 188.0), timeStamp: 2017-02-23 17:50:39.247
LEye coords (341.0, 186.0), REye coords (335.0, 184.0), timeStamp: 2017-02-23 17:50:39.281
LEye coords (341.0, 184.0), REye coords (339.0, 181.0), timeStamp: 2017-02-23 17:50:39.314
LEye coords (342.0, 184.0), REye coords (341.0, 181.0), timeStamp: 2017-02-23 17:50:39.359
LEye coords (343.0, 180.0), REye coords (351.0, 171.0), timeStamp: 2017-02-23 17:50:39.393
LEye coords (357.0, 178.0), REye coords (367.0, 164.0), timeStamp: 2017-02-23 17:50:39.426
LEye coords (357.0, 179.0), REye coords (370.0, 167.0), timeStamp: 2017-02-23 17:50:39.470
LEye coords (358.0, 178.0), REye coords (368.0, 168.0), timeStamp: 2017-02-23 17:50:39.504
LEye coords (358.0, 179.0), REye coords (368.0, 168.0), timeStamp: 2017-02-23 17:50:39.538
LEye coords (358.0, 179.0), REye coords (368.0, 168.0), timeStamp: 2017-02-23 17:50:39.571
LEye coords (358.0, 179.0), REye coords (367.0, 169.0), timeStamp: 2017-02-23 17:50:39.615
LEye coords (358.0, 180.0), REye coords (367.0, 170.0), timeStamp: 2017-02-23 17:50:39.649
LEye coords (358.0, 180.0), REye coords (367.0, 171.0), timeStamp: 2017-02-23 17:50:39.682
LEye coords (358.0, 181.0), REye coords (367.0, 171.0), timeStamp: 2017-02-23 17:50:39.725
LEye coords (358.0, 181.0), REye coords (367.0, 172.0), timeStamp: 2017-02-23 17:50:39.758
LEye coords (358.0, 182.0), REye coords (367.0, 172.0), timeStamp: 2017-02-23 17:50:39.803
LEye coords (358.0, 182.0), REye coords (367.0, 172.0), timeStamp: 2017-02-23 17:50:39.836
LEye coords (359.0, 182.0), REye coords (367.0, 173.0), timeStamp: 2017-02-23 17:50:39.870
LEye coords (359.0, 183.0), REye coords (367.0, 173.0), timeStamp: 2017-02-23 17:50:39.905
LEye coords (359.0, 183.0), REye coords (367.0, 173.0), timeStamp: 2017-02-23 17:50:39.949
LEye coords (359.0, 183.0), REye coords (367.0, 173.0), timeStamp: 2017-02-23 17:50:39.982
LEye coords (359.0, 184.0), REye coords (368.0, 173.0), timeStamp: 2017-02-23 17:50:40.015
LEye coords (359.0, 184.0), REye coords (368.0, 173.0), timeStamp: 2017-02-23 17:50:40.059
LEye coords (359.0, 184.0), REye coords (368.0, 174.0), timeStamp: 2017-02-23 17:50:40.093
LEye coords (360.0, 185.0), REye coords (368.0, 174.0), timeStamp: 2017-02-23 17:50:40.127
LEye coords (360.0, 185.0), REye coords (368.0, 174.0), timeStamp: 2017-02-23 17:50:40.171
LEye coords (360.0, 185.0), REye coords (368.0, 175.0), timeStamp: 2017-02-23 17:50:40.204
LEye coords (360.0, 186.0), REye coords (368.0, 175.0), timeStamp: 2017-02-23 17:50:40.238
