LEye coords (218.0, 111.0), REye coords (211.0, 97.0), timeStamp: 2017-02-23 17:50:42.872
LEye coords (219.0, 112.0), REye coords (211.0, 97.0), timeStamp: 2017-02-23 17:50:42.906
LEye coords (219.0, 112.0), REye coords (211.0, 98.0), timeStamp: 2017-02-23 17:50:42.940
LEye coords (219.0, 112.0), REye coords (211.0, 98.0), timeStamp: 2017-02-23 17:50:42.984
LEye coords (219.0, 113.0), REye coords (211.0, 98.0), timeStamp: 2017-02-23 17:50:43.018
LEye coords (219.0, 113.0), REye coords (211.0, 99.0), timeStamp: 2017-02-23 17:50:43.052
LEye coords (219.0, 114.0), REye coords (211.0, 99.0), timeStamp: 2017-02-23 17:50:43.097
LEye coords (219.0, 114.0), REye coords (211.0, 100.0), timeStamp: 2017-02-23 17:50:43.131
LEye coords (220.0, 115.0), REye coords (211.0, 100.0), timeStamp: 2017-02-23 17:50:43.165
LEye coords (220.0, 115.0), REye coords (211.0, 101.0), timeStamp: 2017-02-23 17:50:43.208
LEye coords (220.0, 116.0), REye coords (211.0, 102.0), timeStamp: 2017-02-23 17:50:43.243
LEye coords (179.0, 140.0), REye coords (172.0, 119.0), timeStamp: 2017-02-23 17:50:43.277
LEye coords (180.0, 140.0), REye coords (172.0, 120.0), timeStamp: 2017-02-23 17:50:43.312
LEye coords (180.0, 138.0), REye coords (172.0, 121.0), timeStamp: 2017-02-23 17:50:43.356
LEye coords (180.0, 138.0), REye coords (172.0, 121.0), timeStamp: 2017-02-23 17:50:43.390
LEye coords (174.0, 137.0), REye coords (167.0, 117.0), timeStamp: 2017-02-23 17:50:43.423
LEye coords (160.0, 131.0), REye coords (152.0, 112.0), timeStamp: 2017-02-23 17:50:43.467
LEye coords (159.0, 132.0), REye coords (151.0, 105.0), timeStamp: 2017-02-23 17:50:43.500
LEye coords (152.0, 128.0), REye coords (142.0, 103.0), timeStamp: 2017-02-23 17:50:43.534
LEye coords (148.0, 126.0), REye coords (139.0, 100.0), timeStamp: 2017-02-23 17:50:43.568
LEye coords (146.0, 125.0), REye coords (137.0, 100.0), timeStamp: 2017-02-23 17:50:43.612
LEye coords (145.0, 125.0), REye coords (137.0, 101.0), timeStamp: 2017-02-23 17:50:43.646
LEye coords (144.0, 124.0), REye coords (137.0, 101.0), timeStamp: 2017-02-23 17:50:43.689
LEye coords (144.0, 123.0), REye coords (136.0, 102.0), timeStamp: 2017-02-23 17:50:43.724
LEye coords (143.0, 124.0), REye coords (136.0, 102.0), timeStamp: 2017-02-23 17:50:43.758
LEye coords (143.0, 123.0), REye coords (136.0, 102.0), timeStamp: 2017-02-23 17:50:43.792
LEye coords (142.0, 123.0), REye coords (136.0, 102.0), timeStamp: 2017-02-23 17:50:43.836
LEye coords (142.0, 123.0), REye coords (135.0, 103.0), timeStamp: 2017-02-23 17:50:43.871
LEye coords (142.0, 123.0), REye coords (135.0, 102.0), timeStamp: 2017-02-23 17:50:43.904
LEye coords (142.0, 124.0), REye coords (135.0, 103.0), timeStamp: 2017-02-23 17:50:43.939
LEye coords (142.0, 124.0), REye coords (135.0, 103.0), timeStamp: 2017-02-23 17:50:43.983
LEye coords (142.0, 124.0), REye coords (135.0, 103.0), timeStamp: 2017-02-23 17:50:44.016
LEye coords (142.0, 124.0), REye coords (135.0, 104.0), timeStamp: 2017-02-23 17:50:44.050
LEye coords (142.0, 124.0), REye coords (135.0, 104.0), timeStamp: 2017-02-23 17:50:44.094
LEye coords (142.0, 124.0), REye coords (135.0, 104.0), timeStamp: 2017-02-23 17:50:44.127
LEye coords (142.0, 124.0), REye coords (135.0, 104.0), timeStamp: 2017-02-23 17:50:44.162
LEye coords (141.0, 125.0), REye coords (135.0, 105.0), timeStamp: 2017-02-23 17:50:44.207
LEye coords (141.0, 125.0), REye coords (136.0, 105.0), timeStamp: 2017-02-23 17:50:44.241
LEye coords (141.0, 125.0), REye coords (136.0, 105.0), timeStamp: 2017-02-23 17:50:44.274
LEye coords (141.0, 125.0), REye coords (136.0, 106.0), timeStamp: 2017-02-23 17:50:44.318
LEye coords (141.0, 126.0), REye coords (136.0, 106.0), timeStamp: 2017-02-23 17:50:44.351
LEye coords (141.0, 126.0), REye coords (136.0, 107.0), timeStamp: 2017-02-23 17:50:44.385
LEye coords (141.0, 127.0), REye coords (136.0, 107.0), timeStamp: 2017-02-23 17:50:44.464
