LEye coords (76.0, 176.0), REye coords (70.0, 171.0), timeStamp: 2017-02-23 17:50:55.935
LEye coords (77.0, 176.0), REye coords (70.0, 171.0), timeStamp: 2017-02-23 17:50:55.970
LEye coords (238.0, 169.0), REye coords (235.0, 165.0), timeStamp: 2017-02-23 17:50:56.014
LEye coords (241.0, 172.0), REye coords (236.0, 168.0), timeStamp: 2017-02-23 17:50:56.048
LEye coords (241.0, 173.0), REye coords (236.0, 168.0), timeStamp: 2017-02-23 17:50:56.082
LEye coords (239.0, 175.0), REye coords (236.0, 168.0), timeStamp: 2017-02-23 17:50:56.116
LEye coords (0.0, 0.0), REye coords (236.0, 168.0), timeStamp: 2017-02-23 17:50:56.161
LEye coords (0.0, 0.0), REye coords (234.0, 170.0), timeStamp: 2017-02-23 17:50:56.194
LEye coords (0.0, 0.0), REye coords (237.0, 167.0), timeStamp: 2017-02-23 17:50:56.227
LEye coords (259.0, 168.0), REye coords (275.0, 163.0), timeStamp: 2017-02-23 17:50:56.271
LEye coords (0.0, 0.0), REye coords (288.0, 161.0), timeStamp: 2017-02-23 17:50:56.305
LEye coords (0.0, 0.0), REye coords (295.0, 160.0), timeStamp: 2017-02-23 17:50:56.339
LEye coords (0.0, 0.0), REye coords (317.0, 156.0), timeStamp: 2017-02-23 17:50:56.383
LEye coords (0.0, 0.0), REye coords (315.0, 155.0), timeStamp: 2017-02-23 17:50:56.416
LEye coords (315.0, 147.0), REye coords (316.0, 155.0), timeStamp: 2017-02-23 17:50:56.449
LEye coords (404.0, 148.0), REye coords (343.0, 152.0), timeStamp: 2017-02-23 17:50:56.493
LEye coords (401.0, 149.0), REye coords (358.0, 152.0), timeStamp: 2017-02-23 17:50:56.526
LEye coords (400.0, 150.0), REye coords (0.0, 0.0), timeStamp: 2017-02-23 17:50:56.560
LEye coords (400.0, 150.0), REye coords (402.0, 151.0), timeStamp: 2017-02-23 17:50:56.603
LEye coords (404.0, 150.0), REye coords (401.0, 148.0), timeStamp: 2017-02-23 17:50:56.638
LEye coords (435.0, 163.0), REye coords (415.0, 157.0), timeStamp: 2017-02-23 17:50:56.671
LEye coords (438.0, 166.0), REye coords (421.0, 161.0), timeStamp: 2017-02-23 17:50:56.715
LEye coords (439.0, 168.0), REye coords (424.0, 164.0), timeStamp: 2017-02-23 17:50:56.747
LEye coords (439.0, 169.0), REye coords (426.0, 166.0), timeStamp: 2017-02-23 17:50:56.791
LEye coords (436.0, 170.0), REye coords (425.0, 167.0), timeStamp: 2017-02-23 17:50:56.825
LEye coords (434.0, 171.0), REye coords (423.0, 169.0), timeStamp: 2017-02-23 17:50:56.859
LEye coords (433.0, 171.0), REye coords (423.0, 169.0), timeStamp: 2017-02-23 17:50:56.892
LEye coords (431.0, 172.0), REye coords (422.0, 169.0), timeStamp: 2017-02-23 17:50:56.935
LEye coords (431.0, 173.0), REye coords (422.0, 170.0), timeStamp: 2017-02-23 17:50:56.970
LEye coords (430.0, 173.0), REye coords (421.0, 170.0), timeStamp: 2017-02-23 17:50:57.013
LEye coords (429.0, 174.0), REye coords (421.0, 170.0), timeStamp: 2017-02-23 17:50:57.046
LEye coords (427.0, 175.0), REye coords (420.0, 171.0), timeStamp: 2017-02-23 17:50:57.123
