LEye coords (353.0, 174.0), REye coords (371.0, 184.0), timeStamp: 2017-02-23 17:51:32.573
LEye coords (353.0, 174.0), REye coords (371.0, 184.0), timeStamp: 2017-02-23 17:51:32.617
LEye coords (353.0, 175.0), REye coords (371.0, 184.0), timeStamp: 2017-02-23 17:51:32.650
LEye coords (279.0, 184.0), REye coords (0.0, 0.0), timeStamp: 2017-02-23 17:51:32.684
LEye coords (277.0, 181.0), REye coords (295.0, 193.0), timeStamp: 2017-02-23 17:51:32.727
LEye coords (276.0, 182.0), REye coords (295.0, 194.0), timeStamp: 2017-02-23 17:51:32.761
LEye coords (276.0, 183.0), REye coords (294.0, 194.0), timeStamp: 2017-02-23 17:51:32.796
LEye coords (276.0, 183.0), REye coords (295.0, 193.0), timeStamp: 2017-02-23 17:51:32.830
LEye coords (278.0, 184.0), REye coords (295.0, 193.0), timeStamp: 2017-02-23 17:51:32.873
LEye coords (279.0, 184.0), REye coords (294.0, 197.0), timeStamp: 2017-02-23 17:51:32.906
LEye coords (282.0, 179.0), REye coords (307.0, 190.0), timeStamp: 2017-02-23 17:51:32.951
LEye coords (297.0, 176.0), REye coords (323.0, 186.0), timeStamp: 2017-02-23 17:51:32.985
LEye coords (304.0, 174.0), REye coords (329.0, 184.0), timeStamp: 2017-02-23 17:51:33.018
LEye coords (309.0, 174.0), REye coords (333.0, 182.0), timeStamp: 2017-02-23 17:51:33.052
LEye coords (311.0, 173.0), REye coords (335.0, 181.0), timeStamp: 2017-02-23 17:51:33.097
LEye coords (313.0, 173.0), REye coords (336.0, 180.0), timeStamp: 2017-02-23 17:51:33.130
LEye coords (315.0, 172.0), REye coords (337.0, 179.0), timeStamp: 2017-02-23 17:51:33.164
LEye coords (316.0, 172.0), REye coords (339.0, 178.0), timeStamp: 2017-02-23 17:51:33.209
LEye coords (317.0, 171.0), REye coords (348.0, 165.0), timeStamp: 2017-02-23 17:51:33.243
LEye coords (318.0, 171.0), REye coords (344.0, 170.0), timeStamp: 2017-02-23 17:51:33.276
LEye coords (319.0, 170.0), REye coords (346.0, 166.0), timeStamp: 2017-02-23 17:51:33.320
LEye coords (325.0, 168.0), REye coords (346.0, 167.0), timeStamp: 2017-02-23 17:51:33.353
LEye coords (326.0, 169.0), REye coords (346.0, 167.0), timeStamp: 2017-02-23 17:51:33.387
LEye coords (327.0, 166.0), REye coords (346.0, 168.0), timeStamp: 2017-02-23 17:51:33.422
LEye coords (326.0, 167.0), REye coords (345.0, 169.0), timeStamp: 2017-02-23 17:51:33.465
LEye coords (327.0, 168.0), REye coords (345.0, 171.0), timeStamp: 2017-02-23 17:51:33.542
