LEye coords (144.0, 159.0), REye coords (154.0, 153.0), timeStamp: 2017-02-23 17:51:48.227
LEye coords (145.0, 159.0), REye coords (155.0, 153.0), timeStamp: 2017-02-23 17:51:48.272
LEye coords (145.0, 159.0), REye coords (155.0, 154.0), timeStamp: 2017-02-23 17:51:48.305
LEye coords (145.0, 159.0), REye coords (156.0, 154.0), timeStamp: 2017-02-23 17:51:48.339
LEye coords (145.0, 158.0), REye coords (156.0, 154.0), timeStamp: 2017-02-23 17:51:48.383
LEye coords (200.0, 185.0), REye coords (216.0, 188.0), timeStamp: 2017-02-23 17:51:48.417
LEye coords (218.0, 206.0), REye coords (230.0, 202.0), timeStamp: 2017-02-23 17:51:48.451
LEye coords (215.0, 204.0), REye coords (231.0, 200.0), timeStamp: 2017-02-23 17:51:48.495
LEye coords (215.0, 205.0), REye coords (229.0, 203.0), timeStamp: 2017-02-23 17:51:48.529
LEye coords (193.0, 211.0), REye coords (206.0, 209.0), timeStamp: 2017-02-23 17:51:48.562
LEye coords (114.0, 234.0), REye coords (118.0, 231.0), timeStamp: 2017-02-23 17:51:48.606
LEye coords (114.0, 236.0), REye coords (120.0, 230.0), timeStamp: 2017-02-23 17:51:48.639
LEye coords (115.0, 237.0), REye coords (118.0, 228.0), timeStamp: 2017-02-23 17:51:48.673
LEye coords (116.0, 237.0), REye coords (118.0, 228.0), timeStamp: 2017-02-23 17:51:48.716
LEye coords (116.0, 237.0), REye coords (118.0, 229.0), timeStamp: 2017-02-23 17:51:48.750
LEye coords (117.0, 236.0), REye coords (120.0, 230.0), timeStamp: 2017-02-23 17:51:48.783
LEye coords (221.0, 237.0), REye coords (238.0, 233.0), timeStamp: 2017-02-23 17:51:48.828
LEye coords (215.0, 232.0), REye coords (234.0, 232.0), timeStamp: 2017-02-23 17:51:48.861
LEye coords (216.0, 236.0), REye coords (235.0, 232.0), timeStamp: 2017-02-23 17:51:48.894
LEye coords (215.0, 236.0), REye coords (235.0, 233.0), timeStamp: 2017-02-23 17:51:48.939
LEye coords (215.0, 235.0), REye coords (234.0, 234.0), timeStamp: 2017-02-23 17:51:48.972
LEye coords (221.0, 243.0), REye coords (231.0, 235.0), timeStamp: 2017-02-23 17:51:49.007
LEye coords (215.0, 237.0), REye coords (233.0, 235.0), timeStamp: 2017-02-23 17:51:49.051
LEye coords (214.0, 237.0), REye coords (231.0, 233.0), timeStamp: 2017-02-23 17:51:49.084
LEye coords (216.0, 239.0), REye coords (231.0, 233.0), timeStamp: 2017-02-23 17:51:49.117
LEye coords (217.0, 239.0), REye coords (232.0, 234.0), timeStamp: 2017-02-23 17:51:49.161
LEye coords (0.0, 0.0), REye coords (231.0, 234.0), timeStamp: 2017-02-23 17:51:49.193
LEye coords (217.0, 239.0), REye coords (231.0, 235.0), timeStamp: 2017-02-23 17:51:49.228
LEye coords (217.0, 239.0), REye coords (232.0, 235.0), timeStamp: 2017-02-23 17:51:49.272
LEye coords (218.0, 239.0), REye coords (232.0, 235.0), timeStamp: 2017-02-23 17:51:49.306
LEye coords (218.0, 239.0), REye coords (232.0, 235.0), timeStamp: 2017-02-23 17:51:49.340
LEye coords (218.0, 239.0), REye coords (233.0, 235.0), timeStamp: 2017-02-23 17:51:49.374
LEye coords (218.0, 239.0), REye coords (233.0, 235.0), timeStamp: 2017-02-23 17:51:49.418
LEye coords (218.0, 239.0), REye coords (233.0, 236.0), timeStamp: 2017-02-23 17:51:49.452
LEye coords (218.0, 239.0), REye coords (234.0, 236.0), timeStamp: 2017-02-23 17:51:49.486
LEye coords (218.0, 239.0), REye coords (234.0, 236.0), timeStamp: 2017-02-23 17:51:49.530
LEye coords (218.0, 239.0), REye coords (234.0, 236.0), timeStamp: 2017-02-23 17:51:49.564
LEye coords (217.0, 239.0), REye coords (234.0, 236.0), timeStamp: 2017-02-23 17:51:49.597
