LEye coords (293.0, 298.0), REye coords (298.0, 302.0), timeStamp: 2017-02-23 17:52:35.424
LEye coords (293.0, 298.0), REye coords (298.0, 302.0), timeStamp: 2017-02-23 17:52:35.457
LEye coords (293.0, 298.0), REye coords (298.0, 302.0), timeStamp: 2017-02-23 17:52:35.492
LEye coords (293.0, 299.0), REye coords (298.0, 302.0), timeStamp: 2017-02-23 17:52:35.536
LEye coords (293.0, 300.0), REye coords (298.0, 302.0), timeStamp: 2017-02-23 17:52:35.569
LEye coords (293.0, 300.0), REye coords (298.0, 303.0), timeStamp: 2017-02-23 17:52:35.604
LEye coords (206.0, 283.0), REye coords (209.0, 275.0), timeStamp: 2017-02-23 17:52:35.648
LEye coords (195.0, 286.0), REye coords (199.0, 270.0), timeStamp: 2017-02-23 17:52:35.682
LEye coords (194.0, 286.0), REye coords (200.0, 272.0), timeStamp: 2017-02-23 17:52:35.715
LEye coords (195.0, 287.0), REye coords (200.0, 271.0), timeStamp: 2017-02-23 17:52:35.750
LEye coords (199.0, 279.0), REye coords (202.0, 265.0), timeStamp: 2017-02-23 17:52:35.795
LEye coords (211.0, 233.0), REye coords (212.0, 220.0), timeStamp: 2017-02-23 17:52:35.828
LEye coords (210.0, 224.0), REye coords (211.0, 222.0), timeStamp: 2017-02-23 17:52:35.861
LEye coords (187.0, 246.0), REye coords (189.0, 241.0), timeStamp: 2017-02-23 17:52:35.906
LEye coords (177.0, 255.0), REye coords (179.0, 246.0), timeStamp: 2017-02-23 17:52:35.939
LEye coords (172.0, 260.0), REye coords (174.0, 249.0), timeStamp: 2017-02-23 17:52:35.973
LEye coords (157.0, 272.0), REye coords (159.0, 256.0), timeStamp: 2017-02-23 17:52:36.017
LEye coords (157.0, 275.0), REye coords (159.0, 256.0), timeStamp: 2017-02-23 17:52:36.052
LEye coords (157.0, 274.0), REye coords (159.0, 256.0), timeStamp: 2017-02-23 17:52:36.084
LEye coords (157.0, 274.0), REye coords (159.0, 255.0), timeStamp: 2017-02-23 17:52:36.119
LEye coords (160.0, 274.0), REye coords (162.0, 257.0), timeStamp: 2017-02-23 17:52:36.163
LEye coords (162.0, 274.0), REye coords (164.0, 258.0), timeStamp: 2017-02-23 17:52:36.198
LEye coords (163.0, 275.0), REye coords (165.0, 258.0), timeStamp: 2017-02-23 17:52:36.232
LEye coords (164.0, 275.0), REye coords (166.0, 258.0), timeStamp: 2017-02-23 17:52:36.276
LEye coords (164.0, 274.0), REye coords (166.0, 258.0), timeStamp: 2017-02-23 17:52:36.309
LEye coords (165.0, 274.0), REye coords (167.0, 259.0), timeStamp: 2017-02-23 17:52:36.342
LEye coords (166.0, 274.0), REye coords (168.0, 259.0), timeStamp: 2017-02-23 17:52:36.387
LEye coords (166.0, 274.0), REye coords (168.0, 259.0), timeStamp: 2017-02-23 17:52:36.421
LEye coords (167.0, 274.0), REye coords (169.0, 259.0), timeStamp: 2017-02-23 17:52:36.455
LEye coords (167.0, 273.0), REye coords (169.0, 259.0), timeStamp: 2017-02-23 17:52:36.489
LEye coords (167.0, 273.0), REye coords (170.0, 259.0), timeStamp: 2017-02-23 17:52:36.534
LEye coords (167.0, 273.0), REye coords (170.0, 259.0), timeStamp: 2017-02-23 17:52:36.567
LEye coords (168.0, 273.0), REye coords (170.0, 259.0), timeStamp: 2017-02-23 17:52:36.601
LEye coords (168.0, 273.0), REye coords (171.0, 259.0), timeStamp: 2017-02-23 17:52:36.678
