LEye coords (349.0, 285.0), REye coords (348.0, 275.0), timeStamp: 2017-02-23 17:53:16.723
LEye coords (350.0, 284.0), REye coords (348.0, 274.0), timeStamp: 2017-02-23 17:53:16.766
LEye coords (350.0, 284.0), REye coords (349.0, 274.0), timeStamp: 2017-02-23 17:53:16.800
LEye coords (351.0, 284.0), REye coords (349.0, 274.0), timeStamp: 2017-02-23 17:53:16.834
LEye coords (351.0, 284.0), REye coords (350.0, 274.0), timeStamp: 2017-02-23 17:53:16.867
LEye coords (351.0, 284.0), REye coords (350.0, 274.0), timeStamp: 2017-02-23 17:53:16.910
LEye coords (303.0, 240.0), REye coords (305.0, 231.0), timeStamp: 2017-02-23 17:53:16.945
LEye coords (298.0, 233.0), REye coords (301.0, 222.0), timeStamp: 2017-02-23 17:53:16.979
LEye coords (275.0, 226.0), REye coords (280.0, 217.0), timeStamp: 2017-02-23 17:53:17.023
LEye coords (252.0, 216.0), REye coords (257.0, 204.0), timeStamp: 2017-02-23 17:53:17.057
LEye coords (241.0, 212.0), REye coords (245.0, 199.0), timeStamp: 2017-02-23 17:53:17.090
LEye coords (206.0, 195.0), REye coords (210.0, 186.0), timeStamp: 2017-02-23 17:53:17.133
LEye coords (208.0, 195.0), REye coords (212.0, 183.0), timeStamp: 2017-02-23 17:53:17.167
LEye coords (210.0, 183.0), REye coords (215.0, 167.0), timeStamp: 2017-02-23 17:53:17.211
LEye coords (211.0, 177.0), REye coords (214.0, 159.0), timeStamp: 2017-02-23 17:53:17.244
LEye coords (211.0, 173.0), REye coords (214.0, 155.0), timeStamp: 2017-02-23 17:53:17.279
LEye coords (212.0, 171.0), REye coords (214.0, 154.0), timeStamp: 2017-02-23 17:53:17.312
LEye coords (212.0, 169.0), REye coords (214.0, 154.0), timeStamp: 2017-02-23 17:53:17.357
LEye coords (213.0, 169.0), REye coords (214.0, 153.0), timeStamp: 2017-02-23 17:53:17.391
LEye coords (213.0, 168.0), REye coords (214.0, 153.0), timeStamp: 2017-02-23 17:53:17.426
LEye coords (215.0, 168.0), REye coords (216.0, 153.0), timeStamp: 2017-02-23 17:53:17.469
LEye coords (218.0, 168.0), REye coords (219.0, 154.0), timeStamp: 2017-02-23 17:53:17.502
LEye coords (221.0, 168.0), REye coords (221.0, 154.0), timeStamp: 2017-02-23 17:53:17.535
LEye coords (223.0, 168.0), REye coords (223.0, 155.0), timeStamp: 2017-02-23 17:53:17.578
LEye coords (225.0, 168.0), REye coords (225.0, 155.0), timeStamp: 2017-02-23 17:53:17.612
LEye coords (227.0, 168.0), REye coords (227.0, 156.0), timeStamp: 2017-02-23 17:53:17.646
LEye coords (228.0, 169.0), REye coords (228.0, 157.0), timeStamp: 2017-02-23 17:53:17.689
