LEye coords (361.0, 185.0), REye coords (358.0, 192.0), timeStamp: 2017-02-23 17:53:31.753
LEye coords (361.0, 185.0), REye coords (360.0, 189.0), timeStamp: 2017-02-23 17:53:31.786
LEye coords (360.0, 186.0), REye coords (359.0, 190.0), timeStamp: 2017-02-23 17:53:31.897
LEye coords (361.0, 185.0), REye coords (359.0, 190.0), timeStamp: 2017-02-23 17:53:31.820
LEye coords (360.0, 185.0), REye coords (360.0, 190.0), timeStamp: 2017-02-23 17:53:31.931
LEye coords (361.0, 185.0), REye coords (359.0, 190.0), timeStamp: 2017-02-23 17:53:31.863
LEye coords (220.0, 185.0), REye coords (227.0, 183.0), timeStamp: 2017-02-23 17:54:59.393
LEye coords (221.0, 186.0), REye coords (228.0, 185.0), timeStamp: 2017-02-23 17:54:59.426
LEye coords (222.0, 188.0), REye coords (228.0, 186.0), timeStamp: 2017-02-23 17:54:59.469
LEye coords (223.0, 187.0), REye coords (229.0, 185.0), timeStamp: 2017-02-23 17:54:59.502
LEye coords (225.0, 184.0), REye coords (233.0, 182.0), timeStamp: 2017-02-23 17:54:59.537
LEye coords (228.0, 182.0), REye coords (235.0, 179.0), timeStamp: 2017-02-23 17:54:59.580
LEye coords (230.0, 180.0), REye coords (237.0, 177.0), timeStamp: 2017-02-23 17:54:59.613
LEye coords (231.0, 178.0), REye coords (239.0, 176.0), timeStamp: 2017-02-23 17:54:59.656
LEye coords (233.0, 177.0), REye coords (241.0, 174.0), timeStamp: 2017-02-23 17:54:59.690
LEye coords (233.0, 176.0), REye coords (241.0, 173.0), timeStamp: 2017-02-23 17:54:59.724
LEye coords (64.0, 165.0), REye coords (60.0, 152.0), timeStamp: 2017-02-23 17:54:59.769
LEye coords (64.0, 170.0), REye coords (66.0, 148.0), timeStamp: 2017-02-23 17:54:59.801
LEye coords (64.0, 171.0), REye coords (67.0, 147.0), timeStamp: 2017-02-23 17:54:59.835
LEye coords (65.0, 170.0), REye coords (67.0, 147.0), timeStamp: 2017-02-23 17:54:59.869
LEye coords (65.0, 171.0), REye coords (67.0, 148.0), timeStamp: 2017-02-23 17:54:59.912
LEye coords (69.0, 172.0), REye coords (69.0, 149.0), timeStamp: 2017-02-23 17:54:59.946
LEye coords (64.0, 173.0), REye coords (67.0, 148.0), timeStamp: 2017-02-23 17:54:59.990
LEye coords (64.0, 172.0), REye coords (68.0, 149.0), timeStamp: 2017-02-23 17:55:00.024
LEye coords (68.0, 171.0), REye coords (69.0, 150.0), timeStamp: 2017-02-23 17:55:00.057
LEye coords (66.0, 171.0), REye coords (67.0, 151.0), timeStamp: 2017-02-23 17:55:00.091
LEye coords (65.0, 171.0), REye coords (66.0, 151.0), timeStamp: 2017-02-23 17:55:00.135
LEye coords (64.0, 170.0), REye coords (65.0, 152.0), timeStamp: 2017-02-23 17:55:00.169
LEye coords (63.0, 171.0), REye coords (64.0, 152.0), timeStamp: 2017-02-23 17:55:00.213
LEye coords (62.0, 171.0), REye coords (64.0, 152.0), timeStamp: 2017-02-23 17:55:00.246
LEye coords (62.0, 172.0), REye coords (63.0, 152.0), timeStamp: 2017-02-23 17:55:00.280
LEye coords (62.0, 172.0), REye coords (63.0, 153.0), timeStamp: 2017-02-23 17:55:00.313
LEye coords (61.0, 173.0), REye coords (63.0, 153.0), timeStamp: 2017-02-23 17:55:00.358
LEye coords (61.0, 174.0), REye coords (62.0, 153.0), timeStamp: 2017-02-23 17:55:00.391
LEye coords (61.0, 174.0), REye coords (62.0, 153.0), timeStamp: 2017-02-23 17:55:00.424
LEye coords (61.0, 175.0), REye coords (62.0, 153.0), timeStamp: 2017-02-23 17:55:00.469
LEye coords (61.0, 175.0), REye coords (62.0, 153.0), timeStamp: 2017-02-23 17:55:00.504
LEye coords (61.0, 176.0), REye coords (61.0, 154.0), timeStamp: 2017-02-23 17:55:00.537
LEye coords (61.0, 176.0), REye coords (61.0, 154.0), timeStamp: 2017-02-23 17:55:00.581
LEye coords (61.0, 176.0), REye coords (61.0, 154.0), timeStamp: 2017-02-23 17:55:00.615
LEye coords (62.0, 176.0), REye coords (61.0, 154.0), timeStamp: 2017-02-23 17:55:00.648
LEye coords (62.0, 177.0), REye coords (61.0, 154.0), timeStamp: 2017-02-23 17:55:00.725
