LEye coords (161.0, 155.0), REye coords (154.0, 141.0), timeStamp: 2017-02-23 17:55:07.685
LEye coords (161.0, 155.0), REye coords (155.0, 142.0), timeStamp: 2017-02-23 17:55:07.718
LEye coords (160.0, 156.0), REye coords (155.0, 143.0), timeStamp: 2017-02-23 17:55:07.752
LEye coords (160.0, 156.0), REye coords (155.0, 144.0), timeStamp: 2017-02-23 17:55:07.796
LEye coords (160.0, 157.0), REye coords (155.0, 145.0), timeStamp: 2017-02-23 17:55:07.829
LEye coords (160.0, 158.0), REye coords (155.0, 145.0), timeStamp: 2017-02-23 17:55:07.873
LEye coords (160.0, 158.0), REye coords (155.0, 146.0), timeStamp: 2017-02-23 17:55:07.907
LEye coords (160.0, 159.0), REye coords (156.0, 147.0), timeStamp: 2017-02-23 17:55:07.941
LEye coords (159.0, 159.0), REye coords (156.0, 147.0), timeStamp: 2017-02-23 17:55:07.974
LEye coords (159.0, 160.0), REye coords (156.0, 148.0), timeStamp: 2017-02-23 17:55:08.018
LEye coords (159.0, 161.0), REye coords (157.0, 149.0), timeStamp: 2017-02-23 17:55:08.051
LEye coords (159.0, 162.0), REye coords (157.0, 149.0), timeStamp: 2017-02-23 17:55:08.095
LEye coords (159.0, 163.0), REye coords (157.0, 150.0), timeStamp: 2017-02-23 17:55:08.129
LEye coords (159.0, 164.0), REye coords (157.0, 150.0), timeStamp: 2017-02-23 17:55:08.161
LEye coords (159.0, 164.0), REye coords (156.0, 151.0), timeStamp: 2017-02-23 17:55:08.206
LEye coords (158.0, 165.0), REye coords (156.0, 151.0), timeStamp: 2017-02-23 17:55:08.239
LEye coords (157.0, 165.0), REye coords (155.0, 152.0), timeStamp: 2017-02-23 17:55:08.273
LEye coords (157.0, 165.0), REye coords (155.0, 152.0), timeStamp: 2017-02-23 17:55:08.317
LEye coords (156.0, 165.0), REye coords (154.0, 152.0), timeStamp: 2017-02-23 17:55:08.350
LEye coords (155.0, 166.0), REye coords (153.0, 153.0), timeStamp: 2017-02-23 17:55:08.384
LEye coords (155.0, 166.0), REye coords (152.0, 153.0), timeStamp: 2017-02-23 17:55:08.427
LEye coords (154.0, 167.0), REye coords (152.0, 153.0), timeStamp: 2017-02-23 17:55:08.461
LEye coords (153.0, 167.0), REye coords (151.0, 153.0), timeStamp: 2017-02-23 17:55:08.495
LEye coords (153.0, 167.0), REye coords (150.0, 154.0), timeStamp: 2017-02-23 17:55:08.539
LEye coords (152.0, 168.0), REye coords (149.0, 154.0), timeStamp: 2017-02-23 17:55:08.572
LEye coords (152.0, 168.0), REye coords (148.0, 154.0), timeStamp: 2017-02-23 17:55:08.605
LEye coords (151.0, 168.0), REye coords (148.0, 154.0), timeStamp: 2017-02-23 17:55:08.648
LEye coords (150.0, 168.0), REye coords (147.0, 154.0), timeStamp: 2017-02-23 17:55:08.682
LEye coords (149.0, 169.0), REye coords (146.0, 154.0), timeStamp: 2017-02-23 17:55:08.715
LEye coords (148.0, 169.0), REye coords (145.0, 154.0), timeStamp: 2017-02-23 17:55:08.760
LEye coords (148.0, 169.0), REye coords (144.0, 155.0), timeStamp: 2017-02-23 17:55:08.793
