LEye coords (146.0, 192.0), REye coords (143.0, 176.0), timeStamp: 2017-02-23 17:55:08.907
LEye coords (145.0, 192.0), REye coords (143.0, 177.0), timeStamp: 2017-02-23 17:55:08.941
LEye coords (145.0, 192.0), REye coords (143.0, 177.0), timeStamp: 2017-02-23 17:55:08.973
LEye coords (144.0, 193.0), REye coords (142.0, 177.0), timeStamp: 2017-02-23 17:55:09.019
LEye coords (144.0, 193.0), REye coords (143.0, 178.0), timeStamp: 2017-02-23 17:55:09.052
LEye coords (144.0, 194.0), REye coords (142.0, 179.0), timeStamp: 2017-02-23 17:55:09.087
LEye coords (230.0, 217.0), REye coords (228.0, 213.0), timeStamp: 2017-02-23 17:55:09.131
LEye coords (227.0, 218.0), REye coords (238.0, 210.0), timeStamp: 2017-02-23 17:55:09.165
LEye coords (228.0, 219.0), REye coords (294.0, 207.0), timeStamp: 2017-02-23 17:55:09.198
LEye coords (228.0, 218.0), REye coords (0.0, 0.0), timeStamp: 2017-02-23 17:55:09.233
LEye coords (217.0, 218.0), REye coords (260.0, 203.0), timeStamp: 2017-02-23 17:55:09.276
LEye coords (177.0, 213.0), REye coords (242.0, 201.0), timeStamp: 2017-02-23 17:55:09.310
LEye coords (178.0, 213.0), REye coords (191.0, 192.0), timeStamp: 2017-02-23 17:55:09.354
LEye coords (179.0, 213.0), REye coords (188.0, 188.0), timeStamp: 2017-02-23 17:55:09.388
LEye coords (179.0, 213.0), REye coords (188.0, 190.0), timeStamp: 2017-02-23 17:55:09.422
LEye coords (179.0, 212.0), REye coords (182.0, 196.0), timeStamp: 2017-02-23 17:55:09.455
LEye coords (178.0, 212.0), REye coords (181.0, 194.0), timeStamp: 2017-02-23 17:55:09.500
LEye coords (178.0, 211.0), REye coords (181.0, 193.0), timeStamp: 2017-02-23 17:55:09.534
LEye coords (178.0, 211.0), REye coords (180.0, 192.0), timeStamp: 2017-02-23 17:55:09.567
LEye coords (177.0, 210.0), REye coords (180.0, 190.0), timeStamp: 2017-02-23 17:55:09.611
LEye coords (177.0, 209.0), REye coords (180.0, 190.0), timeStamp: 2017-02-23 17:55:09.645
LEye coords (177.0, 208.0), REye coords (180.0, 189.0), timeStamp: 2017-02-23 17:55:09.678
LEye coords (177.0, 207.0), REye coords (179.0, 188.0), timeStamp: 2017-02-23 17:55:09.721
LEye coords (176.0, 206.0), REye coords (179.0, 187.0), timeStamp: 2017-02-23 17:55:09.755
LEye coords (176.0, 206.0), REye coords (179.0, 186.0), timeStamp: 2017-02-23 17:55:09.789
LEye coords (176.0, 205.0), REye coords (178.0, 185.0), timeStamp: 2017-02-23 17:55:09.833
LEye coords (176.0, 204.0), REye coords (178.0, 185.0), timeStamp: 2017-02-23 17:55:09.866
LEye coords (175.0, 204.0), REye coords (178.0, 185.0), timeStamp: 2017-02-23 17:55:09.900
LEye coords (175.0, 204.0), REye coords (178.0, 184.0), timeStamp: 2017-02-23 17:55:09.944
LEye coords (175.0, 203.0), REye coords (178.0, 184.0), timeStamp: 2017-02-23 17:55:09.978
LEye coords (175.0, 203.0), REye coords (178.0, 184.0), timeStamp: 2017-02-23 17:55:10.011
