LEye coords (174.0, 198.0), REye coords (182.0, 192.0), timeStamp: 2017-02-23 17:55:15.342
LEye coords (193.0, 193.0), REye coords (192.0, 188.0), timeStamp: 2017-02-23 17:55:15.387
LEye coords (197.0, 192.0), REye coords (201.0, 188.0), timeStamp: 2017-02-23 17:55:15.421
LEye coords (199.0, 191.0), REye coords (203.0, 187.0), timeStamp: 2017-02-23 17:55:15.455
LEye coords (199.0, 192.0), REye coords (205.0, 187.0), timeStamp: 2017-02-23 17:55:15.489
LEye coords (200.0, 192.0), REye coords (210.0, 190.0), timeStamp: 2017-02-23 17:55:15.533
LEye coords (203.0, 192.0), REye coords (211.0, 186.0), timeStamp: 2017-02-23 17:55:15.567
LEye coords (207.0, 153.0), REye coords (212.0, 146.0), timeStamp: 2017-02-23 17:55:15.601
LEye coords (209.0, 138.0), REye coords (213.0, 130.0), timeStamp: 2017-02-23 17:55:15.644
LEye coords (211.0, 130.0), REye coords (214.0, 121.0), timeStamp: 2017-02-23 17:55:15.678
LEye coords (237.0, 105.0), REye coords (217.0, 97.0), timeStamp: 2017-02-23 17:55:15.712
LEye coords (244.0, 98.0), REye coords (251.0, 104.0), timeStamp: 2017-02-23 17:55:15.755
LEye coords (304.0, 98.0), REye coords (308.0, 106.0), timeStamp: 2017-02-23 17:55:15.790
LEye coords (0.0, 0.0), REye coords (329.0, 106.0), timeStamp: 2017-02-23 17:55:15.823
LEye coords (0.0, 0.0), REye coords (338.0, 106.0), timeStamp: 2017-02-23 17:55:15.867
LEye coords (0.0, 0.0), REye coords (363.0, 106.0), timeStamp: 2017-02-23 17:55:15.901
LEye coords (0.0, 0.0), REye coords (367.0, 112.0), timeStamp: 2017-02-23 17:55:15.935
LEye coords (0.0, 0.0), REye coords (367.0, 110.0), timeStamp: 2017-02-23 17:55:15.969
LEye coords (0.0, 0.0), REye coords (366.0, 109.0), timeStamp: 2017-02-23 17:55:16.012
LEye coords (0.0, 0.0), REye coords (360.0, 111.0), timeStamp: 2017-02-23 17:55:16.046
LEye coords (0.0, 0.0), REye coords (361.0, 110.0), timeStamp: 2017-02-23 17:55:16.080
LEye coords (0.0, 0.0), REye coords (362.0, 110.0), timeStamp: 2017-02-23 17:55:16.123
LEye coords (0.0, 0.0), REye coords (362.0, 109.0), timeStamp: 2017-02-23 17:55:16.156
LEye coords (0.0, 0.0), REye coords (363.0, 109.0), timeStamp: 2017-02-23 17:55:16.199
LEye coords (0.0, 0.0), REye coords (363.0, 109.0), timeStamp: 2017-02-23 17:55:16.232
LEye coords (0.0, 0.0), REye coords (363.0, 109.0), timeStamp: 2017-02-23 17:55:16.266
LEye coords (0.0, 0.0), REye coords (363.0, 109.0), timeStamp: 2017-02-23 17:55:16.310
LEye coords (0.0, 0.0), REye coords (363.0, 109.0), timeStamp: 2017-02-23 17:55:16.342
LEye coords (0.0, 0.0), REye coords (364.0, 109.0), timeStamp: 2017-02-23 17:55:16.377
LEye coords (0.0, 0.0), REye coords (364.0, 109.0), timeStamp: 2017-02-23 17:55:16.421
LEye coords (0.0, 0.0), REye coords (364.0, 109.0), timeStamp: 2017-02-23 17:55:16.455
