LEye coords (0.0, 0.0), REye coords (239.0, 172.0), timeStamp: 2017-02-23 17:57:58.010
LEye coords (0.0, 0.0), REye coords (240.0, 193.0), timeStamp: 2017-02-23 17:57:58.043
LEye coords (0.0, 0.0), REye coords (241.0, 193.0), timeStamp: 2017-02-23 17:57:58.086
LEye coords (0.0, 0.0), REye coords (242.0, 194.0), timeStamp: 2017-02-23 17:57:58.119
LEye coords (0.0, 0.0), REye coords (243.0, 194.0), timeStamp: 2017-02-23 17:57:58.153
LEye coords (0.0, 0.0), REye coords (244.0, 195.0), timeStamp: 2017-02-23 17:57:58.196
LEye coords (0.0, 0.0), REye coords (245.0, 196.0), timeStamp: 2017-02-23 17:57:58.229
LEye coords (0.0, 0.0), REye coords (246.0, 196.0), timeStamp: 2017-02-23 17:57:58.263
LEye coords (0.0, 0.0), REye coords (246.0, 197.0), timeStamp: 2017-02-23 17:57:58.307
LEye coords (0.0, 0.0), REye coords (247.0, 197.0), timeStamp: 2017-02-23 17:57:58.341
LEye coords (286.0, 183.0), REye coords (298.0, 180.0), timeStamp: 2017-02-23 17:57:58.375
LEye coords (331.0, 148.0), REye coords (343.0, 134.0), timeStamp: 2017-02-23 17:57:58.420
LEye coords (331.0, 148.0), REye coords (345.0, 133.0), timeStamp: 2017-02-23 17:57:58.454
LEye coords (330.0, 147.0), REye coords (344.0, 132.0), timeStamp: 2017-02-23 17:57:58.488
LEye coords (331.0, 146.0), REye coords (344.0, 131.0), timeStamp: 2017-02-23 17:57:58.522
LEye coords (328.0, 144.0), REye coords (341.0, 128.0), timeStamp: 2017-02-23 17:57:58.566
LEye coords (331.0, 136.0), REye coords (338.0, 131.0), timeStamp: 2017-02-23 17:57:58.600
LEye coords (331.0, 137.0), REye coords (339.0, 130.0), timeStamp: 2017-02-23 17:57:58.634
LEye coords (332.0, 137.0), REye coords (340.0, 130.0), timeStamp: 2017-02-23 17:57:58.678
LEye coords (332.0, 136.0), REye coords (340.0, 129.0), timeStamp: 2017-02-23 17:57:58.711
LEye coords (332.0, 136.0), REye coords (340.0, 130.0), timeStamp: 2017-02-23 17:57:58.744
LEye coords (332.0, 136.0), REye coords (340.0, 129.0), timeStamp: 2017-02-23 17:57:58.788
LEye coords (332.0, 136.0), REye coords (341.0, 129.0), timeStamp: 2017-02-23 17:57:58.821
LEye coords (333.0, 135.0), REye coords (341.0, 129.0), timeStamp: 2017-02-23 17:57:58.855
LEye coords (333.0, 135.0), REye coords (341.0, 129.0), timeStamp: 2017-02-23 17:57:58.900
LEye coords (333.0, 134.0), REye coords (341.0, 129.0), timeStamp: 2017-02-23 17:57:58.934
LEye coords (334.0, 134.0), REye coords (341.0, 129.0), timeStamp: 2017-02-23 17:57:58.967
LEye coords (335.0, 133.0), REye coords (341.0, 129.0), timeStamp: 2017-02-23 17:57:59.012
LEye coords (335.0, 133.0), REye coords (341.0, 129.0), timeStamp: 2017-02-23 17:57:59.045
LEye coords (336.0, 133.0), REye coords (342.0, 129.0), timeStamp: 2017-02-23 17:57:59.079
LEye coords (336.0, 133.0), REye coords (342.0, 129.0), timeStamp: 2017-02-23 17:57:59.113
LEye coords (336.0, 133.0), REye coords (342.0, 129.0), timeStamp: 2017-02-23 17:57:59.158
LEye coords (336.0, 133.0), REye coords (342.0, 129.0), timeStamp: 2017-02-23 17:57:59.191
LEye coords (337.0, 133.0), REye coords (343.0, 129.0), timeStamp: 2017-02-23 17:57:59.225
LEye coords (337.0, 133.0), REye coords (343.0, 129.0), timeStamp: 2017-02-23 17:57:59.269
LEye coords (338.0, 133.0), REye coords (343.0, 129.0), timeStamp: 2017-02-23 17:57:59.303
LEye coords (339.0, 133.0), REye coords (344.0, 129.0), timeStamp: 2017-02-23 17:57:59.336
LEye coords (340.0, 134.0), REye coords (346.0, 130.0), timeStamp: 2017-02-23 17:57:59.415
