LEye coords (249.0, 173.0), REye coords (251.0, 167.0), timeStamp: 2017-03-02 10:25:03.763
LEye coords (249.0, 172.0), REye coords (250.0, 166.0), timeStamp: 2017-03-02 10:25:03.796
LEye coords (249.0, 171.0), REye coords (249.0, 165.0), timeStamp: 2017-03-02 10:25:03.840
LEye coords (249.0, 170.0), REye coords (248.0, 165.0), timeStamp: 2017-03-02 10:25:03.874
LEye coords (248.0, 169.0), REye coords (248.0, 163.0), timeStamp: 2017-03-02 10:25:03.909
LEye coords (248.0, 169.0), REye coords (248.0, 163.0), timeStamp: 2017-03-02 10:25:03.952
LEye coords (248.0, 168.0), REye coords (247.0, 162.0), timeStamp: 2017-03-02 10:25:03.986
LEye coords (249.0, 168.0), REye coords (247.0, 162.0), timeStamp: 2017-03-02 10:25:04.019
LEye coords (250.0, 168.0), REye coords (248.0, 162.0), timeStamp: 2017-03-02 10:25:04.063
LEye coords (251.0, 168.0), REye coords (248.0, 163.0), timeStamp: 2017-03-02 10:25:04.097
LEye coords (251.0, 169.0), REye coords (249.0, 163.0), timeStamp: 2017-03-02 10:25:04.130
LEye coords (252.0, 169.0), REye coords (249.0, 164.0), timeStamp: 2017-03-02 10:25:04.175
LEye coords (253.0, 170.0), REye coords (250.0, 164.0), timeStamp: 2017-03-02 10:25:04.209
LEye coords (253.0, 170.0), REye coords (250.0, 165.0), timeStamp: 2017-03-02 10:25:04.243
LEye coords (254.0, 170.0), REye coords (251.0, 165.0), timeStamp: 2017-03-02 10:25:04.276
LEye coords (255.0, 171.0), REye coords (251.0, 166.0), timeStamp: 2017-03-02 10:25:04.321
LEye coords (255.0, 172.0), REye coords (252.0, 167.0), timeStamp: 2017-03-02 10:25:04.355
LEye coords (256.0, 173.0), REye coords (252.0, 168.0), timeStamp: 2017-03-02 10:25:04.389
LEye coords (257.0, 173.0), REye coords (253.0, 169.0), timeStamp: 2017-03-02 10:25:04.433
LEye coords (258.0, 174.0), REye coords (253.0, 170.0), timeStamp: 2017-03-02 10:25:04.468
LEye coords (258.0, 174.0), REye coords (253.0, 171.0), timeStamp: 2017-03-02 10:25:04.502
LEye coords (259.0, 175.0), REye coords (254.0, 171.0), timeStamp: 2017-03-02 10:25:04.536
LEye coords (259.0, 175.0), REye coords (254.0, 172.0), timeStamp: 2017-03-02 10:25:04.581
LEye coords (260.0, 175.0), REye coords (254.0, 173.0), timeStamp: 2017-03-02 10:25:04.615
LEye coords (260.0, 176.0), REye coords (255.0, 174.0), timeStamp: 2017-03-02 10:25:04.649
LEye coords (261.0, 176.0), REye coords (255.0, 174.0), timeStamp: 2017-03-02 10:25:04.683
LEye coords (261.0, 176.0), REye coords (256.0, 175.0), timeStamp: 2017-03-02 10:25:04.727
LEye coords (261.0, 176.0), REye coords (256.0, 175.0), timeStamp: 2017-03-02 10:25:04.760
LEye coords (261.0, 177.0), REye coords (256.0, 176.0), timeStamp: 2017-03-02 10:25:04.805
LEye coords (261.0, 177.0), REye coords (256.0, 176.0), timeStamp: 2017-03-02 10:25:04.838
LEye coords (261.0, 177.0), REye coords (256.0, 176.0), timeStamp: 2017-03-02 10:25:04.872
LEye coords (261.0, 177.0), REye coords (257.0, 177.0), timeStamp: 2017-03-02 10:25:04.905
LEye coords (261.0, 177.0), REye coords (257.0, 177.0), timeStamp: 2017-03-02 10:25:04.950
LEye coords (260.0, 178.0), REye coords (257.0, 178.0), timeStamp: 2017-03-02 10:25:04.983
LEye coords (260.0, 178.0), REye coords (257.0, 178.0), timeStamp: 2017-03-02 10:25:05.017
LEye coords (260.0, 178.0), REye coords (257.0, 178.0), timeStamp: 2017-03-02 10:25:05.062
LEye coords (260.0, 179.0), REye coords (257.0, 179.0), timeStamp: 2017-03-02 10:25:05.096
LEye coords (260.0, 179.0), REye coords (257.0, 179.0), timeStamp: 2017-03-02 10:25:05.129
LEye coords (259.0, 180.0), REye coords (257.0, 179.0), timeStamp: 2017-03-02 10:25:05.174
LEye coords (259.0, 180.0), REye coords (257.0, 179.0), timeStamp: 2017-03-02 10:25:05.208
LEye coords (259.0, 180.0), REye coords (258.0, 179.0), timeStamp: 2017-03-02 10:25:05.242
