LEye coords (213.0, 174.0), REye coords (215.0, 176.0), timeStamp: 2017-03-02 10:25:12.757
LEye coords (213.0, 174.0), REye coords (216.0, 175.0), timeStamp: 2017-03-02 10:25:12.790
LEye coords (213.0, 174.0), REye coords (216.0, 175.0), timeStamp: 2017-03-02 10:25:12.834
LEye coords (213.0, 174.0), REye coords (216.0, 175.0), timeStamp: 2017-03-02 10:25:12.868
LEye coords (213.0, 175.0), REye coords (216.0, 175.0), timeStamp: 2017-03-02 10:25:12.902
LEye coords (213.0, 174.0), REye coords (217.0, 175.0), timeStamp: 2017-03-02 10:25:12.945
LEye coords (213.0, 174.0), REye coords (217.0, 174.0), timeStamp: 2017-03-02 10:25:12.979
LEye coords (213.0, 174.0), REye coords (217.0, 174.0), timeStamp: 2017-03-02 10:25:13.013
LEye coords (212.0, 175.0), REye coords (217.0, 174.0), timeStamp: 2017-03-02 10:25:13.048
LEye coords (212.0, 175.0), REye coords (217.0, 174.0), timeStamp: 2017-03-02 10:25:13.091
LEye coords (212.0, 175.0), REye coords (218.0, 174.0), timeStamp: 2017-03-02 10:25:13.125
LEye coords (212.0, 175.0), REye coords (218.0, 174.0), timeStamp: 2017-03-02 10:25:13.169
LEye coords (212.0, 175.0), REye coords (218.0, 173.0), timeStamp: 2017-03-02 10:25:13.202
LEye coords (212.0, 175.0), REye coords (219.0, 173.0), timeStamp: 2017-03-02 10:25:13.236
LEye coords (212.0, 175.0), REye coords (219.0, 173.0), timeStamp: 2017-03-02 10:25:13.270
LEye coords (212.0, 175.0), REye coords (219.0, 173.0), timeStamp: 2017-03-02 10:25:13.314
LEye coords (212.0, 175.0), REye coords (219.0, 173.0), timeStamp: 2017-03-02 10:25:13.348
LEye coords (212.0, 175.0), REye coords (220.0, 173.0), timeStamp: 2017-03-02 10:25:13.382
LEye coords (212.0, 176.0), REye coords (220.0, 172.0), timeStamp: 2017-03-02 10:25:13.427
LEye coords (212.0, 176.0), REye coords (220.0, 172.0), timeStamp: 2017-03-02 10:25:13.461
LEye coords (212.0, 176.0), REye coords (221.0, 172.0), timeStamp: 2017-03-02 10:25:13.494
LEye coords (212.0, 176.0), REye coords (221.0, 172.0), timeStamp: 2017-03-02 10:25:13.529
LEye coords (212.0, 176.0), REye coords (221.0, 172.0), timeStamp: 2017-03-02 10:25:13.572
