LEye coords (175.0, 192.0), REye coords (186.0, 184.0), timeStamp: 2017-03-02 10:25:15.203
LEye coords (174.0, 189.0), REye coords (186.0, 183.0), timeStamp: 2017-03-02 10:25:15.236
LEye coords (174.0, 187.0), REye coords (186.0, 183.0), timeStamp: 2017-03-02 10:25:15.271
LEye coords (173.0, 185.0), REye coords (186.0, 181.0), timeStamp: 2017-03-02 10:25:15.315
LEye coords (173.0, 183.0), REye coords (186.0, 180.0), timeStamp: 2017-03-02 10:25:15.348
LEye coords (173.0, 182.0), REye coords (185.0, 179.0), timeStamp: 2017-03-02 10:25:15.382
LEye coords (172.0, 180.0), REye coords (185.0, 179.0), timeStamp: 2017-03-02 10:25:15.426
LEye coords (172.0, 179.0), REye coords (185.0, 178.0), timeStamp: 2017-03-02 10:25:15.460
LEye coords (172.0, 178.0), REye coords (185.0, 177.0), timeStamp: 2017-03-02 10:25:15.492
LEye coords (172.0, 178.0), REye coords (185.0, 177.0), timeStamp: 2017-03-02 10:25:15.537
LEye coords (172.0, 177.0), REye coords (185.0, 177.0), timeStamp: 2017-03-02 10:25:15.570
LEye coords (172.0, 176.0), REye coords (185.0, 177.0), timeStamp: 2017-03-02 10:25:15.603
LEye coords (171.0, 176.0), REye coords (185.0, 176.0), timeStamp: 2017-03-02 10:25:15.646
LEye coords (172.0, 178.0), REye coords (185.0, 176.0), timeStamp: 2017-03-02 10:25:15.679
LEye coords (173.0, 181.0), REye coords (186.0, 175.0), timeStamp: 2017-03-02 10:25:15.713
LEye coords (174.0, 182.0), REye coords (186.0, 175.0), timeStamp: 2017-03-02 10:25:15.758
LEye coords (174.0, 184.0), REye coords (186.0, 174.0), timeStamp: 2017-03-02 10:25:15.791
LEye coords (175.0, 187.0), REye coords (186.0, 174.0), timeStamp: 2017-03-02 10:25:15.825
LEye coords (175.0, 188.0), REye coords (186.0, 174.0), timeStamp: 2017-03-02 10:25:15.870
LEye coords (176.0, 189.0), REye coords (187.0, 174.0), timeStamp: 2017-03-02 10:25:15.903
LEye coords (176.0, 188.0), REye coords (187.0, 174.0), timeStamp: 2017-03-02 10:25:15.937
LEye coords (176.0, 187.0), REye coords (187.0, 174.0), timeStamp: 2017-03-02 10:25:15.981
LEye coords (176.0, 190.0), REye coords (187.0, 173.0), timeStamp: 2017-03-02 10:25:16.014
LEye coords (176.0, 189.0), REye coords (187.0, 173.0), timeStamp: 2017-03-02 10:25:16.049
