LEye coords (280.0, 167.0), REye coords (282.0, 164.0), timeStamp: 2017-03-02 10:25:18.421
LEye coords (278.0, 166.0), REye coords (279.0, 164.0), timeStamp: 2017-03-02 10:25:18.455
LEye coords (276.0, 167.0), REye coords (277.0, 164.0), timeStamp: 2017-03-02 10:25:18.489
LEye coords (274.0, 167.0), REye coords (274.0, 163.0), timeStamp: 2017-03-02 10:25:18.533
LEye coords (271.0, 167.0), REye coords (272.0, 163.0), timeStamp: 2017-03-02 10:25:18.567
LEye coords (269.0, 167.0), REye coords (270.0, 163.0), timeStamp: 2017-03-02 10:25:18.600
LEye coords (267.0, 167.0), REye coords (267.0, 163.0), timeStamp: 2017-03-02 10:25:18.645
LEye coords (264.0, 167.0), REye coords (265.0, 163.0), timeStamp: 2017-03-02 10:25:18.679
LEye coords (262.0, 168.0), REye coords (263.0, 163.0), timeStamp: 2017-03-02 10:25:18.712
LEye coords (260.0, 168.0), REye coords (261.0, 163.0), timeStamp: 2017-03-02 10:25:18.756
LEye coords (258.0, 168.0), REye coords (260.0, 163.0), timeStamp: 2017-03-02 10:25:18.789
LEye coords (208.0, 178.0), REye coords (207.0, 178.0), timeStamp: 2017-03-02 10:25:18.823
LEye coords (211.0, 177.0), REye coords (207.0, 179.0), timeStamp: 2017-03-02 10:25:18.868
LEye coords (210.0, 178.0), REye coords (208.0, 176.0), timeStamp: 2017-03-02 10:25:18.901
LEye coords (208.0, 177.0), REye coords (209.0, 176.0), timeStamp: 2017-03-02 10:25:18.935
LEye coords (209.0, 177.0), REye coords (210.0, 174.0), timeStamp: 2017-03-02 10:25:18.969
LEye coords (209.0, 176.0), REye coords (211.0, 172.0), timeStamp: 2017-03-02 10:25:19.014
LEye coords (211.0, 176.0), REye coords (214.0, 172.0), timeStamp: 2017-03-02 10:25:19.048
LEye coords (214.0, 176.0), REye coords (216.0, 172.0), timeStamp: 2017-03-02 10:25:19.082
LEye coords (215.0, 176.0), REye coords (218.0, 171.0), timeStamp: 2017-03-02 10:25:19.127
LEye coords (217.0, 177.0), REye coords (220.0, 171.0), timeStamp: 2017-03-02 10:25:19.159
LEye coords (218.0, 177.0), REye coords (221.0, 171.0), timeStamp: 2017-03-02 10:25:19.193
LEye coords (219.0, 177.0), REye coords (222.0, 171.0), timeStamp: 2017-03-02 10:25:19.237
LEye coords (220.0, 178.0), REye coords (222.0, 171.0), timeStamp: 2017-03-02 10:25:19.271
LEye coords (221.0, 178.0), REye coords (223.0, 170.0), timeStamp: 2017-03-02 10:25:19.304
LEye coords (222.0, 178.0), REye coords (224.0, 171.0), timeStamp: 2017-03-02 10:25:19.350
LEye coords (223.0, 179.0), REye coords (224.0, 170.0), timeStamp: 2017-03-02 10:25:19.383
LEye coords (223.0, 179.0), REye coords (225.0, 171.0), timeStamp: 2017-03-02 10:25:19.417
LEye coords (224.0, 180.0), REye coords (225.0, 172.0), timeStamp: 2017-03-02 10:25:19.452
LEye coords (225.0, 180.0), REye coords (226.0, 172.0), timeStamp: 2017-03-02 10:25:19.496
LEye coords (225.0, 180.0), REye coords (226.0, 172.0), timeStamp: 2017-03-02 10:25:19.531
LEye coords (226.0, 180.0), REye coords (226.0, 173.0), timeStamp: 2017-03-02 10:25:19.565
LEye coords (226.0, 181.0), REye coords (227.0, 173.0), timeStamp: 2017-03-02 10:25:19.608
LEye coords (227.0, 181.0), REye coords (227.0, 174.0), timeStamp: 2017-03-02 10:25:19.641
LEye coords (228.0, 182.0), REye coords (228.0, 172.0), timeStamp: 2017-03-02 10:25:19.676
LEye coords (229.0, 182.0), REye coords (229.0, 173.0), timeStamp: 2017-03-02 10:25:19.709
LEye coords (229.0, 182.0), REye coords (230.0, 173.0), timeStamp: 2017-03-02 10:25:19.755
LEye coords (230.0, 183.0), REye coords (230.0, 173.0), timeStamp: 2017-03-02 10:25:19.788
LEye coords (231.0, 183.0), REye coords (231.0, 174.0), timeStamp: 2017-03-02 10:25:19.821
LEye coords (231.0, 184.0), REye coords (232.0, 172.0), timeStamp: 2017-03-02 10:25:19.865
LEye coords (231.0, 184.0), REye coords (232.0, 173.0), timeStamp: 2017-03-02 10:25:19.899
LEye coords (231.0, 185.0), REye coords (233.0, 174.0), timeStamp: 2017-03-02 10:25:19.977
