LEye coords (163.0, 134.0), REye coords (173.0, 142.0), timeStamp: 2017-03-02 10:25:22.379
LEye coords (163.0, 134.0), REye coords (173.0, 143.0), timeStamp: 2017-03-02 10:25:22.413
LEye coords (164.0, 135.0), REye coords (173.0, 144.0), timeStamp: 2017-03-02 10:25:22.458
LEye coords (164.0, 137.0), REye coords (173.0, 143.0), timeStamp: 2017-03-02 10:25:22.491
LEye coords (164.0, 138.0), REye coords (173.0, 143.0), timeStamp: 2017-03-02 10:25:22.525
LEye coords (164.0, 139.0), REye coords (172.0, 144.0), timeStamp: 2017-03-02 10:25:22.559
LEye coords (164.0, 140.0), REye coords (172.0, 145.0), timeStamp: 2017-03-02 10:25:22.603
LEye coords (164.0, 142.0), REye coords (172.0, 146.0), timeStamp: 2017-03-02 10:25:22.636
LEye coords (164.0, 142.0), REye coords (172.0, 147.0), timeStamp: 2017-03-02 10:25:22.670
LEye coords (164.0, 144.0), REye coords (172.0, 148.0), timeStamp: 2017-03-02 10:25:22.715
LEye coords (165.0, 146.0), REye coords (171.0, 149.0), timeStamp: 2017-03-02 10:25:22.749
LEye coords (165.0, 148.0), REye coords (171.0, 150.0), timeStamp: 2017-03-02 10:25:22.782
LEye coords (165.0, 148.0), REye coords (171.0, 150.0), timeStamp: 2017-03-02 10:25:22.825
LEye coords (165.0, 149.0), REye coords (171.0, 151.0), timeStamp: 2017-03-02 10:25:22.859
LEye coords (165.0, 149.0), REye coords (171.0, 152.0), timeStamp: 2017-03-02 10:25:22.894
