LEye coords (334.0, 237.0), REye coords (372.0, 220.0), timeStamp: 2017-03-02 10:25:27.562
LEye coords (335.0, 237.0), REye coords (369.0, 225.0), timeStamp: 2017-03-02 10:25:27.595
LEye coords (335.0, 237.0), REye coords (368.0, 224.0), timeStamp: 2017-03-02 10:25:27.639
LEye coords (336.0, 237.0), REye coords (368.0, 224.0), timeStamp: 2017-03-02 10:25:27.672
LEye coords (337.0, 237.0), REye coords (367.0, 226.0), timeStamp: 2017-03-02 10:25:27.705
LEye coords (338.0, 237.0), REye coords (368.0, 226.0), timeStamp: 2017-03-02 10:25:27.748
LEye coords (339.0, 237.0), REye coords (367.0, 226.0), timeStamp: 2017-03-02 10:25:27.782
LEye coords (340.0, 238.0), REye coords (366.0, 228.0), timeStamp: 2017-03-02 10:25:27.816
LEye coords (341.0, 237.0), REye coords (365.0, 231.0), timeStamp: 2017-03-02 10:25:27.860
LEye coords (224.0, 191.0), REye coords (236.0, 177.0), timeStamp: 2017-03-02 10:25:27.893
LEye coords (225.0, 193.0), REye coords (237.0, 144.0), timeStamp: 2017-03-02 10:25:27.926
LEye coords (225.0, 190.0), REye coords (236.0, 146.0), timeStamp: 2017-03-02 10:25:27.971
LEye coords (225.0, 190.0), REye coords (235.0, 155.0), timeStamp: 2017-03-02 10:25:28.004
LEye coords (224.0, 189.0), REye coords (234.0, 154.0), timeStamp: 2017-03-02 10:25:28.038
LEye coords (226.0, 186.0), REye coords (234.0, 144.0), timeStamp: 2017-03-02 10:25:28.081
LEye coords (223.0, 188.0), REye coords (235.0, 147.0), timeStamp: 2017-03-02 10:25:28.115
LEye coords (246.0, 159.0), REye coords (262.0, 144.0), timeStamp: 2017-03-02 10:25:28.150
LEye coords (257.0, 162.0), REye coords (269.0, 149.0), timeStamp: 2017-03-02 10:25:28.193
LEye coords (260.0, 154.0), REye coords (273.0, 150.0), timeStamp: 2017-03-02 10:25:28.228
LEye coords (266.0, 131.0), REye coords (276.0, 151.0), timeStamp: 2017-03-02 10:25:28.261
LEye coords (269.0, 132.0), REye coords (279.0, 149.0), timeStamp: 2017-03-02 10:25:28.305
LEye coords (270.0, 131.0), REye coords (290.0, 152.0), timeStamp: 2017-03-02 10:25:28.338
LEye coords (271.0, 131.0), REye coords (291.0, 147.0), timeStamp: 2017-03-02 10:25:28.372
LEye coords (274.0, 144.0), REye coords (290.0, 160.0), timeStamp: 2017-03-02 10:25:28.416
LEye coords (273.0, 144.0), REye coords (291.0, 158.0), timeStamp: 2017-03-02 10:25:28.450
LEye coords (273.0, 143.0), REye coords (293.0, 157.0), timeStamp: 2017-03-02 10:25:28.483
LEye coords (274.0, 148.0), REye coords (294.0, 155.0), timeStamp: 2017-03-02 10:25:28.528
LEye coords (273.0, 147.0), REye coords (294.0, 155.0), timeStamp: 2017-03-02 10:25:28.562
LEye coords (275.0, 152.0), REye coords (294.0, 154.0), timeStamp: 2017-03-02 10:25:28.595
LEye coords (275.0, 155.0), REye coords (294.0, 154.0), timeStamp: 2017-03-02 10:25:28.639
LEye coords (274.0, 154.0), REye coords (294.0, 154.0), timeStamp: 2017-03-02 10:25:28.672
LEye coords (275.0, 157.0), REye coords (294.0, 154.0), timeStamp: 2017-03-02 10:25:28.705
LEye coords (276.0, 160.0), REye coords (294.0, 155.0), timeStamp: 2017-03-02 10:25:28.749
LEye coords (276.0, 162.0), REye coords (294.0, 156.0), timeStamp: 2017-03-02 10:25:28.782
LEye coords (277.0, 164.0), REye coords (294.0, 156.0), timeStamp: 2017-03-02 10:25:28.816
LEye coords (277.0, 166.0), REye coords (294.0, 156.0), timeStamp: 2017-03-02 10:25:28.860
LEye coords (278.0, 167.0), REye coords (294.0, 157.0), timeStamp: 2017-03-02 10:25:28.894
LEye coords (278.0, 169.0), REye coords (294.0, 156.0), timeStamp: 2017-03-02 10:25:28.928
LEye coords (278.0, 171.0), REye coords (294.0, 155.0), timeStamp: 2017-03-02 10:25:29.006
