000009
000017
000133
000150
000173
000194
000214
000275
000328
000332
000347
000372
000407
000435
000470
000483
000523
000524
000577
000667
000695
000702
000760
000764
000799
000879
000991
001064
001071
001084
001236
001241
001254
001287
001337
001405
001420
001515
001523
001556
001586
001628
001632
001690
001699
001724
001727
001730
001766
001807
001894
001927
001945
001960
002042
002043
002183
002187
002190
002213
002238
002249
002261
002273
002329
002405
002448
002471
002520
002555
002633
002657
002678
002684
002713
002735
002774
002786
002800
002804
002842
002858
003015
003017
003027
003121
003189
003210
003290
003294
003303
003307
003362
003403
003424
003429
003436
003492
003611
003618
003625
003645
003691
003696
003732
003735
003754
003772
003779
003889
003939
003948
003960
003970
004051
004077
004117
004146
004168
004195
004307
004323
004339
004372
004389
004450
004487
004535
004553
004625
004634
004656
004662
004722
004788
004789
004815
004834
004872
004902
004935
004950
004968
004995
005081
005094
005161
005236
005248
005278
005306
005331
005351
005419
005453
005461
005511
005550
005568
005611
005636
005700
005728
005732
005741
005877
005948
006095
006134
006151
006249
006276
006285
006295
006382
006392
006428
006429
006445
006455
006459
006506
006572
006611
006617
006645
006722
006769
006789
006797
006836
006847
006850
006858
006862
006866
006911
006933
007018
007035
007109
007138
007185
007216
007234
007243
007260
007308
007325
007439
007448
007526
007547
007570
007576
007594
007603
007611
007637
007697
007705
007727
007748
007809
007919
008019
008040
008069
008142
008191
008209
008248
008279
008307
008311
008320
008427
008437
008509
008524
008526
008564
008596
008610
008612
008653
008699
008731
008744
008805
008862
008867
008876
008886
008914
008919
009020
009024
009114
009138
009148
009202
009208
009236
009251
009255
009318
009331
009337
009407
009438
009465
009468
009698
009719
009732
009767
009807
009808
009841
009851
009874
009954
