LEye coords (155.0, 296.0), REye coords (154.0, 308.0), timeStamp: 2017-02-18 16:10:13.829
LEye coords (155.0, 296.0), REye coords (153.0, 308.0), timeStamp: 2017-02-18 16:10:13.862
LEye coords (155.0, 296.0), REye coords (153.0, 307.0), timeStamp: 2017-02-18 16:10:13.905
LEye coords (155.0, 296.0), REye coords (153.0, 308.0), timeStamp: 2017-02-18 16:10:13.938
LEye coords (155.0, 296.0), REye coords (154.0, 307.0), timeStamp: 2017-02-18 16:10:13.982
LEye coords (176.0, 251.0), REye coords (185.0, 264.0), timeStamp: 2017-02-18 16:10:14.015
LEye coords (0.0, 0.0), REye coords (229.0, 183.0), timeStamp: 2017-02-18 16:10:14.049
LEye coords (0.0, 0.0), REye coords (228.0, 180.0), timeStamp: 2017-02-18 16:10:14.093
LEye coords (0.0, 0.0), REye coords (228.0, 181.0), timeStamp: 2017-02-18 16:10:14.126
LEye coords (0.0, 0.0), REye coords (228.0, 182.0), timeStamp: 2017-02-18 16:10:14.160
LEye coords (0.0, 0.0), REye coords (227.0, 183.0), timeStamp: 2017-02-18 16:10:14.205
LEye coords (175.0, 189.0), REye coords (178.0, 202.0), timeStamp: 2017-02-18 16:10:14.238
LEye coords (176.0, 188.0), REye coords (176.0, 201.0), timeStamp: 2017-02-18 16:10:14.271
LEye coords (175.0, 187.0), REye coords (176.0, 200.0), timeStamp: 2017-02-18 16:10:14.316
LEye coords (176.0, 187.0), REye coords (175.0, 200.0), timeStamp: 2017-02-18 16:10:14.349
LEye coords (177.0, 185.0), REye coords (171.0, 197.0), timeStamp: 2017-02-18 16:10:14.382
LEye coords (177.0, 183.0), REye coords (174.0, 194.0), timeStamp: 2017-02-18 16:10:14.425
LEye coords (166.0, 189.0), REye coords (159.0, 194.0), timeStamp: 2017-02-18 16:10:14.458
LEye coords (163.0, 190.0), REye coords (156.0, 199.0), timeStamp: 2017-02-18 16:10:14.492
LEye coords (162.0, 192.0), REye coords (154.0, 200.0), timeStamp: 2017-02-18 16:10:14.536
LEye coords (161.0, 193.0), REye coords (153.0, 201.0), timeStamp: 2017-02-18 16:10:14.569
LEye coords (160.0, 193.0), REye coords (152.0, 202.0), timeStamp: 2017-02-18 16:10:14.604
LEye coords (159.0, 193.0), REye coords (152.0, 202.0), timeStamp: 2017-02-18 16:10:14.648
LEye coords (159.0, 193.0), REye coords (151.0, 203.0), timeStamp: 2017-02-18 16:10:14.682
LEye coords (159.0, 194.0), REye coords (150.0, 203.0), timeStamp: 2017-02-18 16:10:14.716
LEye coords (159.0, 194.0), REye coords (150.0, 204.0), timeStamp: 2017-02-18 16:10:14.760
LEye coords (159.0, 194.0), REye coords (150.0, 204.0), timeStamp: 2017-02-18 16:10:14.793
LEye coords (159.0, 195.0), REye coords (149.0, 204.0), timeStamp: 2017-02-18 16:10:14.827
LEye coords (159.0, 195.0), REye coords (149.0, 205.0), timeStamp: 2017-02-18 16:10:14.871
LEye coords (159.0, 195.0), REye coords (149.0, 205.0), timeStamp: 2017-02-18 16:10:14.905
LEye coords (158.0, 195.0), REye coords (148.0, 205.0), timeStamp: 2017-02-18 16:10:14.939
LEye coords (158.0, 196.0), REye coords (148.0, 205.0), timeStamp: 2017-02-18 16:10:14.973
LEye coords (158.0, 196.0), REye coords (148.0, 206.0), timeStamp: 2017-02-18 16:10:15.016
LEye coords (158.0, 196.0), REye coords (148.0, 206.0), timeStamp: 2017-02-18 16:10:15.050
LEye coords (158.0, 196.0), REye coords (147.0, 207.0), timeStamp: 2017-02-18 16:10:15.085
LEye coords (158.0, 197.0), REye coords (147.0, 206.0), timeStamp: 2017-02-18 16:10:15.130
LEye coords (158.0, 197.0), REye coords (147.0, 206.0), timeStamp: 2017-02-18 16:10:15.165
LEye coords (157.0, 197.0), REye coords (147.0, 206.0), timeStamp: 2017-02-18 16:10:15.199
LEye coords (157.0, 197.0), REye coords (146.0, 207.0), timeStamp: 2017-02-18 16:10:15.233
LEye coords (157.0, 198.0), REye coords (146.0, 207.0), timeStamp: 2017-02-18 16:10:15.278
LEye coords (157.0, 198.0), REye coords (146.0, 207.0), timeStamp: 2017-02-18 16:10:15.312
LEye coords (157.0, 198.0), REye coords (146.0, 207.0), timeStamp: 2017-02-18 16:10:15.346
LEye coords (156.0, 198.0), REye coords (145.0, 207.0), timeStamp: 2017-02-18 16:10:15.380
LEye coords (157.0, 198.0), REye coords (145.0, 207.0), timeStamp: 2017-02-18 16:10:15.424
LEye coords (157.0, 198.0), REye coords (145.0, 207.0), timeStamp: 2017-02-18 16:10:15.458
LEye coords (156.0, 199.0), REye coords (145.0, 207.0), timeStamp: 2017-02-18 16:10:15.492
LEye coords (157.0, 199.0), REye coords (145.0, 207.0), timeStamp: 2017-02-18 16:10:15.537
LEye coords (156.0, 199.0), REye coords (145.0, 207.0), timeStamp: 2017-02-18 16:10:15.570
LEye coords (156.0, 199.0), REye coords (145.0, 208.0), timeStamp: 2017-02-18 16:10:15.604
LEye coords (156.0, 199.0), REye coords (145.0, 208.0), timeStamp: 2017-02-18 16:10:15.648
LEye coords (156.0, 199.0), REye coords (145.0, 208.0), timeStamp: 2017-02-18 16:10:15.682
LEye coords (156.0, 199.0), REye coords (145.0, 209.0), timeStamp: 2017-02-18 16:10:15.716
LEye coords (156.0, 199.0), REye coords (145.0, 209.0), timeStamp: 2017-02-18 16:10:15.749
LEye coords (156.0, 199.0), REye coords (145.0, 209.0), timeStamp: 2017-02-18 16:10:15.793
LEye coords (0.0, 0.0), REye coords (214.0, 167.0), timeStamp: 2017-02-18 16:10:15.827
