LEye coords (153.0, 188.0), REye coords (156.0, 199.0), timeStamp: 2017-02-18 16:10:12.173
LEye coords (153.0, 188.0), REye coords (156.0, 199.0), timeStamp: 2017-02-18 16:10:12.206
LEye coords (153.0, 188.0), REye coords (157.0, 200.0), timeStamp: 2017-02-18 16:10:12.241
LEye coords (154.0, 189.0), REye coords (156.0, 200.0), timeStamp: 2017-02-18 16:10:12.275
LEye coords (154.0, 188.0), REye coords (156.0, 200.0), timeStamp: 2017-02-18 16:10:12.307
LEye coords (153.0, 187.0), REye coords (157.0, 201.0), timeStamp: 2017-02-18 16:10:12.352
LEye coords (152.0, 185.0), REye coords (163.0, 216.0), timeStamp: 2017-02-18 16:10:12.386
LEye coords (160.0, 267.0), REye coords (158.0, 275.0), timeStamp: 2017-02-18 16:10:12.420
LEye coords (160.0, 267.0), REye coords (159.0, 278.0), timeStamp: 2017-02-18 16:10:12.464
LEye coords (160.0, 268.0), REye coords (162.0, 280.0), timeStamp: 2017-02-18 16:10:12.497
LEye coords (159.0, 269.0), REye coords (160.0, 278.0), timeStamp: 2017-02-18 16:10:12.531
LEye coords (159.0, 269.0), REye coords (158.0, 281.0), timeStamp: 2017-02-18 16:10:12.575
LEye coords (160.0, 268.0), REye coords (160.0, 283.0), timeStamp: 2017-02-18 16:10:12.610
LEye coords (163.0, 273.0), REye coords (159.0, 283.0), timeStamp: 2017-02-18 16:10:12.643
LEye coords (162.0, 273.0), REye coords (158.0, 281.0), timeStamp: 2017-02-18 16:10:12.677
LEye coords (161.0, 272.0), REye coords (158.0, 282.0), timeStamp: 2017-02-18 16:10:12.721
LEye coords (160.0, 271.0), REye coords (158.0, 283.0), timeStamp: 2017-02-18 16:10:12.756
LEye coords (160.0, 272.0), REye coords (157.0, 284.0), timeStamp: 2017-02-18 16:10:12.789
LEye coords (160.0, 271.0), REye coords (158.0, 285.0), timeStamp: 2017-02-18 16:10:12.832
LEye coords (160.0, 271.0), REye coords (158.0, 285.0), timeStamp: 2017-02-18 16:10:12.865
LEye coords (159.0, 272.0), REye coords (158.0, 285.0), timeStamp: 2017-02-18 16:10:12.909
LEye coords (159.0, 273.0), REye coords (158.0, 286.0), timeStamp: 2017-02-18 16:10:12.942
LEye coords (159.0, 274.0), REye coords (158.0, 287.0), timeStamp: 2017-02-18 16:10:12.977
LEye coords (159.0, 276.0), REye coords (158.0, 289.0), timeStamp: 2017-02-18 16:10:13.010
LEye coords (158.0, 277.0), REye coords (158.0, 290.0), timeStamp: 2017-02-18 16:10:13.055
LEye coords (158.0, 279.0), REye coords (159.0, 292.0), timeStamp: 2017-02-18 16:10:13.089
LEye coords (158.0, 280.0), REye coords (159.0, 293.0), timeStamp: 2017-02-18 16:10:13.122
LEye coords (158.0, 281.0), REye coords (159.0, 294.0), timeStamp: 2017-02-18 16:10:13.166
LEye coords (158.0, 282.0), REye coords (159.0, 295.0), timeStamp: 2017-02-18 16:10:13.199
LEye coords (158.0, 283.0), REye coords (159.0, 297.0), timeStamp: 2017-02-18 16:10:13.242
LEye coords (158.0, 284.0), REye coords (158.0, 298.0), timeStamp: 2017-02-18 16:10:13.276
LEye coords (158.0, 285.0), REye coords (158.0, 298.0), timeStamp: 2017-02-18 16:10:13.310
LEye coords (157.0, 286.0), REye coords (157.0, 299.0), timeStamp: 2017-02-18 16:10:13.346
LEye coords (157.0, 287.0), REye coords (157.0, 300.0), timeStamp: 2017-02-18 16:10:13.391
LEye coords (157.0, 287.0), REye coords (157.0, 302.0), timeStamp: 2017-02-18 16:10:13.424
LEye coords (157.0, 288.0), REye coords (156.0, 303.0), timeStamp: 2017-02-18 16:10:13.458
LEye coords (157.0, 289.0), REye coords (156.0, 304.0), timeStamp: 2017-02-18 16:10:13.492
LEye coords (156.0, 290.0), REye coords (156.0, 304.0), timeStamp: 2017-02-18 16:10:13.536
LEye coords (156.0, 291.0), REye coords (155.0, 305.0), timeStamp: 2017-02-18 16:10:13.569
LEye coords (156.0, 292.0), REye coords (155.0, 306.0), timeStamp: 2017-02-18 16:10:13.603
LEye coords (156.0, 293.0), REye coords (155.0, 306.0), timeStamp: 2017-02-18 16:10:13.650
LEye coords (156.0, 294.0), REye coords (154.0, 307.0), timeStamp: 2017-02-18 16:10:13.683
LEye coords (156.0, 294.0), REye coords (154.0, 307.0), timeStamp: 2017-02-18 16:10:13.717
LEye coords (218.0, 195.0), REye coords (248.0, 204.0), timeStamp: 2017-02-18 16:12:14.263
LEye coords (217.0, 194.0), REye coords (248.0, 204.0), timeStamp: 2017-02-18 16:12:14.299
LEye coords (219.0, 194.0), REye coords (250.0, 203.0), timeStamp: 2017-02-18 16:12:14.334
LEye coords (221.0, 199.0), REye coords (254.0, 197.0), timeStamp: 2017-02-18 16:12:14.379
LEye coords (218.0, 194.0), REye coords (258.0, 201.0), timeStamp: 2017-02-18 16:12:14.414
LEye coords (218.0, 194.0), REye coords (252.0, 202.0), timeStamp: 2017-02-18 16:12:14.448
LEye coords (203.0, 171.0), REye coords (237.0, 182.0), timeStamp: 2017-02-18 16:12:14.481
LEye coords (195.0, 159.0), REye coords (230.0, 171.0), timeStamp: 2017-02-18 16:12:14.525
LEye coords (191.0, 153.0), REye coords (225.0, 165.0), timeStamp: 2017-02-18 16:12:14.559
LEye coords (174.0, 133.0), REye coords (208.0, 144.0), timeStamp: 2017-02-18 16:12:14.593
LEye coords (176.0, 125.0), REye coords (209.0, 147.0), timeStamp: 2017-02-18 16:12:14.638
LEye coords (177.0, 130.0), REye coords (209.0, 143.0), timeStamp: 2017-02-18 16:12:14.673
LEye coords (176.0, 129.0), REye coords (210.0, 142.0), timeStamp: 2017-02-18 16:12:14.707
LEye coords (175.0, 129.0), REye coords (210.0, 142.0), timeStamp: 2017-02-18 16:12:14.742
LEye coords (211.0, 200.0), REye coords (215.0, 204.0), timeStamp: 2017-02-18 16:14:54.380
LEye coords (209.0, 201.0), REye coords (215.0, 206.0), timeStamp: 2017-02-18 16:14:54.415
LEye coords (209.0, 200.0), REye coords (215.0, 205.0), timeStamp: 2017-02-18 16:14:54.450
LEye coords (209.0, 199.0), REye coords (216.0, 205.0), timeStamp: 2017-02-18 16:14:54.483
LEye coords (208.0, 198.0), REye coords (215.0, 210.0), timeStamp: 2017-02-18 16:14:54.517
LEye coords (211.0, 202.0), REye coords (213.0, 211.0), timeStamp: 2017-02-18 16:14:54.561
LEye coords (211.0, 203.0), REye coords (214.0, 210.0), timeStamp: 2017-02-18 16:14:54.595
LEye coords (211.0, 203.0), REye coords (215.0, 211.0), timeStamp: 2017-02-18 16:14:54.630
LEye coords (211.0, 202.0), REye coords (215.0, 212.0), timeStamp: 2017-02-18 16:14:54.664
LEye coords (211.0, 202.0), REye coords (216.0, 212.0), timeStamp: 2017-02-18 16:14:54.709
LEye coords (209.0, 199.0), REye coords (214.0, 208.0), timeStamp: 2017-02-18 16:14:54.743
LEye coords (180.0, 154.0), REye coords (183.0, 156.0), timeStamp: 2017-02-18 16:14:54.776
LEye coords (335.0, 255.0), REye coords (341.0, 261.0), timeStamp: 2017-02-18 16:17:23.900
LEye coords (335.0, 255.0), REye coords (341.0, 261.0), timeStamp: 2017-02-18 16:17:23.932
LEye coords (335.0, 255.0), REye coords (341.0, 261.0), timeStamp: 2017-02-18 16:17:23.966
LEye coords (335.0, 255.0), REye coords (340.0, 260.0), timeStamp: 2017-02-18 16:17:24.010
LEye coords (334.0, 255.0), REye coords (340.0, 260.0), timeStamp: 2017-02-18 16:17:24.045
LEye coords (268.0, 213.0), REye coords (275.0, 198.0), timeStamp: 2017-02-18 16:17:24.079
LEye coords (186.0, 160.0), REye coords (182.0, 157.0), timeStamp: 2017-02-18 16:17:24.123
LEye coords (182.0, 148.0), REye coords (182.0, 160.0), timeStamp: 2017-02-18 16:17:24.157
LEye coords (180.0, 146.0), REye coords (182.0, 160.0), timeStamp: 2017-02-18 16:17:24.190
LEye coords (179.0, 143.0), REye coords (182.0, 161.0), timeStamp: 2017-02-18 16:17:24.233
LEye coords (176.0, 136.0), REye coords (184.0, 163.0), timeStamp: 2017-02-18 16:17:24.267
LEye coords (159.0, 201.0), REye coords (167.0, 194.0), timeStamp: 2017-02-18 16:19:12.604
LEye coords (158.0, 200.0), REye coords (168.0, 196.0), timeStamp: 2017-02-18 16:19:12.638
LEye coords (158.0, 199.0), REye coords (167.0, 194.0), timeStamp: 2017-02-18 16:19:12.672
LEye coords (159.0, 200.0), REye coords (166.0, 193.0), timeStamp: 2017-02-18 16:19:12.706
LEye coords (159.0, 201.0), REye coords (166.0, 194.0), timeStamp: 2017-02-18 16:19:12.740
LEye coords (158.0, 200.0), REye coords (165.0, 195.0), timeStamp: 2017-02-18 16:19:12.783
LEye coords (158.0, 200.0), REye coords (165.0, 196.0), timeStamp: 2017-02-18 16:19:12.817
LEye coords (158.0, 200.0), REye coords (165.0, 196.0), timeStamp: 2017-02-18 16:19:12.852
LEye coords (157.0, 200.0), REye coords (165.0, 196.0), timeStamp: 2017-02-18 16:19:12.897
LEye coords (157.0, 200.0), REye coords (165.0, 197.0), timeStamp: 2017-02-18 16:19:12.930
LEye coords (299.0, 230.0), REye coords (294.0, 227.0), timeStamp: 2017-02-18 16:20:58.566
LEye coords (181.0, 153.0), REye coords (202.0, 158.0), timeStamp: 2017-02-18 16:20:58.601
LEye coords (188.0, 162.0), REye coords (198.0, 164.0), timeStamp: 2017-02-18 16:20:58.635
LEye coords (192.0, 165.0), REye coords (198.0, 166.0), timeStamp: 2017-02-18 16:20:58.669
LEye coords (192.0, 166.0), REye coords (197.0, 168.0), timeStamp: 2017-02-18 16:20:58.703
LEye coords (192.0, 170.0), REye coords (196.0, 168.0), timeStamp: 2017-02-18 16:20:58.748
LEye coords (197.0, 177.0), REye coords (195.0, 170.0), timeStamp: 2017-02-18 16:20:58.781
LEye coords (196.0, 177.0), REye coords (194.0, 173.0), timeStamp: 2017-02-18 16:20:58.814
LEye coords (195.0, 178.0), REye coords (193.0, 172.0), timeStamp: 2017-02-18 16:20:58.859
LEye coords (194.0, 178.0), REye coords (193.0, 173.0), timeStamp: 2017-02-18 16:20:58.893
LEye coords (194.0, 178.0), REye coords (192.0, 173.0), timeStamp: 2017-02-18 16:20:58.927
LEye coords (194.0, 178.0), REye coords (192.0, 174.0), timeStamp: 2017-02-18 16:20:58.972
LEye coords (209.0, 171.0), REye coords (207.0, 170.0), timeStamp: 2017-02-18 16:22:52.663
LEye coords (207.0, 172.0), REye coords (207.0, 171.0), timeStamp: 2017-02-18 16:22:52.707
LEye coords (206.0, 172.0), REye coords (207.0, 172.0), timeStamp: 2017-02-18 16:22:52.740
LEye coords (206.0, 171.0), REye coords (206.0, 173.0), timeStamp: 2017-02-18 16:22:52.773
LEye coords (207.0, 175.0), REye coords (205.0, 177.0), timeStamp: 2017-02-18 16:22:52.807
LEye coords (209.0, 171.0), REye coords (207.0, 177.0), timeStamp: 2017-02-18 16:22:52.851
LEye coords (208.0, 172.0), REye coords (208.0, 177.0), timeStamp: 2017-02-18 16:22:52.885
LEye coords (208.0, 172.0), REye coords (207.0, 178.0), timeStamp: 2017-02-18 16:22:52.919
LEye coords (207.0, 174.0), REye coords (207.0, 177.0), timeStamp: 2017-02-18 16:22:52.963
LEye coords (207.0, 175.0), REye coords (207.0, 177.0), timeStamp: 2017-02-18 16:22:52.995
LEye coords (206.0, 173.0), REye coords (206.0, 173.0), timeStamp: 2017-02-18 16:22:53.029
LEye coords (339.0, 254.0), REye coords (341.0, 263.0), timeStamp: 2017-02-18 16:24:36.337
LEye coords (339.0, 254.0), REye coords (341.0, 262.0), timeStamp: 2017-02-18 16:24:36.371
LEye coords (264.0, 212.0), REye coords (274.0, 210.0), timeStamp: 2017-02-18 16:24:36.404
LEye coords (170.0, 165.0), REye coords (183.0, 155.0), timeStamp: 2017-02-18 16:24:36.439
LEye coords (170.0, 163.0), REye coords (181.0, 154.0), timeStamp: 2017-02-18 16:24:36.484
LEye coords (171.0, 163.0), REye coords (181.0, 156.0), timeStamp: 2017-02-18 16:24:36.517
LEye coords (171.0, 161.0), REye coords (182.0, 154.0), timeStamp: 2017-02-18 16:24:36.551
LEye coords (176.0, 165.0), REye coords (183.0, 149.0), timeStamp: 2017-02-18 16:24:36.594
LEye coords (168.0, 159.0), REye coords (184.0, 148.0), timeStamp: 2017-02-18 16:24:36.628
LEye coords (170.0, 159.0), REye coords (184.0, 150.0), timeStamp: 2017-02-18 16:24:36.662
LEye coords (171.0, 161.0), REye coords (184.0, 149.0), timeStamp: 2017-02-18 16:24:36.707
LEye coords (172.0, 161.0), REye coords (184.0, 150.0), timeStamp: 2017-02-18 16:24:36.741
LEye coords (178.0, 154.0), REye coords (203.0, 148.0), timeStamp: 2017-02-18 16:26:11.895
LEye coords (177.0, 148.0), REye coords (202.0, 153.0), timeStamp: 2017-02-18 16:26:11.929
LEye coords (178.0, 149.0), REye coords (202.0, 151.0), timeStamp: 2017-02-18 16:26:11.963
LEye coords (178.0, 151.0), REye coords (201.0, 151.0), timeStamp: 2017-02-18 16:26:12.006
LEye coords (177.0, 151.0), REye coords (201.0, 152.0), timeStamp: 2017-02-18 16:26:12.039
LEye coords (177.0, 151.0), REye coords (201.0, 152.0), timeStamp: 2017-02-18 16:26:12.083
LEye coords (177.0, 152.0), REye coords (201.0, 153.0), timeStamp: 2017-02-18 16:26:12.117
LEye coords (177.0, 152.0), REye coords (0.0, 0.0), timeStamp: 2017-02-18 16:26:12.151
LEye coords (176.0, 152.0), REye coords (0.0, 0.0), timeStamp: 2017-02-18 16:26:12.186
LEye coords (177.0, 153.0), REye coords (0.0, 0.0), timeStamp: 2017-02-18 16:26:12.230
LEye coords (333.0, 254.0), REye coords (342.0, 264.0), timeStamp: 2017-02-18 16:27:55.602
LEye coords (334.0, 254.0), REye coords (342.0, 264.0), timeStamp: 2017-02-18 16:27:55.568
LEye coords (333.0, 254.0), REye coords (341.0, 264.0), timeStamp: 2017-02-18 16:27:55.637
LEye coords (332.0, 254.0), REye coords (341.0, 264.0), timeStamp: 2017-02-18 16:27:55.672
LEye coords (332.0, 254.0), REye coords (341.0, 263.0), timeStamp: 2017-02-18 16:27:55.705
LEye coords (331.0, 254.0), REye coords (340.0, 264.0), timeStamp: 2017-02-18 16:27:55.748
LEye coords (175.0, 125.0), REye coords (208.0, 164.0), timeStamp: 2017-02-18 16:27:55.782
