LEye coords (152.0, 261.0), REye coords (144.0, 277.0), timeStamp: 2017-02-18 16:10:26.816
LEye coords (152.0, 261.0), REye coords (144.0, 277.0), timeStamp: 2017-02-18 16:10:26.860
LEye coords (151.0, 261.0), REye coords (144.0, 277.0), timeStamp: 2017-02-18 16:10:26.894
LEye coords (151.0, 261.0), REye coords (144.0, 278.0), timeStamp: 2017-02-18 16:10:26.927
LEye coords (151.0, 261.0), REye coords (144.0, 278.0), timeStamp: 2017-02-18 16:10:26.971
LEye coords (151.0, 261.0), REye coords (144.0, 278.0), timeStamp: 2017-02-18 16:10:27.005
LEye coords (150.0, 261.0), REye coords (144.0, 279.0), timeStamp: 2017-02-18 16:10:27.040
LEye coords (150.0, 261.0), REye coords (144.0, 279.0), timeStamp: 2017-02-18 16:10:27.084
LEye coords (150.0, 261.0), REye coords (145.0, 279.0), timeStamp: 2017-02-18 16:10:27.119
LEye coords (149.0, 261.0), REye coords (145.0, 279.0), timeStamp: 2017-02-18 16:10:27.153
LEye coords (149.0, 261.0), REye coords (145.0, 279.0), timeStamp: 2017-02-18 16:10:27.186
LEye coords (149.0, 261.0), REye coords (145.0, 279.0), timeStamp: 2017-02-18 16:10:27.230
LEye coords (149.0, 260.0), REye coords (145.0, 279.0), timeStamp: 2017-02-18 16:10:27.263
LEye coords (149.0, 260.0), REye coords (146.0, 279.0), timeStamp: 2017-02-18 16:10:27.297
LEye coords (149.0, 258.0), REye coords (0.0, 0.0), timeStamp: 2017-02-18 16:10:27.342
LEye coords (149.0, 257.0), REye coords (0.0, 0.0), timeStamp: 2017-02-18 16:10:27.375
LEye coords (150.0, 256.0), REye coords (0.0, 0.0), timeStamp: 2017-02-18 16:10:27.408
LEye coords (150.0, 256.0), REye coords (0.0, 0.0), timeStamp: 2017-02-18 16:10:27.453
LEye coords (150.0, 255.0), REye coords (0.0, 0.0), timeStamp: 2017-02-18 16:10:27.485
LEye coords (151.0, 253.0), REye coords (0.0, 0.0), timeStamp: 2017-02-18 16:10:27.520
LEye coords (151.0, 252.0), REye coords (0.0, 0.0), timeStamp: 2017-02-18 16:10:27.564
LEye coords (151.0, 249.0), REye coords (0.0, 0.0), timeStamp: 2017-02-18 16:10:27.599
LEye coords (151.0, 246.0), REye coords (0.0, 0.0), timeStamp: 2017-02-18 16:10:27.633
LEye coords (151.0, 245.0), REye coords (0.0, 0.0), timeStamp: 2017-02-18 16:10:27.667
LEye coords (151.0, 242.0), REye coords (0.0, 0.0), timeStamp: 2017-02-18 16:10:27.710
LEye coords (151.0, 239.0), REye coords (0.0, 0.0), timeStamp: 2017-02-18 16:10:27.744
LEye coords (152.0, 238.0), REye coords (0.0, 0.0), timeStamp: 2017-02-18 16:10:27.788
LEye coords (152.0, 236.0), REye coords (0.0, 0.0), timeStamp: 2017-02-18 16:10:27.821
LEye coords (153.0, 235.0), REye coords (146.0, 277.0), timeStamp: 2017-02-18 16:10:27.855
LEye coords (153.0, 234.0), REye coords (146.0, 276.0), timeStamp: 2017-02-18 16:10:27.899
LEye coords (154.0, 232.0), REye coords (147.0, 275.0), timeStamp: 2017-02-18 16:10:27.932
LEye coords (0.0, 0.0), REye coords (148.0, 183.0), timeStamp: 2017-02-18 16:10:27.967
LEye coords (0.0, 0.0), REye coords (153.0, 190.0), timeStamp: 2017-02-18 16:10:28.001
LEye coords (0.0, 0.0), REye coords (153.0, 187.0), timeStamp: 2017-02-18 16:10:28.045
LEye coords (0.0, 0.0), REye coords (153.0, 209.0), timeStamp: 2017-02-18 16:10:28.079
LEye coords (0.0, 0.0), REye coords (153.0, 201.0), timeStamp: 2017-02-18 16:10:28.114
LEye coords (0.0, 0.0), REye coords (154.0, 176.0), timeStamp: 2017-02-18 16:10:28.147
LEye coords (0.0, 0.0), REye coords (153.0, 179.0), timeStamp: 2017-02-18 16:10:28.191
LEye coords (0.0, 0.0), REye coords (154.0, 170.0), timeStamp: 2017-02-18 16:10:28.225
LEye coords (0.0, 0.0), REye coords (155.0, 187.0), timeStamp: 2017-02-18 16:10:28.259
LEye coords (0.0, 0.0), REye coords (154.0, 187.0), timeStamp: 2017-02-18 16:10:28.303
LEye coords (0.0, 0.0), REye coords (154.0, 184.0), timeStamp: 2017-02-18 16:10:28.337
LEye coords (0.0, 0.0), REye coords (155.0, 182.0), timeStamp: 2017-02-18 16:10:28.370
LEye coords (0.0, 0.0), REye coords (155.0, 178.0), timeStamp: 2017-02-18 16:10:28.415
LEye coords (0.0, 0.0), REye coords (155.0, 179.0), timeStamp: 2017-02-18 16:10:28.449
LEye coords (0.0, 0.0), REye coords (154.0, 183.0), timeStamp: 2017-02-18 16:10:28.483
LEye coords (0.0, 0.0), REye coords (154.0, 187.0), timeStamp: 2017-02-18 16:10:28.528
LEye coords (0.0, 0.0), REye coords (155.0, 192.0), timeStamp: 2017-02-18 16:10:28.563
LEye coords (0.0, 0.0), REye coords (155.0, 196.0), timeStamp: 2017-02-18 16:10:28.596
LEye coords (0.0, 0.0), REye coords (155.0, 200.0), timeStamp: 2017-02-18 16:10:28.630
LEye coords (0.0, 0.0), REye coords (155.0, 202.0), timeStamp: 2017-02-18 16:10:28.674
LEye coords (0.0, 0.0), REye coords (155.0, 204.0), timeStamp: 2017-02-18 16:10:28.709
LEye coords (0.0, 0.0), REye coords (155.0, 208.0), timeStamp: 2017-02-18 16:10:28.743
LEye coords (0.0, 0.0), REye coords (155.0, 210.0), timeStamp: 2017-02-18 16:10:28.777
LEye coords (0.0, 0.0), REye coords (155.0, 212.0), timeStamp: 2017-02-18 16:10:28.821
LEye coords (0.0, 0.0), REye coords (155.0, 215.0), timeStamp: 2017-02-18 16:10:28.856
LEye coords (0.0, 0.0), REye coords (155.0, 218.0), timeStamp: 2017-02-18 16:10:28.889
LEye coords (0.0, 0.0), REye coords (155.0, 221.0), timeStamp: 2017-02-18 16:10:28.933
LEye coords (0.0, 0.0), REye coords (155.0, 224.0), timeStamp: 2017-02-18 16:10:28.967
LEye coords (0.0, 0.0), REye coords (155.0, 227.0), timeStamp: 2017-02-18 16:10:29.001
LEye coords (0.0, 0.0), REye coords (155.0, 230.0), timeStamp: 2017-02-18 16:10:29.046
LEye coords (0.0, 0.0), REye coords (155.0, 232.0), timeStamp: 2017-02-18 16:10:29.079
LEye coords (0.0, 0.0), REye coords (155.0, 234.0), timeStamp: 2017-02-18 16:10:29.113
LEye coords (0.0, 0.0), REye coords (155.0, 237.0), timeStamp: 2017-02-18 16:10:29.147
LEye coords (0.0, 0.0), REye coords (155.0, 247.0), timeStamp: 2017-02-18 16:10:29.190
