LEye coords (250.0, 279.0), REye coords (250.0, 292.0), timeStamp: 2017-02-18 16:10:23.894
LEye coords (251.0, 279.0), REye coords (250.0, 292.0), timeStamp: 2017-02-18 16:10:23.938
LEye coords (251.0, 279.0), REye coords (250.0, 292.0), timeStamp: 2017-02-18 16:10:23.972
LEye coords (251.0, 279.0), REye coords (250.0, 292.0), timeStamp: 2017-02-18 16:10:24.005
LEye coords (251.0, 279.0), REye coords (250.0, 292.0), timeStamp: 2017-02-18 16:10:24.049
LEye coords (251.0, 279.0), REye coords (249.0, 292.0), timeStamp: 2017-02-18 16:10:24.083
LEye coords (251.0, 279.0), REye coords (249.0, 292.0), timeStamp: 2017-02-18 16:10:24.118
LEye coords (251.0, 279.0), REye coords (249.0, 292.0), timeStamp: 2017-02-18 16:10:24.152
LEye coords (251.0, 277.0), REye coords (248.0, 291.0), timeStamp: 2017-02-18 16:10:24.196
LEye coords (228.0, 204.0), REye coords (227.0, 215.0), timeStamp: 2017-02-18 16:10:24.230
LEye coords (226.0, 201.0), REye coords (227.0, 218.0), timeStamp: 2017-02-18 16:10:24.263
LEye coords (228.0, 203.0), REye coords (225.0, 220.0), timeStamp: 2017-02-18 16:10:24.307
LEye coords (228.0, 203.0), REye coords (226.0, 219.0), timeStamp: 2017-02-18 16:10:24.341
LEye coords (228.0, 203.0), REye coords (226.0, 220.0), timeStamp: 2017-02-18 16:10:24.374
LEye coords (162.0, 219.0), REye coords (159.0, 241.0), timeStamp: 2017-02-18 16:10:24.418
LEye coords (164.0, 222.0), REye coords (167.0, 243.0), timeStamp: 2017-02-18 16:10:24.452
LEye coords (162.0, 221.0), REye coords (164.0, 242.0), timeStamp: 2017-02-18 16:10:24.487
LEye coords (163.0, 222.0), REye coords (164.0, 240.0), timeStamp: 2017-02-18 16:10:24.531
LEye coords (164.0, 222.0), REye coords (165.0, 241.0), timeStamp: 2017-02-18 16:10:24.565
LEye coords (158.0, 222.0), REye coords (164.0, 244.0), timeStamp: 2017-02-18 16:10:24.598
LEye coords (163.0, 223.0), REye coords (165.0, 239.0), timeStamp: 2017-02-18 16:10:24.632
LEye coords (162.0, 223.0), REye coords (164.0, 241.0), timeStamp: 2017-02-18 16:10:24.676
LEye coords (172.0, 221.0), REye coords (172.0, 236.0), timeStamp: 2017-02-18 16:10:24.710
LEye coords (176.0, 221.0), REye coords (177.0, 234.0), timeStamp: 2017-02-18 16:10:24.744
LEye coords (179.0, 220.0), REye coords (180.0, 234.0), timeStamp: 2017-02-18 16:10:24.788
LEye coords (180.0, 220.0), REye coords (181.0, 233.0), timeStamp: 2017-02-18 16:10:24.822
LEye coords (182.0, 219.0), REye coords (183.0, 233.0), timeStamp: 2017-02-18 16:10:24.856
LEye coords (183.0, 219.0), REye coords (183.0, 232.0), timeStamp: 2017-02-18 16:10:24.900
LEye coords (183.0, 218.0), REye coords (184.0, 232.0), timeStamp: 2017-02-18 16:10:24.934
LEye coords (184.0, 217.0), REye coords (184.0, 231.0), timeStamp: 2017-02-18 16:10:24.968
LEye coords (184.0, 217.0), REye coords (183.0, 231.0), timeStamp: 2017-02-18 16:10:25.002
LEye coords (184.0, 216.0), REye coords (183.0, 231.0), timeStamp: 2017-02-18 16:10:25.045
LEye coords (184.0, 215.0), REye coords (183.0, 230.0), timeStamp: 2017-02-18 16:10:25.079
LEye coords (184.0, 214.0), REye coords (182.0, 230.0), timeStamp: 2017-02-18 16:10:25.123
LEye coords (183.0, 214.0), REye coords (181.0, 229.0), timeStamp: 2017-02-18 16:10:25.156
LEye coords (183.0, 213.0), REye coords (181.0, 227.0), timeStamp: 2017-02-18 16:10:25.190
LEye coords (182.0, 212.0), REye coords (181.0, 226.0), timeStamp: 2017-02-18 16:10:25.233
LEye coords (182.0, 212.0), REye coords (181.0, 225.0), timeStamp: 2017-02-18 16:10:25.267
LEye coords (182.0, 211.0), REye coords (181.0, 225.0), timeStamp: 2017-02-18 16:10:25.301
LEye coords (181.0, 211.0), REye coords (180.0, 224.0), timeStamp: 2017-02-18 16:10:25.345
LEye coords (181.0, 210.0), REye coords (180.0, 223.0), timeStamp: 2017-02-18 16:10:25.380
LEye coords (181.0, 210.0), REye coords (180.0, 222.0), timeStamp: 2017-02-18 16:10:25.413
LEye coords (181.0, 209.0), REye coords (180.0, 222.0), timeStamp: 2017-02-18 16:10:25.447
LEye coords (183.0, 208.0), REye coords (181.0, 221.0), timeStamp: 2017-02-18 16:10:25.492
LEye coords (184.0, 207.0), REye coords (182.0, 220.0), timeStamp: 2017-02-18 16:10:25.525
LEye coords (186.0, 205.0), REye coords (183.0, 219.0), timeStamp: 2017-02-18 16:10:25.558
LEye coords (188.0, 204.0), REye coords (184.0, 218.0), timeStamp: 2017-02-18 16:10:25.602
LEye coords (189.0, 203.0), REye coords (186.0, 218.0), timeStamp: 2017-02-18 16:10:25.635
LEye coords (190.0, 202.0), REye coords (186.0, 217.0), timeStamp: 2017-02-18 16:10:25.669
LEye coords (191.0, 201.0), REye coords (187.0, 216.0), timeStamp: 2017-02-18 16:10:25.714
LEye coords (192.0, 200.0), REye coords (187.0, 215.0), timeStamp: 2017-02-18 16:10:25.748
LEye coords (193.0, 199.0), REye coords (188.0, 214.0), timeStamp: 2017-02-18 16:10:25.782
LEye coords (194.0, 198.0), REye coords (189.0, 214.0), timeStamp: 2017-02-18 16:10:25.826
LEye coords (195.0, 198.0), REye coords (190.0, 213.0), timeStamp: 2017-02-18 16:10:25.860
LEye coords (196.0, 197.0), REye coords (190.0, 212.0), timeStamp: 2017-02-18 16:10:25.895
LEye coords (197.0, 197.0), REye coords (191.0, 212.0), timeStamp: 2017-02-18 16:10:25.929
LEye coords (198.0, 197.0), REye coords (192.0, 212.0), timeStamp: 2017-02-18 16:10:25.972
LEye coords (199.0, 196.0), REye coords (192.0, 211.0), timeStamp: 2017-02-18 16:10:26.006
LEye coords (200.0, 196.0), REye coords (192.0, 211.0), timeStamp: 2017-02-18 16:10:26.040
LEye coords (201.0, 195.0), REye coords (193.0, 210.0), timeStamp: 2017-02-18 16:10:26.084
LEye coords (201.0, 195.0), REye coords (193.0, 210.0), timeStamp: 2017-02-18 16:10:26.118
LEye coords (202.0, 195.0), REye coords (193.0, 210.0), timeStamp: 2017-02-18 16:10:26.151
LEye coords (203.0, 195.0), REye coords (194.0, 209.0), timeStamp: 2017-02-18 16:10:26.196
LEye coords (203.0, 195.0), REye coords (194.0, 208.0), timeStamp: 2017-02-18 16:10:26.230
LEye coords (204.0, 194.0), REye coords (194.0, 208.0), timeStamp: 2017-02-18 16:10:26.265
LEye coords (204.0, 194.0), REye coords (194.0, 207.0), timeStamp: 2017-02-18 16:10:26.299
LEye coords (204.0, 195.0), REye coords (193.0, 207.0), timeStamp: 2017-02-18 16:10:26.343
LEye coords (204.0, 195.0), REye coords (193.0, 207.0), timeStamp: 2017-02-18 16:10:26.376
LEye coords (203.0, 195.0), REye coords (193.0, 207.0), timeStamp: 2017-02-18 16:10:26.409
LEye coords (203.0, 195.0), REye coords (192.0, 207.0), timeStamp: 2017-02-18 16:10:26.454
LEye coords (203.0, 195.0), REye coords (192.0, 207.0), timeStamp: 2017-02-18 16:10:26.487
LEye coords (203.0, 195.0), REye coords (192.0, 207.0), timeStamp: 2017-02-18 16:10:26.522
LEye coords (203.0, 196.0), REye coords (192.0, 207.0), timeStamp: 2017-02-18 16:10:26.566
LEye coords (203.0, 195.0), REye coords (192.0, 207.0), timeStamp: 2017-02-18 16:10:26.600
LEye coords (203.0, 195.0), REye coords (192.0, 207.0), timeStamp: 2017-02-18 16:10:26.634
LEye coords (203.0, 195.0), REye coords (192.0, 207.0), timeStamp: 2017-02-18 16:10:26.668
LEye coords (203.0, 195.0), REye coords (192.0, 207.0), timeStamp: 2017-02-18 16:10:26.713
