LEye coords (0.0, 0.0), REye coords (208.0, 169.0), timeStamp: 2017-02-18 16:10:29.302
LEye coords (0.0, 0.0), REye coords (208.0, 168.0), timeStamp: 2017-02-18 16:10:29.335
LEye coords (0.0, 0.0), REye coords (208.0, 168.0), timeStamp: 2017-02-18 16:10:29.370
LEye coords (0.0, 0.0), REye coords (209.0, 168.0), timeStamp: 2017-02-18 16:10:29.414
LEye coords (0.0, 0.0), REye coords (209.0, 168.0), timeStamp: 2017-02-18 16:10:29.448
LEye coords (0.0, 0.0), REye coords (209.0, 168.0), timeStamp: 2017-02-18 16:10:29.482
LEye coords (0.0, 0.0), REye coords (209.0, 168.0), timeStamp: 2017-02-18 16:10:29.525
LEye coords (0.0, 0.0), REye coords (209.0, 169.0), timeStamp: 2017-02-18 16:10:29.559
LEye coords (0.0, 0.0), REye coords (209.0, 169.0), timeStamp: 2017-02-18 16:10:29.593
LEye coords (0.0, 0.0), REye coords (209.0, 169.0), timeStamp: 2017-02-18 16:10:29.638
LEye coords (0.0, 0.0), REye coords (209.0, 168.0), timeStamp: 2017-02-18 16:10:29.672
LEye coords (206.0, 155.0), REye coords (209.0, 168.0), timeStamp: 2017-02-18 16:10:29.706
LEye coords (207.0, 155.0), REye coords (209.0, 168.0), timeStamp: 2017-02-18 16:10:29.740
LEye coords (208.0, 155.0), REye coords (209.0, 169.0), timeStamp: 2017-02-18 16:10:29.786
LEye coords (209.0, 155.0), REye coords (209.0, 169.0), timeStamp: 2017-02-18 16:10:29.820
LEye coords (210.0, 155.0), REye coords (209.0, 169.0), timeStamp: 2017-02-18 16:10:29.855
LEye coords (209.0, 157.0), REye coords (208.0, 171.0), timeStamp: 2017-02-18 16:10:29.889
LEye coords (209.0, 159.0), REye coords (208.0, 174.0), timeStamp: 2017-02-18 16:10:29.935
LEye coords (209.0, 161.0), REye coords (207.0, 176.0), timeStamp: 2017-02-18 16:10:29.968
LEye coords (208.0, 164.0), REye coords (206.0, 178.0), timeStamp: 2017-02-18 16:10:30.002
LEye coords (208.0, 166.0), REye coords (205.0, 181.0), timeStamp: 2017-02-18 16:10:30.036
LEye coords (207.0, 169.0), REye coords (204.0, 184.0), timeStamp: 2017-02-18 16:10:30.080
LEye coords (206.0, 172.0), REye coords (203.0, 186.0), timeStamp: 2017-02-18 16:10:30.112
LEye coords (206.0, 175.0), REye coords (202.0, 189.0), timeStamp: 2017-02-18 16:10:30.147
LEye coords (205.0, 178.0), REye coords (202.0, 192.0), timeStamp: 2017-02-18 16:10:30.191
LEye coords (205.0, 180.0), REye coords (201.0, 194.0), timeStamp: 2017-02-18 16:10:30.225
LEye coords (204.0, 184.0), REye coords (200.0, 197.0), timeStamp: 2017-02-18 16:10:30.267
LEye coords (204.0, 187.0), REye coords (199.0, 200.0), timeStamp: 2017-02-18 16:10:30.300
LEye coords (203.0, 190.0), REye coords (198.0, 202.0), timeStamp: 2017-02-18 16:10:30.335
LEye coords (197.0, 214.0), REye coords (198.0, 205.0), timeStamp: 2017-02-18 16:10:30.378
LEye coords (197.0, 217.0), REye coords (197.0, 208.0), timeStamp: 2017-02-18 16:10:30.412
LEye coords (197.0, 215.0), REye coords (197.0, 210.0), timeStamp: 2017-02-18 16:10:30.448
LEye coords (197.0, 215.0), REye coords (196.0, 213.0), timeStamp: 2017-02-18 16:10:30.482
LEye coords (197.0, 215.0), REye coords (196.0, 214.0), timeStamp: 2017-02-18 16:10:30.526
LEye coords (198.0, 215.0), REye coords (195.0, 216.0), timeStamp: 2017-02-18 16:10:30.560
LEye coords (197.0, 213.0), REye coords (194.0, 218.0), timeStamp: 2017-02-18 16:10:30.593
LEye coords (197.0, 211.0), REye coords (194.0, 220.0), timeStamp: 2017-02-18 16:10:30.637
LEye coords (197.0, 210.0), REye coords (190.0, 227.0), timeStamp: 2017-02-18 16:10:30.671
LEye coords (197.0, 210.0), REye coords (188.0, 223.0), timeStamp: 2017-02-18 16:10:30.705
LEye coords (197.0, 209.0), REye coords (186.0, 221.0), timeStamp: 2017-02-18 16:10:30.740
LEye coords (197.0, 208.0), REye coords (187.0, 220.0), timeStamp: 2017-02-18 16:10:30.784
LEye coords (196.0, 208.0), REye coords (187.0, 220.0), timeStamp: 2017-02-18 16:10:30.817
LEye coords (196.0, 207.0), REye coords (188.0, 220.0), timeStamp: 2017-02-18 16:10:30.851
LEye coords (196.0, 207.0), REye coords (188.0, 219.0), timeStamp: 2017-02-18 16:10:30.896
LEye coords (196.0, 206.0), REye coords (189.0, 219.0), timeStamp: 2017-02-18 16:10:30.929
LEye coords (196.0, 206.0), REye coords (190.0, 218.0), timeStamp: 2017-02-18 16:10:30.964
LEye coords (196.0, 206.0), REye coords (190.0, 218.0), timeStamp: 2017-02-18 16:10:31.007
LEye coords (196.0, 206.0), REye coords (191.0, 217.0), timeStamp: 2017-02-18 16:10:31.041
LEye coords (195.0, 206.0), REye coords (191.0, 217.0), timeStamp: 2017-02-18 16:10:31.075
LEye coords (195.0, 205.0), REye coords (191.0, 216.0), timeStamp: 2017-02-18 16:10:31.119
LEye coords (195.0, 205.0), REye coords (191.0, 215.0), timeStamp: 2017-02-18 16:10:31.152
LEye coords (195.0, 205.0), REye coords (191.0, 215.0), timeStamp: 2017-02-18 16:10:31.187
LEye coords (195.0, 204.0), REye coords (191.0, 215.0), timeStamp: 2017-02-18 16:10:31.221
LEye coords (195.0, 204.0), REye coords (191.0, 214.0), timeStamp: 2017-02-18 16:10:31.265
LEye coords (194.0, 203.0), REye coords (191.0, 214.0), timeStamp: 2017-02-18 16:10:31.299
LEye coords (194.0, 203.0), REye coords (191.0, 213.0), timeStamp: 2017-02-18 16:10:31.333
LEye coords (194.0, 203.0), REye coords (191.0, 212.0), timeStamp: 2017-02-18 16:10:31.377
LEye coords (194.0, 203.0), REye coords (191.0, 212.0), timeStamp: 2017-02-18 16:10:31.410
LEye coords (194.0, 203.0), REye coords (191.0, 212.0), timeStamp: 2017-02-18 16:10:31.444
LEye coords (194.0, 202.0), REye coords (191.0, 212.0), timeStamp: 2017-02-18 16:10:31.488
LEye coords (194.0, 202.0), REye coords (191.0, 212.0), timeStamp: 2017-02-18 16:10:31.521
LEye coords (193.0, 202.0), REye coords (192.0, 211.0), timeStamp: 2017-02-18 16:10:31.555
LEye coords (193.0, 202.0), REye coords (191.0, 211.0), timeStamp: 2017-02-18 16:10:31.600
LEye coords (193.0, 202.0), REye coords (191.0, 211.0), timeStamp: 2017-02-18 16:10:31.634
LEye coords (193.0, 201.0), REye coords (191.0, 210.0), timeStamp: 2017-02-18 16:10:31.668
LEye coords (193.0, 201.0), REye coords (191.0, 210.0), timeStamp: 2017-02-18 16:10:31.702
LEye coords (193.0, 201.0), REye coords (191.0, 209.0), timeStamp: 2017-02-18 16:10:31.745
LEye coords (193.0, 201.0), REye coords (191.0, 209.0), timeStamp: 2017-02-18 16:10:31.780
LEye coords (193.0, 201.0), REye coords (192.0, 209.0), timeStamp: 2017-02-18 16:10:31.813
LEye coords (193.0, 200.0), REye coords (192.0, 209.0), timeStamp: 2017-02-18 16:10:31.858
LEye coords (193.0, 200.0), REye coords (192.0, 208.0), timeStamp: 2017-02-18 16:10:31.891
LEye coords (193.0, 200.0), REye coords (192.0, 209.0), timeStamp: 2017-02-18 16:10:31.925
LEye coords (193.0, 200.0), REye coords (192.0, 208.0), timeStamp: 2017-02-18 16:10:31.969
LEye coords (193.0, 200.0), REye coords (192.0, 208.0), timeStamp: 2017-02-18 16:10:32.003
