LEye coords (407.0, 155.0), REye coords (428.0, 149.0), timeStamp: 2017-02-18 16:12:22.522
LEye coords (406.0, 158.0), REye coords (428.0, 152.0), timeStamp: 2017-02-18 16:12:22.557
LEye coords (406.0, 159.0), REye coords (427.0, 153.0), timeStamp: 2017-02-18 16:12:22.590
LEye coords (406.0, 160.0), REye coords (426.0, 153.0), timeStamp: 2017-02-18 16:12:22.625
LEye coords (405.0, 161.0), REye coords (426.0, 154.0), timeStamp: 2017-02-18 16:12:22.671
LEye coords (405.0, 161.0), REye coords (426.0, 154.0), timeStamp: 2017-02-18 16:12:22.705
LEye coords (405.0, 162.0), REye coords (425.0, 155.0), timeStamp: 2017-02-18 16:12:22.738
LEye coords (403.0, 163.0), REye coords (423.0, 156.0), timeStamp: 2017-02-18 16:12:22.771
LEye coords (235.0, 197.0), REye coords (267.0, 201.0), timeStamp: 2017-02-18 16:12:22.817
LEye coords (240.0, 196.0), REye coords (264.0, 199.0), timeStamp: 2017-02-18 16:12:22.851
LEye coords (238.0, 197.0), REye coords (265.0, 199.0), timeStamp: 2017-02-18 16:12:22.884
LEye coords (238.0, 197.0), REye coords (267.0, 198.0), timeStamp: 2017-02-18 16:12:22.929
LEye coords (237.0, 197.0), REye coords (267.0, 198.0), timeStamp: 2017-02-18 16:12:22.964
LEye coords (238.0, 192.0), REye coords (265.0, 199.0), timeStamp: 2017-02-18 16:12:22.997
LEye coords (235.0, 191.0), REye coords (269.0, 193.0), timeStamp: 2017-02-18 16:12:23.031
LEye coords (249.0, 193.0), REye coords (281.0, 196.0), timeStamp: 2017-02-18 16:12:23.076
LEye coords (254.0, 193.0), REye coords (284.0, 197.0), timeStamp: 2017-02-18 16:12:23.109
LEye coords (256.0, 194.0), REye coords (287.0, 198.0), timeStamp: 2017-02-18 16:12:23.143
LEye coords (258.0, 194.0), REye coords (289.0, 197.0), timeStamp: 2017-02-18 16:12:23.187
LEye coords (258.0, 193.0), REye coords (289.0, 197.0), timeStamp: 2017-02-18 16:12:23.221
LEye coords (260.0, 193.0), REye coords (290.0, 196.0), timeStamp: 2017-02-18 16:12:23.254
LEye coords (264.0, 192.0), REye coords (294.0, 195.0), timeStamp: 2017-02-18 16:12:23.298
LEye coords (267.0, 191.0), REye coords (297.0, 194.0), timeStamp: 2017-02-18 16:12:23.332
LEye coords (270.0, 191.0), REye coords (300.0, 194.0), timeStamp: 2017-02-18 16:12:23.366
LEye coords (273.0, 191.0), REye coords (302.0, 194.0), timeStamp: 2017-02-18 16:12:23.409
LEye coords (275.0, 191.0), REye coords (304.0, 195.0), timeStamp: 2017-02-18 16:12:23.442
LEye coords (277.0, 191.0), REye coords (305.0, 195.0), timeStamp: 2017-02-18 16:12:23.477
LEye coords (278.0, 190.0), REye coords (307.0, 195.0), timeStamp: 2017-02-18 16:12:23.520
LEye coords (289.0, 189.0), REye coords (308.0, 195.0), timeStamp: 2017-02-18 16:12:23.554
LEye coords (292.0, 187.0), REye coords (309.0, 195.0), timeStamp: 2017-02-18 16:12:23.588
LEye coords (292.0, 188.0), REye coords (310.0, 196.0), timeStamp: 2017-02-18 16:12:23.624
LEye coords (293.0, 189.0), REye coords (310.0, 196.0), timeStamp: 2017-02-18 16:12:23.667
LEye coords (292.0, 189.0), REye coords (310.0, 196.0), timeStamp: 2017-02-18 16:12:23.701
LEye coords (292.0, 190.0), REye coords (311.0, 197.0), timeStamp: 2017-02-18 16:12:23.735
LEye coords (292.0, 190.0), REye coords (311.0, 197.0), timeStamp: 2017-02-18 16:12:23.780
LEye coords (292.0, 190.0), REye coords (311.0, 197.0), timeStamp: 2017-02-18 16:12:23.814
LEye coords (292.0, 189.0), REye coords (311.0, 199.0), timeStamp: 2017-02-18 16:12:23.849
LEye coords (292.0, 189.0), REye coords (308.0, 204.0), timeStamp: 2017-02-18 16:12:23.883
LEye coords (292.0, 189.0), REye coords (311.0, 201.0), timeStamp: 2017-02-18 16:12:23.928
LEye coords (292.0, 189.0), REye coords (312.0, 201.0), timeStamp: 2017-02-18 16:12:23.963
LEye coords (292.0, 189.0), REye coords (312.0, 200.0), timeStamp: 2017-02-18 16:12:23.997
LEye coords (292.0, 190.0), REye coords (311.0, 200.0), timeStamp: 2017-02-18 16:12:24.032
LEye coords (292.0, 190.0), REye coords (311.0, 200.0), timeStamp: 2017-02-18 16:12:24.075
LEye coords (292.0, 190.0), REye coords (312.0, 200.0), timeStamp: 2017-02-18 16:12:24.108
LEye coords (292.0, 190.0), REye coords (312.0, 201.0), timeStamp: 2017-02-18 16:12:24.141
LEye coords (292.0, 191.0), REye coords (312.0, 201.0), timeStamp: 2017-02-18 16:12:24.185
LEye coords (292.0, 191.0), REye coords (313.0, 200.0), timeStamp: 2017-02-18 16:12:24.220
LEye coords (291.0, 191.0), REye coords (313.0, 200.0), timeStamp: 2017-02-18 16:12:24.255
LEye coords (291.0, 191.0), REye coords (313.0, 200.0), timeStamp: 2017-02-18 16:12:24.288
LEye coords (291.0, 192.0), REye coords (313.0, 199.0), timeStamp: 2017-02-18 16:12:24.334
LEye coords (291.0, 192.0), REye coords (314.0, 199.0), timeStamp: 2017-02-18 16:12:24.368
LEye coords (291.0, 192.0), REye coords (314.0, 199.0), timeStamp: 2017-02-18 16:12:24.402
LEye coords (291.0, 193.0), REye coords (314.0, 199.0), timeStamp: 2017-02-18 16:12:24.436
LEye coords (291.0, 193.0), REye coords (315.0, 199.0), timeStamp: 2017-02-18 16:12:24.481
LEye coords (291.0, 193.0), REye coords (315.0, 198.0), timeStamp: 2017-02-18 16:12:24.517
LEye coords (290.0, 194.0), REye coords (315.0, 198.0), timeStamp: 2017-02-18 16:12:24.551
LEye coords (290.0, 194.0), REye coords (315.0, 198.0), timeStamp: 2017-02-18 16:12:24.584
LEye coords (290.0, 194.0), REye coords (315.0, 198.0), timeStamp: 2017-02-18 16:12:24.629
LEye coords (290.0, 194.0), REye coords (315.0, 198.0), timeStamp: 2017-02-18 16:12:24.664
LEye coords (290.0, 195.0), REye coords (315.0, 198.0), timeStamp: 2017-02-18 16:12:24.698
LEye coords (290.0, 195.0), REye coords (315.0, 199.0), timeStamp: 2017-02-18 16:12:24.741
LEye coords (290.0, 195.0), REye coords (315.0, 199.0), timeStamp: 2017-02-18 16:12:24.775
LEye coords (289.0, 195.0), REye coords (315.0, 199.0), timeStamp: 2017-02-18 16:12:24.808
LEye coords (289.0, 195.0), REye coords (316.0, 199.0), timeStamp: 2017-02-18 16:12:24.853
LEye coords (289.0, 196.0), REye coords (316.0, 200.0), timeStamp: 2017-02-18 16:12:24.888
LEye coords (290.0, 196.0), REye coords (316.0, 200.0), timeStamp: 2017-02-18 16:12:24.922
LEye coords (290.0, 196.0), REye coords (316.0, 200.0), timeStamp: 2017-02-18 16:12:24.955
LEye coords (290.0, 196.0), REye coords (317.0, 200.0), timeStamp: 2017-02-18 16:12:24.999
LEye coords (290.0, 196.0), REye coords (317.0, 200.0), timeStamp: 2017-02-18 16:12:25.033
LEye coords (291.0, 196.0), REye coords (317.0, 201.0), timeStamp: 2017-02-18 16:12:25.067
LEye coords (291.0, 196.0), REye coords (318.0, 201.0), timeStamp: 2017-02-18 16:12:25.112
LEye coords (291.0, 196.0), REye coords (318.0, 201.0), timeStamp: 2017-02-18 16:12:25.147
LEye coords (291.0, 196.0), REye coords (318.0, 201.0), timeStamp: 2017-02-18 16:12:25.182
LEye coords (292.0, 196.0), REye coords (319.0, 202.0), timeStamp: 2017-02-18 16:12:25.217
LEye coords (292.0, 197.0), REye coords (319.0, 202.0), timeStamp: 2017-02-18 16:12:25.250
LEye coords (292.0, 197.0), REye coords (319.0, 202.0), timeStamp: 2017-02-18 16:12:25.295
LEye coords (292.0, 197.0), REye coords (319.0, 203.0), timeStamp: 2017-02-18 16:12:25.329
LEye coords (293.0, 198.0), REye coords (319.0, 203.0), timeStamp: 2017-02-18 16:12:25.363
LEye coords (293.0, 198.0), REye coords (319.0, 204.0), timeStamp: 2017-02-18 16:12:25.406
LEye coords (293.0, 198.0), REye coords (319.0, 204.0), timeStamp: 2017-02-18 16:12:25.439
LEye coords (293.0, 198.0), REye coords (318.0, 204.0), timeStamp: 2017-02-18 16:12:25.475
LEye coords (293.0, 198.0), REye coords (318.0, 204.0), timeStamp: 2017-02-18 16:12:25.520
LEye coords (293.0, 198.0), REye coords (318.0, 205.0), timeStamp: 2017-02-18 16:12:25.555
LEye coords (293.0, 198.0), REye coords (318.0, 205.0), timeStamp: 2017-02-18 16:12:25.589
LEye coords (294.0, 198.0), REye coords (318.0, 205.0), timeStamp: 2017-02-18 16:12:25.623
LEye coords (294.0, 199.0), REye coords (317.0, 205.0), timeStamp: 2017-02-18 16:12:25.667
LEye coords (294.0, 199.0), REye coords (317.0, 205.0), timeStamp: 2017-02-18 16:12:25.701
