LEye coords (407.0, 144.0), REye coords (412.0, 150.0), timeStamp: 2017-02-18 16:14:57.297
LEye coords (407.0, 145.0), REye coords (412.0, 150.0), timeStamp: 2017-02-18 16:14:57.330
LEye coords (405.0, 145.0), REye coords (411.0, 151.0), timeStamp: 2017-02-18 16:14:57.374
LEye coords (405.0, 145.0), REye coords (411.0, 151.0), timeStamp: 2017-02-18 16:14:57.407
LEye coords (402.0, 145.0), REye coords (409.0, 154.0), timeStamp: 2017-02-18 16:14:57.442
LEye coords (400.0, 144.0), REye coords (410.0, 154.0), timeStamp: 2017-02-18 16:14:57.485
LEye coords (334.0, 146.0), REye coords (344.0, 152.0), timeStamp: 2017-02-18 16:14:57.519
LEye coords (309.0, 146.0), REye coords (310.0, 153.0), timeStamp: 2017-02-18 16:14:57.552
LEye coords (296.0, 145.0), REye coords (299.0, 152.0), timeStamp: 2017-02-18 16:14:57.596
LEye coords (263.0, 142.0), REye coords (264.0, 150.0), timeStamp: 2017-02-18 16:14:57.630
LEye coords (263.0, 148.0), REye coords (267.0, 149.0), timeStamp: 2017-02-18 16:14:57.665
LEye coords (263.0, 148.0), REye coords (266.0, 150.0), timeStamp: 2017-02-18 16:14:57.699
LEye coords (248.0, 153.0), REye coords (251.0, 154.0), timeStamp: 2017-02-18 16:14:57.743
LEye coords (230.0, 158.0), REye coords (233.0, 159.0), timeStamp: 2017-02-18 16:14:57.777
LEye coords (176.0, 178.0), REye coords (184.0, 170.0), timeStamp: 2017-02-18 16:14:57.811
LEye coords (176.0, 175.0), REye coords (183.0, 170.0), timeStamp: 2017-02-18 16:14:57.855
LEye coords (188.0, 172.0), REye coords (184.0, 170.0), timeStamp: 2017-02-18 16:14:57.889
LEye coords (184.0, 172.0), REye coords (182.0, 170.0), timeStamp: 2017-02-18 16:14:57.923
LEye coords (172.0, 171.0), REye coords (172.0, 168.0), timeStamp: 2017-02-18 16:14:57.957
LEye coords (165.0, 171.0), REye coords (166.0, 168.0), timeStamp: 2017-02-18 16:14:58.000
LEye coords (161.0, 170.0), REye coords (163.0, 168.0), timeStamp: 2017-02-18 16:14:58.034
LEye coords (135.0, 171.0), REye coords (160.0, 167.0), timeStamp: 2017-02-18 16:14:58.069
LEye coords (135.0, 173.0), REye coords (158.0, 167.0), timeStamp: 2017-02-18 16:14:58.112
LEye coords (144.0, 174.0), REye coords (158.0, 168.0), timeStamp: 2017-02-18 16:14:58.146
LEye coords (146.0, 176.0), REye coords (157.0, 170.0), timeStamp: 2017-02-18 16:14:58.179
LEye coords (148.0, 177.0), REye coords (157.0, 170.0), timeStamp: 2017-02-18 16:14:58.224
LEye coords (149.0, 178.0), REye coords (157.0, 171.0), timeStamp: 2017-02-18 16:14:58.257
LEye coords (150.0, 178.0), REye coords (158.0, 172.0), timeStamp: 2017-02-18 16:14:58.300
LEye coords (150.0, 178.0), REye coords (157.0, 172.0), timeStamp: 2017-02-18 16:14:58.334
LEye coords (150.0, 179.0), REye coords (157.0, 173.0), timeStamp: 2017-02-18 16:14:58.379
LEye coords (151.0, 179.0), REye coords (158.0, 173.0), timeStamp: 2017-02-18 16:14:58.402
LEye coords (151.0, 180.0), REye coords (158.0, 174.0), timeStamp: 2017-02-18 16:14:58.446
LEye coords (151.0, 181.0), REye coords (158.0, 175.0), timeStamp: 2017-02-18 16:14:58.479
LEye coords (151.0, 181.0), REye coords (158.0, 176.0), timeStamp: 2017-02-18 16:14:58.523
LEye coords (151.0, 182.0), REye coords (158.0, 177.0), timeStamp: 2017-02-18 16:14:58.558
LEye coords (151.0, 182.0), REye coords (157.0, 177.0), timeStamp: 2017-02-18 16:14:58.593
LEye coords (151.0, 183.0), REye coords (157.0, 178.0), timeStamp: 2017-02-18 16:14:58.626
LEye coords (151.0, 184.0), REye coords (157.0, 179.0), timeStamp: 2017-02-18 16:14:58.670
LEye coords (151.0, 184.0), REye coords (157.0, 180.0), timeStamp: 2017-02-18 16:14:58.704
LEye coords (151.0, 184.0), REye coords (157.0, 181.0), timeStamp: 2017-02-18 16:14:58.738
LEye coords (151.0, 185.0), REye coords (158.0, 183.0), timeStamp: 2017-02-18 16:14:58.772
LEye coords (151.0, 185.0), REye coords (157.0, 184.0), timeStamp: 2017-02-18 16:14:58.817
LEye coords (151.0, 186.0), REye coords (157.0, 185.0), timeStamp: 2017-02-18 16:14:58.850
LEye coords (151.0, 186.0), REye coords (158.0, 186.0), timeStamp: 2017-02-18 16:14:58.884
LEye coords (151.0, 187.0), REye coords (158.0, 187.0), timeStamp: 2017-02-18 16:14:58.929
LEye coords (151.0, 187.0), REye coords (157.0, 187.0), timeStamp: 2017-02-18 16:14:58.964
LEye coords (151.0, 188.0), REye coords (157.0, 188.0), timeStamp: 2017-02-18 16:14:58.997
LEye coords (151.0, 189.0), REye coords (157.0, 189.0), timeStamp: 2017-02-18 16:14:59.030
LEye coords (151.0, 189.0), REye coords (157.0, 189.0), timeStamp: 2017-02-18 16:14:59.076
LEye coords (151.0, 190.0), REye coords (156.0, 190.0), timeStamp: 2017-02-18 16:14:59.110
LEye coords (151.0, 191.0), REye coords (157.0, 190.0), timeStamp: 2017-02-18 16:14:59.142
LEye coords (151.0, 191.0), REye coords (157.0, 191.0), timeStamp: 2017-02-18 16:14:59.187
LEye coords (152.0, 192.0), REye coords (156.0, 192.0), timeStamp: 2017-02-18 16:14:59.221
LEye coords (152.0, 193.0), REye coords (156.0, 192.0), timeStamp: 2017-02-18 16:14:59.254
LEye coords (152.0, 193.0), REye coords (156.0, 192.0), timeStamp: 2017-02-18 16:14:59.299
LEye coords (152.0, 194.0), REye coords (156.0, 192.0), timeStamp: 2017-02-18 16:14:59.332
LEye coords (153.0, 194.0), REye coords (157.0, 193.0), timeStamp: 2017-02-18 16:14:59.367
LEye coords (153.0, 195.0), REye coords (157.0, 193.0), timeStamp: 2017-02-18 16:14:59.401
LEye coords (153.0, 195.0), REye coords (157.0, 194.0), timeStamp: 2017-02-18 16:14:59.445
LEye coords (154.0, 195.0), REye coords (157.0, 194.0), timeStamp: 2017-02-18 16:14:59.480
LEye coords (154.0, 196.0), REye coords (158.0, 194.0), timeStamp: 2017-02-18 16:14:59.513
LEye coords (154.0, 196.0), REye coords (158.0, 194.0), timeStamp: 2017-02-18 16:14:59.557
