LEye coords (204.0, 215.0), REye coords (205.0, 215.0), timeStamp: 2017-02-18 16:15:08.921
LEye coords (204.0, 215.0), REye coords (205.0, 215.0), timeStamp: 2017-02-18 16:15:08.954
LEye coords (204.0, 215.0), REye coords (205.0, 215.0), timeStamp: 2017-02-18 16:15:08.988
LEye coords (204.0, 215.0), REye coords (205.0, 215.0), timeStamp: 2017-02-18 16:15:09.032
LEye coords (204.0, 216.0), REye coords (206.0, 215.0), timeStamp: 2017-02-18 16:15:09.066
LEye coords (204.0, 216.0), REye coords (206.0, 216.0), timeStamp: 2017-02-18 16:15:09.099
LEye coords (204.0, 217.0), REye coords (206.0, 216.0), timeStamp: 2017-02-18 16:15:09.144
LEye coords (204.0, 217.0), REye coords (206.0, 216.0), timeStamp: 2017-02-18 16:15:09.178
LEye coords (204.0, 217.0), REye coords (206.0, 217.0), timeStamp: 2017-02-18 16:15:09.211
LEye coords (204.0, 218.0), REye coords (206.0, 217.0), timeStamp: 2017-02-18 16:15:09.255
LEye coords (204.0, 218.0), REye coords (207.0, 217.0), timeStamp: 2017-02-18 16:15:09.288
LEye coords (204.0, 218.0), REye coords (207.0, 217.0), timeStamp: 2017-02-18 16:15:09.323
LEye coords (252.0, 208.0), REye coords (260.0, 204.0), timeStamp: 2017-02-18 16:15:09.367
LEye coords (262.0, 206.0), REye coords (267.0, 201.0), timeStamp: 2017-02-18 16:15:09.401
LEye coords (262.0, 207.0), REye coords (268.0, 203.0), timeStamp: 2017-02-18 16:15:09.435
LEye coords (262.0, 206.0), REye coords (269.0, 202.0), timeStamp: 2017-02-18 16:15:09.469
LEye coords (256.0, 204.0), REye coords (263.0, 202.0), timeStamp: 2017-02-18 16:15:09.513
LEye coords (236.0, 202.0), REye coords (245.0, 197.0), timeStamp: 2017-02-18 16:15:09.547
LEye coords (234.0, 199.0), REye coords (242.0, 198.0), timeStamp: 2017-02-18 16:15:09.582
LEye coords (234.0, 199.0), REye coords (242.0, 199.0), timeStamp: 2017-02-18 16:15:09.616
LEye coords (234.0, 198.0), REye coords (241.0, 200.0), timeStamp: 2017-02-18 16:15:09.660
LEye coords (234.0, 199.0), REye coords (242.0, 199.0), timeStamp: 2017-02-18 16:15:09.694
LEye coords (234.0, 199.0), REye coords (241.0, 198.0), timeStamp: 2017-02-18 16:15:09.728
LEye coords (235.0, 198.0), REye coords (241.0, 198.0), timeStamp: 2017-02-18 16:15:09.772
LEye coords (235.0, 198.0), REye coords (242.0, 198.0), timeStamp: 2017-02-18 16:15:09.805
LEye coords (234.0, 198.0), REye coords (242.0, 197.0), timeStamp: 2017-02-18 16:15:09.838
LEye coords (235.0, 198.0), REye coords (243.0, 197.0), timeStamp: 2017-02-18 16:15:09.883
LEye coords (235.0, 198.0), REye coords (243.0, 197.0), timeStamp: 2017-02-18 16:15:09.917
LEye coords (235.0, 198.0), REye coords (243.0, 197.0), timeStamp: 2017-02-18 16:15:09.951
LEye coords (235.0, 198.0), REye coords (244.0, 197.0), timeStamp: 2017-02-18 16:15:09.995
LEye coords (235.0, 198.0), REye coords (244.0, 196.0), timeStamp: 2017-02-18 16:15:10.028
LEye coords (236.0, 197.0), REye coords (244.0, 196.0), timeStamp: 2017-02-18 16:15:10.062
LEye coords (236.0, 197.0), REye coords (244.0, 195.0), timeStamp: 2017-02-18 16:15:10.107
LEye coords (236.0, 197.0), REye coords (245.0, 195.0), timeStamp: 2017-02-18 16:15:10.141
LEye coords (236.0, 197.0), REye coords (244.0, 195.0), timeStamp: 2017-02-18 16:15:10.176
LEye coords (236.0, 197.0), REye coords (244.0, 195.0), timeStamp: 2017-02-18 16:15:10.210
LEye coords (236.0, 197.0), REye coords (244.0, 196.0), timeStamp: 2017-02-18 16:15:10.255
LEye coords (236.0, 197.0), REye coords (244.0, 196.0), timeStamp: 2017-02-18 16:15:10.290
LEye coords (236.0, 197.0), REye coords (244.0, 196.0), timeStamp: 2017-02-18 16:15:10.323
LEye coords (236.0, 197.0), REye coords (244.0, 197.0), timeStamp: 2017-02-18 16:15:10.356
LEye coords (236.0, 197.0), REye coords (244.0, 197.0), timeStamp: 2017-02-18 16:15:10.400
LEye coords (236.0, 197.0), REye coords (244.0, 198.0), timeStamp: 2017-02-18 16:15:10.433
LEye coords (236.0, 198.0), REye coords (243.0, 198.0), timeStamp: 2017-02-18 16:15:10.467
LEye coords (236.0, 198.0), REye coords (243.0, 198.0), timeStamp: 2017-02-18 16:15:10.512
LEye coords (236.0, 198.0), REye coords (243.0, 198.0), timeStamp: 2017-02-18 16:15:10.545
LEye coords (236.0, 198.0), REye coords (242.0, 199.0), timeStamp: 2017-02-18 16:15:10.579
LEye coords (236.0, 198.0), REye coords (242.0, 199.0), timeStamp: 2017-02-18 16:15:10.624
LEye coords (236.0, 198.0), REye coords (242.0, 199.0), timeStamp: 2017-02-18 16:15:10.657
LEye coords (236.0, 198.0), REye coords (241.0, 200.0), timeStamp: 2017-02-18 16:15:10.692
LEye coords (236.0, 198.0), REye coords (241.0, 200.0), timeStamp: 2017-02-18 16:15:10.736
LEye coords (236.0, 199.0), REye coords (241.0, 200.0), timeStamp: 2017-02-18 16:15:10.770
LEye coords (235.0, 199.0), REye coords (240.0, 200.0), timeStamp: 2017-02-18 16:15:10.803
LEye coords (235.0, 199.0), REye coords (240.0, 201.0), timeStamp: 2017-02-18 16:15:10.847
LEye coords (235.0, 199.0), REye coords (239.0, 201.0), timeStamp: 2017-02-18 16:15:10.881
LEye coords (235.0, 200.0), REye coords (238.0, 202.0), timeStamp: 2017-02-18 16:15:10.915
LEye coords (234.0, 200.0), REye coords (237.0, 202.0), timeStamp: 2017-02-18 16:15:10.948
LEye coords (233.0, 200.0), REye coords (237.0, 202.0), timeStamp: 2017-02-18 16:15:10.994
LEye coords (233.0, 200.0), REye coords (236.0, 203.0), timeStamp: 2017-02-18 16:15:11.028
LEye coords (232.0, 200.0), REye coords (235.0, 203.0), timeStamp: 2017-02-18 16:15:11.063
LEye coords (232.0, 201.0), REye coords (235.0, 203.0), timeStamp: 2017-02-18 16:15:11.098
LEye coords (231.0, 201.0), REye coords (234.0, 202.0), timeStamp: 2017-02-18 16:15:11.141
LEye coords (231.0, 201.0), REye coords (234.0, 202.0), timeStamp: 2017-02-18 16:15:11.174
LEye coords (230.0, 200.0), REye coords (234.0, 203.0), timeStamp: 2017-02-18 16:15:11.207
LEye coords (230.0, 200.0), REye coords (233.0, 203.0), timeStamp: 2017-02-18 16:15:11.251
LEye coords (229.0, 200.0), REye coords (233.0, 203.0), timeStamp: 2017-02-18 16:15:11.285
LEye coords (229.0, 200.0), REye coords (233.0, 203.0), timeStamp: 2017-02-18 16:15:11.320
LEye coords (228.0, 200.0), REye coords (232.0, 203.0), timeStamp: 2017-02-18 16:15:11.355
LEye coords (227.0, 200.0), REye coords (232.0, 203.0), timeStamp: 2017-02-18 16:15:11.399
LEye coords (227.0, 200.0), REye coords (233.0, 203.0), timeStamp: 2017-02-18 16:15:11.433
LEye coords (227.0, 200.0), REye coords (233.0, 203.0), timeStamp: 2017-02-18 16:15:11.466
LEye coords (228.0, 200.0), REye coords (233.0, 203.0), timeStamp: 2017-02-18 16:15:11.512
LEye coords (228.0, 200.0), REye coords (234.0, 203.0), timeStamp: 2017-02-18 16:15:11.546
LEye coords (228.0, 200.0), REye coords (234.0, 203.0), timeStamp: 2017-02-18 16:15:11.580
LEye coords (228.0, 201.0), REye coords (234.0, 203.0), timeStamp: 2017-02-18 16:15:11.623
LEye coords (228.0, 201.0), REye coords (235.0, 203.0), timeStamp: 2017-02-18 16:15:11.658
