LEye coords (223.0, 206.0), REye coords (228.0, 195.0), timeStamp: 2017-02-18 16:17:27.151
LEye coords (223.0, 206.0), REye coords (227.0, 195.0), timeStamp: 2017-02-18 16:17:27.195
LEye coords (223.0, 205.0), REye coords (227.0, 196.0), timeStamp: 2017-02-18 16:17:27.229
LEye coords (223.0, 205.0), REye coords (227.0, 196.0), timeStamp: 2017-02-18 16:17:27.262
LEye coords (223.0, 205.0), REye coords (227.0, 196.0), timeStamp: 2017-02-18 16:17:27.296
LEye coords (223.0, 205.0), REye coords (226.0, 196.0), timeStamp: 2017-02-18 16:17:27.341
LEye coords (222.0, 205.0), REye coords (226.0, 197.0), timeStamp: 2017-02-18 16:17:27.376
LEye coords (222.0, 205.0), REye coords (226.0, 197.0), timeStamp: 2017-02-18 16:17:27.411
LEye coords (222.0, 205.0), REye coords (226.0, 198.0), timeStamp: 2017-02-18 16:17:27.444
LEye coords (222.0, 204.0), REye coords (226.0, 198.0), timeStamp: 2017-02-18 16:17:27.488
LEye coords (222.0, 204.0), REye coords (225.0, 198.0), timeStamp: 2017-02-18 16:17:27.523
LEye coords (222.0, 204.0), REye coords (225.0, 198.0), timeStamp: 2017-02-18 16:17:27.556
LEye coords (264.0, 179.0), REye coords (271.0, 173.0), timeStamp: 2017-02-18 16:17:27.601
LEye coords (308.0, 165.0), REye coords (311.0, 161.0), timeStamp: 2017-02-18 16:17:27.634
LEye coords (309.0, 164.0), REye coords (311.0, 162.0), timeStamp: 2017-02-18 16:17:27.667
LEye coords (310.0, 162.0), REye coords (311.0, 164.0), timeStamp: 2017-02-18 16:17:27.711
LEye coords (311.0, 163.0), REye coords (312.0, 163.0), timeStamp: 2017-02-18 16:17:27.745
LEye coords (312.0, 162.0), REye coords (312.0, 167.0), timeStamp: 2017-02-18 16:17:27.777
LEye coords (309.0, 163.0), REye coords (315.0, 158.0), timeStamp: 2017-02-18 16:17:27.820
LEye coords (299.0, 166.0), REye coords (302.0, 157.0), timeStamp: 2017-02-18 16:17:27.854
LEye coords (297.0, 168.0), REye coords (300.0, 155.0), timeStamp: 2017-02-18 16:17:27.888
LEye coords (296.0, 168.0), REye coords (299.0, 155.0), timeStamp: 2017-02-18 16:17:27.933
LEye coords (295.0, 168.0), REye coords (298.0, 154.0), timeStamp: 2017-02-18 16:17:27.967
LEye coords (294.0, 168.0), REye coords (298.0, 154.0), timeStamp: 2017-02-18 16:17:28.000
LEye coords (293.0, 168.0), REye coords (297.0, 153.0), timeStamp: 2017-02-18 16:17:28.044
LEye coords (293.0, 168.0), REye coords (296.0, 153.0), timeStamp: 2017-02-18 16:17:28.078
LEye coords (294.0, 165.0), REye coords (297.0, 151.0), timeStamp: 2017-02-18 16:17:28.112
LEye coords (295.0, 162.0), REye coords (298.0, 149.0), timeStamp: 2017-02-18 16:17:28.158
LEye coords (296.0, 159.0), REye coords (298.0, 147.0), timeStamp: 2017-02-18 16:17:28.191
LEye coords (296.0, 156.0), REye coords (299.0, 146.0), timeStamp: 2017-02-18 16:17:28.224
LEye coords (296.0, 154.0), REye coords (300.0, 144.0), timeStamp: 2017-02-18 16:17:28.267
LEye coords (297.0, 153.0), REye coords (300.0, 142.0), timeStamp: 2017-02-18 16:17:28.301
LEye coords (297.0, 150.0), REye coords (301.0, 141.0), timeStamp: 2017-02-18 16:17:28.336
LEye coords (297.0, 149.0), REye coords (301.0, 140.0), timeStamp: 2017-02-18 16:17:28.369
LEye coords (297.0, 148.0), REye coords (302.0, 138.0), timeStamp: 2017-02-18 16:17:28.415
LEye coords (298.0, 147.0), REye coords (303.0, 138.0), timeStamp: 2017-02-18 16:17:28.449
LEye coords (298.0, 147.0), REye coords (303.0, 137.0), timeStamp: 2017-02-18 16:17:28.483
LEye coords (298.0, 146.0), REye coords (303.0, 136.0), timeStamp: 2017-02-18 16:17:28.527
LEye coords (298.0, 146.0), REye coords (303.0, 136.0), timeStamp: 2017-02-18 16:17:28.561
LEye coords (279.0, 98.0), REye coords (276.0, 99.0), timeStamp: 2017-02-18 16:17:28.594
LEye coords (282.0, 97.0), REye coords (285.0, 84.0), timeStamp: 2017-02-18 16:17:28.637
LEye coords (282.0, 98.0), REye coords (284.0, 93.0), timeStamp: 2017-02-18 16:17:28.670
LEye coords (282.0, 99.0), REye coords (283.0, 96.0), timeStamp: 2017-02-18 16:17:28.705
LEye coords (282.0, 99.0), REye coords (282.0, 97.0), timeStamp: 2017-02-18 16:17:28.749
LEye coords (282.0, 95.0), REye coords (282.0, 98.0), timeStamp: 2017-02-18 16:17:28.783
LEye coords (282.0, 96.0), REye coords (281.0, 99.0), timeStamp: 2017-02-18 16:17:28.817
LEye coords (281.0, 96.0), REye coords (282.0, 97.0), timeStamp: 2017-02-18 16:17:28.852
LEye coords (282.0, 98.0), REye coords (283.0, 100.0), timeStamp: 2017-02-18 16:17:28.897
LEye coords (284.0, 103.0), REye coords (285.0, 105.0), timeStamp: 2017-02-18 16:17:28.930
LEye coords (286.0, 106.0), REye coords (286.0, 108.0), timeStamp: 2017-02-18 16:17:28.964
LEye coords (288.0, 110.0), REye coords (288.0, 111.0), timeStamp: 2017-02-18 16:17:29.009
LEye coords (289.0, 113.0), REye coords (289.0, 114.0), timeStamp: 2017-02-18 16:17:29.044
LEye coords (291.0, 116.0), REye coords (290.0, 117.0), timeStamp: 2017-02-18 16:17:29.078
LEye coords (292.0, 118.0), REye coords (291.0, 119.0), timeStamp: 2017-02-18 16:17:29.112
LEye coords (293.0, 120.0), REye coords (292.0, 121.0), timeStamp: 2017-02-18 16:17:29.156
LEye coords (293.0, 122.0), REye coords (293.0, 122.0), timeStamp: 2017-02-18 16:17:29.190
LEye coords (294.0, 123.0), REye coords (294.0, 124.0), timeStamp: 2017-02-18 16:17:29.224
LEye coords (295.0, 125.0), REye coords (294.0, 125.0), timeStamp: 2017-02-18 16:17:29.259
LEye coords (295.0, 126.0), REye coords (295.0, 126.0), timeStamp: 2017-02-18 16:17:29.303
LEye coords (296.0, 127.0), REye coords (295.0, 127.0), timeStamp: 2017-02-18 16:17:29.338
