LEye coords (444.0, 225.0), REye coords (446.0, 233.0), timeStamp: 2017-02-18 16:17:34.700
LEye coords (444.0, 225.0), REye coords (445.0, 233.0), timeStamp: 2017-02-18 16:17:34.743
LEye coords (444.0, 225.0), REye coords (445.0, 233.0), timeStamp: 2017-02-18 16:17:34.776
LEye coords (444.0, 226.0), REye coords (444.0, 234.0), timeStamp: 2017-02-18 16:17:34.810
LEye coords (444.0, 226.0), REye coords (444.0, 234.0), timeStamp: 2017-02-18 16:17:34.854
LEye coords (443.0, 227.0), REye coords (443.0, 235.0), timeStamp: 2017-02-18 16:17:34.888
LEye coords (443.0, 227.0), REye coords (443.0, 236.0), timeStamp: 2017-02-18 16:17:34.922
LEye coords (442.0, 228.0), REye coords (442.0, 236.0), timeStamp: 2017-02-18 16:17:34.965
LEye coords (305.0, 203.0), REye coords (308.0, 210.0), timeStamp: 2017-02-18 16:17:34.999
LEye coords (305.0, 214.0), REye coords (307.0, 215.0), timeStamp: 2017-02-18 16:17:35.033
LEye coords (305.0, 213.0), REye coords (306.0, 214.0), timeStamp: 2017-02-18 16:17:35.076
LEye coords (305.0, 211.0), REye coords (306.0, 215.0), timeStamp: 2017-02-18 16:17:35.110
LEye coords (309.0, 207.0), REye coords (310.0, 209.0), timeStamp: 2017-02-18 16:17:35.144
LEye coords (342.0, 169.0), REye coords (338.0, 171.0), timeStamp: 2017-02-18 16:17:35.189
LEye coords (340.0, 171.0), REye coords (340.0, 170.0), timeStamp: 2017-02-18 16:17:35.223
LEye coords (340.0, 172.0), REye coords (340.0, 170.0), timeStamp: 2017-02-18 16:17:35.257
LEye coords (340.0, 170.0), REye coords (340.0, 171.0), timeStamp: 2017-02-18 16:17:35.291
LEye coords (347.0, 166.0), REye coords (348.0, 165.0), timeStamp: 2017-02-18 16:17:35.335
LEye coords (353.0, 164.0), REye coords (353.0, 164.0), timeStamp: 2017-02-18 16:17:35.369
LEye coords (357.0, 163.0), REye coords (356.0, 163.0), timeStamp: 2017-02-18 16:17:35.403
LEye coords (367.0, 161.0), REye coords (358.0, 163.0), timeStamp: 2017-02-18 16:17:35.447
LEye coords (366.0, 155.0), REye coords (369.0, 157.0), timeStamp: 2017-02-18 16:17:35.481
LEye coords (365.0, 157.0), REye coords (366.0, 161.0), timeStamp: 2017-02-18 16:17:35.514
LEye coords (366.0, 157.0), REye coords (369.0, 159.0), timeStamp: 2017-02-18 16:17:35.558
LEye coords (366.0, 158.0), REye coords (372.0, 153.0), timeStamp: 2017-02-18 16:17:35.592
LEye coords (367.0, 158.0), REye coords (372.0, 155.0), timeStamp: 2017-02-18 16:17:35.626
LEye coords (367.0, 157.0), REye coords (371.0, 155.0), timeStamp: 2017-02-18 16:17:35.669
LEye coords (367.0, 158.0), REye coords (371.0, 155.0), timeStamp: 2017-02-18 16:17:35.703
LEye coords (368.0, 159.0), REye coords (370.0, 155.0), timeStamp: 2017-02-18 16:17:35.737
LEye coords (368.0, 159.0), REye coords (370.0, 155.0), timeStamp: 2017-02-18 16:17:35.782
LEye coords (367.0, 159.0), REye coords (370.0, 156.0), timeStamp: 2017-02-18 16:17:35.815
LEye coords (368.0, 159.0), REye coords (370.0, 155.0), timeStamp: 2017-02-18 16:17:35.849
LEye coords (368.0, 159.0), REye coords (370.0, 155.0), timeStamp: 2017-02-18 16:17:35.883
LEye coords (368.0, 160.0), REye coords (370.0, 155.0), timeStamp: 2017-02-18 16:17:35.928
LEye coords (368.0, 160.0), REye coords (370.0, 154.0), timeStamp: 2017-02-18 16:17:35.961
LEye coords (368.0, 159.0), REye coords (370.0, 155.0), timeStamp: 2017-02-18 16:17:35.995
LEye coords (368.0, 160.0), REye coords (370.0, 155.0), timeStamp: 2017-02-18 16:17:36.038
LEye coords (368.0, 160.0), REye coords (370.0, 154.0), timeStamp: 2017-02-18 16:17:36.072
LEye coords (368.0, 159.0), REye coords (370.0, 155.0), timeStamp: 2017-02-18 16:17:36.105
LEye coords (368.0, 160.0), REye coords (370.0, 154.0), timeStamp: 2017-02-18 16:17:36.151
LEye coords (368.0, 160.0), REye coords (370.0, 154.0), timeStamp: 2017-02-18 16:17:36.185
LEye coords (368.0, 160.0), REye coords (370.0, 154.0), timeStamp: 2017-02-18 16:17:36.219
LEye coords (368.0, 160.0), REye coords (370.0, 154.0), timeStamp: 2017-02-18 16:17:36.255
LEye coords (368.0, 160.0), REye coords (370.0, 154.0), timeStamp: 2017-02-18 16:17:36.299
LEye coords (368.0, 160.0), REye coords (371.0, 154.0), timeStamp: 2017-02-18 16:17:36.334
LEye coords (368.0, 160.0), REye coords (370.0, 154.0), timeStamp: 2017-02-18 16:17:36.368
LEye coords (369.0, 160.0), REye coords (371.0, 153.0), timeStamp: 2017-02-18 16:17:36.402
LEye coords (368.0, 161.0), REye coords (371.0, 153.0), timeStamp: 2017-02-18 16:17:36.446
LEye coords (368.0, 161.0), REye coords (371.0, 153.0), timeStamp: 2017-02-18 16:17:36.480
LEye coords (368.0, 161.0), REye coords (371.0, 153.0), timeStamp: 2017-02-18 16:17:36.513
LEye coords (368.0, 161.0), REye coords (372.0, 153.0), timeStamp: 2017-02-18 16:17:36.557
LEye coords (368.0, 161.0), REye coords (372.0, 152.0), timeStamp: 2017-02-18 16:17:36.590
LEye coords (368.0, 161.0), REye coords (372.0, 152.0), timeStamp: 2017-02-18 16:17:36.624
LEye coords (368.0, 161.0), REye coords (372.0, 152.0), timeStamp: 2017-02-18 16:17:36.669
LEye coords (367.0, 161.0), REye coords (372.0, 153.0), timeStamp: 2017-02-18 16:17:36.703
LEye coords (367.0, 161.0), REye coords (372.0, 153.0), timeStamp: 2017-02-18 16:17:36.736
LEye coords (367.0, 161.0), REye coords (372.0, 153.0), timeStamp: 2017-02-18 16:17:36.779
LEye coords (367.0, 160.0), REye coords (372.0, 153.0), timeStamp: 2017-02-18 16:17:36.813
LEye coords (367.0, 160.0), REye coords (372.0, 153.0), timeStamp: 2017-02-18 16:17:36.847
LEye coords (367.0, 161.0), REye coords (372.0, 153.0), timeStamp: 2017-02-18 16:17:36.882
LEye coords (367.0, 161.0), REye coords (372.0, 153.0), timeStamp: 2017-02-18 16:17:36.925
LEye coords (367.0, 161.0), REye coords (372.0, 153.0), timeStamp: 2017-02-18 16:17:36.960
LEye coords (367.0, 161.0), REye coords (372.0, 153.0), timeStamp: 2017-02-18 16:17:36.994
LEye coords (367.0, 161.0), REye coords (372.0, 154.0), timeStamp: 2017-02-18 16:17:37.038
LEye coords (367.0, 161.0), REye coords (372.0, 154.0), timeStamp: 2017-02-18 16:17:37.072
LEye coords (366.0, 161.0), REye coords (372.0, 154.0), timeStamp: 2017-02-18 16:17:37.106
LEye coords (367.0, 161.0), REye coords (372.0, 155.0), timeStamp: 2017-02-18 16:17:37.151
LEye coords (367.0, 161.0), REye coords (372.0, 155.0), timeStamp: 2017-02-18 16:17:37.185
LEye coords (366.0, 161.0), REye coords (372.0, 156.0), timeStamp: 2017-02-18 16:17:37.218
LEye coords (366.0, 161.0), REye coords (372.0, 156.0), timeStamp: 2017-02-18 16:17:37.263
LEye coords (366.0, 162.0), REye coords (372.0, 156.0), timeStamp: 2017-02-18 16:17:37.297
LEye coords (366.0, 162.0), REye coords (372.0, 157.0), timeStamp: 2017-02-18 16:17:37.330
LEye coords (366.0, 163.0), REye coords (372.0, 157.0), timeStamp: 2017-02-18 16:17:37.363
LEye coords (366.0, 164.0), REye coords (372.0, 157.0), timeStamp: 2017-02-18 16:17:37.407
LEye coords (366.0, 164.0), REye coords (372.0, 158.0), timeStamp: 2017-02-18 16:17:37.440
LEye coords (366.0, 165.0), REye coords (372.0, 158.0), timeStamp: 2017-02-18 16:17:37.475
LEye coords (366.0, 166.0), REye coords (372.0, 158.0), timeStamp: 2017-02-18 16:17:37.519
LEye coords (366.0, 167.0), REye coords (372.0, 158.0), timeStamp: 2017-02-18 16:17:37.553
LEye coords (366.0, 168.0), REye coords (372.0, 159.0), timeStamp: 2017-02-18 16:17:37.587
LEye coords (366.0, 168.0), REye coords (373.0, 159.0), timeStamp: 2017-02-18 16:17:37.631
LEye coords (367.0, 169.0), REye coords (373.0, 160.0), timeStamp: 2017-02-18 16:17:37.665
LEye coords (366.0, 170.0), REye coords (373.0, 160.0), timeStamp: 2017-02-18 16:17:37.698
LEye coords (367.0, 170.0), REye coords (373.0, 160.0), timeStamp: 2017-02-18 16:17:37.742
LEye coords (367.0, 171.0), REye coords (373.0, 161.0), timeStamp: 2017-02-18 16:17:37.776
LEye coords (367.0, 172.0), REye coords (373.0, 161.0), timeStamp: 2017-02-18 16:17:37.810
LEye coords (367.0, 172.0), REye coords (374.0, 162.0), timeStamp: 2017-02-18 16:17:37.845
LEye coords (368.0, 173.0), REye coords (374.0, 162.0), timeStamp: 2017-02-18 16:17:37.891
