LEye coords (164.0, 185.0), REye coords (166.0, 172.0), timeStamp: 2017-02-18 16:17:44.919
LEye coords (165.0, 185.0), REye coords (166.0, 172.0), timeStamp: 2017-02-18 16:17:44.954
LEye coords (165.0, 185.0), REye coords (167.0, 173.0), timeStamp: 2017-02-18 16:17:44.987
LEye coords (166.0, 185.0), REye coords (167.0, 173.0), timeStamp: 2017-02-18 16:17:45.032
LEye coords (166.0, 185.0), REye coords (168.0, 174.0), timeStamp: 2017-02-18 16:17:45.066
LEye coords (167.0, 186.0), REye coords (168.0, 174.0), timeStamp: 2017-02-18 16:17:45.100
LEye coords (168.0, 186.0), REye coords (169.0, 174.0), timeStamp: 2017-02-18 16:17:45.136
LEye coords (168.0, 186.0), REye coords (170.0, 175.0), timeStamp: 2017-02-18 16:17:45.181
LEye coords (169.0, 186.0), REye coords (170.0, 175.0), timeStamp: 2017-02-18 16:17:45.214
LEye coords (169.0, 187.0), REye coords (170.0, 176.0), timeStamp: 2017-02-18 16:17:45.247
LEye coords (170.0, 187.0), REye coords (171.0, 176.0), timeStamp: 2017-02-18 16:17:45.293
LEye coords (170.0, 187.0), REye coords (172.0, 177.0), timeStamp: 2017-02-18 16:17:45.325
LEye coords (170.0, 187.0), REye coords (171.0, 177.0), timeStamp: 2017-02-18 16:17:45.359
LEye coords (169.0, 186.0), REye coords (170.0, 177.0), timeStamp: 2017-02-18 16:17:45.403
LEye coords (169.0, 186.0), REye coords (170.0, 177.0), timeStamp: 2017-02-18 16:17:45.436
LEye coords (169.0, 185.0), REye coords (169.0, 177.0), timeStamp: 2017-02-18 16:17:45.470
LEye coords (168.0, 185.0), REye coords (169.0, 177.0), timeStamp: 2017-02-18 16:17:45.515
LEye coords (167.0, 183.0), REye coords (168.0, 177.0), timeStamp: 2017-02-18 16:17:45.548
LEye coords (166.0, 182.0), REye coords (167.0, 177.0), timeStamp: 2017-02-18 16:17:45.582
LEye coords (164.0, 180.0), REye coords (165.0, 176.0), timeStamp: 2017-02-18 16:17:45.616
LEye coords (163.0, 178.0), REye coords (164.0, 175.0), timeStamp: 2017-02-18 16:17:45.661
LEye coords (162.0, 177.0), REye coords (163.0, 175.0), timeStamp: 2017-02-18 16:17:45.694
LEye coords (161.0, 175.0), REye coords (163.0, 174.0), timeStamp: 2017-02-18 16:17:45.728
LEye coords (159.0, 174.0), REye coords (162.0, 173.0), timeStamp: 2017-02-18 16:17:45.772
LEye coords (158.0, 172.0), REye coords (161.0, 172.0), timeStamp: 2017-02-18 16:17:45.806
LEye coords (158.0, 172.0), REye coords (160.0, 172.0), timeStamp: 2017-02-18 16:17:45.839
LEye coords (158.0, 171.0), REye coords (159.0, 172.0), timeStamp: 2017-02-18 16:17:45.884
LEye coords (157.0, 171.0), REye coords (158.0, 172.0), timeStamp: 2017-02-18 16:17:45.918
LEye coords (157.0, 170.0), REye coords (157.0, 172.0), timeStamp: 2017-02-18 16:17:45.951
LEye coords (157.0, 170.0), REye coords (156.0, 172.0), timeStamp: 2017-02-18 16:17:45.996
LEye coords (156.0, 170.0), REye coords (155.0, 173.0), timeStamp: 2017-02-18 16:17:46.030
LEye coords (156.0, 170.0), REye coords (154.0, 172.0), timeStamp: 2017-02-18 16:17:46.063
LEye coords (156.0, 169.0), REye coords (153.0, 172.0), timeStamp: 2017-02-18 16:17:46.107
LEye coords (156.0, 169.0), REye coords (153.0, 173.0), timeStamp: 2017-02-18 16:17:46.141
LEye coords (156.0, 169.0), REye coords (153.0, 173.0), timeStamp: 2017-02-18 16:17:46.176
LEye coords (157.0, 169.0), REye coords (152.0, 173.0), timeStamp: 2017-02-18 16:17:46.210
LEye coords (157.0, 169.0), REye coords (152.0, 173.0), timeStamp: 2017-02-18 16:17:46.254
LEye coords (157.0, 169.0), REye coords (152.0, 173.0), timeStamp: 2017-02-18 16:17:46.288
LEye coords (158.0, 169.0), REye coords (152.0, 173.0), timeStamp: 2017-02-18 16:17:46.322
LEye coords (158.0, 170.0), REye coords (152.0, 173.0), timeStamp: 2017-02-18 16:17:46.357
LEye coords (158.0, 170.0), REye coords (153.0, 173.0), timeStamp: 2017-02-18 16:17:46.401
LEye coords (159.0, 170.0), REye coords (153.0, 173.0), timeStamp: 2017-02-18 16:17:46.435
LEye coords (159.0, 171.0), REye coords (154.0, 173.0), timeStamp: 2017-02-18 16:17:46.468
LEye coords (159.0, 171.0), REye coords (154.0, 173.0), timeStamp: 2017-02-18 16:17:46.513
LEye coords (159.0, 172.0), REye coords (155.0, 173.0), timeStamp: 2017-02-18 16:17:46.546
LEye coords (159.0, 172.0), REye coords (155.0, 173.0), timeStamp: 2017-02-18 16:17:46.582
LEye coords (160.0, 173.0), REye coords (156.0, 173.0), timeStamp: 2017-02-18 16:17:46.625
LEye coords (159.0, 173.0), REye coords (156.0, 172.0), timeStamp: 2017-02-18 16:17:46.658
LEye coords (159.0, 173.0), REye coords (156.0, 171.0), timeStamp: 2017-02-18 16:17:46.692
LEye coords (159.0, 173.0), REye coords (157.0, 171.0), timeStamp: 2017-02-18 16:17:46.736
LEye coords (160.0, 173.0), REye coords (157.0, 170.0), timeStamp: 2017-02-18 16:17:46.770
LEye coords (160.0, 174.0), REye coords (158.0, 170.0), timeStamp: 2017-02-18 16:17:46.805
LEye coords (160.0, 174.0), REye coords (158.0, 170.0), timeStamp: 2017-02-18 16:17:46.848
LEye coords (160.0, 174.0), REye coords (159.0, 170.0), timeStamp: 2017-02-18 16:17:46.881
LEye coords (160.0, 174.0), REye coords (159.0, 170.0), timeStamp: 2017-02-18 16:17:46.916
LEye coords (160.0, 175.0), REye coords (159.0, 169.0), timeStamp: 2017-02-18 16:17:46.950
LEye coords (160.0, 175.0), REye coords (159.0, 170.0), timeStamp: 2017-02-18 16:17:46.993
LEye coords (160.0, 175.0), REye coords (160.0, 170.0), timeStamp: 2017-02-18 16:17:47.027
LEye coords (160.0, 176.0), REye coords (160.0, 170.0), timeStamp: 2017-02-18 16:17:47.061
LEye coords (160.0, 176.0), REye coords (160.0, 170.0), timeStamp: 2017-02-18 16:17:47.106
LEye coords (161.0, 176.0), REye coords (160.0, 170.0), timeStamp: 2017-02-18 16:17:47.139
LEye coords (161.0, 176.0), REye coords (160.0, 170.0), timeStamp: 2017-02-18 16:17:47.172
LEye coords (162.0, 176.0), REye coords (161.0, 170.0), timeStamp: 2017-02-18 16:17:47.217
LEye coords (162.0, 177.0), REye coords (161.0, 170.0), timeStamp: 2017-02-18 16:17:47.251
LEye coords (162.0, 177.0), REye coords (161.0, 170.0), timeStamp: 2017-02-18 16:17:47.284
LEye coords (163.0, 177.0), REye coords (161.0, 170.0), timeStamp: 2017-02-18 16:17:47.328
LEye coords (163.0, 177.0), REye coords (161.0, 171.0), timeStamp: 2017-02-18 16:17:47.363
LEye coords (163.0, 177.0), REye coords (162.0, 171.0), timeStamp: 2017-02-18 16:17:47.396
LEye coords (163.0, 178.0), REye coords (162.0, 171.0), timeStamp: 2017-02-18 16:17:47.430
LEye coords (164.0, 178.0), REye coords (162.0, 171.0), timeStamp: 2017-02-18 16:17:47.474
