LEye coords (165.0, 202.0), REye coords (162.0, 192.0), timeStamp: 2017-02-18 16:17:47.542
LEye coords (165.0, 202.0), REye coords (162.0, 192.0), timeStamp: 2017-02-18 16:17:47.586
LEye coords (165.0, 203.0), REye coords (162.0, 192.0), timeStamp: 2017-02-18 16:17:47.620
LEye coords (165.0, 203.0), REye coords (162.0, 192.0), timeStamp: 2017-02-18 16:17:47.652
LEye coords (165.0, 204.0), REye coords (163.0, 192.0), timeStamp: 2017-02-18 16:17:47.696
LEye coords (165.0, 204.0), REye coords (163.0, 192.0), timeStamp: 2017-02-18 16:17:47.731
LEye coords (166.0, 204.0), REye coords (163.0, 192.0), timeStamp: 2017-02-18 16:17:47.765
LEye coords (166.0, 205.0), REye coords (163.0, 192.0), timeStamp: 2017-02-18 16:17:47.809
LEye coords (247.0, 203.0), REye coords (256.0, 201.0), timeStamp: 2017-02-18 16:17:47.843
LEye coords (300.0, 205.0), REye coords (301.0, 205.0), timeStamp: 2017-02-18 16:17:47.878
LEye coords (302.0, 207.0), REye coords (299.0, 205.0), timeStamp: 2017-02-18 16:17:47.913
LEye coords (300.0, 205.0), REye coords (300.0, 204.0), timeStamp: 2017-02-18 16:17:47.956
LEye coords (299.0, 205.0), REye coords (301.0, 204.0), timeStamp: 2017-02-18 16:17:47.990
LEye coords (299.0, 208.0), REye coords (302.0, 207.0), timeStamp: 2017-02-18 16:17:48.024
LEye coords (299.0, 211.0), REye coords (301.0, 205.0), timeStamp: 2017-02-18 16:17:48.067
LEye coords (315.0, 210.0), REye coords (314.0, 209.0), timeStamp: 2017-02-18 16:17:48.101
LEye coords (342.0, 215.0), REye coords (343.0, 217.0), timeStamp: 2017-02-18 16:17:48.134
LEye coords (356.0, 219.0), REye coords (357.0, 220.0), timeStamp: 2017-02-18 16:17:48.179
LEye coords (394.0, 228.0), REye coords (400.0, 228.0), timeStamp: 2017-02-18 16:17:48.213
LEye coords (398.0, 223.0), REye coords (402.0, 233.0), timeStamp: 2017-02-18 16:17:48.246
LEye coords (373.0, 221.0), REye coords (378.0, 223.0), timeStamp: 2017-02-18 16:17:48.290
LEye coords (365.0, 220.0), REye coords (370.0, 219.0), timeStamp: 2017-02-18 16:17:48.324
LEye coords (360.0, 220.0), REye coords (366.0, 216.0), timeStamp: 2017-02-18 16:17:48.358
LEye coords (358.0, 218.0), REye coords (364.0, 216.0), timeStamp: 2017-02-18 16:17:48.401
LEye coords (356.0, 218.0), REye coords (362.0, 215.0), timeStamp: 2017-02-18 16:17:48.435
LEye coords (355.0, 218.0), REye coords (360.0, 215.0), timeStamp: 2017-02-18 16:17:48.468
LEye coords (341.0, 212.0), REye coords (348.0, 214.0), timeStamp: 2017-02-18 16:17:48.513
LEye coords (337.0, 212.0), REye coords (347.0, 210.0), timeStamp: 2017-02-18 16:17:48.547
LEye coords (337.0, 214.0), REye coords (345.0, 210.0), timeStamp: 2017-02-18 16:17:48.581
LEye coords (338.0, 213.0), REye coords (346.0, 210.0), timeStamp: 2017-02-18 16:17:48.615
LEye coords (337.0, 213.0), REye coords (346.0, 211.0), timeStamp: 2017-02-18 16:17:48.661
LEye coords (338.0, 213.0), REye coords (346.0, 211.0), timeStamp: 2017-02-18 16:17:48.695
LEye coords (338.0, 215.0), REye coords (345.0, 212.0), timeStamp: 2017-02-18 16:17:48.729
LEye coords (338.0, 215.0), REye coords (345.0, 212.0), timeStamp: 2017-02-18 16:17:48.763
LEye coords (342.0, 214.0), REye coords (349.0, 213.0), timeStamp: 2017-02-18 16:17:48.807
LEye coords (426.0, 218.0), REye coords (441.0, 234.0), timeStamp: 2017-02-18 16:17:48.841
LEye coords (425.0, 219.0), REye coords (438.0, 231.0), timeStamp: 2017-02-18 16:17:48.875
LEye coords (426.0, 219.0), REye coords (438.0, 232.0), timeStamp: 2017-02-18 16:17:48.918
LEye coords (427.0, 220.0), REye coords (440.0, 232.0), timeStamp: 2017-02-18 16:17:48.951
LEye coords (428.0, 220.0), REye coords (440.0, 232.0), timeStamp: 2017-02-18 16:17:48.985
LEye coords (427.0, 222.0), REye coords (439.0, 238.0), timeStamp: 2017-02-18 16:17:49.030
LEye coords (432.0, 221.0), REye coords (438.0, 236.0), timeStamp: 2017-02-18 16:17:49.064
LEye coords (432.0, 220.0), REye coords (439.0, 234.0), timeStamp: 2017-02-18 16:17:49.099
LEye coords (433.0, 222.0), REye coords (440.0, 234.0), timeStamp: 2017-02-18 16:17:49.142
LEye coords (432.0, 222.0), REye coords (441.0, 233.0), timeStamp: 2017-02-18 16:17:49.175
LEye coords (426.0, 221.0), REye coords (434.0, 233.0), timeStamp: 2017-02-18 16:17:49.209
LEye coords (341.0, 221.0), REye coords (347.0, 216.0), timeStamp: 2017-02-18 16:17:49.253
LEye coords (340.0, 210.0), REye coords (347.0, 207.0), timeStamp: 2017-02-18 16:17:49.286
LEye coords (341.0, 210.0), REye coords (346.0, 210.0), timeStamp: 2017-02-18 16:17:49.321
LEye coords (341.0, 212.0), REye coords (347.0, 210.0), timeStamp: 2017-02-18 16:17:49.355
LEye coords (341.0, 212.0), REye coords (348.0, 212.0), timeStamp: 2017-02-18 16:17:49.399
LEye coords (344.0, 211.0), REye coords (347.0, 214.0), timeStamp: 2017-02-18 16:17:49.434
LEye coords (349.0, 216.0), REye coords (352.0, 221.0), timeStamp: 2017-02-18 16:17:49.466
LEye coords (350.0, 215.0), REye coords (355.0, 216.0), timeStamp: 2017-02-18 16:17:49.511
LEye coords (351.0, 215.0), REye coords (355.0, 217.0), timeStamp: 2017-02-18 16:17:49.546
LEye coords (351.0, 214.0), REye coords (355.0, 217.0), timeStamp: 2017-02-18 16:17:49.580
LEye coords (352.0, 213.0), REye coords (355.0, 217.0), timeStamp: 2017-02-18 16:17:49.614
LEye coords (352.0, 214.0), REye coords (355.0, 218.0), timeStamp: 2017-02-18 16:17:49.656
LEye coords (352.0, 213.0), REye coords (355.0, 218.0), timeStamp: 2017-02-18 16:17:49.690
LEye coords (352.0, 214.0), REye coords (354.0, 219.0), timeStamp: 2017-02-18 16:17:49.732
LEye coords (353.0, 214.0), REye coords (354.0, 219.0), timeStamp: 2017-02-18 16:17:49.766
LEye coords (353.0, 214.0), REye coords (355.0, 219.0), timeStamp: 2017-02-18 16:17:49.799
LEye coords (353.0, 213.0), REye coords (355.0, 219.0), timeStamp: 2017-02-18 16:17:49.844
LEye coords (352.0, 213.0), REye coords (355.0, 219.0), timeStamp: 2017-02-18 16:17:49.877
LEye coords (352.0, 214.0), REye coords (355.0, 220.0), timeStamp: 2017-02-18 16:17:49.911
LEye coords (353.0, 214.0), REye coords (355.0, 220.0), timeStamp: 2017-02-18 16:17:49.957
LEye coords (352.0, 214.0), REye coords (354.0, 220.0), timeStamp: 2017-02-18 16:17:49.991
LEye coords (351.0, 214.0), REye coords (354.0, 219.0), timeStamp: 2017-02-18 16:17:50.024
LEye coords (351.0, 214.0), REye coords (353.0, 219.0), timeStamp: 2017-02-18 16:17:50.058
LEye coords (350.0, 214.0), REye coords (353.0, 219.0), timeStamp: 2017-02-18 16:17:50.103
LEye coords (350.0, 214.0), REye coords (353.0, 219.0), timeStamp: 2017-02-18 16:17:50.137
LEye coords (350.0, 214.0), REye coords (352.0, 219.0), timeStamp: 2017-02-18 16:17:50.171
LEye coords (349.0, 214.0), REye coords (352.0, 219.0), timeStamp: 2017-02-18 16:17:50.216
LEye coords (348.0, 213.0), REye coords (352.0, 218.0), timeStamp: 2017-02-18 16:17:50.250
LEye coords (348.0, 213.0), REye coords (352.0, 218.0), timeStamp: 2017-02-18 16:17:50.283
LEye coords (348.0, 213.0), REye coords (352.0, 218.0), timeStamp: 2017-02-18 16:17:50.317
LEye coords (348.0, 213.0), REye coords (352.0, 218.0), timeStamp: 2017-02-18 16:17:50.362
LEye coords (348.0, 214.0), REye coords (352.0, 219.0), timeStamp: 2017-02-18 16:17:50.395
LEye coords (347.0, 214.0), REye coords (352.0, 219.0), timeStamp: 2017-02-18 16:17:50.430
LEye coords (347.0, 213.0), REye coords (353.0, 219.0), timeStamp: 2017-02-18 16:17:50.475
LEye coords (347.0, 213.0), REye coords (353.0, 219.0), timeStamp: 2017-02-18 16:17:50.508
LEye coords (347.0, 213.0), REye coords (353.0, 219.0), timeStamp: 2017-02-18 16:17:50.542
LEye coords (347.0, 213.0), REye coords (353.0, 219.0), timeStamp: 2017-02-18 16:17:50.576
LEye coords (346.0, 213.0), REye coords (353.0, 218.0), timeStamp: 2017-02-18 16:17:50.620
LEye coords (346.0, 213.0), REye coords (353.0, 218.0), timeStamp: 2017-02-18 16:17:50.655
LEye coords (346.0, 213.0), REye coords (352.0, 218.0), timeStamp: 2017-02-18 16:17:50.689
LEye coords (346.0, 213.0), REye coords (352.0, 217.0), timeStamp: 2017-02-18 16:17:50.734
