LEye coords (187.0, 197.0), REye coords (181.0, 197.0), timeStamp: 2017-02-18 16:18:03.236
LEye coords (154.0, 263.0), REye coords (150.0, 263.0), timeStamp: 2017-02-18 16:18:03.280
LEye coords (152.0, 263.0), REye coords (148.0, 262.0), timeStamp: 2017-02-18 16:18:03.313
LEye coords (150.0, 263.0), REye coords (146.0, 262.0), timeStamp: 2017-02-18 16:18:03.346
LEye coords (148.0, 263.0), REye coords (145.0, 262.0), timeStamp: 2017-02-18 16:18:03.391
LEye coords (147.0, 263.0), REye coords (144.0, 262.0), timeStamp: 2017-02-18 16:18:03.424
LEye coords (146.0, 262.0), REye coords (143.0, 262.0), timeStamp: 2017-02-18 16:18:03.457
LEye coords (138.0, 258.0), REye coords (142.0, 262.0), timeStamp: 2017-02-18 16:18:03.501
LEye coords (136.0, 261.0), REye coords (141.0, 262.0), timeStamp: 2017-02-18 16:18:03.534
LEye coords (137.0, 263.0), REye coords (141.0, 262.0), timeStamp: 2017-02-18 16:18:03.567
LEye coords (137.0, 262.0), REye coords (140.0, 262.0), timeStamp: 2017-02-18 16:18:03.612
LEye coords (137.0, 262.0), REye coords (140.0, 262.0), timeStamp: 2017-02-18 16:18:03.646
LEye coords (137.0, 262.0), REye coords (139.0, 261.0), timeStamp: 2017-02-18 16:18:03.680
LEye coords (233.0, 212.0), REye coords (227.0, 216.0), timeStamp: 2017-02-18 16:18:03.723
LEye coords (230.0, 212.0), REye coords (0.0, 0.0), timeStamp: 2017-02-18 16:18:03.757
LEye coords (229.0, 213.0), REye coords (228.0, 220.0), timeStamp: 2017-02-18 16:18:03.791
LEye coords (228.0, 210.0), REye coords (228.0, 218.0), timeStamp: 2017-02-18 16:18:03.835
LEye coords (228.0, 208.0), REye coords (228.0, 218.0), timeStamp: 2017-02-18 16:18:03.870
LEye coords (230.0, 207.0), REye coords (228.0, 218.0), timeStamp: 2017-02-18 16:18:03.904
LEye coords (231.0, 206.0), REye coords (226.0, 215.0), timeStamp: 2017-02-18 16:18:03.937
LEye coords (230.0, 202.0), REye coords (229.0, 213.0), timeStamp: 2017-02-18 16:18:03.982
LEye coords (229.0, 203.0), REye coords (228.0, 216.0), timeStamp: 2017-02-18 16:18:04.016
LEye coords (229.0, 203.0), REye coords (228.0, 214.0), timeStamp: 2017-02-18 16:18:04.049
LEye coords (232.0, 204.0), REye coords (229.0, 214.0), timeStamp: 2017-02-18 16:18:04.092
LEye coords (232.0, 204.0), REye coords (228.0, 214.0), timeStamp: 2017-02-18 16:18:04.126
LEye coords (231.0, 205.0), REye coords (228.0, 216.0), timeStamp: 2017-02-18 16:18:04.159
LEye coords (228.0, 205.0), REye coords (225.0, 215.0), timeStamp: 2017-02-18 16:18:04.203
LEye coords (225.0, 206.0), REye coords (222.0, 215.0), timeStamp: 2017-02-18 16:18:04.238
LEye coords (222.0, 206.0), REye coords (220.0, 215.0), timeStamp: 2017-02-18 16:18:04.271
LEye coords (220.0, 207.0), REye coords (219.0, 214.0), timeStamp: 2017-02-18 16:18:04.314
LEye coords (218.0, 207.0), REye coords (217.0, 214.0), timeStamp: 2017-02-18 16:18:04.347
LEye coords (218.0, 206.0), REye coords (218.0, 213.0), timeStamp: 2017-02-18 16:18:04.391
LEye coords (218.0, 204.0), REye coords (218.0, 213.0), timeStamp: 2017-02-18 16:18:04.425
LEye coords (218.0, 203.0), REye coords (219.0, 212.0), timeStamp: 2017-02-18 16:18:04.458
LEye coords (218.0, 202.0), REye coords (219.0, 211.0), timeStamp: 2017-02-18 16:18:04.502
LEye coords (218.0, 202.0), REye coords (219.0, 211.0), timeStamp: 2017-02-18 16:18:04.536
LEye coords (219.0, 202.0), REye coords (219.0, 210.0), timeStamp: 2017-02-18 16:18:04.570
LEye coords (219.0, 201.0), REye coords (220.0, 209.0), timeStamp: 2017-02-18 16:18:04.603
LEye coords (219.0, 200.0), REye coords (220.0, 208.0), timeStamp: 2017-02-18 16:18:04.647
LEye coords (219.0, 199.0), REye coords (219.0, 208.0), timeStamp: 2017-02-18 16:18:04.680
LEye coords (219.0, 198.0), REye coords (219.0, 207.0), timeStamp: 2017-02-18 16:18:04.724
LEye coords (218.0, 197.0), REye coords (219.0, 206.0), timeStamp: 2017-02-18 16:18:04.757
LEye coords (218.0, 196.0), REye coords (219.0, 205.0), timeStamp: 2017-02-18 16:18:04.790
LEye coords (218.0, 194.0), REye coords (219.0, 204.0), timeStamp: 2017-02-18 16:18:04.833
LEye coords (217.0, 194.0), REye coords (219.0, 203.0), timeStamp: 2017-02-18 16:18:04.867
LEye coords (217.0, 193.0), REye coords (219.0, 202.0), timeStamp: 2017-02-18 16:18:04.901
LEye coords (217.0, 191.0), REye coords (219.0, 201.0), timeStamp: 2017-02-18 16:18:04.945
LEye coords (217.0, 190.0), REye coords (219.0, 200.0), timeStamp: 2017-02-18 16:18:04.979
LEye coords (217.0, 189.0), REye coords (219.0, 200.0), timeStamp: 2017-02-18 16:18:05.013
LEye coords (217.0, 188.0), REye coords (220.0, 199.0), timeStamp: 2017-02-18 16:18:05.047
LEye coords (218.0, 187.0), REye coords (220.0, 198.0), timeStamp: 2017-02-18 16:18:05.092
LEye coords (218.0, 187.0), REye coords (221.0, 197.0), timeStamp: 2017-02-18 16:18:05.126
LEye coords (219.0, 186.0), REye coords (221.0, 197.0), timeStamp: 2017-02-18 16:18:05.159
LEye coords (219.0, 186.0), REye coords (221.0, 196.0), timeStamp: 2017-02-18 16:18:05.203
LEye coords (218.0, 185.0), REye coords (221.0, 196.0), timeStamp: 2017-02-18 16:18:05.237
LEye coords (218.0, 185.0), REye coords (221.0, 196.0), timeStamp: 2017-02-18 16:18:05.270
LEye coords (218.0, 185.0), REye coords (221.0, 196.0), timeStamp: 2017-02-18 16:18:05.314
LEye coords (218.0, 185.0), REye coords (221.0, 196.0), timeStamp: 2017-02-18 16:18:05.348
LEye coords (218.0, 185.0), REye coords (221.0, 196.0), timeStamp: 2017-02-18 16:18:05.381
LEye coords (218.0, 185.0), REye coords (221.0, 196.0), timeStamp: 2017-02-18 16:18:05.425
LEye coords (219.0, 185.0), REye coords (221.0, 196.0), timeStamp: 2017-02-18 16:18:05.458
LEye coords (219.0, 185.0), REye coords (221.0, 196.0), timeStamp: 2017-02-18 16:18:05.502
LEye coords (219.0, 185.0), REye coords (220.0, 197.0), timeStamp: 2017-02-18 16:18:05.535
LEye coords (219.0, 185.0), REye coords (220.0, 197.0), timeStamp: 2017-02-18 16:18:05.569
LEye coords (219.0, 185.0), REye coords (220.0, 197.0), timeStamp: 2017-02-18 16:18:05.603
LEye coords (219.0, 185.0), REye coords (220.0, 198.0), timeStamp: 2017-02-18 16:18:05.647
LEye coords (220.0, 186.0), REye coords (220.0, 199.0), timeStamp: 2017-02-18 16:18:05.680
LEye coords (220.0, 186.0), REye coords (220.0, 199.0), timeStamp: 2017-02-18 16:18:05.713
LEye coords (220.0, 186.0), REye coords (220.0, 200.0), timeStamp: 2017-02-18 16:18:05.757
LEye coords (220.0, 187.0), REye coords (220.0, 200.0), timeStamp: 2017-02-18 16:18:05.791
