LEye coords (380.0, 218.0), REye coords (370.0, 209.0), timeStamp: 2017-02-18 16:21:02.073
LEye coords (380.0, 218.0), REye coords (370.0, 209.0), timeStamp: 2017-02-18 16:21:02.117
LEye coords (380.0, 218.0), REye coords (370.0, 210.0), timeStamp: 2017-02-18 16:21:02.150
LEye coords (380.0, 218.0), REye coords (370.0, 210.0), timeStamp: 2017-02-18 16:21:02.184
LEye coords (380.0, 219.0), REye coords (369.0, 210.0), timeStamp: 2017-02-18 16:21:02.228
LEye coords (380.0, 219.0), REye coords (370.0, 211.0), timeStamp: 2017-02-18 16:21:02.261
LEye coords (380.0, 219.0), REye coords (369.0, 211.0), timeStamp: 2017-02-18 16:21:02.295
LEye coords (380.0, 219.0), REye coords (369.0, 212.0), timeStamp: 2017-02-18 16:21:02.330
LEye coords (380.0, 219.0), REye coords (369.0, 212.0), timeStamp: 2017-02-18 16:21:02.375
LEye coords (380.0, 219.0), REye coords (369.0, 213.0), timeStamp: 2017-02-18 16:21:02.409
LEye coords (339.0, 203.0), REye coords (367.0, 212.0), timeStamp: 2017-02-18 16:21:02.442
LEye coords (319.0, 191.0), REye coords (297.0, 184.0), timeStamp: 2017-02-18 16:21:02.487
LEye coords (319.0, 193.0), REye coords (292.0, 192.0), timeStamp: 2017-02-18 16:21:02.522
LEye coords (319.0, 192.0), REye coords (293.0, 191.0), timeStamp: 2017-02-18 16:21:02.556
LEye coords (320.0, 191.0), REye coords (295.0, 189.0), timeStamp: 2017-02-18 16:21:02.591
LEye coords (323.0, 189.0), REye coords (295.0, 188.0), timeStamp: 2017-02-18 16:21:02.635
LEye coords (334.0, 193.0), REye coords (318.0, 184.0), timeStamp: 2017-02-18 16:21:02.669
LEye coords (346.0, 196.0), REye coords (348.0, 191.0), timeStamp: 2017-02-18 16:21:02.703
LEye coords (350.0, 196.0), REye coords (347.0, 191.0), timeStamp: 2017-02-18 16:21:02.738
LEye coords (351.0, 197.0), REye coords (348.0, 187.0), timeStamp: 2017-02-18 16:21:02.781
LEye coords (352.0, 197.0), REye coords (348.0, 185.0), timeStamp: 2017-02-18 16:21:02.815
LEye coords (353.0, 197.0), REye coords (344.0, 185.0), timeStamp: 2017-02-18 16:21:02.849
LEye coords (353.0, 197.0), REye coords (342.0, 184.0), timeStamp: 2017-02-18 16:21:02.893
LEye coords (354.0, 197.0), REye coords (342.0, 186.0), timeStamp: 2017-02-18 16:21:02.926
LEye coords (354.0, 197.0), REye coords (343.0, 184.0), timeStamp: 2017-02-18 16:21:02.959
LEye coords (354.0, 197.0), REye coords (344.0, 184.0), timeStamp: 2017-02-18 16:21:03.003
LEye coords (355.0, 196.0), REye coords (345.0, 184.0), timeStamp: 2017-02-18 16:21:03.036
LEye coords (355.0, 196.0), REye coords (345.0, 184.0), timeStamp: 2017-02-18 16:21:03.071
LEye coords (355.0, 196.0), REye coords (345.0, 184.0), timeStamp: 2017-02-18 16:21:03.116
LEye coords (356.0, 196.0), REye coords (346.0, 184.0), timeStamp: 2017-02-18 16:21:03.150
LEye coords (357.0, 196.0), REye coords (347.0, 184.0), timeStamp: 2017-02-18 16:21:03.184
LEye coords (358.0, 196.0), REye coords (348.0, 183.0), timeStamp: 2017-02-18 16:21:03.218
LEye coords (359.0, 196.0), REye coords (349.0, 183.0), timeStamp: 2017-02-18 16:21:03.262
LEye coords (359.0, 196.0), REye coords (350.0, 183.0), timeStamp: 2017-02-18 16:21:03.296
LEye coords (360.0, 196.0), REye coords (350.0, 184.0), timeStamp: 2017-02-18 16:21:03.331
LEye coords (361.0, 196.0), REye coords (351.0, 184.0), timeStamp: 2017-02-18 16:21:03.373
LEye coords (361.0, 196.0), REye coords (351.0, 185.0), timeStamp: 2017-02-18 16:21:03.407
LEye coords (362.0, 196.0), REye coords (351.0, 185.0), timeStamp: 2017-02-18 16:21:03.441
LEye coords (363.0, 196.0), REye coords (351.0, 186.0), timeStamp: 2017-02-18 16:21:03.486
LEye coords (363.0, 196.0), REye coords (351.0, 187.0), timeStamp: 2017-02-18 16:21:03.519
LEye coords (364.0, 196.0), REye coords (350.0, 188.0), timeStamp: 2017-02-18 16:21:03.554
LEye coords (364.0, 196.0), REye coords (351.0, 189.0), timeStamp: 2017-02-18 16:21:03.588
LEye coords (365.0, 196.0), REye coords (351.0, 189.0), timeStamp: 2017-02-18 16:21:03.633
LEye coords (365.0, 196.0), REye coords (351.0, 190.0), timeStamp: 2017-02-18 16:21:03.668
LEye coords (366.0, 196.0), REye coords (351.0, 190.0), timeStamp: 2017-02-18 16:21:03.701
LEye coords (366.0, 196.0), REye coords (351.0, 191.0), timeStamp: 2017-02-18 16:21:03.745
LEye coords (367.0, 196.0), REye coords (351.0, 191.0), timeStamp: 2017-02-18 16:21:03.779
LEye coords (367.0, 196.0), REye coords (351.0, 191.0), timeStamp: 2017-02-18 16:21:03.814
LEye coords (367.0, 197.0), REye coords (351.0, 192.0), timeStamp: 2017-02-18 16:21:03.848
LEye coords (368.0, 197.0), REye coords (351.0, 192.0), timeStamp: 2017-02-18 16:21:03.892
LEye coords (368.0, 197.0), REye coords (351.0, 193.0), timeStamp: 2017-02-18 16:21:03.925
LEye coords (368.0, 198.0), REye coords (351.0, 193.0), timeStamp: 2017-02-18 16:21:03.959
LEye coords (368.0, 198.0), REye coords (351.0, 194.0), timeStamp: 2017-02-18 16:21:04.004
LEye coords (368.0, 198.0), REye coords (351.0, 194.0), timeStamp: 2017-02-18 16:21:04.037
LEye coords (368.0, 199.0), REye coords (351.0, 195.0), timeStamp: 2017-02-18 16:21:04.071
LEye coords (368.0, 199.0), REye coords (351.0, 195.0), timeStamp: 2017-02-18 16:21:04.115
LEye coords (367.0, 199.0), REye coords (351.0, 195.0), timeStamp: 2017-02-18 16:21:04.149
LEye coords (367.0, 200.0), REye coords (351.0, 196.0), timeStamp: 2017-02-18 16:21:04.183
LEye coords (367.0, 201.0), REye coords (351.0, 196.0), timeStamp: 2017-02-18 16:21:04.227
LEye coords (367.0, 201.0), REye coords (351.0, 196.0), timeStamp: 2017-02-18 16:21:04.260
LEye coords (367.0, 202.0), REye coords (351.0, 196.0), timeStamp: 2017-02-18 16:21:04.294
