LEye coords (193.0, 178.0), REye coords (191.0, 174.0), timeStamp: 2017-02-18 16:20:59.005
LEye coords (193.0, 178.0), REye coords (192.0, 174.0), timeStamp: 2017-02-18 16:20:59.039
LEye coords (193.0, 178.0), REye coords (191.0, 174.0), timeStamp: 2017-02-18 16:20:59.073
LEye coords (193.0, 179.0), REye coords (191.0, 174.0), timeStamp: 2017-02-18 16:20:59.117
LEye coords (192.0, 179.0), REye coords (190.0, 175.0), timeStamp: 2017-02-18 16:20:59.150
LEye coords (192.0, 179.0), REye coords (190.0, 176.0), timeStamp: 2017-02-18 16:20:59.183
LEye coords (193.0, 180.0), REye coords (189.0, 176.0), timeStamp: 2017-02-18 16:20:59.229
LEye coords (193.0, 180.0), REye coords (189.0, 177.0), timeStamp: 2017-02-18 16:20:59.263
LEye coords (193.0, 180.0), REye coords (189.0, 178.0), timeStamp: 2017-02-18 16:20:59.296
LEye coords (193.0, 181.0), REye coords (189.0, 178.0), timeStamp: 2017-02-18 16:20:59.341
LEye coords (196.0, 180.0), REye coords (190.0, 176.0), timeStamp: 2017-02-18 16:20:59.373
LEye coords (198.0, 178.0), REye coords (192.0, 175.0), timeStamp: 2017-02-18 16:20:59.408
LEye coords (201.0, 177.0), REye coords (193.0, 174.0), timeStamp: 2017-02-18 16:20:59.451
LEye coords (203.0, 176.0), REye coords (195.0, 173.0), timeStamp: 2017-02-18 16:20:59.485
LEye coords (367.0, 193.0), REye coords (350.0, 192.0), timeStamp: 2017-02-18 16:20:59.518
LEye coords (356.0, 197.0), REye coords (347.0, 188.0), timeStamp: 2017-02-18 16:20:59.565
LEye coords (0.0, 0.0), REye coords (346.0, 190.0), timeStamp: 2017-02-18 16:20:59.599
LEye coords (0.0, 0.0), REye coords (343.0, 192.0), timeStamp: 2017-02-18 16:20:59.633
LEye coords (357.0, 199.0), REye coords (343.0, 194.0), timeStamp: 2017-02-18 16:20:59.667
LEye coords (357.0, 199.0), REye coords (347.0, 200.0), timeStamp: 2017-02-18 16:20:59.710
LEye coords (358.0, 198.0), REye coords (351.0, 194.0), timeStamp: 2017-02-18 16:20:59.743
LEye coords (358.0, 200.0), REye coords (349.0, 193.0), timeStamp: 2017-02-18 16:20:59.776
LEye coords (384.0, 199.0), REye coords (357.0, 196.0), timeStamp: 2017-02-18 16:20:59.821
LEye coords (386.0, 201.0), REye coords (362.0, 198.0), timeStamp: 2017-02-18 16:20:59.853
LEye coords (386.0, 202.0), REye coords (366.0, 200.0), timeStamp: 2017-02-18 16:20:59.887
LEye coords (387.0, 203.0), REye coords (368.0, 201.0), timeStamp: 2017-02-18 16:20:59.931
LEye coords (387.0, 204.0), REye coords (370.0, 202.0), timeStamp: 2017-02-18 16:20:59.964
LEye coords (387.0, 204.0), REye coords (372.0, 202.0), timeStamp: 2017-02-18 16:21:00.008
LEye coords (386.0, 204.0), REye coords (373.0, 202.0), timeStamp: 2017-02-18 16:21:00.042
LEye coords (386.0, 205.0), REye coords (373.0, 202.0), timeStamp: 2017-02-18 16:21:00.077
LEye coords (386.0, 206.0), REye coords (374.0, 202.0), timeStamp: 2017-02-18 16:21:00.111
LEye coords (386.0, 207.0), REye coords (375.0, 202.0), timeStamp: 2017-02-18 16:21:00.156
LEye coords (385.0, 208.0), REye coords (376.0, 201.0), timeStamp: 2017-02-18 16:21:00.189
LEye coords (385.0, 209.0), REye coords (376.0, 201.0), timeStamp: 2017-02-18 16:21:00.223
LEye coords (385.0, 209.0), REye coords (376.0, 201.0), timeStamp: 2017-02-18 16:21:00.266
LEye coords (385.0, 209.0), REye coords (377.0, 202.0), timeStamp: 2017-02-18 16:21:00.300
LEye coords (385.0, 209.0), REye coords (377.0, 202.0), timeStamp: 2017-02-18 16:21:00.334
LEye coords (385.0, 209.0), REye coords (377.0, 203.0), timeStamp: 2017-02-18 16:21:00.369
LEye coords (385.0, 209.0), REye coords (377.0, 204.0), timeStamp: 2017-02-18 16:21:00.414
LEye coords (385.0, 210.0), REye coords (378.0, 204.0), timeStamp: 2017-02-18 16:21:00.448
LEye coords (385.0, 210.0), REye coords (378.0, 204.0), timeStamp: 2017-02-18 16:21:00.482
LEye coords (385.0, 210.0), REye coords (378.0, 204.0), timeStamp: 2017-02-18 16:21:00.516
LEye coords (385.0, 211.0), REye coords (379.0, 204.0), timeStamp: 2017-02-18 16:21:00.560
LEye coords (385.0, 211.0), REye coords (379.0, 205.0), timeStamp: 2017-02-18 16:21:00.594
LEye coords (385.0, 212.0), REye coords (379.0, 205.0), timeStamp: 2017-02-18 16:21:00.627
LEye coords (385.0, 213.0), REye coords (379.0, 205.0), timeStamp: 2017-02-18 16:21:00.672
LEye coords (385.0, 213.0), REye coords (379.0, 205.0), timeStamp: 2017-02-18 16:21:00.706
LEye coords (384.0, 214.0), REye coords (379.0, 206.0), timeStamp: 2017-02-18 16:21:00.740
LEye coords (384.0, 214.0), REye coords (379.0, 206.0), timeStamp: 2017-02-18 16:21:00.785
LEye coords (384.0, 215.0), REye coords (378.0, 206.0), timeStamp: 2017-02-18 16:21:00.818
LEye coords (384.0, 215.0), REye coords (378.0, 206.0), timeStamp: 2017-02-18 16:21:00.851
LEye coords (384.0, 216.0), REye coords (377.0, 207.0), timeStamp: 2017-02-18 16:21:00.896
LEye coords (335.0, 201.0), REye coords (328.0, 204.0), timeStamp: 2017-02-18 16:21:00.930
LEye coords (316.0, 193.0), REye coords (300.0, 191.0), timeStamp: 2017-02-18 16:21:00.964
LEye coords (316.0, 193.0), REye coords (298.0, 191.0), timeStamp: 2017-02-18 16:21:00.999
LEye coords (316.0, 193.0), REye coords (299.0, 190.0), timeStamp: 2017-02-18 16:21:01.044
LEye coords (316.0, 193.0), REye coords (299.0, 191.0), timeStamp: 2017-02-18 16:21:01.078
LEye coords (318.0, 195.0), REye coords (297.0, 191.0), timeStamp: 2017-02-18 16:21:01.111
LEye coords (315.0, 193.0), REye coords (299.0, 192.0), timeStamp: 2017-02-18 16:21:01.145
LEye coords (316.0, 193.0), REye coords (299.0, 191.0), timeStamp: 2017-02-18 16:21:01.190
LEye coords (322.0, 196.0), REye coords (307.0, 193.0), timeStamp: 2017-02-18 16:21:01.223
LEye coords (336.0, 201.0), REye coords (322.0, 198.0), timeStamp: 2017-02-18 16:21:01.257
LEye coords (380.0, 216.0), REye coords (365.0, 212.0), timeStamp: 2017-02-18 16:21:01.301
LEye coords (378.0, 218.0), REye coords (368.0, 214.0), timeStamp: 2017-02-18 16:21:01.334
LEye coords (380.0, 216.0), REye coords (368.0, 214.0), timeStamp: 2017-02-18 16:21:01.368
LEye coords (380.0, 217.0), REye coords (369.0, 212.0), timeStamp: 2017-02-18 16:21:01.411
LEye coords (380.0, 217.0), REye coords (369.0, 210.0), timeStamp: 2017-02-18 16:21:01.445
LEye coords (380.0, 217.0), REye coords (370.0, 210.0), timeStamp: 2017-02-18 16:21:01.480
LEye coords (380.0, 217.0), REye coords (370.0, 210.0), timeStamp: 2017-02-18 16:21:01.523
LEye coords (380.0, 217.0), REye coords (370.0, 210.0), timeStamp: 2017-02-18 16:21:01.557
LEye coords (380.0, 217.0), REye coords (370.0, 209.0), timeStamp: 2017-02-18 16:21:01.591
LEye coords (380.0, 217.0), REye coords (370.0, 209.0), timeStamp: 2017-02-18 16:21:01.636
LEye coords (380.0, 217.0), REye coords (370.0, 209.0), timeStamp: 2017-02-18 16:21:01.669
LEye coords (380.0, 217.0), REye coords (370.0, 209.0), timeStamp: 2017-02-18 16:21:01.703
LEye coords (380.0, 217.0), REye coords (370.0, 209.0), timeStamp: 2017-02-18 16:21:01.747
LEye coords (380.0, 218.0), REye coords (370.0, 209.0), timeStamp: 2017-02-18 16:21:01.781
LEye coords (380.0, 218.0), REye coords (370.0, 208.0), timeStamp: 2017-02-18 16:21:01.814
LEye coords (380.0, 218.0), REye coords (370.0, 208.0), timeStamp: 2017-02-18 16:21:01.849
LEye coords (380.0, 218.0), REye coords (371.0, 208.0), timeStamp: 2017-02-18 16:21:01.893
LEye coords (380.0, 218.0), REye coords (370.0, 208.0), timeStamp: 2017-02-18 16:21:01.928
LEye coords (380.0, 218.0), REye coords (370.0, 208.0), timeStamp: 2017-02-18 16:21:01.962
LEye coords (380.0, 218.0), REye coords (370.0, 209.0), timeStamp: 2017-02-18 16:21:02.006
