LEye coords (224.0, 261.0), REye coords (208.0, 241.0), timeStamp: 2017-02-18 16:21:29.425
LEye coords (223.0, 261.0), REye coords (208.0, 241.0), timeStamp: 2017-02-18 16:21:29.458
LEye coords (223.0, 262.0), REye coords (208.0, 241.0), timeStamp: 2017-02-18 16:21:29.502
LEye coords (223.0, 262.0), REye coords (208.0, 241.0), timeStamp: 2017-02-18 16:21:29.536
LEye coords (223.0, 262.0), REye coords (208.0, 242.0), timeStamp: 2017-02-18 16:21:29.569
LEye coords (223.0, 262.0), REye coords (208.0, 242.0), timeStamp: 2017-02-18 16:21:29.613
LEye coords (223.0, 262.0), REye coords (208.0, 242.0), timeStamp: 2017-02-18 16:21:29.648
LEye coords (223.0, 262.0), REye coords (208.0, 242.0), timeStamp: 2017-02-18 16:21:29.681
LEye coords (223.0, 262.0), REye coords (208.0, 242.0), timeStamp: 2017-02-18 16:21:29.726
LEye coords (223.0, 263.0), REye coords (209.0, 242.0), timeStamp: 2017-02-18 16:21:29.760
LEye coords (188.0, 287.0), REye coords (172.0, 288.0), timeStamp: 2017-02-18 16:21:29.793
LEye coords (179.0, 295.0), REye coords (166.0, 303.0), timeStamp: 2017-02-18 16:21:29.837
LEye coords (179.0, 296.0), REye coords (167.0, 298.0), timeStamp: 2017-02-18 16:21:29.871
LEye coords (179.0, 297.0), REye coords (166.0, 300.0), timeStamp: 2017-02-18 16:21:29.905
LEye coords (179.0, 299.0), REye coords (166.0, 299.0), timeStamp: 2017-02-18 16:21:29.948
LEye coords (178.0, 309.0), REye coords (168.0, 302.0), timeStamp: 2017-02-18 16:21:29.982
LEye coords (175.0, 310.0), REye coords (169.0, 294.0), timeStamp: 2017-02-18 16:21:30.016
LEye coords (176.0, 311.0), REye coords (167.0, 296.0), timeStamp: 2017-02-18 16:21:30.060
LEye coords (175.0, 309.0), REye coords (164.0, 299.0), timeStamp: 2017-02-18 16:21:30.094
LEye coords (173.0, 307.0), REye coords (162.0, 299.0), timeStamp: 2017-02-18 16:21:30.127
LEye coords (172.0, 306.0), REye coords (160.0, 299.0), timeStamp: 2017-02-18 16:21:30.171
LEye coords (171.0, 305.0), REye coords (160.0, 299.0), timeStamp: 2017-02-18 16:21:30.205
LEye coords (170.0, 304.0), REye coords (159.0, 298.0), timeStamp: 2017-02-18 16:21:30.239
LEye coords (170.0, 304.0), REye coords (158.0, 298.0), timeStamp: 2017-02-18 16:21:30.282
LEye coords (169.0, 304.0), REye coords (158.0, 298.0), timeStamp: 2017-02-18 16:21:30.314
LEye coords (169.0, 304.0), REye coords (157.0, 298.0), timeStamp: 2017-02-18 16:21:30.347
LEye coords (168.0, 304.0), REye coords (157.0, 298.0), timeStamp: 2017-02-18 16:21:30.392
LEye coords (168.0, 304.0), REye coords (156.0, 298.0), timeStamp: 2017-02-18 16:21:30.424
LEye coords (168.0, 303.0), REye coords (156.0, 298.0), timeStamp: 2017-02-18 16:21:30.458
LEye coords (168.0, 303.0), REye coords (156.0, 299.0), timeStamp: 2017-02-18 16:21:30.503
LEye coords (167.0, 303.0), REye coords (155.0, 299.0), timeStamp: 2017-02-18 16:21:30.537
LEye coords (167.0, 303.0), REye coords (155.0, 299.0), timeStamp: 2017-02-18 16:21:30.571
LEye coords (167.0, 302.0), REye coords (155.0, 299.0), timeStamp: 2017-02-18 16:21:30.616
LEye coords (167.0, 302.0), REye coords (155.0, 299.0), timeStamp: 2017-02-18 16:21:30.650
LEye coords (167.0, 302.0), REye coords (155.0, 299.0), timeStamp: 2017-02-18 16:21:30.683
LEye coords (167.0, 301.0), REye coords (155.0, 300.0), timeStamp: 2017-02-18 16:21:30.726
LEye coords (167.0, 301.0), REye coords (155.0, 300.0), timeStamp: 2017-02-18 16:21:30.760
LEye coords (167.0, 301.0), REye coords (155.0, 300.0), timeStamp: 2017-02-18 16:21:30.793
LEye coords (167.0, 300.0), REye coords (155.0, 301.0), timeStamp: 2017-02-18 16:21:30.837
LEye coords (167.0, 300.0), REye coords (154.0, 301.0), timeStamp: 2017-02-18 16:21:30.872
LEye coords (166.0, 299.0), REye coords (154.0, 302.0), timeStamp: 2017-02-18 16:21:30.904
LEye coords (166.0, 299.0), REye coords (154.0, 302.0), timeStamp: 2017-02-18 16:21:30.949
LEye coords (166.0, 299.0), REye coords (154.0, 302.0), timeStamp: 2017-02-18 16:21:30.982
LEye coords (165.0, 298.0), REye coords (153.0, 302.0), timeStamp: 2017-02-18 16:21:31.015
LEye coords (165.0, 298.0), REye coords (153.0, 302.0), timeStamp: 2017-02-18 16:21:31.059
LEye coords (165.0, 298.0), REye coords (152.0, 301.0), timeStamp: 2017-02-18 16:21:31.093
LEye coords (165.0, 298.0), REye coords (152.0, 301.0), timeStamp: 2017-02-18 16:21:31.126
LEye coords (164.0, 298.0), REye coords (152.0, 301.0), timeStamp: 2017-02-18 16:21:31.170
LEye coords (164.0, 298.0), REye coords (152.0, 301.0), timeStamp: 2017-02-18 16:21:31.205
LEye coords (164.0, 298.0), REye coords (151.0, 301.0), timeStamp: 2017-02-18 16:21:31.238
LEye coords (163.0, 299.0), REye coords (151.0, 301.0), timeStamp: 2017-02-18 16:21:31.282
LEye coords (163.0, 299.0), REye coords (151.0, 300.0), timeStamp: 2017-02-18 16:21:31.316
LEye coords (163.0, 299.0), REye coords (150.0, 300.0), timeStamp: 2017-02-18 16:21:31.349
LEye coords (163.0, 300.0), REye coords (150.0, 301.0), timeStamp: 2017-02-18 16:21:31.383
LEye coords (162.0, 300.0), REye coords (150.0, 300.0), timeStamp: 2017-02-18 16:21:31.428
LEye coords (162.0, 301.0), REye coords (150.0, 300.0), timeStamp: 2017-02-18 16:21:31.461
LEye coords (162.0, 301.0), REye coords (150.0, 301.0), timeStamp: 2017-02-18 16:21:31.494
LEye coords (162.0, 302.0), REye coords (150.0, 301.0), timeStamp: 2017-02-18 16:21:31.538
LEye coords (162.0, 302.0), REye coords (149.0, 302.0), timeStamp: 2017-02-18 16:21:31.572
LEye coords (162.0, 303.0), REye coords (150.0, 302.0), timeStamp: 2017-02-18 16:21:31.606
LEye coords (162.0, 303.0), REye coords (149.0, 303.0), timeStamp: 2017-02-18 16:21:31.649
LEye coords (162.0, 303.0), REye coords (149.0, 303.0), timeStamp: 2017-02-18 16:21:31.684
LEye coords (161.0, 304.0), REye coords (149.0, 304.0), timeStamp: 2017-02-18 16:21:31.717
LEye coords (161.0, 305.0), REye coords (149.0, 305.0), timeStamp: 2017-02-18 16:21:31.760
LEye coords (161.0, 305.0), REye coords (149.0, 305.0), timeStamp: 2017-02-18 16:21:31.795
LEye coords (161.0, 305.0), REye coords (149.0, 305.0), timeStamp: 2017-02-18 16:21:31.829
LEye coords (162.0, 305.0), REye coords (149.0, 306.0), timeStamp: 2017-02-18 16:21:31.873
LEye coords (162.0, 305.0), REye coords (149.0, 306.0), timeStamp: 2017-02-18 16:21:31.907
LEye coords (162.0, 305.0), REye coords (149.0, 306.0), timeStamp: 2017-02-18 16:21:31.939
LEye coords (162.0, 306.0), REye coords (150.0, 307.0), timeStamp: 2017-02-18 16:21:31.983
