LEye coords (387.0, 236.0), REye coords (378.0, 233.0), timeStamp: 2017-02-18 16:21:26.172
LEye coords (387.0, 236.0), REye coords (379.0, 233.0), timeStamp: 2017-02-18 16:21:26.206
LEye coords (387.0, 235.0), REye coords (379.0, 233.0), timeStamp: 2017-02-18 16:21:26.241
LEye coords (387.0, 235.0), REye coords (378.0, 233.0), timeStamp: 2017-02-18 16:21:26.284
LEye coords (387.0, 235.0), REye coords (378.0, 233.0), timeStamp: 2017-02-18 16:21:26.318
LEye coords (387.0, 235.0), REye coords (379.0, 233.0), timeStamp: 2017-02-18 16:21:26.351
LEye coords (387.0, 235.0), REye coords (379.0, 233.0), timeStamp: 2017-02-18 16:21:26.397
LEye coords (387.0, 235.0), REye coords (379.0, 233.0), timeStamp: 2017-02-18 16:21:26.430
LEye coords (301.0, 195.0), REye coords (289.0, 193.0), timeStamp: 2017-02-18 16:21:26.465
LEye coords (299.0, 187.0), REye coords (288.0, 184.0), timeStamp: 2017-02-18 16:21:26.498
LEye coords (301.0, 189.0), REye coords (286.0, 189.0), timeStamp: 2017-02-18 16:21:26.543
LEye coords (303.0, 192.0), REye coords (285.0, 191.0), timeStamp: 2017-02-18 16:21:26.577
LEye coords (302.0, 192.0), REye coords (285.0, 192.0), timeStamp: 2017-02-18 16:21:26.609
LEye coords (258.0, 187.0), REye coords (243.0, 176.0), timeStamp: 2017-02-18 16:21:26.652
LEye coords (246.0, 184.0), REye coords (235.0, 176.0), timeStamp: 2017-02-18 16:21:26.686
LEye coords (247.0, 183.0), REye coords (234.0, 176.0), timeStamp: 2017-02-18 16:21:26.730
LEye coords (247.0, 179.0), REye coords (234.0, 176.0), timeStamp: 2017-02-18 16:21:26.763
LEye coords (243.0, 167.0), REye coords (234.0, 175.0), timeStamp: 2017-02-18 16:21:26.797
LEye coords (266.0, 175.0), REye coords (255.0, 157.0), timeStamp: 2017-02-18 16:21:26.831
LEye coords (267.0, 179.0), REye coords (256.0, 151.0), timeStamp: 2017-02-18 16:21:26.876
LEye coords (266.0, 180.0), REye coords (256.0, 150.0), timeStamp: 2017-02-18 16:21:26.910
LEye coords (266.0, 182.0), REye coords (255.0, 152.0), timeStamp: 2017-02-18 16:21:26.943
LEye coords (264.0, 179.0), REye coords (255.0, 153.0), timeStamp: 2017-02-18 16:21:26.987
LEye coords (266.0, 174.0), REye coords (257.0, 144.0), timeStamp: 2017-02-18 16:21:27.021
LEye coords (258.0, 170.0), REye coords (256.0, 146.0), timeStamp: 2017-02-18 16:21:27.055
LEye coords (258.0, 168.0), REye coords (255.0, 148.0), timeStamp: 2017-02-18 16:21:27.099
LEye coords (256.0, 164.0), REye coords (255.0, 149.0), timeStamp: 2017-02-18 16:21:27.133
LEye coords (256.0, 164.0), REye coords (254.0, 150.0), timeStamp: 2017-02-18 16:21:27.166
LEye coords (257.0, 164.0), REye coords (254.0, 150.0), timeStamp: 2017-02-18 16:21:27.211
LEye coords (257.0, 166.0), REye coords (253.0, 151.0), timeStamp: 2017-02-18 16:21:27.244
LEye coords (258.0, 166.0), REye coords (253.0, 151.0), timeStamp: 2017-02-18 16:21:27.279
LEye coords (258.0, 167.0), REye coords (253.0, 152.0), timeStamp: 2017-02-18 16:21:27.313
LEye coords (259.0, 168.0), REye coords (252.0, 153.0), timeStamp: 2017-02-18 16:21:27.357
LEye coords (259.0, 169.0), REye coords (252.0, 154.0), timeStamp: 2017-02-18 16:21:27.391
LEye coords (259.0, 169.0), REye coords (252.0, 155.0), timeStamp: 2017-02-18 16:21:27.425
LEye coords (260.0, 169.0), REye coords (251.0, 155.0), timeStamp: 2017-02-18 16:21:27.470
LEye coords (260.0, 170.0), REye coords (251.0, 162.0), timeStamp: 2017-02-18 16:21:27.504
LEye coords (260.0, 170.0), REye coords (246.0, 164.0), timeStamp: 2017-02-18 16:21:27.538
LEye coords (261.0, 171.0), REye coords (247.0, 164.0), timeStamp: 2017-02-18 16:21:27.572
LEye coords (261.0, 171.0), REye coords (247.0, 165.0), timeStamp: 2017-02-18 16:21:27.615
LEye coords (261.0, 171.0), REye coords (247.0, 167.0), timeStamp: 2017-02-18 16:21:27.649
LEye coords (262.0, 172.0), REye coords (247.0, 168.0), timeStamp: 2017-02-18 16:21:27.682
LEye coords (262.0, 172.0), REye coords (247.0, 168.0), timeStamp: 2017-02-18 16:21:27.727
LEye coords (262.0, 173.0), REye coords (247.0, 168.0), timeStamp: 2017-02-18 16:21:27.762
LEye coords (263.0, 173.0), REye coords (247.0, 169.0), timeStamp: 2017-02-18 16:21:27.796
LEye coords (263.0, 174.0), REye coords (248.0, 168.0), timeStamp: 2017-02-18 16:21:27.840
LEye coords (264.0, 174.0), REye coords (248.0, 169.0), timeStamp: 2017-02-18 16:21:27.874
LEye coords (264.0, 175.0), REye coords (249.0, 169.0), timeStamp: 2017-02-18 16:21:27.907
LEye coords (265.0, 175.0), REye coords (249.0, 169.0), timeStamp: 2017-02-18 16:21:27.942
LEye coords (265.0, 176.0), REye coords (249.0, 169.0), timeStamp: 2017-02-18 16:21:27.987
LEye coords (266.0, 177.0), REye coords (250.0, 169.0), timeStamp: 2017-02-18 16:21:28.020
LEye coords (266.0, 177.0), REye coords (250.0, 169.0), timeStamp: 2017-02-18 16:21:28.055
LEye coords (267.0, 178.0), REye coords (250.0, 169.0), timeStamp: 2017-02-18 16:21:28.089
LEye coords (267.0, 179.0), REye coords (251.0, 169.0), timeStamp: 2017-02-18 16:21:28.133
LEye coords (268.0, 179.0), REye coords (250.0, 170.0), timeStamp: 2017-02-18 16:21:28.167
LEye coords (268.0, 179.0), REye coords (250.0, 169.0), timeStamp: 2017-02-18 16:21:28.201
LEye coords (269.0, 179.0), REye coords (250.0, 169.0), timeStamp: 2017-02-18 16:21:28.247
LEye coords (270.0, 180.0), REye coords (251.0, 169.0), timeStamp: 2017-02-18 16:21:28.280
LEye coords (271.0, 180.0), REye coords (251.0, 170.0), timeStamp: 2017-02-18 16:21:28.314
LEye coords (272.0, 180.0), REye coords (252.0, 170.0), timeStamp: 2017-02-18 16:21:28.360
LEye coords (274.0, 181.0), REye coords (253.0, 171.0), timeStamp: 2017-02-18 16:21:28.393
LEye coords (275.0, 181.0), REye coords (254.0, 171.0), timeStamp: 2017-02-18 16:21:28.427
LEye coords (276.0, 182.0), REye coords (255.0, 171.0), timeStamp: 2017-02-18 16:21:28.462
LEye coords (278.0, 182.0), REye coords (256.0, 172.0), timeStamp: 2017-02-18 16:21:28.506
LEye coords (279.0, 183.0), REye coords (257.0, 173.0), timeStamp: 2017-02-18 16:21:28.540
LEye coords (280.0, 183.0), REye coords (257.0, 175.0), timeStamp: 2017-02-18 16:21:28.574
LEye coords (282.0, 184.0), REye coords (258.0, 175.0), timeStamp: 2017-02-18 16:21:28.608
LEye coords (283.0, 185.0), REye coords (259.0, 176.0), timeStamp: 2017-02-18 16:21:28.651
LEye coords (285.0, 185.0), REye coords (260.0, 177.0), timeStamp: 2017-02-18 16:21:28.685
LEye coords (287.0, 185.0), REye coords (261.0, 177.0), timeStamp: 2017-02-18 16:21:28.718
LEye coords (288.0, 185.0), REye coords (263.0, 177.0), timeStamp: 2017-02-18 16:21:28.763
LEye coords (289.0, 186.0), REye coords (264.0, 178.0), timeStamp: 2017-02-18 16:21:28.796
LEye coords (291.0, 186.0), REye coords (265.0, 179.0), timeStamp: 2017-02-18 16:21:28.839
LEye coords (292.0, 187.0), REye coords (266.0, 179.0), timeStamp: 2017-02-18 16:21:28.872
LEye coords (293.0, 187.0), REye coords (267.0, 179.0), timeStamp: 2017-02-18 16:21:28.905
LEye coords (294.0, 188.0), REye coords (269.0, 179.0), timeStamp: 2017-02-18 16:21:28.949
LEye coords (295.0, 189.0), REye coords (270.0, 179.0), timeStamp: 2017-02-18 16:21:28.984
LEye coords (296.0, 189.0), REye coords (271.0, 180.0), timeStamp: 2017-02-18 16:21:29.018
LEye coords (297.0, 190.0), REye coords (272.0, 180.0), timeStamp: 2017-02-18 16:21:29.054
LEye coords (297.0, 191.0), REye coords (272.0, 180.0), timeStamp: 2017-02-18 16:21:29.098
LEye coords (298.0, 191.0), REye coords (273.0, 180.0), timeStamp: 2017-02-18 16:21:29.132
LEye coords (298.0, 192.0), REye coords (273.0, 180.0), timeStamp: 2017-02-18 16:21:29.166
LEye coords (298.0, 193.0), REye coords (274.0, 181.0), timeStamp: 2017-02-18 16:21:29.200
LEye coords (299.0, 193.0), REye coords (274.0, 181.0), timeStamp: 2017-02-18 16:21:29.245
LEye coords (299.0, 194.0), REye coords (275.0, 181.0), timeStamp: 2017-02-18 16:21:29.279
LEye coords (299.0, 195.0), REye coords (275.0, 181.0), timeStamp: 2017-02-18 16:21:29.313
