LEye coords (204.0, 170.0), REye coords (0.0, 0.0), timeStamp: 2017-02-18 16:22:53.073
LEye coords (203.0, 168.0), REye coords (0.0, 0.0), timeStamp: 2017-02-18 16:22:53.107
LEye coords (202.0, 167.0), REye coords (0.0, 0.0), timeStamp: 2017-02-18 16:22:53.141
LEye coords (201.0, 165.0), REye coords (0.0, 0.0), timeStamp: 2017-02-18 16:22:53.185
LEye coords (200.0, 164.0), REye coords (0.0, 0.0), timeStamp: 2017-02-18 16:22:53.218
LEye coords (199.0, 163.0), REye coords (0.0, 0.0), timeStamp: 2017-02-18 16:22:53.251
LEye coords (199.0, 162.0), REye coords (0.0, 0.0), timeStamp: 2017-02-18 16:22:53.295
LEye coords (198.0, 161.0), REye coords (0.0, 0.0), timeStamp: 2017-02-18 16:22:53.329
LEye coords (198.0, 160.0), REye coords (0.0, 0.0), timeStamp: 2017-02-18 16:22:53.362
LEye coords (197.0, 160.0), REye coords (0.0, 0.0), timeStamp: 2017-02-18 16:22:53.407
LEye coords (197.0, 160.0), REye coords (0.0, 0.0), timeStamp: 2017-02-18 16:22:53.440
LEye coords (336.0, 157.0), REye coords (328.0, 155.0), timeStamp: 2017-02-18 16:22:53.475
LEye coords (338.0, 161.0), REye coords (339.0, 167.0), timeStamp: 2017-02-18 16:22:53.519
LEye coords (337.0, 160.0), REye coords (337.0, 171.0), timeStamp: 2017-02-18 16:22:53.553
LEye coords (335.0, 159.0), REye coords (337.0, 171.0), timeStamp: 2017-02-18 16:22:53.587
LEye coords (335.0, 159.0), REye coords (337.0, 170.0), timeStamp: 2017-02-18 16:22:53.631
LEye coords (333.0, 158.0), REye coords (336.0, 164.0), timeStamp: 2017-02-18 16:22:53.665
LEye coords (333.0, 164.0), REye coords (337.0, 168.0), timeStamp: 2017-02-18 16:22:53.698
LEye coords (333.0, 163.0), REye coords (337.0, 168.0), timeStamp: 2017-02-18 16:22:53.732
LEye coords (334.0, 163.0), REye coords (337.0, 168.0), timeStamp: 2017-02-18 16:22:53.776
LEye coords (335.0, 163.0), REye coords (338.0, 167.0), timeStamp: 2017-02-18 16:22:53.810
LEye coords (336.0, 162.0), REye coords (339.0, 166.0), timeStamp: 2017-02-18 16:22:53.843
LEye coords (336.0, 161.0), REye coords (339.0, 164.0), timeStamp: 2017-02-18 16:22:53.887
LEye coords (336.0, 162.0), REye coords (339.0, 164.0), timeStamp: 2017-02-18 16:22:53.921
LEye coords (336.0, 161.0), REye coords (339.0, 164.0), timeStamp: 2017-02-18 16:22:53.955
LEye coords (337.0, 162.0), REye coords (339.0, 165.0), timeStamp: 2017-02-18 16:22:54.000
LEye coords (338.0, 164.0), REye coords (339.0, 167.0), timeStamp: 2017-02-18 16:22:54.034
LEye coords (339.0, 166.0), REye coords (340.0, 170.0), timeStamp: 2017-02-18 16:22:54.068
LEye coords (340.0, 168.0), REye coords (340.0, 172.0), timeStamp: 2017-02-18 16:22:54.112
LEye coords (341.0, 170.0), REye coords (341.0, 173.0), timeStamp: 2017-02-18 16:22:54.145
LEye coords (342.0, 172.0), REye coords (341.0, 174.0), timeStamp: 2017-02-18 16:22:54.178
LEye coords (343.0, 173.0), REye coords (341.0, 176.0), timeStamp: 2017-02-18 16:22:54.222
LEye coords (343.0, 174.0), REye coords (342.0, 177.0), timeStamp: 2017-02-18 16:22:54.256
LEye coords (343.0, 175.0), REye coords (342.0, 177.0), timeStamp: 2017-02-18 16:22:54.290
LEye coords (343.0, 177.0), REye coords (342.0, 178.0), timeStamp: 2017-02-18 16:22:54.335
LEye coords (344.0, 178.0), REye coords (342.0, 178.0), timeStamp: 2017-02-18 16:22:54.368
LEye coords (344.0, 179.0), REye coords (342.0, 179.0), timeStamp: 2017-02-18 16:22:54.402
LEye coords (344.0, 180.0), REye coords (343.0, 179.0), timeStamp: 2017-02-18 16:22:54.446
LEye coords (344.0, 181.0), REye coords (343.0, 180.0), timeStamp: 2017-02-18 16:22:54.479
LEye coords (344.0, 182.0), REye coords (343.0, 180.0), timeStamp: 2017-02-18 16:22:54.514
LEye coords (345.0, 183.0), REye coords (343.0, 181.0), timeStamp: 2017-02-18 16:22:54.548
LEye coords (345.0, 184.0), REye coords (343.0, 181.0), timeStamp: 2017-02-18 16:22:54.592
LEye coords (345.0, 186.0), REye coords (343.0, 182.0), timeStamp: 2017-02-18 16:22:54.627
LEye coords (345.0, 187.0), REye coords (343.0, 183.0), timeStamp: 2017-02-18 16:22:54.661
LEye coords (345.0, 188.0), REye coords (343.0, 183.0), timeStamp: 2017-02-18 16:22:54.705
LEye coords (346.0, 189.0), REye coords (343.0, 184.0), timeStamp: 2017-02-18 16:22:54.740
LEye coords (346.0, 190.0), REye coords (343.0, 185.0), timeStamp: 2017-02-18 16:22:54.774
LEye coords (346.0, 190.0), REye coords (343.0, 185.0), timeStamp: 2017-02-18 16:22:54.807
LEye coords (346.0, 191.0), REye coords (343.0, 185.0), timeStamp: 2017-02-18 16:22:54.852
LEye coords (346.0, 191.0), REye coords (343.0, 186.0), timeStamp: 2017-02-18 16:22:54.885
LEye coords (346.0, 191.0), REye coords (343.0, 185.0), timeStamp: 2017-02-18 16:22:54.918
LEye coords (345.0, 191.0), REye coords (343.0, 185.0), timeStamp: 2017-02-18 16:22:54.962
LEye coords (345.0, 191.0), REye coords (343.0, 185.0), timeStamp: 2017-02-18 16:22:54.996
LEye coords (345.0, 190.0), REye coords (343.0, 185.0), timeStamp: 2017-02-18 16:22:55.030
LEye coords (345.0, 190.0), REye coords (343.0, 184.0), timeStamp: 2017-02-18 16:22:55.074
LEye coords (345.0, 190.0), REye coords (343.0, 184.0), timeStamp: 2017-02-18 16:22:55.108
LEye coords (345.0, 190.0), REye coords (344.0, 184.0), timeStamp: 2017-02-18 16:22:55.142
LEye coords (345.0, 190.0), REye coords (343.0, 184.0), timeStamp: 2017-02-18 16:22:55.186
LEye coords (345.0, 190.0), REye coords (344.0, 184.0), timeStamp: 2017-02-18 16:22:55.220
LEye coords (345.0, 189.0), REye coords (344.0, 184.0), timeStamp: 2017-02-18 16:22:55.254
LEye coords (345.0, 189.0), REye coords (344.0, 184.0), timeStamp: 2017-02-18 16:22:55.288
LEye coords (345.0, 188.0), REye coords (345.0, 183.0), timeStamp: 2017-02-18 16:22:55.333
LEye coords (346.0, 188.0), REye coords (346.0, 183.0), timeStamp: 2017-02-18 16:22:55.366
LEye coords (346.0, 188.0), REye coords (346.0, 182.0), timeStamp: 2017-02-18 16:22:55.399
LEye coords (346.0, 188.0), REye coords (346.0, 182.0), timeStamp: 2017-02-18 16:22:55.444
LEye coords (346.0, 187.0), REye coords (347.0, 182.0), timeStamp: 2017-02-18 16:22:55.478
LEye coords (347.0, 187.0), REye coords (348.0, 181.0), timeStamp: 2017-02-18 16:22:55.512
LEye coords (348.0, 187.0), REye coords (349.0, 181.0), timeStamp: 2017-02-18 16:22:55.557
LEye coords (348.0, 187.0), REye coords (350.0, 180.0), timeStamp: 2017-02-18 16:22:55.591
LEye coords (349.0, 187.0), REye coords (350.0, 180.0), timeStamp: 2017-02-18 16:22:55.625
LEye coords (349.0, 187.0), REye coords (351.0, 179.0), timeStamp: 2017-02-18 16:22:55.660
LEye coords (350.0, 187.0), REye coords (351.0, 179.0), timeStamp: 2017-02-18 16:22:55.703
LEye coords (350.0, 187.0), REye coords (352.0, 179.0), timeStamp: 2017-02-18 16:22:55.737
LEye coords (351.0, 187.0), REye coords (353.0, 178.0), timeStamp: 2017-02-18 16:22:55.771
LEye coords (351.0, 186.0), REye coords (353.0, 178.0), timeStamp: 2017-02-18 16:22:55.805
LEye coords (352.0, 187.0), REye coords (354.0, 178.0), timeStamp: 2017-02-18 16:22:55.849
LEye coords (352.0, 187.0), REye coords (354.0, 178.0), timeStamp: 2017-02-18 16:22:55.883
LEye coords (352.0, 187.0), REye coords (355.0, 178.0), timeStamp: 2017-02-18 16:22:55.917
LEye coords (353.0, 187.0), REye coords (355.0, 178.0), timeStamp: 2017-02-18 16:22:55.961
LEye coords (353.0, 187.0), REye coords (355.0, 178.0), timeStamp: 2017-02-18 16:22:55.995
LEye coords (353.0, 187.0), REye coords (355.0, 178.0), timeStamp: 2017-02-18 16:22:56.029
LEye coords (354.0, 187.0), REye coords (355.0, 178.0), timeStamp: 2017-02-18 16:22:56.074
LEye coords (354.0, 187.0), REye coords (356.0, 178.0), timeStamp: 2017-02-18 16:22:56.108
LEye coords (354.0, 188.0), REye coords (356.0, 178.0), timeStamp: 2017-02-18 16:22:56.141
LEye coords (355.0, 187.0), REye coords (356.0, 179.0), timeStamp: 2017-02-18 16:22:56.175
LEye coords (355.0, 187.0), REye coords (356.0, 179.0), timeStamp: 2017-02-18 16:22:56.219
LEye coords (355.0, 187.0), REye coords (356.0, 179.0), timeStamp: 2017-02-18 16:22:56.252
LEye coords (355.0, 187.0), REye coords (356.0, 179.0), timeStamp: 2017-02-18 16:22:56.287
LEye coords (355.0, 187.0), REye coords (356.0, 179.0), timeStamp: 2017-02-18 16:22:56.330
LEye coords (355.0, 187.0), REye coords (356.0, 179.0), timeStamp: 2017-02-18 16:22:56.365
LEye coords (355.0, 187.0), REye coords (356.0, 179.0), timeStamp: 2017-02-18 16:22:56.398
LEye coords (355.0, 187.0), REye coords (356.0, 179.0), timeStamp: 2017-02-18 16:22:56.442
LEye coords (355.0, 187.0), REye coords (356.0, 179.0), timeStamp: 2017-02-18 16:22:56.476
