LEye coords (172.0, 161.0), REye coords (183.0, 151.0), timeStamp: 2017-02-18 16:24:36.774
LEye coords (172.0, 145.0), REye coords (183.0, 137.0), timeStamp: 2017-02-18 16:24:36.817
LEye coords (173.0, 145.0), REye coords (183.0, 138.0), timeStamp: 2017-02-18 16:24:36.851
LEye coords (174.0, 145.0), REye coords (183.0, 138.0), timeStamp: 2017-02-18 16:24:36.885
LEye coords (174.0, 145.0), REye coords (183.0, 139.0), timeStamp: 2017-02-18 16:24:36.928
LEye coords (174.0, 145.0), REye coords (183.0, 138.0), timeStamp: 2017-02-18 16:24:36.961
LEye coords (175.0, 146.0), REye coords (182.0, 138.0), timeStamp: 2017-02-18 16:24:36.995
LEye coords (175.0, 145.0), REye coords (182.0, 139.0), timeStamp: 2017-02-18 16:24:37.039
LEye coords (175.0, 145.0), REye coords (182.0, 139.0), timeStamp: 2017-02-18 16:24:37.072
LEye coords (230.0, 131.0), REye coords (241.0, 126.0), timeStamp: 2017-02-18 16:24:37.105
LEye coords (280.0, 125.0), REye coords (299.0, 101.0), timeStamp: 2017-02-18 16:24:37.150
LEye coords (283.0, 123.0), REye coords (297.0, 109.0), timeStamp: 2017-02-18 16:24:37.183
LEye coords (284.0, 123.0), REye coords (296.0, 111.0), timeStamp: 2017-02-18 16:24:37.217
LEye coords (284.0, 125.0), REye coords (295.0, 111.0), timeStamp: 2017-02-18 16:24:37.261
LEye coords (280.0, 123.0), REye coords (286.0, 122.0), timeStamp: 2017-02-18 16:24:37.295
LEye coords (279.0, 130.0), REye coords (287.0, 119.0), timeStamp: 2017-02-18 16:24:37.329
LEye coords (278.0, 129.0), REye coords (286.0, 121.0), timeStamp: 2017-02-18 16:24:37.363
LEye coords (276.0, 141.0), REye coords (286.0, 134.0), timeStamp: 2017-02-18 16:24:37.407
LEye coords (277.0, 146.0), REye coords (287.0, 141.0), timeStamp: 2017-02-18 16:24:37.441
LEye coords (278.0, 148.0), REye coords (287.0, 146.0), timeStamp: 2017-02-18 16:24:37.474
LEye coords (280.0, 150.0), REye coords (287.0, 149.0), timeStamp: 2017-02-18 16:24:37.518
LEye coords (281.0, 151.0), REye coords (287.0, 152.0), timeStamp: 2017-02-18 16:24:37.552
LEye coords (281.0, 152.0), REye coords (286.0, 154.0), timeStamp: 2017-02-18 16:24:37.585
LEye coords (280.0, 153.0), REye coords (286.0, 154.0), timeStamp: 2017-02-18 16:24:37.630
LEye coords (280.0, 153.0), REye coords (285.0, 154.0), timeStamp: 2017-02-18 16:24:37.663
LEye coords (280.0, 154.0), REye coords (285.0, 155.0), timeStamp: 2017-02-18 16:24:37.697
LEye coords (280.0, 154.0), REye coords (285.0, 155.0), timeStamp: 2017-02-18 16:24:37.742
LEye coords (281.0, 154.0), REye coords (285.0, 155.0), timeStamp: 2017-02-18 16:24:37.776
LEye coords (281.0, 154.0), REye coords (285.0, 155.0), timeStamp: 2017-02-18 16:24:37.810
LEye coords (281.0, 154.0), REye coords (285.0, 154.0), timeStamp: 2017-02-18 16:24:37.854
LEye coords (281.0, 155.0), REye coords (284.0, 154.0), timeStamp: 2017-02-18 16:24:37.887
LEye coords (281.0, 155.0), REye coords (284.0, 154.0), timeStamp: 2017-02-18 16:24:37.920
LEye coords (281.0, 155.0), REye coords (284.0, 154.0), timeStamp: 2017-02-18 16:24:37.964
LEye coords (281.0, 156.0), REye coords (284.0, 155.0), timeStamp: 2017-02-18 16:24:37.998
LEye coords (281.0, 156.0), REye coords (284.0, 155.0), timeStamp: 2017-02-18 16:24:38.031
LEye coords (280.0, 157.0), REye coords (284.0, 155.0), timeStamp: 2017-02-18 16:24:38.075
LEye coords (280.0, 157.0), REye coords (284.0, 155.0), timeStamp: 2017-02-18 16:24:38.109
LEye coords (280.0, 158.0), REye coords (284.0, 156.0), timeStamp: 2017-02-18 16:24:38.142
LEye coords (280.0, 159.0), REye coords (284.0, 157.0), timeStamp: 2017-02-18 16:24:38.187
LEye coords (280.0, 159.0), REye coords (282.0, 164.0), timeStamp: 2017-02-18 16:24:38.221
LEye coords (280.0, 159.0), REye coords (282.0, 165.0), timeStamp: 2017-02-18 16:24:38.255
LEye coords (280.0, 160.0), REye coords (282.0, 167.0), timeStamp: 2017-02-18 16:24:38.289
LEye coords (280.0, 160.0), REye coords (282.0, 166.0), timeStamp: 2017-02-18 16:24:38.332
LEye coords (280.0, 160.0), REye coords (282.0, 166.0), timeStamp: 2017-02-18 16:24:38.365
LEye coords (280.0, 160.0), REye coords (282.0, 166.0), timeStamp: 2017-02-18 16:24:38.399
LEye coords (280.0, 160.0), REye coords (283.0, 165.0), timeStamp: 2017-02-18 16:24:38.442
LEye coords (280.0, 160.0), REye coords (283.0, 165.0), timeStamp: 2017-02-18 16:24:38.476
LEye coords (280.0, 161.0), REye coords (283.0, 164.0), timeStamp: 2017-02-18 16:24:38.511
LEye coords (280.0, 161.0), REye coords (284.0, 164.0), timeStamp: 2017-02-18 16:24:38.555
LEye coords (280.0, 162.0), REye coords (284.0, 165.0), timeStamp: 2017-02-18 16:24:38.589
LEye coords (280.0, 162.0), REye coords (284.0, 165.0), timeStamp: 2017-02-18 16:24:38.624
LEye coords (280.0, 162.0), REye coords (284.0, 165.0), timeStamp: 2017-02-18 16:24:38.668
LEye coords (281.0, 162.0), REye coords (285.0, 164.0), timeStamp: 2017-02-18 16:24:38.702
LEye coords (281.0, 161.0), REye coords (285.0, 164.0), timeStamp: 2017-02-18 16:24:38.735
LEye coords (281.0, 162.0), REye coords (286.0, 163.0), timeStamp: 2017-02-18 16:24:38.779
LEye coords (281.0, 162.0), REye coords (286.0, 163.0), timeStamp: 2017-02-18 16:24:38.813
LEye coords (281.0, 162.0), REye coords (287.0, 162.0), timeStamp: 2017-02-18 16:24:38.846
LEye coords (281.0, 162.0), REye coords (287.0, 162.0), timeStamp: 2017-02-18 16:24:38.890
LEye coords (281.0, 163.0), REye coords (288.0, 162.0), timeStamp: 2017-02-18 16:24:38.925
LEye coords (281.0, 163.0), REye coords (288.0, 162.0), timeStamp: 2017-02-18 16:24:38.958
LEye coords (281.0, 163.0), REye coords (288.0, 162.0), timeStamp: 2017-02-18 16:24:38.992
LEye coords (281.0, 163.0), REye coords (289.0, 161.0), timeStamp: 2017-02-18 16:24:39.036
LEye coords (281.0, 163.0), REye coords (289.0, 161.0), timeStamp: 2017-02-18 16:24:39.071
LEye coords (281.0, 163.0), REye coords (290.0, 161.0), timeStamp: 2017-02-18 16:24:39.106
LEye coords (281.0, 163.0), REye coords (290.0, 160.0), timeStamp: 2017-02-18 16:24:39.149
LEye coords (281.0, 163.0), REye coords (290.0, 160.0), timeStamp: 2017-02-18 16:24:39.183
LEye coords (281.0, 163.0), REye coords (291.0, 160.0), timeStamp: 2017-02-18 16:24:39.217
