LEye coords (71.0, 184.0), REye coords (82.0, 179.0), timeStamp: 2017-02-18 16:26:14.888
LEye coords (71.0, 184.0), REye coords (82.0, 179.0), timeStamp: 2017-02-18 16:26:14.933
LEye coords (71.0, 184.0), REye coords (82.0, 179.0), timeStamp: 2017-02-18 16:26:14.966
LEye coords (71.0, 184.0), REye coords (82.0, 179.0), timeStamp: 2017-02-18 16:26:14.998
LEye coords (71.0, 184.0), REye coords (81.0, 179.0), timeStamp: 2017-02-18 16:26:15.044
LEye coords (72.0, 184.0), REye coords (81.0, 179.0), timeStamp: 2017-02-18 16:26:15.077
LEye coords (72.0, 184.0), REye coords (81.0, 179.0), timeStamp: 2017-02-18 16:26:15.111
LEye coords (72.0, 184.0), REye coords (81.0, 179.0), timeStamp: 2017-02-18 16:26:15.145
LEye coords (199.0, 199.0), REye coords (197.0, 187.0), timeStamp: 2017-02-18 16:26:15.190
LEye coords (198.0, 197.0), REye coords (207.0, 193.0), timeStamp: 2017-02-18 16:26:15.223
LEye coords (199.0, 198.0), REye coords (207.0, 192.0), timeStamp: 2017-02-18 16:26:15.257
LEye coords (199.0, 198.0), REye coords (207.0, 191.0), timeStamp: 2017-02-18 16:26:15.302
LEye coords (200.0, 199.0), REye coords (208.0, 191.0), timeStamp: 2017-02-18 16:26:15.335
LEye coords (201.0, 201.0), REye coords (210.0, 190.0), timeStamp: 2017-02-18 16:26:15.369
LEye coords (167.0, 215.0), REye coords (172.0, 204.0), timeStamp: 2017-02-18 16:26:15.414
LEye coords (167.0, 215.0), REye coords (174.0, 207.0), timeStamp: 2017-02-18 16:26:15.448
LEye coords (167.0, 214.0), REye coords (174.0, 206.0), timeStamp: 2017-02-18 16:26:15.481
LEye coords (167.0, 214.0), REye coords (174.0, 206.0), timeStamp: 2017-02-18 16:26:15.525
LEye coords (167.0, 214.0), REye coords (173.0, 207.0), timeStamp: 2017-02-18 16:26:15.558
LEye coords (167.0, 214.0), REye coords (174.0, 207.0), timeStamp: 2017-02-18 16:26:15.592
LEye coords (166.0, 214.0), REye coords (174.0, 207.0), timeStamp: 2017-02-18 16:26:15.635
LEye coords (166.0, 213.0), REye coords (174.0, 207.0), timeStamp: 2017-02-18 16:26:15.670
LEye coords (166.0, 213.0), REye coords (175.0, 207.0), timeStamp: 2017-02-18 16:26:15.705
LEye coords (166.0, 213.0), REye coords (174.0, 207.0), timeStamp: 2017-02-18 16:26:15.738
LEye coords (166.0, 213.0), REye coords (174.0, 207.0), timeStamp: 2017-02-18 16:26:15.783
LEye coords (166.0, 212.0), REye coords (175.0, 206.0), timeStamp: 2017-02-18 16:26:15.816
LEye coords (166.0, 212.0), REye coords (176.0, 206.0), timeStamp: 2017-02-18 16:26:15.849
LEye coords (166.0, 212.0), REye coords (176.0, 206.0), timeStamp: 2017-02-18 16:26:15.894
LEye coords (166.0, 212.0), REye coords (177.0, 205.0), timeStamp: 2017-02-18 16:26:15.928
LEye coords (166.0, 211.0), REye coords (177.0, 205.0), timeStamp: 2017-02-18 16:26:15.962
LEye coords (166.0, 211.0), REye coords (177.0, 204.0), timeStamp: 2017-02-18 16:26:16.008
LEye coords (167.0, 211.0), REye coords (177.0, 203.0), timeStamp: 2017-02-18 16:26:16.041
LEye coords (167.0, 211.0), REye coords (178.0, 203.0), timeStamp: 2017-02-18 16:26:16.075
LEye coords (168.0, 211.0), REye coords (179.0, 203.0), timeStamp: 2017-02-18 16:26:16.109
LEye coords (169.0, 211.0), REye coords (179.0, 203.0), timeStamp: 2017-02-18 16:26:16.155
LEye coords (169.0, 212.0), REye coords (180.0, 204.0), timeStamp: 2017-02-18 16:26:16.189
LEye coords (170.0, 212.0), REye coords (181.0, 204.0), timeStamp: 2017-02-18 16:26:16.223
LEye coords (171.0, 212.0), REye coords (182.0, 205.0), timeStamp: 2017-02-18 16:26:16.257
LEye coords (171.0, 212.0), REye coords (183.0, 205.0), timeStamp: 2017-02-18 16:26:16.302
LEye coords (172.0, 213.0), REye coords (183.0, 206.0), timeStamp: 2017-02-18 16:26:16.336
LEye coords (173.0, 213.0), REye coords (184.0, 206.0), timeStamp: 2017-02-18 16:26:16.369
LEye coords (174.0, 213.0), REye coords (185.0, 206.0), timeStamp: 2017-02-18 16:26:16.413
LEye coords (175.0, 213.0), REye coords (186.0, 207.0), timeStamp: 2017-02-18 16:26:16.446
LEye coords (176.0, 214.0), REye coords (187.0, 207.0), timeStamp: 2017-02-18 16:26:16.479
LEye coords (177.0, 215.0), REye coords (187.0, 208.0), timeStamp: 2017-02-18 16:26:16.523
LEye coords (178.0, 215.0), REye coords (188.0, 208.0), timeStamp: 2017-02-18 16:26:16.557
LEye coords (179.0, 215.0), REye coords (189.0, 208.0), timeStamp: 2017-02-18 16:26:16.591
LEye coords (180.0, 216.0), REye coords (189.0, 209.0), timeStamp: 2017-02-18 16:26:16.635
LEye coords (181.0, 216.0), REye coords (190.0, 209.0), timeStamp: 2017-02-18 16:26:16.668
LEye coords (182.0, 216.0), REye coords (190.0, 209.0), timeStamp: 2017-02-18 16:26:16.701
LEye coords (184.0, 216.0), REye coords (191.0, 209.0), timeStamp: 2017-02-18 16:26:16.745
LEye coords (185.0, 216.0), REye coords (192.0, 209.0), timeStamp: 2017-02-18 16:26:16.779
LEye coords (186.0, 216.0), REye coords (193.0, 209.0), timeStamp: 2017-02-18 16:26:16.813
LEye coords (188.0, 216.0), REye coords (193.0, 209.0), timeStamp: 2017-02-18 16:26:16.857
LEye coords (189.0, 216.0), REye coords (194.0, 209.0), timeStamp: 2017-02-18 16:26:16.890
LEye coords (189.0, 216.0), REye coords (194.0, 209.0), timeStamp: 2017-02-18 16:26:16.924
LEye coords (190.0, 215.0), REye coords (194.0, 209.0), timeStamp: 2017-02-18 16:26:16.968
LEye coords (190.0, 215.0), REye coords (194.0, 209.0), timeStamp: 2017-02-18 16:26:17.002
LEye coords (191.0, 215.0), REye coords (194.0, 209.0), timeStamp: 2017-02-18 16:26:17.037
LEye coords (191.0, 215.0), REye coords (194.0, 209.0), timeStamp: 2017-02-18 16:26:17.070
LEye coords (192.0, 215.0), REye coords (194.0, 209.0), timeStamp: 2017-02-18 16:26:17.115
LEye coords (192.0, 215.0), REye coords (194.0, 209.0), timeStamp: 2017-02-18 16:26:17.150
LEye coords (192.0, 215.0), REye coords (195.0, 209.0), timeStamp: 2017-02-18 16:26:17.183
LEye coords (193.0, 215.0), REye coords (195.0, 209.0), timeStamp: 2017-02-18 16:26:17.227
LEye coords (193.0, 215.0), REye coords (195.0, 209.0), timeStamp: 2017-02-18 16:26:17.261
LEye coords (193.0, 215.0), REye coords (195.0, 209.0), timeStamp: 2017-02-18 16:26:17.296
LEye coords (193.0, 215.0), REye coords (195.0, 209.0), timeStamp: 2017-02-18 16:26:17.330
LEye coords (194.0, 215.0), REye coords (195.0, 209.0), timeStamp: 2017-02-18 16:26:17.374
LEye coords (194.0, 215.0), REye coords (195.0, 209.0), timeStamp: 2017-02-18 16:26:17.409
LEye coords (194.0, 215.0), REye coords (195.0, 208.0), timeStamp: 2017-02-18 16:26:17.442
LEye coords (194.0, 215.0), REye coords (195.0, 208.0), timeStamp: 2017-02-18 16:26:17.487
LEye coords (194.0, 215.0), REye coords (196.0, 208.0), timeStamp: 2017-02-18 16:26:17.520
LEye coords (194.0, 215.0), REye coords (196.0, 208.0), timeStamp: 2017-02-18 16:26:17.555
LEye coords (194.0, 215.0), REye coords (196.0, 208.0), timeStamp: 2017-02-18 16:26:17.599
LEye coords (194.0, 215.0), REye coords (196.0, 207.0), timeStamp: 2017-02-18 16:26:17.634
LEye coords (194.0, 215.0), REye coords (196.0, 207.0), timeStamp: 2017-02-18 16:26:17.668
LEye coords (194.0, 215.0), REye coords (197.0, 207.0), timeStamp: 2017-02-18 16:26:17.702
LEye coords (194.0, 215.0), REye coords (197.0, 207.0), timeStamp: 2017-02-18 16:26:17.746
LEye coords (194.0, 215.0), REye coords (198.0, 206.0), timeStamp: 2017-02-18 16:26:17.780
LEye coords (194.0, 215.0), REye coords (198.0, 206.0), timeStamp: 2017-02-18 16:26:17.815
LEye coords (194.0, 215.0), REye coords (199.0, 206.0), timeStamp: 2017-02-18 16:26:17.849
LEye coords (194.0, 215.0), REye coords (199.0, 205.0), timeStamp: 2017-02-18 16:26:17.893
LEye coords (194.0, 215.0), REye coords (199.0, 205.0), timeStamp: 2017-02-18 16:26:17.927
LEye coords (194.0, 215.0), REye coords (199.0, 205.0), timeStamp: 2017-02-18 16:26:17.962
LEye coords (194.0, 215.0), REye coords (199.0, 205.0), timeStamp: 2017-02-18 16:26:18.005
LEye coords (194.0, 215.0), REye coords (200.0, 205.0), timeStamp: 2017-02-18 16:26:18.039
