LEye coords (222.0, 229.0), REye coords (229.0, 234.0), timeStamp: 2017-02-18 16:26:25.883
LEye coords (222.0, 229.0), REye coords (229.0, 234.0), timeStamp: 2017-02-18 16:26:25.916
LEye coords (222.0, 229.0), REye coords (229.0, 235.0), timeStamp: 2017-02-18 16:26:25.959
LEye coords (222.0, 229.0), REye coords (229.0, 235.0), timeStamp: 2017-02-18 16:26:25.993
LEye coords (222.0, 229.0), REye coords (229.0, 235.0), timeStamp: 2017-02-18 16:26:26.036
LEye coords (222.0, 229.0), REye coords (228.0, 235.0), timeStamp: 2017-02-18 16:26:26.071
LEye coords (222.0, 230.0), REye coords (228.0, 235.0), timeStamp: 2017-02-18 16:26:26.105
LEye coords (222.0, 230.0), REye coords (228.0, 236.0), timeStamp: 2017-02-18 16:26:26.138
LEye coords (223.0, 230.0), REye coords (230.0, 235.0), timeStamp: 2017-02-18 16:26:26.182
LEye coords (350.0, 180.0), REye coords (357.0, 176.0), timeStamp: 2017-02-18 16:26:26.217
LEye coords (344.0, 182.0), REye coords (361.0, 179.0), timeStamp: 2017-02-18 16:26:26.251
LEye coords (344.0, 184.0), REye coords (363.0, 181.0), timeStamp: 2017-02-18 16:26:26.295
LEye coords (345.0, 182.0), REye coords (362.0, 180.0), timeStamp: 2017-02-18 16:26:26.329
LEye coords (343.0, 182.0), REye coords (360.0, 180.0), timeStamp: 2017-02-18 16:26:26.363
LEye coords (320.0, 148.0), REye coords (334.0, 145.0), timeStamp: 2017-02-18 16:26:26.407
LEye coords (321.0, 150.0), REye coords (337.0, 142.0), timeStamp: 2017-02-18 16:26:26.441
LEye coords (318.0, 150.0), REye coords (336.0, 141.0), timeStamp: 2017-02-18 16:26:26.474
LEye coords (319.0, 149.0), REye coords (336.0, 142.0), timeStamp: 2017-02-18 16:26:26.518
LEye coords (319.0, 148.0), REye coords (336.0, 141.0), timeStamp: 2017-02-18 16:26:26.552
LEye coords (319.0, 148.0), REye coords (336.0, 141.0), timeStamp: 2017-02-18 16:26:26.586
LEye coords (320.0, 148.0), REye coords (335.0, 141.0), timeStamp: 2017-02-18 16:26:26.620
LEye coords (320.0, 147.0), REye coords (335.0, 141.0), timeStamp: 2017-02-18 16:26:26.664
LEye coords (320.0, 147.0), REye coords (335.0, 140.0), timeStamp: 2017-02-18 16:26:26.698
LEye coords (320.0, 147.0), REye coords (335.0, 140.0), timeStamp: 2017-02-18 16:26:26.733
LEye coords (321.0, 147.0), REye coords (337.0, 139.0), timeStamp: 2017-02-18 16:26:26.767
LEye coords (323.0, 146.0), REye coords (337.0, 138.0), timeStamp: 2017-02-18 16:26:26.813
LEye coords (324.0, 146.0), REye coords (338.0, 137.0), timeStamp: 2017-02-18 16:26:26.847
LEye coords (326.0, 145.0), REye coords (339.0, 136.0), timeStamp: 2017-02-18 16:26:26.881
LEye coords (327.0, 145.0), REye coords (340.0, 136.0), timeStamp: 2017-02-18 16:26:26.917
LEye coords (328.0, 145.0), REye coords (340.0, 135.0), timeStamp: 2017-02-18 16:26:26.961
LEye coords (330.0, 144.0), REye coords (350.0, 126.0), timeStamp: 2017-02-18 16:26:26.995
LEye coords (331.0, 144.0), REye coords (345.0, 134.0), timeStamp: 2017-02-18 16:26:27.030
LEye coords (332.0, 144.0), REye coords (347.0, 130.0), timeStamp: 2017-02-18 16:26:27.073
LEye coords (333.0, 144.0), REye coords (347.0, 130.0), timeStamp: 2017-02-18 16:26:27.107
LEye coords (334.0, 143.0), REye coords (346.0, 130.0), timeStamp: 2017-02-18 16:26:27.140
LEye coords (335.0, 143.0), REye coords (346.0, 131.0), timeStamp: 2017-02-18 16:26:27.184
LEye coords (336.0, 143.0), REye coords (346.0, 131.0), timeStamp: 2017-02-18 16:26:27.218
LEye coords (337.0, 143.0), REye coords (347.0, 130.0), timeStamp: 2017-02-18 16:26:27.251
LEye coords (338.0, 143.0), REye coords (347.0, 130.0), timeStamp: 2017-02-18 16:26:27.286
LEye coords (339.0, 143.0), REye coords (347.0, 131.0), timeStamp: 2017-02-18 16:26:27.329
LEye coords (340.0, 143.0), REye coords (347.0, 131.0), timeStamp: 2017-02-18 16:26:27.363
LEye coords (341.0, 144.0), REye coords (347.0, 130.0), timeStamp: 2017-02-18 16:26:27.406
LEye coords (342.0, 144.0), REye coords (348.0, 131.0), timeStamp: 2017-02-18 16:26:27.443
LEye coords (343.0, 143.0), REye coords (349.0, 131.0), timeStamp: 2017-02-18 16:26:27.477
LEye coords (345.0, 144.0), REye coords (350.0, 132.0), timeStamp: 2017-02-18 16:26:27.510
LEye coords (346.0, 144.0), REye coords (351.0, 133.0), timeStamp: 2017-02-18 16:26:27.553
LEye coords (347.0, 144.0), REye coords (352.0, 134.0), timeStamp: 2017-02-18 16:26:27.587
LEye coords (347.0, 144.0), REye coords (353.0, 135.0), timeStamp: 2017-02-18 16:26:27.622
LEye coords (348.0, 145.0), REye coords (353.0, 135.0), timeStamp: 2017-02-18 16:26:27.656
LEye coords (348.0, 145.0), REye coords (354.0, 136.0), timeStamp: 2017-02-18 16:26:27.701
LEye coords (348.0, 145.0), REye coords (354.0, 137.0), timeStamp: 2017-02-18 16:26:27.735
LEye coords (349.0, 145.0), REye coords (355.0, 137.0), timeStamp: 2017-02-18 16:26:27.769
LEye coords (349.0, 146.0), REye coords (355.0, 138.0), timeStamp: 2017-02-18 16:26:27.813
LEye coords (349.0, 146.0), REye coords (356.0, 139.0), timeStamp: 2017-02-18 16:26:27.847
LEye coords (349.0, 146.0), REye coords (356.0, 140.0), timeStamp: 2017-02-18 16:26:27.881
LEye coords (349.0, 146.0), REye coords (357.0, 140.0), timeStamp: 2017-02-18 16:26:27.924
LEye coords (350.0, 146.0), REye coords (357.0, 141.0), timeStamp: 2017-02-18 16:26:27.959
LEye coords (350.0, 147.0), REye coords (358.0, 142.0), timeStamp: 2017-02-18 16:26:27.992
LEye coords (350.0, 147.0), REye coords (359.0, 142.0), timeStamp: 2017-02-18 16:26:28.026
LEye coords (351.0, 147.0), REye coords (359.0, 143.0), timeStamp: 2017-02-18 16:26:28.070
LEye coords (351.0, 148.0), REye coords (360.0, 143.0), timeStamp: 2017-02-18 16:26:28.104
LEye coords (352.0, 148.0), REye coords (360.0, 143.0), timeStamp: 2017-02-18 16:26:28.139
LEye coords (352.0, 148.0), REye coords (361.0, 143.0), timeStamp: 2017-02-18 16:26:28.183
LEye coords (352.0, 149.0), REye coords (361.0, 143.0), timeStamp: 2017-02-18 16:26:28.217
LEye coords (353.0, 149.0), REye coords (361.0, 142.0), timeStamp: 2017-02-18 16:26:28.250
LEye coords (353.0, 149.0), REye coords (361.0, 142.0), timeStamp: 2017-02-18 16:26:28.294
LEye coords (353.0, 149.0), REye coords (362.0, 141.0), timeStamp: 2017-02-18 16:26:28.328
LEye coords (354.0, 149.0), REye coords (362.0, 141.0), timeStamp: 2017-02-18 16:26:28.361
LEye coords (354.0, 149.0), REye coords (362.0, 141.0), timeStamp: 2017-02-18 16:26:28.395
LEye coords (354.0, 149.0), REye coords (362.0, 140.0), timeStamp: 2017-02-18 16:26:28.439
LEye coords (354.0, 150.0), REye coords (361.0, 140.0), timeStamp: 2017-02-18 16:26:28.473
LEye coords (354.0, 150.0), REye coords (361.0, 140.0), timeStamp: 2017-02-18 16:26:28.507
LEye coords (354.0, 150.0), REye coords (361.0, 140.0), timeStamp: 2017-02-18 16:26:28.551
LEye coords (354.0, 150.0), REye coords (360.0, 140.0), timeStamp: 2017-02-18 16:26:28.585
