LEye coords (179.0, 173.0), REye coords (182.0, 169.0), timeStamp: 2017-02-18 16:26:31.064
LEye coords (179.0, 173.0), REye coords (183.0, 170.0), timeStamp: 2017-02-18 16:26:31.098
LEye coords (179.0, 173.0), REye coords (183.0, 170.0), timeStamp: 2017-02-18 16:26:31.142
LEye coords (179.0, 173.0), REye coords (183.0, 170.0), timeStamp: 2017-02-18 16:26:31.177
LEye coords (179.0, 173.0), REye coords (183.0, 170.0), timeStamp: 2017-02-18 16:26:31.212
LEye coords (178.0, 174.0), REye coords (183.0, 170.0), timeStamp: 2017-02-18 16:26:31.246
LEye coords (178.0, 174.0), REye coords (183.0, 170.0), timeStamp: 2017-02-18 16:26:31.291
LEye coords (178.0, 174.0), REye coords (184.0, 170.0), timeStamp: 2017-02-18 16:26:31.325
LEye coords (178.0, 174.0), REye coords (184.0, 170.0), timeStamp: 2017-02-18 16:26:31.359
LEye coords (178.0, 175.0), REye coords (184.0, 170.0), timeStamp: 2017-02-18 16:26:31.403
LEye coords (178.0, 175.0), REye coords (185.0, 170.0), timeStamp: 2017-02-18 16:26:31.436
LEye coords (178.0, 175.0), REye coords (185.0, 170.0), timeStamp: 2017-02-18 16:26:31.470
LEye coords (178.0, 175.0), REye coords (186.0, 170.0), timeStamp: 2017-02-18 16:26:31.515
LEye coords (178.0, 176.0), REye coords (186.0, 170.0), timeStamp: 2017-02-18 16:26:31.549
LEye coords (178.0, 176.0), REye coords (186.0, 171.0), timeStamp: 2017-02-18 16:26:31.582
LEye coords (178.0, 176.0), REye coords (187.0, 171.0), timeStamp: 2017-02-18 16:26:31.616
LEye coords (176.0, 175.0), REye coords (184.0, 171.0), timeStamp: 2017-02-18 16:26:31.660
LEye coords (131.0, 163.0), REye coords (139.0, 158.0), timeStamp: 2017-02-18 16:26:31.695
LEye coords (133.0, 169.0), REye coords (137.0, 157.0), timeStamp: 2017-02-18 16:26:31.729
LEye coords (133.0, 171.0), REye coords (140.0, 162.0), timeStamp: 2017-02-18 16:26:31.763
LEye coords (132.0, 170.0), REye coords (139.0, 163.0), timeStamp: 2017-02-18 16:26:31.808
LEye coords (132.0, 170.0), REye coords (140.0, 163.0), timeStamp: 2017-02-18 16:26:31.842
LEye coords (131.0, 170.0), REye coords (140.0, 163.0), timeStamp: 2017-02-18 16:26:31.875
LEye coords (125.0, 171.0), REye coords (140.0, 163.0), timeStamp: 2017-02-18 16:26:31.920
LEye coords (130.0, 171.0), REye coords (140.0, 162.0), timeStamp: 2017-02-18 16:26:31.953
LEye coords (128.0, 171.0), REye coords (141.0, 162.0), timeStamp: 2017-02-18 16:26:31.986
LEye coords (127.0, 171.0), REye coords (138.0, 161.0), timeStamp: 2017-02-18 16:26:32.031
LEye coords (127.0, 171.0), REye coords (138.0, 163.0), timeStamp: 2017-02-18 16:26:32.064
LEye coords (127.0, 172.0), REye coords (137.0, 164.0), timeStamp: 2017-02-18 16:26:32.097
LEye coords (126.0, 172.0), REye coords (137.0, 166.0), timeStamp: 2017-02-18 16:26:32.140
LEye coords (126.0, 172.0), REye coords (137.0, 167.0), timeStamp: 2017-02-18 16:26:32.174
LEye coords (126.0, 171.0), REye coords (136.0, 167.0), timeStamp: 2017-02-18 16:26:32.209
LEye coords (125.0, 171.0), REye coords (135.0, 167.0), timeStamp: 2017-02-18 16:26:32.254
LEye coords (125.0, 171.0), REye coords (135.0, 167.0), timeStamp: 2017-02-18 16:26:32.287
LEye coords (125.0, 171.0), REye coords (134.0, 167.0), timeStamp: 2017-02-18 16:26:32.320
LEye coords (125.0, 171.0), REye coords (134.0, 167.0), timeStamp: 2017-02-18 16:26:32.365
LEye coords (125.0, 170.0), REye coords (133.0, 167.0), timeStamp: 2017-02-18 16:26:32.399
LEye coords (125.0, 171.0), REye coords (133.0, 168.0), timeStamp: 2017-02-18 16:26:32.433
LEye coords (125.0, 171.0), REye coords (132.0, 168.0), timeStamp: 2017-02-18 16:26:32.467
LEye coords (125.0, 171.0), REye coords (132.0, 168.0), timeStamp: 2017-02-18 16:26:32.511
LEye coords (125.0, 171.0), REye coords (132.0, 169.0), timeStamp: 2017-02-18 16:26:32.544
LEye coords (125.0, 171.0), REye coords (132.0, 169.0), timeStamp: 2017-02-18 16:26:32.578
LEye coords (125.0, 170.0), REye coords (132.0, 169.0), timeStamp: 2017-02-18 16:26:32.624
LEye coords (124.0, 170.0), REye coords (132.0, 170.0), timeStamp: 2017-02-18 16:26:32.657
LEye coords (124.0, 170.0), REye coords (132.0, 170.0), timeStamp: 2017-02-18 16:26:32.690
LEye coords (124.0, 170.0), REye coords (132.0, 170.0), timeStamp: 2017-02-18 16:26:32.735
LEye coords (123.0, 170.0), REye coords (131.0, 170.0), timeStamp: 2017-02-18 16:26:32.767
LEye coords (123.0, 170.0), REye coords (131.0, 170.0), timeStamp: 2017-02-18 16:26:32.801
LEye coords (123.0, 169.0), REye coords (131.0, 171.0), timeStamp: 2017-02-18 16:26:32.846
LEye coords (123.0, 169.0), REye coords (131.0, 171.0), timeStamp: 2017-02-18 16:26:32.879
LEye coords (123.0, 169.0), REye coords (131.0, 171.0), timeStamp: 2017-02-18 16:26:32.912
LEye coords (123.0, 169.0), REye coords (130.0, 171.0), timeStamp: 2017-02-18 16:26:32.955
LEye coords (123.0, 169.0), REye coords (130.0, 171.0), timeStamp: 2017-02-18 16:26:32.989
LEye coords (123.0, 169.0), REye coords (130.0, 171.0), timeStamp: 2017-02-18 16:26:33.022
LEye coords (124.0, 169.0), REye coords (130.0, 172.0), timeStamp: 2017-02-18 16:26:33.066
LEye coords (124.0, 169.0), REye coords (130.0, 172.0), timeStamp: 2017-02-18 16:26:33.100
LEye coords (124.0, 169.0), REye coords (130.0, 172.0), timeStamp: 2017-02-18 16:26:33.135
LEye coords (124.0, 169.0), REye coords (130.0, 172.0), timeStamp: 2017-02-18 16:26:33.179
LEye coords (124.0, 169.0), REye coords (130.0, 172.0), timeStamp: 2017-02-18 16:26:33.214
