LEye coords (177.0, 211.0), REye coords (187.0, 201.0), timeStamp: 2017-02-18 16:26:36.020
LEye coords (177.0, 211.0), REye coords (187.0, 202.0), timeStamp: 2017-02-18 16:26:36.064
LEye coords (177.0, 212.0), REye coords (187.0, 202.0), timeStamp: 2017-02-18 16:26:36.098
LEye coords (177.0, 212.0), REye coords (187.0, 203.0), timeStamp: 2017-02-18 16:26:36.133
LEye coords (177.0, 212.0), REye coords (187.0, 203.0), timeStamp: 2017-02-18 16:26:36.178
LEye coords (177.0, 212.0), REye coords (187.0, 203.0), timeStamp: 2017-02-18 16:26:36.211
LEye coords (177.0, 212.0), REye coords (187.0, 203.0), timeStamp: 2017-02-18 16:26:36.245
LEye coords (176.0, 212.0), REye coords (187.0, 203.0), timeStamp: 2017-02-18 16:26:36.280
LEye coords (176.0, 212.0), REye coords (187.0, 204.0), timeStamp: 2017-02-18 16:26:36.324
LEye coords (176.0, 212.0), REye coords (188.0, 204.0), timeStamp: 2017-02-18 16:26:36.359
LEye coords (176.0, 212.0), REye coords (188.0, 204.0), timeStamp: 2017-02-18 16:26:36.394
LEye coords (119.0, 174.0), REye coords (132.0, 166.0), timeStamp: 2017-02-18 16:26:36.427
LEye coords (120.0, 174.0), REye coords (136.0, 171.0), timeStamp: 2017-02-18 16:26:36.471
LEye coords (118.0, 172.0), REye coords (136.0, 170.0), timeStamp: 2017-02-18 16:26:36.504
LEye coords (118.0, 173.0), REye coords (136.0, 168.0), timeStamp: 2017-02-18 16:26:36.538
LEye coords (116.0, 171.0), REye coords (136.0, 167.0), timeStamp: 2017-02-18 16:26:36.583
LEye coords (115.0, 170.0), REye coords (130.0, 165.0), timeStamp: 2017-02-18 16:26:36.616
LEye coords (112.0, 163.0), REye coords (132.0, 164.0), timeStamp: 2017-02-18 16:26:36.650
LEye coords (111.0, 164.0), REye coords (133.0, 166.0), timeStamp: 2017-02-18 16:26:36.694
LEye coords (109.0, 162.0), REye coords (127.0, 162.0), timeStamp: 2017-02-18 16:26:36.727
LEye coords (107.0, 159.0), REye coords (123.0, 159.0), timeStamp: 2017-02-18 16:26:36.761
LEye coords (107.0, 158.0), REye coords (121.0, 158.0), timeStamp: 2017-02-18 16:26:36.805
LEye coords (106.0, 157.0), REye coords (120.0, 157.0), timeStamp: 2017-02-18 16:26:36.839
LEye coords (105.0, 156.0), REye coords (119.0, 157.0), timeStamp: 2017-02-18 16:26:36.874
LEye coords (105.0, 155.0), REye coords (118.0, 157.0), timeStamp: 2017-02-18 16:26:36.908
LEye coords (105.0, 155.0), REye coords (117.0, 156.0), timeStamp: 2017-02-18 16:26:36.951
LEye coords (105.0, 155.0), REye coords (116.0, 156.0), timeStamp: 2017-02-18 16:26:36.985
LEye coords (105.0, 155.0), REye coords (115.0, 156.0), timeStamp: 2017-02-18 16:26:37.019
LEye coords (106.0, 157.0), REye coords (116.0, 156.0), timeStamp: 2017-02-18 16:26:37.064
LEye coords (107.0, 159.0), REye coords (117.0, 157.0), timeStamp: 2017-02-18 16:26:37.098
LEye coords (108.0, 160.0), REye coords (118.0, 159.0), timeStamp: 2017-02-18 16:26:37.132
LEye coords (108.0, 161.0), REye coords (118.0, 160.0), timeStamp: 2017-02-18 16:26:37.177
LEye coords (109.0, 163.0), REye coords (119.0, 160.0), timeStamp: 2017-02-18 16:26:37.211
LEye coords (110.0, 164.0), REye coords (119.0, 160.0), timeStamp: 2017-02-18 16:26:37.245
LEye coords (111.0, 165.0), REye coords (119.0, 161.0), timeStamp: 2017-02-18 16:26:37.279
LEye coords (112.0, 166.0), REye coords (119.0, 162.0), timeStamp: 2017-02-18 16:26:37.323
LEye coords (112.0, 168.0), REye coords (120.0, 164.0), timeStamp: 2017-02-18 16:26:37.358
LEye coords (113.0, 169.0), REye coords (120.0, 164.0), timeStamp: 2017-02-18 16:26:37.393
LEye coords (113.0, 170.0), REye coords (121.0, 165.0), timeStamp: 2017-02-18 16:26:37.427
LEye coords (114.0, 172.0), REye coords (121.0, 166.0), timeStamp: 2017-02-18 16:26:37.472
LEye coords (115.0, 173.0), REye coords (121.0, 167.0), timeStamp: 2017-02-18 16:26:37.506
LEye coords (115.0, 174.0), REye coords (122.0, 168.0), timeStamp: 2017-02-18 16:26:37.539
LEye coords (116.0, 176.0), REye coords (123.0, 169.0), timeStamp: 2017-02-18 16:26:37.584
LEye coords (116.0, 176.0), REye coords (124.0, 170.0), timeStamp: 2017-02-18 16:26:37.617
LEye coords (117.0, 177.0), REye coords (125.0, 171.0), timeStamp: 2017-02-18 16:26:37.650
LEye coords (118.0, 179.0), REye coords (125.0, 173.0), timeStamp: 2017-02-18 16:26:37.694
LEye coords (118.0, 180.0), REye coords (126.0, 174.0), timeStamp: 2017-02-18 16:26:37.729
LEye coords (119.0, 181.0), REye coords (127.0, 175.0), timeStamp: 2017-02-18 16:26:37.762
LEye coords (119.0, 182.0), REye coords (127.0, 176.0), timeStamp: 2017-02-18 16:26:37.806
LEye coords (120.0, 182.0), REye coords (128.0, 177.0), timeStamp: 2017-02-18 16:26:37.839
LEye coords (120.0, 183.0), REye coords (128.0, 178.0), timeStamp: 2017-02-18 16:26:37.873
LEye coords (120.0, 183.0), REye coords (128.0, 179.0), timeStamp: 2017-02-18 16:26:37.917
LEye coords (120.0, 184.0), REye coords (128.0, 180.0), timeStamp: 2017-02-18 16:26:37.951
LEye coords (121.0, 184.0), REye coords (128.0, 180.0), timeStamp: 2017-02-18 16:26:37.986
LEye coords (121.0, 184.0), REye coords (129.0, 181.0), timeStamp: 2017-02-18 16:26:38.019
LEye coords (121.0, 184.0), REye coords (129.0, 182.0), timeStamp: 2017-02-18 16:26:38.064
LEye coords (121.0, 184.0), REye coords (129.0, 182.0), timeStamp: 2017-02-18 16:26:38.099
LEye coords (121.0, 185.0), REye coords (129.0, 183.0), timeStamp: 2017-02-18 16:26:38.132
LEye coords (121.0, 185.0), REye coords (129.0, 183.0), timeStamp: 2017-02-18 16:26:38.176
LEye coords (121.0, 185.0), REye coords (129.0, 184.0), timeStamp: 2017-02-18 16:26:38.210
LEye coords (121.0, 185.0), REye coords (129.0, 185.0), timeStamp: 2017-02-18 16:26:38.243
LEye coords (121.0, 185.0), REye coords (129.0, 185.0), timeStamp: 2017-02-18 16:26:38.287
LEye coords (121.0, 184.0), REye coords (129.0, 186.0), timeStamp: 2017-02-18 16:26:38.321
LEye coords (120.0, 184.0), REye coords (129.0, 187.0), timeStamp: 2017-02-18 16:26:38.355
LEye coords (120.0, 184.0), REye coords (130.0, 188.0), timeStamp: 2017-02-18 16:26:38.389
LEye coords (121.0, 186.0), REye coords (130.0, 189.0), timeStamp: 2017-02-18 16:26:38.433
LEye coords (121.0, 188.0), REye coords (130.0, 190.0), timeStamp: 2017-02-18 16:26:38.468
LEye coords (122.0, 189.0), REye coords (131.0, 191.0), timeStamp: 2017-02-18 16:26:38.502
LEye coords (123.0, 191.0), REye coords (131.0, 192.0), timeStamp: 2017-02-18 16:26:38.546
LEye coords (123.0, 192.0), REye coords (132.0, 193.0), timeStamp: 2017-02-18 16:26:38.579
LEye coords (124.0, 194.0), REye coords (133.0, 193.0), timeStamp: 2017-02-18 16:26:38.614
LEye coords (124.0, 196.0), REye coords (133.0, 195.0), timeStamp: 2017-02-18 16:26:38.648
LEye coords (125.0, 197.0), REye coords (134.0, 196.0), timeStamp: 2017-02-18 16:26:38.693
LEye coords (125.0, 199.0), REye coords (134.0, 197.0), timeStamp: 2017-02-18 16:26:38.727
LEye coords (125.0, 201.0), REye coords (134.0, 197.0), timeStamp: 2017-02-18 16:26:38.759
LEye coords (126.0, 202.0), REye coords (135.0, 198.0), timeStamp: 2017-02-18 16:26:38.804
LEye coords (127.0, 203.0), REye coords (135.0, 199.0), timeStamp: 2017-02-18 16:26:38.839
LEye coords (127.0, 204.0), REye coords (136.0, 200.0), timeStamp: 2017-02-18 16:26:38.872
LEye coords (128.0, 205.0), REye coords (136.0, 201.0), timeStamp: 2017-02-18 16:26:38.908
LEye coords (128.0, 206.0), REye coords (136.0, 202.0), timeStamp: 2017-02-18 16:26:38.953
LEye coords (129.0, 207.0), REye coords (137.0, 202.0), timeStamp: 2017-02-18 16:26:38.987
LEye coords (129.0, 208.0), REye coords (137.0, 203.0), timeStamp: 2017-02-18 16:26:39.021
LEye coords (130.0, 208.0), REye coords (138.0, 203.0), timeStamp: 2017-02-18 16:26:39.055
LEye coords (130.0, 208.0), REye coords (138.0, 204.0), timeStamp: 2017-02-18 16:26:39.099
LEye coords (131.0, 209.0), REye coords (138.0, 204.0), timeStamp: 2017-02-18 16:26:39.132
LEye coords (132.0, 210.0), REye coords (139.0, 205.0), timeStamp: 2017-02-18 16:26:39.176
LEye coords (132.0, 210.0), REye coords (139.0, 205.0), timeStamp: 2017-02-18 16:26:39.210
LEye coords (132.0, 210.0), REye coords (139.0, 205.0), timeStamp: 2017-02-18 16:26:39.244
LEye coords (132.0, 210.0), REye coords (139.0, 206.0), timeStamp: 2017-02-18 16:26:39.277
LEye coords (133.0, 210.0), REye coords (139.0, 206.0), timeStamp: 2017-02-18 16:26:39.321
LEye coords (132.0, 210.0), REye coords (139.0, 206.0), timeStamp: 2017-02-18 16:26:39.356
LEye coords (132.0, 210.0), REye coords (139.0, 206.0), timeStamp: 2017-02-18 16:26:39.390
