LEye coords (132.0, 185.0), REye coords (139.0, 181.0), timeStamp: 2017-02-18 16:26:39.504
LEye coords (131.0, 185.0), REye coords (139.0, 181.0), timeStamp: 2017-02-18 16:26:39.539
LEye coords (131.0, 185.0), REye coords (139.0, 181.0), timeStamp: 2017-02-18 16:26:39.583
LEye coords (131.0, 185.0), REye coords (139.0, 181.0), timeStamp: 2017-02-18 16:26:39.617
LEye coords (131.0, 185.0), REye coords (139.0, 181.0), timeStamp: 2017-02-18 16:26:39.651
LEye coords (131.0, 185.0), REye coords (139.0, 181.0), timeStamp: 2017-02-18 16:26:39.684
LEye coords (130.0, 185.0), REye coords (139.0, 181.0), timeStamp: 2017-02-18 16:26:39.728
LEye coords (179.0, 175.0), REye coords (192.0, 176.0), timeStamp: 2017-02-18 16:26:39.761
LEye coords (227.0, 168.0), REye coords (237.0, 173.0), timeStamp: 2017-02-18 16:26:39.805
LEye coords (229.0, 169.0), REye coords (241.0, 172.0), timeStamp: 2017-02-18 16:26:39.838
LEye coords (232.0, 170.0), REye coords (244.0, 167.0), timeStamp: 2017-02-18 16:26:39.871
LEye coords (232.0, 169.0), REye coords (243.0, 168.0), timeStamp: 2017-02-18 16:26:39.916
LEye coords (233.0, 166.0), REye coords (244.0, 167.0), timeStamp: 2017-02-18 16:26:39.949
LEye coords (231.0, 170.0), REye coords (243.0, 168.0), timeStamp: 2017-02-18 16:26:39.983
LEye coords (234.0, 167.0), REye coords (244.0, 163.0), timeStamp: 2017-02-18 16:26:40.027
LEye coords (234.0, 156.0), REye coords (246.0, 151.0), timeStamp: 2017-02-18 16:26:40.061
LEye coords (235.0, 149.0), REye coords (247.0, 144.0), timeStamp: 2017-02-18 16:26:40.095
LEye coords (235.0, 146.0), REye coords (247.0, 140.0), timeStamp: 2017-02-18 16:26:40.129
LEye coords (235.0, 143.0), REye coords (248.0, 138.0), timeStamp: 2017-02-18 16:26:40.173
LEye coords (234.0, 142.0), REye coords (248.0, 136.0), timeStamp: 2017-02-18 16:26:40.206
LEye coords (234.0, 141.0), REye coords (248.0, 134.0), timeStamp: 2017-02-18 16:26:40.242
LEye coords (235.0, 140.0), REye coords (248.0, 133.0), timeStamp: 2017-02-18 16:26:40.276
LEye coords (232.0, 79.0), REye coords (238.0, 81.0), timeStamp: 2017-02-18 16:26:40.320
LEye coords (233.0, 85.0), REye coords (239.0, 77.0), timeStamp: 2017-02-18 16:26:40.354
LEye coords (233.0, 84.0), REye coords (241.0, 73.0), timeStamp: 2017-02-18 16:26:40.388
LEye coords (233.0, 83.0), REye coords (240.0, 77.0), timeStamp: 2017-02-18 16:26:40.432
LEye coords (232.0, 83.0), REye coords (239.0, 80.0), timeStamp: 2017-02-18 16:26:40.466
LEye coords (231.0, 84.0), REye coords (240.0, 78.0), timeStamp: 2017-02-18 16:26:40.500
LEye coords (231.0, 83.0), REye coords (239.0, 78.0), timeStamp: 2017-02-18 16:26:40.543
LEye coords (231.0, 79.0), REye coords (240.0, 79.0), timeStamp: 2017-02-18 16:26:40.577
LEye coords (232.0, 80.0), REye coords (243.0, 71.0), timeStamp: 2017-02-18 16:26:40.611
LEye coords (231.0, 83.0), REye coords (246.0, 69.0), timeStamp: 2017-02-18 16:26:40.657
LEye coords (233.0, 79.0), REye coords (247.0, 64.0), timeStamp: 2017-02-18 16:26:40.691
LEye coords (233.0, 76.0), REye coords (247.0, 61.0), timeStamp: 2017-02-18 16:26:40.725
LEye coords (234.0, 74.0), REye coords (247.0, 60.0), timeStamp: 2017-02-18 16:26:40.758
LEye coords (234.0, 73.0), REye coords (247.0, 58.0), timeStamp: 2017-02-18 16:26:40.802
LEye coords (234.0, 72.0), REye coords (247.0, 57.0), timeStamp: 2017-02-18 16:26:40.835
LEye coords (234.0, 71.0), REye coords (247.0, 56.0), timeStamp: 2017-02-18 16:26:40.869
LEye coords (234.0, 70.0), REye coords (247.0, 55.0), timeStamp: 2017-02-18 16:26:40.913
LEye coords (234.0, 69.0), REye coords (247.0, 55.0), timeStamp: 2017-02-18 16:26:40.946
LEye coords (234.0, 69.0), REye coords (248.0, 55.0), timeStamp: 2017-02-18 16:26:40.981
LEye coords (234.0, 68.0), REye coords (248.0, 55.0), timeStamp: 2017-02-18 16:26:41.024
LEye coords (234.0, 67.0), REye coords (248.0, 54.0), timeStamp: 2017-02-18 16:26:41.058
LEye coords (234.0, 66.0), REye coords (249.0, 54.0), timeStamp: 2017-02-18 16:26:41.092
LEye coords (235.0, 66.0), REye coords (248.0, 54.0), timeStamp: 2017-02-18 16:26:41.136
LEye coords (234.0, 65.0), REye coords (248.0, 53.0), timeStamp: 2017-02-18 16:26:41.170
LEye coords (234.0, 64.0), REye coords (247.0, 52.0), timeStamp: 2017-02-18 16:26:41.203
LEye coords (233.0, 64.0), REye coords (247.0, 51.0), timeStamp: 2017-02-18 16:26:41.249
LEye coords (233.0, 63.0), REye coords (247.0, 50.0), timeStamp: 2017-02-18 16:26:41.283
LEye coords (232.0, 62.0), REye coords (246.0, 49.0), timeStamp: 2017-02-18 16:26:41.317
LEye coords (232.0, 62.0), REye coords (246.0, 48.0), timeStamp: 2017-02-18 16:26:41.351
LEye coords (231.0, 61.0), REye coords (246.0, 47.0), timeStamp: 2017-02-18 16:26:41.395
LEye coords (231.0, 61.0), REye coords (246.0, 46.0), timeStamp: 2017-02-18 16:26:41.429
LEye coords (230.0, 60.0), REye coords (246.0, 45.0), timeStamp: 2017-02-18 16:26:41.462
LEye coords (230.0, 59.0), REye coords (246.0, 44.0), timeStamp: 2017-02-18 16:26:41.506
LEye coords (230.0, 59.0), REye coords (246.0, 43.0), timeStamp: 2017-02-18 16:26:41.539
LEye coords (229.0, 58.0), REye coords (246.0, 42.0), timeStamp: 2017-02-18 16:26:41.574
LEye coords (229.0, 58.0), REye coords (246.0, 41.0), timeStamp: 2017-02-18 16:26:41.618
LEye coords (229.0, 58.0), REye coords (246.0, 40.0), timeStamp: 2017-02-18 16:26:41.651
LEye coords (229.0, 57.0), REye coords (246.0, 40.0), timeStamp: 2017-02-18 16:26:41.687
LEye coords (229.0, 57.0), REye coords (246.0, 39.0), timeStamp: 2017-02-18 16:26:41.721
LEye coords (229.0, 57.0), REye coords (246.0, 39.0), timeStamp: 2017-02-18 16:26:41.765
LEye coords (229.0, 57.0), REye coords (246.0, 39.0), timeStamp: 2017-02-18 16:26:41.799
LEye coords (229.0, 57.0), REye coords (246.0, 38.0), timeStamp: 2017-02-18 16:26:41.833
LEye coords (228.0, 57.0), REye coords (247.0, 38.0), timeStamp: 2017-02-18 16:26:41.876
LEye coords (229.0, 57.0), REye coords (247.0, 38.0), timeStamp: 2017-02-18 16:26:41.909
LEye coords (229.0, 57.0), REye coords (247.0, 38.0), timeStamp: 2017-02-18 16:26:41.943
LEye coords (229.0, 58.0), REye coords (247.0, 38.0), timeStamp: 2017-02-18 16:26:41.989
LEye coords (229.0, 58.0), REye coords (247.0, 38.0), timeStamp: 2017-02-18 16:26:42.023
LEye coords (229.0, 58.0), REye coords (248.0, 39.0), timeStamp: 2017-02-18 16:26:42.057
LEye coords (229.0, 58.0), REye coords (248.0, 39.0), timeStamp: 2017-02-18 16:26:42.092
LEye coords (229.0, 59.0), REye coords (248.0, 39.0), timeStamp: 2017-02-18 16:26:42.136
LEye coords (229.0, 59.0), REye coords (248.0, 39.0), timeStamp: 2017-02-18 16:26:42.169
LEye coords (229.0, 59.0), REye coords (248.0, 40.0), timeStamp: 2017-02-18 16:26:42.203
LEye coords (229.0, 60.0), REye coords (248.0, 40.0), timeStamp: 2017-02-18 16:26:42.247
LEye coords (229.0, 60.0), REye coords (248.0, 40.0), timeStamp: 2017-02-18 16:26:42.281
LEye coords (230.0, 60.0), REye coords (248.0, 40.0), timeStamp: 2017-02-18 16:26:42.316
LEye coords (230.0, 60.0), REye coords (248.0, 41.0), timeStamp: 2017-02-18 16:26:42.351
LEye coords (230.0, 60.0), REye coords (248.0, 41.0), timeStamp: 2017-02-18 16:26:42.397
LEye coords (230.0, 60.0), REye coords (249.0, 41.0), timeStamp: 2017-02-18 16:26:42.432
