LEye coords (230.0, 63.0), REye coords (249.0, 44.0), timeStamp: 2017-02-18 16:26:42.534
LEye coords (230.0, 63.0), REye coords (250.0, 45.0), timeStamp: 2017-02-18 16:26:42.580
LEye coords (230.0, 63.0), REye coords (250.0, 45.0), timeStamp: 2017-02-18 16:26:42.613
LEye coords (231.0, 64.0), REye coords (250.0, 48.0), timeStamp: 2017-02-18 16:26:42.648
LEye coords (230.0, 65.0), REye coords (244.0, 94.0), timeStamp: 2017-02-18 16:26:42.692
LEye coords (230.0, 67.0), REye coords (247.0, 89.0), timeStamp: 2017-02-18 16:26:42.725
LEye coords (228.0, 139.0), REye coords (250.0, 107.0), timeStamp: 2017-02-18 16:26:42.759
LEye coords (232.0, 141.0), REye coords (249.0, 117.0), timeStamp: 2017-02-18 16:26:42.803
LEye coords (231.0, 142.0), REye coords (248.0, 123.0), timeStamp: 2017-02-18 16:26:42.837
LEye coords (231.0, 142.0), REye coords (246.0, 133.0), timeStamp: 2017-02-18 16:26:42.871
LEye coords (231.0, 153.0), REye coords (237.0, 185.0), timeStamp: 2017-02-18 16:26:42.905
LEye coords (228.0, 218.0), REye coords (239.0, 205.0), timeStamp: 2017-02-18 16:26:42.948
LEye coords (227.0, 217.0), REye coords (239.0, 213.0), timeStamp: 2017-02-18 16:26:42.983
LEye coords (227.0, 216.0), REye coords (240.0, 216.0), timeStamp: 2017-02-18 16:26:43.016
LEye coords (228.0, 216.0), REye coords (244.0, 219.0), timeStamp: 2017-02-18 16:26:43.061
LEye coords (229.0, 215.0), REye coords (248.0, 217.0), timeStamp: 2017-02-18 16:26:43.094
LEye coords (230.0, 216.0), REye coords (246.0, 217.0), timeStamp: 2017-02-18 16:26:43.129
LEye coords (230.0, 216.0), REye coords (246.0, 216.0), timeStamp: 2017-02-18 16:26:43.173
LEye coords (234.0, 217.0), REye coords (250.0, 215.0), timeStamp: 2017-02-18 16:26:43.207
LEye coords (238.0, 218.0), REye coords (253.0, 214.0), timeStamp: 2017-02-18 16:26:43.241
LEye coords (240.0, 218.0), REye coords (254.0, 213.0), timeStamp: 2017-02-18 16:26:43.284
LEye coords (241.0, 218.0), REye coords (255.0, 213.0), timeStamp: 2017-02-18 16:26:43.318
LEye coords (243.0, 219.0), REye coords (257.0, 213.0), timeStamp: 2017-02-18 16:26:43.353
LEye coords (244.0, 218.0), REye coords (258.0, 213.0), timeStamp: 2017-02-18 16:26:43.387
LEye coords (245.0, 218.0), REye coords (258.0, 213.0), timeStamp: 2017-02-18 16:26:43.431
LEye coords (246.0, 218.0), REye coords (259.0, 214.0), timeStamp: 2017-02-18 16:26:43.465
LEye coords (247.0, 217.0), REye coords (259.0, 215.0), timeStamp: 2017-02-18 16:26:43.499
LEye coords (248.0, 217.0), REye coords (260.0, 215.0), timeStamp: 2017-02-18 16:26:43.533
LEye coords (249.0, 217.0), REye coords (260.0, 215.0), timeStamp: 2017-02-18 16:26:43.579
LEye coords (249.0, 217.0), REye coords (260.0, 215.0), timeStamp: 2017-02-18 16:26:43.612
LEye coords (250.0, 217.0), REye coords (260.0, 215.0), timeStamp: 2017-02-18 16:26:43.646
LEye coords (251.0, 217.0), REye coords (260.0, 214.0), timeStamp: 2017-02-18 16:26:43.681
LEye coords (251.0, 217.0), REye coords (260.0, 214.0), timeStamp: 2017-02-18 16:26:43.725
LEye coords (252.0, 216.0), REye coords (260.0, 215.0), timeStamp: 2017-02-18 16:26:43.759
LEye coords (253.0, 216.0), REye coords (260.0, 215.0), timeStamp: 2017-02-18 16:26:43.792
LEye coords (254.0, 216.0), REye coords (260.0, 215.0), timeStamp: 2017-02-18 16:26:43.837
LEye coords (255.0, 215.0), REye coords (260.0, 215.0), timeStamp: 2017-02-18 16:26:43.871
LEye coords (256.0, 215.0), REye coords (260.0, 215.0), timeStamp: 2017-02-18 16:26:43.905
LEye coords (257.0, 214.0), REye coords (261.0, 216.0), timeStamp: 2017-02-18 16:26:43.949
LEye coords (258.0, 214.0), REye coords (261.0, 216.0), timeStamp: 2017-02-18 16:26:43.983
LEye coords (258.0, 213.0), REye coords (261.0, 216.0), timeStamp: 2017-02-18 16:26:44.017
LEye coords (259.0, 213.0), REye coords (261.0, 216.0), timeStamp: 2017-02-18 16:26:44.062
LEye coords (259.0, 212.0), REye coords (261.0, 216.0), timeStamp: 2017-02-18 16:26:44.095
LEye coords (259.0, 212.0), REye coords (261.0, 216.0), timeStamp: 2017-02-18 16:26:44.129
LEye coords (259.0, 211.0), REye coords (261.0, 215.0), timeStamp: 2017-02-18 16:26:44.164
LEye coords (259.0, 211.0), REye coords (261.0, 215.0), timeStamp: 2017-02-18 16:26:44.209
LEye coords (259.0, 211.0), REye coords (261.0, 215.0), timeStamp: 2017-02-18 16:26:44.242
LEye coords (259.0, 211.0), REye coords (261.0, 215.0), timeStamp: 2017-02-18 16:26:44.277
LEye coords (259.0, 211.0), REye coords (261.0, 214.0), timeStamp: 2017-02-18 16:26:44.320
LEye coords (259.0, 211.0), REye coords (261.0, 214.0), timeStamp: 2017-02-18 16:26:44.355
LEye coords (260.0, 210.0), REye coords (261.0, 214.0), timeStamp: 2017-02-18 16:26:44.389
LEye coords (260.0, 210.0), REye coords (261.0, 213.0), timeStamp: 2017-02-18 16:26:44.423
LEye coords (260.0, 210.0), REye coords (261.0, 213.0), timeStamp: 2017-02-18 16:26:44.466
LEye coords (260.0, 210.0), REye coords (261.0, 213.0), timeStamp: 2017-02-18 16:26:44.500
LEye coords (260.0, 210.0), REye coords (261.0, 213.0), timeStamp: 2017-02-18 16:26:44.533
LEye coords (260.0, 210.0), REye coords (261.0, 213.0), timeStamp: 2017-02-18 16:26:44.577
LEye coords (261.0, 210.0), REye coords (261.0, 213.0), timeStamp: 2017-02-18 16:26:44.612
LEye coords (261.0, 210.0), REye coords (262.0, 213.0), timeStamp: 2017-02-18 16:26:44.646
LEye coords (261.0, 210.0), REye coords (262.0, 214.0), timeStamp: 2017-02-18 16:26:44.690
LEye coords (262.0, 210.0), REye coords (262.0, 214.0), timeStamp: 2017-02-18 16:26:44.724
LEye coords (262.0, 210.0), REye coords (263.0, 214.0), timeStamp: 2017-02-18 16:26:44.757
LEye coords (262.0, 210.0), REye coords (263.0, 215.0), timeStamp: 2017-02-18 16:26:44.802
LEye coords (262.0, 211.0), REye coords (263.0, 215.0), timeStamp: 2017-02-18 16:26:44.837
LEye coords (263.0, 211.0), REye coords (264.0, 216.0), timeStamp: 2017-02-18 16:26:44.871
LEye coords (263.0, 211.0), REye coords (264.0, 216.0), timeStamp: 2017-02-18 16:26:44.906
LEye coords (263.0, 211.0), REye coords (264.0, 217.0), timeStamp: 2017-02-18 16:26:44.939
LEye coords (263.0, 212.0), REye coords (265.0, 217.0), timeStamp: 2017-02-18 16:26:44.984
LEye coords (263.0, 212.0), REye coords (265.0, 217.0), timeStamp: 2017-02-18 16:26:45.018
LEye coords (263.0, 212.0), REye coords (265.0, 218.0), timeStamp: 2017-02-18 16:26:45.052
LEye coords (263.0, 212.0), REye coords (265.0, 218.0), timeStamp: 2017-02-18 16:26:45.096
LEye coords (263.0, 212.0), REye coords (265.0, 218.0), timeStamp: 2017-02-18 16:26:45.130
LEye coords (263.0, 212.0), REye coords (265.0, 219.0), timeStamp: 2017-02-18 16:26:45.163
LEye coords (263.0, 212.0), REye coords (265.0, 219.0), timeStamp: 2017-02-18 16:26:45.207
LEye coords (262.0, 212.0), REye coords (265.0, 219.0), timeStamp: 2017-02-18 16:26:45.241
LEye coords (262.0, 212.0), REye coords (265.0, 219.0), timeStamp: 2017-02-18 16:26:45.275
