LEye coords (381.0, 205.0), REye coords (382.0, 199.0), timeStamp: 2017-02-18 16:28:01.120
LEye coords (381.0, 205.0), REye coords (382.0, 199.0), timeStamp: 2017-02-18 16:28:01.155
LEye coords (381.0, 205.0), REye coords (382.0, 199.0), timeStamp: 2017-02-18 16:28:01.189
LEye coords (381.0, 204.0), REye coords (381.0, 199.0), timeStamp: 2017-02-18 16:28:01.223
LEye coords (381.0, 204.0), REye coords (381.0, 199.0), timeStamp: 2017-02-18 16:28:01.258
LEye coords (381.0, 204.0), REye coords (381.0, 199.0), timeStamp: 2017-02-18 16:28:01.302
LEye coords (379.0, 203.0), REye coords (380.0, 198.0), timeStamp: 2017-02-18 16:28:01.335
LEye coords (245.0, 173.0), REye coords (251.0, 174.0), timeStamp: 2017-02-18 16:28:01.368
LEye coords (245.0, 177.0), REye coords (248.0, 172.0), timeStamp: 2017-02-18 16:28:01.413
LEye coords (244.0, 175.0), REye coords (246.0, 173.0), timeStamp: 2017-02-18 16:28:01.446
LEye coords (245.0, 175.0), REye coords (246.0, 173.0), timeStamp: 2017-02-18 16:28:01.480
LEye coords (248.0, 175.0), REye coords (250.0, 175.0), timeStamp: 2017-02-18 16:28:01.525
LEye coords (328.0, 238.0), REye coords (336.0, 243.0), timeStamp: 2017-02-18 16:28:01.559
LEye coords (330.0, 235.0), REye coords (337.0, 238.0), timeStamp: 2017-02-18 16:28:01.592
LEye coords (329.0, 236.0), REye coords (338.0, 237.0), timeStamp: 2017-02-18 16:28:01.636
LEye coords (328.0, 237.0), REye coords (337.0, 237.0), timeStamp: 2017-02-18 16:28:01.669
LEye coords (327.0, 238.0), REye coords (336.0, 239.0), timeStamp: 2017-02-18 16:28:01.702
LEye coords (325.0, 244.0), REye coords (334.0, 241.0), timeStamp: 2017-02-18 16:28:01.745
LEye coords (327.0, 237.0), REye coords (335.0, 242.0), timeStamp: 2017-02-18 16:28:01.779
LEye coords (329.0, 239.0), REye coords (340.0, 249.0), timeStamp: 2017-02-18 16:28:01.812
LEye coords (335.0, 246.0), REye coords (343.0, 256.0), timeStamp: 2017-02-18 16:28:01.856
LEye coords (337.0, 249.0), REye coords (345.0, 259.0), timeStamp: 2017-02-18 16:28:01.889
LEye coords (338.0, 251.0), REye coords (346.0, 262.0), timeStamp: 2017-02-18 16:28:01.923
LEye coords (339.0, 254.0), REye coords (346.0, 263.0), timeStamp: 2017-02-18 16:28:01.967
LEye coords (340.0, 255.0), REye coords (347.0, 263.0), timeStamp: 2017-02-18 16:28:02.001
LEye coords (340.0, 256.0), REye coords (348.0, 263.0), timeStamp: 2017-02-18 16:28:02.034
LEye coords (340.0, 257.0), REye coords (348.0, 264.0), timeStamp: 2017-02-18 16:28:02.079
LEye coords (340.0, 259.0), REye coords (348.0, 265.0), timeStamp: 2017-02-18 16:28:02.111
LEye coords (340.0, 260.0), REye coords (348.0, 266.0), timeStamp: 2017-02-18 16:28:02.145
LEye coords (340.0, 260.0), REye coords (348.0, 267.0), timeStamp: 2017-02-18 16:28:02.189
LEye coords (340.0, 261.0), REye coords (348.0, 268.0), timeStamp: 2017-02-18 16:28:02.222
LEye coords (340.0, 262.0), REye coords (348.0, 269.0), timeStamp: 2017-02-18 16:28:02.255
LEye coords (340.0, 262.0), REye coords (348.0, 269.0), timeStamp: 2017-02-18 16:28:02.301
LEye coords (340.0, 262.0), REye coords (348.0, 270.0), timeStamp: 2017-02-18 16:28:02.335
LEye coords (340.0, 263.0), REye coords (348.0, 270.0), timeStamp: 2017-02-18 16:28:02.368
LEye coords (340.0, 263.0), REye coords (349.0, 271.0), timeStamp: 2017-02-18 16:28:02.414
LEye coords (340.0, 264.0), REye coords (349.0, 271.0), timeStamp: 2017-02-18 16:28:02.447
LEye coords (340.0, 264.0), REye coords (349.0, 271.0), timeStamp: 2017-02-18 16:28:02.481
LEye coords (340.0, 265.0), REye coords (349.0, 271.0), timeStamp: 2017-02-18 16:28:02.525
LEye coords (340.0, 266.0), REye coords (349.0, 270.0), timeStamp: 2017-02-18 16:28:02.557
LEye coords (341.0, 267.0), REye coords (349.0, 271.0), timeStamp: 2017-02-18 16:28:02.591
LEye coords (341.0, 267.0), REye coords (349.0, 271.0), timeStamp: 2017-02-18 16:28:02.635
LEye coords (341.0, 268.0), REye coords (350.0, 270.0), timeStamp: 2017-02-18 16:28:02.668
LEye coords (341.0, 268.0), REye coords (349.0, 270.0), timeStamp: 2017-02-18 16:28:02.702
LEye coords (341.0, 268.0), REye coords (349.0, 270.0), timeStamp: 2017-02-18 16:28:02.745
LEye coords (341.0, 268.0), REye coords (349.0, 270.0), timeStamp: 2017-02-18 16:28:02.779
LEye coords (339.0, 268.0), REye coords (348.0, 269.0), timeStamp: 2017-02-18 16:28:02.812
LEye coords (338.0, 268.0), REye coords (347.0, 268.0), timeStamp: 2017-02-18 16:28:02.857
LEye coords (337.0, 268.0), REye coords (346.0, 267.0), timeStamp: 2017-02-18 16:28:02.891
LEye coords (336.0, 267.0), REye coords (345.0, 266.0), timeStamp: 2017-02-18 16:28:02.927
LEye coords (335.0, 267.0), REye coords (344.0, 266.0), timeStamp: 2017-02-18 16:28:02.960
LEye coords (334.0, 266.0), REye coords (343.0, 265.0), timeStamp: 2017-02-18 16:28:03.005
LEye coords (333.0, 266.0), REye coords (342.0, 264.0), timeStamp: 2017-02-18 16:28:03.039
LEye coords (332.0, 266.0), REye coords (341.0, 263.0), timeStamp: 2017-02-18 16:28:03.073
LEye coords (331.0, 265.0), REye coords (340.0, 263.0), timeStamp: 2017-02-18 16:28:03.116
LEye coords (331.0, 266.0), REye coords (340.0, 264.0), timeStamp: 2017-02-18 16:28:03.149
LEye coords (331.0, 266.0), REye coords (340.0, 264.0), timeStamp: 2017-02-18 16:28:03.182
LEye coords (332.0, 266.0), REye coords (341.0, 265.0), timeStamp: 2017-02-18 16:28:03.227
LEye coords (332.0, 266.0), REye coords (341.0, 266.0), timeStamp: 2017-02-18 16:28:03.261
LEye coords (332.0, 267.0), REye coords (341.0, 267.0), timeStamp: 2017-02-18 16:28:03.295
LEye coords (333.0, 267.0), REye coords (341.0, 267.0), timeStamp: 2017-02-18 16:28:03.329
LEye coords (332.0, 266.0), REye coords (340.0, 267.0), timeStamp: 2017-02-18 16:28:03.373
LEye coords (280.0, 224.0), REye coords (289.0, 212.0), timeStamp: 2017-02-18 16:28:03.407
LEye coords (283.0, 229.0), REye coords (288.0, 211.0), timeStamp: 2017-02-18 16:28:03.441
