LEye coords (252.0, 134.0), REye coords (258.0, 144.0), timeStamp: 2017-02-23 17:40:43.111
LEye coords (252.0, 134.0), REye coords (258.0, 144.0), timeStamp: 2017-02-23 17:40:43.144
LEye coords (252.0, 134.0), REye coords (259.0, 144.0), timeStamp: 2017-02-23 17:40:43.178
LEye coords (252.0, 134.0), REye coords (259.0, 144.0), timeStamp: 2017-02-23 17:40:43.223
LEye coords (252.0, 135.0), REye coords (259.0, 145.0), timeStamp: 2017-02-23 17:40:43.256
LEye coords (253.0, 135.0), REye coords (259.0, 145.0), timeStamp: 2017-02-23 17:40:43.291
LEye coords (253.0, 136.0), REye coords (259.0, 146.0), timeStamp: 2017-02-23 17:40:43.335
LEye coords (253.0, 136.0), REye coords (259.0, 146.0), timeStamp: 2017-02-23 17:40:43.368
LEye coords (253.0, 137.0), REye coords (259.0, 146.0), timeStamp: 2017-02-23 17:40:43.402
LEye coords (167.0, 203.0), REye coords (166.0, 172.0), timeStamp: 2017-02-23 17:40:43.436
LEye coords (149.0, 219.0), REye coords (149.0, 178.0), timeStamp: 2017-02-23 17:40:43.480
LEye coords (149.0, 219.0), REye coords (149.0, 188.0), timeStamp: 2017-02-23 17:40:43.513
LEye coords (149.0, 218.0), REye coords (150.0, 190.0), timeStamp: 2017-02-23 17:40:43.557
LEye coords (149.0, 219.0), REye coords (151.0, 193.0), timeStamp: 2017-02-23 17:40:43.590
LEye coords (152.0, 226.0), REye coords (153.0, 211.0), timeStamp: 2017-02-23 17:40:43.623
LEye coords (150.0, 225.0), REye coords (154.0, 211.0), timeStamp: 2017-02-23 17:40:43.666
LEye coords (164.0, 231.0), REye coords (170.0, 220.0), timeStamp: 2017-02-23 17:40:43.701
LEye coords (169.0, 233.0), REye coords (175.0, 229.0), timeStamp: 2017-02-23 17:40:43.734
LEye coords (171.0, 234.0), REye coords (177.0, 233.0), timeStamp: 2017-02-23 17:40:43.778
LEye coords (172.0, 234.0), REye coords (178.0, 235.0), timeStamp: 2017-02-23 17:40:43.812
LEye coords (174.0, 235.0), REye coords (180.0, 236.0), timeStamp: 2017-02-23 17:40:43.845
LEye coords (175.0, 236.0), REye coords (181.0, 236.0), timeStamp: 2017-02-23 17:40:43.888
LEye coords (175.0, 239.0), REye coords (181.0, 240.0), timeStamp: 2017-02-23 17:40:43.922
LEye coords (175.0, 241.0), REye coords (182.0, 271.0), timeStamp: 2017-02-23 17:40:43.956
LEye coords (176.0, 245.0), REye coords (182.0, 273.0), timeStamp: 2017-02-23 17:40:43.999
LEye coords (176.0, 247.0), REye coords (184.0, 270.0), timeStamp: 2017-02-23 17:40:44.033
LEye coords (176.0, 249.0), REye coords (186.0, 269.0), timeStamp: 2017-02-23 17:40:44.066
LEye coords (177.0, 251.0), REye coords (186.0, 269.0), timeStamp: 2017-02-23 17:40:44.111
LEye coords (177.0, 254.0), REye coords (187.0, 270.0), timeStamp: 2017-02-23 17:40:44.145
LEye coords (182.0, 276.0), REye coords (187.0, 271.0), timeStamp: 2017-02-23 17:40:44.178
LEye coords (180.0, 276.0), REye coords (187.0, 273.0), timeStamp: 2017-02-23 17:40:44.222
LEye coords (182.0, 274.0), REye coords (188.0, 273.0), timeStamp: 2017-02-23 17:40:44.256
LEye coords (181.0, 275.0), REye coords (188.0, 273.0), timeStamp: 2017-02-23 17:40:44.289
LEye coords (181.0, 275.0), REye coords (188.0, 274.0), timeStamp: 2017-02-23 17:40:44.333
LEye coords (181.0, 276.0), REye coords (188.0, 274.0), timeStamp: 2017-02-23 17:40:44.368
LEye coords (181.0, 277.0), REye coords (188.0, 274.0), timeStamp: 2017-02-23 17:40:44.402
LEye coords (181.0, 277.0), REye coords (188.0, 274.0), timeStamp: 2017-02-23 17:40:44.435
LEye coords (181.0, 277.0), REye coords (188.0, 274.0), timeStamp: 2017-02-23 17:40:44.480
LEye coords (181.0, 277.0), REye coords (188.0, 274.0), timeStamp: 2017-02-23 17:40:44.514
LEye coords (181.0, 277.0), REye coords (188.0, 274.0), timeStamp: 2017-02-23 17:40:44.548
LEye coords (182.0, 277.0), REye coords (189.0, 274.0), timeStamp: 2017-02-23 17:40:44.592
LEye coords (182.0, 277.0), REye coords (189.0, 274.0), timeStamp: 2017-02-23 17:40:44.626
LEye coords (183.0, 277.0), REye coords (189.0, 274.0), timeStamp: 2017-02-23 17:40:44.661
LEye coords (183.0, 277.0), REye coords (190.0, 274.0), timeStamp: 2017-02-23 17:40:44.704
LEye coords (184.0, 277.0), REye coords (190.0, 274.0), timeStamp: 2017-02-23 17:40:44.738
LEye coords (184.0, 277.0), REye coords (191.0, 273.0), timeStamp: 2017-02-23 17:40:44.772
LEye coords (184.0, 277.0), REye coords (191.0, 274.0), timeStamp: 2017-02-23 17:40:44.806
LEye coords (184.0, 277.0), REye coords (191.0, 273.0), timeStamp: 2017-02-23 17:40:44.850
LEye coords (184.0, 276.0), REye coords (191.0, 273.0), timeStamp: 2017-02-23 17:40:44.883
