LEye coords (235.0, 248.0), REye coords (240.0, 252.0), timeStamp: 2017-02-23 17:40:46.513
LEye coords (236.0, 248.0), REye coords (240.0, 252.0), timeStamp: 2017-02-23 17:40:46.546
LEye coords (236.0, 249.0), REye coords (240.0, 253.0), timeStamp: 2017-02-23 17:40:46.589
LEye coords (236.0, 249.0), REye coords (240.0, 253.0), timeStamp: 2017-02-23 17:40:46.622
LEye coords (235.0, 249.0), REye coords (240.0, 253.0), timeStamp: 2017-02-23 17:40:46.655
LEye coords (235.0, 249.0), REye coords (240.0, 253.0), timeStamp: 2017-02-23 17:40:46.699
LEye coords (235.0, 250.0), REye coords (240.0, 253.0), timeStamp: 2017-02-23 17:40:46.734
LEye coords (235.0, 250.0), REye coords (240.0, 253.0), timeStamp: 2017-02-23 17:40:46.767
LEye coords (235.0, 250.0), REye coords (240.0, 254.0), timeStamp: 2017-02-23 17:40:46.812
LEye coords (235.0, 251.0), REye coords (240.0, 254.0), timeStamp: 2017-02-23 17:40:46.846
LEye coords (234.0, 250.0), REye coords (239.0, 253.0), timeStamp: 2017-02-23 17:40:46.880
LEye coords (180.0, 205.0), REye coords (188.0, 199.0), timeStamp: 2017-02-23 17:40:46.923
LEye coords (182.0, 207.0), REye coords (190.0, 208.0), timeStamp: 2017-02-23 17:40:46.956
LEye coords (182.0, 208.0), REye coords (190.0, 204.0), timeStamp: 2017-02-23 17:40:46.990
LEye coords (181.0, 208.0), REye coords (189.0, 206.0), timeStamp: 2017-02-23 17:40:47.033
LEye coords (171.0, 206.0), REye coords (177.0, 205.0), timeStamp: 2017-02-23 17:40:47.066
LEye coords (142.0, 206.0), REye coords (148.0, 201.0), timeStamp: 2017-02-23 17:40:47.100
LEye coords (143.0, 204.0), REye coords (146.0, 201.0), timeStamp: 2017-02-23 17:40:47.144
LEye coords (144.0, 204.0), REye coords (145.0, 202.0), timeStamp: 2017-02-23 17:40:47.177
LEye coords (143.0, 203.0), REye coords (144.0, 202.0), timeStamp: 2017-02-23 17:40:47.211
LEye coords (144.0, 204.0), REye coords (145.0, 201.0), timeStamp: 2017-02-23 17:40:47.256
LEye coords (144.0, 201.0), REye coords (145.0, 198.0), timeStamp: 2017-02-23 17:40:47.290
LEye coords (145.0, 200.0), REye coords (146.0, 197.0), timeStamp: 2017-02-23 17:40:47.325
LEye coords (145.0, 199.0), REye coords (146.0, 196.0), timeStamp: 2017-02-23 17:40:47.369
LEye coords (146.0, 198.0), REye coords (147.0, 196.0), timeStamp: 2017-02-23 17:40:47.402
LEye coords (147.0, 198.0), REye coords (148.0, 195.0), timeStamp: 2017-02-23 17:40:47.435
LEye coords (147.0, 197.0), REye coords (149.0, 195.0), timeStamp: 2017-02-23 17:40:47.479
LEye coords (148.0, 197.0), REye coords (150.0, 195.0), timeStamp: 2017-02-23 17:40:47.514
LEye coords (149.0, 197.0), REye coords (151.0, 195.0), timeStamp: 2017-02-23 17:40:47.547
LEye coords (151.0, 197.0), REye coords (153.0, 196.0), timeStamp: 2017-02-23 17:40:47.582
LEye coords (152.0, 196.0), REye coords (155.0, 196.0), timeStamp: 2017-02-23 17:40:47.626
LEye coords (154.0, 196.0), REye coords (157.0, 196.0), timeStamp: 2017-02-23 17:40:47.660
LEye coords (155.0, 196.0), REye coords (159.0, 196.0), timeStamp: 2017-02-23 17:40:47.694
LEye coords (156.0, 196.0), REye coords (160.0, 196.0), timeStamp: 2017-02-23 17:40:47.739
LEye coords (157.0, 196.0), REye coords (162.0, 196.0), timeStamp: 2017-02-23 17:40:47.774
LEye coords (158.0, 197.0), REye coords (163.0, 196.0), timeStamp: 2017-02-23 17:40:47.808
LEye coords (159.0, 197.0), REye coords (164.0, 196.0), timeStamp: 2017-02-23 17:40:47.842
LEye coords (160.0, 197.0), REye coords (165.0, 197.0), timeStamp: 2017-02-23 17:40:47.886
LEye coords (161.0, 197.0), REye coords (166.0, 197.0), timeStamp: 2017-02-23 17:40:47.920
