LEye coords (159.0, 188.0), REye coords (165.0, 186.0), timeStamp: 2017-02-23 17:40:51.728
LEye coords (159.0, 188.0), REye coords (165.0, 186.0), timeStamp: 2017-02-23 17:40:51.772
LEye coords (159.0, 188.0), REye coords (165.0, 186.0), timeStamp: 2017-02-23 17:40:51.806
LEye coords (159.0, 188.0), REye coords (165.0, 186.0), timeStamp: 2017-02-23 17:40:51.839
LEye coords (159.0, 188.0), REye coords (165.0, 187.0), timeStamp: 2017-02-23 17:40:51.883
LEye coords (159.0, 188.0), REye coords (165.0, 187.0), timeStamp: 2017-02-23 17:40:51.917
LEye coords (159.0, 188.0), REye coords (164.0, 187.0), timeStamp: 2017-02-23 17:40:51.950
LEye coords (158.0, 188.0), REye coords (164.0, 187.0), timeStamp: 2017-02-23 17:40:51.994
LEye coords (244.0, 187.0), REye coords (251.0, 189.0), timeStamp: 2017-02-23 17:40:52.028
LEye coords (242.0, 189.0), REye coords (249.0, 193.0), timeStamp: 2017-02-23 17:40:52.061
LEye coords (296.0, 182.0), REye coords (303.0, 189.0), timeStamp: 2017-02-23 17:40:52.105
LEye coords (316.0, 180.0), REye coords (323.0, 187.0), timeStamp: 2017-02-23 17:40:52.139
LEye coords (326.0, 179.0), REye coords (333.0, 187.0), timeStamp: 2017-02-23 17:40:52.173
LEye coords (358.0, 173.0), REye coords (364.0, 183.0), timeStamp: 2017-02-23 17:40:52.218
LEye coords (358.0, 176.0), REye coords (359.0, 186.0), timeStamp: 2017-02-23 17:40:52.251
LEye coords (359.0, 176.0), REye coords (362.0, 184.0), timeStamp: 2017-02-23 17:40:52.285
LEye coords (359.0, 175.0), REye coords (362.0, 183.0), timeStamp: 2017-02-23 17:40:52.318
LEye coords (359.0, 175.0), REye coords (363.0, 183.0), timeStamp: 2017-02-23 17:40:52.362
LEye coords (359.0, 176.0), REye coords (364.0, 183.0), timeStamp: 2017-02-23 17:40:52.396
LEye coords (359.0, 176.0), REye coords (364.0, 181.0), timeStamp: 2017-02-23 17:40:52.429
LEye coords (359.0, 176.0), REye coords (364.0, 181.0), timeStamp: 2017-02-23 17:40:52.473
LEye coords (359.0, 177.0), REye coords (364.0, 182.0), timeStamp: 2017-02-23 17:40:52.508
LEye coords (359.0, 177.0), REye coords (364.0, 182.0), timeStamp: 2017-02-23 17:40:52.542
LEye coords (359.0, 177.0), REye coords (364.0, 183.0), timeStamp: 2017-02-23 17:40:52.586
LEye coords (359.0, 177.0), REye coords (363.0, 183.0), timeStamp: 2017-02-23 17:40:52.620
LEye coords (359.0, 176.0), REye coords (363.0, 183.0), timeStamp: 2017-02-23 17:40:52.653
LEye coords (359.0, 176.0), REye coords (362.0, 183.0), timeStamp: 2017-02-23 17:40:52.698
LEye coords (359.0, 176.0), REye coords (361.0, 184.0), timeStamp: 2017-02-23 17:40:52.731
LEye coords (358.0, 175.0), REye coords (361.0, 184.0), timeStamp: 2017-02-23 17:40:52.766
LEye coords (359.0, 175.0), REye coords (361.0, 184.0), timeStamp: 2017-02-23 17:40:52.800
LEye coords (358.0, 175.0), REye coords (360.0, 184.0), timeStamp: 2017-02-23 17:40:52.845
LEye coords (358.0, 175.0), REye coords (360.0, 184.0), timeStamp: 2017-02-23 17:40:52.879
LEye coords (358.0, 176.0), REye coords (359.0, 184.0), timeStamp: 2017-02-23 17:40:52.914
LEye coords (357.0, 176.0), REye coords (359.0, 185.0), timeStamp: 2017-02-23 17:40:52.958
LEye coords (357.0, 176.0), REye coords (359.0, 185.0), timeStamp: 2017-02-23 17:40:52.992
LEye coords (357.0, 176.0), REye coords (358.0, 185.0), timeStamp: 2017-02-23 17:40:53.025
LEye coords (357.0, 176.0), REye coords (358.0, 185.0), timeStamp: 2017-02-23 17:40:53.059
LEye coords (356.0, 177.0), REye coords (358.0, 186.0), timeStamp: 2017-02-23 17:40:53.103
LEye coords (356.0, 177.0), REye coords (357.0, 186.0), timeStamp: 2017-02-23 17:40:53.137
LEye coords (356.0, 177.0), REye coords (357.0, 186.0), timeStamp: 2017-02-23 17:40:53.171
LEye coords (355.0, 178.0), REye coords (357.0, 187.0), timeStamp: 2017-02-23 17:40:53.214
