LEye coords (414.0, 138.0), REye coords (419.0, 144.0), timeStamp: 2017-02-23 17:44:07.671
LEye coords (412.0, 138.0), REye coords (418.0, 143.0), timeStamp: 2017-02-23 17:44:07.704
LEye coords (411.0, 138.0), REye coords (417.0, 143.0), timeStamp: 2017-02-23 17:44:07.737
LEye coords (410.0, 139.0), REye coords (416.0, 143.0), timeStamp: 2017-02-23 17:44:07.781
LEye coords (409.0, 139.0), REye coords (415.0, 143.0), timeStamp: 2017-02-23 17:44:07.814
LEye coords (408.0, 139.0), REye coords (415.0, 143.0), timeStamp: 2017-02-23 17:44:07.848
LEye coords (246.0, 196.0), REye coords (275.0, 155.0), timeStamp: 2017-02-23 17:44:07.892
LEye coords (240.0, 199.0), REye coords (248.0, 196.0), timeStamp: 2017-02-23 17:44:07.925
LEye coords (241.0, 197.0), REye coords (246.0, 196.0), timeStamp: 2017-02-23 17:44:07.969
LEye coords (241.0, 197.0), REye coords (246.0, 196.0), timeStamp: 2017-02-23 17:44:08.002
LEye coords (240.0, 199.0), REye coords (247.0, 196.0), timeStamp: 2017-02-23 17:44:08.035
LEye coords (274.0, 199.0), REye coords (284.0, 200.0), timeStamp: 2017-02-23 17:44:08.069
LEye coords (285.0, 195.0), REye coords (0.0, 0.0), timeStamp: 2017-02-23 17:44:08.113
LEye coords (283.0, 194.0), REye coords (0.0, 0.0), timeStamp: 2017-02-23 17:44:08.148
LEye coords (283.0, 194.0), REye coords (0.0, 0.0), timeStamp: 2017-02-23 17:44:08.181
LEye coords (283.0, 194.0), REye coords (0.0, 0.0), timeStamp: 2017-02-23 17:44:08.226
LEye coords (283.0, 193.0), REye coords (0.0, 0.0), timeStamp: 2017-02-23 17:44:08.259
LEye coords (283.0, 193.0), REye coords (0.0, 0.0), timeStamp: 2017-02-23 17:44:08.293
LEye coords (283.0, 193.0), REye coords (0.0, 0.0), timeStamp: 2017-02-23 17:44:08.337
LEye coords (283.0, 193.0), REye coords (0.0, 0.0), timeStamp: 2017-02-23 17:44:08.370
LEye coords (296.0, 198.0), REye coords (307.0, 206.0), timeStamp: 2017-02-23 17:44:08.405
LEye coords (297.0, 199.0), REye coords (305.0, 206.0), timeStamp: 2017-02-23 17:44:08.449
LEye coords (296.0, 200.0), REye coords (306.0, 205.0), timeStamp: 2017-02-23 17:44:08.483
LEye coords (297.0, 201.0), REye coords (306.0, 205.0), timeStamp: 2017-02-23 17:44:08.518
LEye coords (297.0, 200.0), REye coords (306.0, 203.0), timeStamp: 2017-02-23 17:44:08.552
LEye coords (297.0, 199.0), REye coords (306.0, 204.0), timeStamp: 2017-02-23 17:44:08.595
LEye coords (298.0, 200.0), REye coords (308.0, 202.0), timeStamp: 2017-02-23 17:44:08.629
LEye coords (298.0, 199.0), REye coords (309.0, 202.0), timeStamp: 2017-02-23 17:44:08.663
LEye coords (298.0, 200.0), REye coords (309.0, 201.0), timeStamp: 2017-02-23 17:44:08.706
LEye coords (298.0, 200.0), REye coords (309.0, 201.0), timeStamp: 2017-02-23 17:44:08.739
LEye coords (298.0, 200.0), REye coords (309.0, 201.0), timeStamp: 2017-02-23 17:44:08.774
LEye coords (298.0, 200.0), REye coords (308.0, 202.0), timeStamp: 2017-02-23 17:44:08.819
LEye coords (298.0, 200.0), REye coords (308.0, 203.0), timeStamp: 2017-02-23 17:44:08.853
