LEye coords (118.0, 93.0), REye coords (0.0, 0.0), timeStamp: 2017-02-23 17:44:17.553
LEye coords (118.0, 93.0), REye coords (0.0, 0.0), timeStamp: 2017-02-23 17:44:17.586
LEye coords (118.0, 93.0), REye coords (0.0, 0.0), timeStamp: 2017-02-23 17:44:17.620
LEye coords (118.0, 94.0), REye coords (146.0, 90.0), timeStamp: 2017-02-23 17:44:17.665
LEye coords (224.0, 134.0), REye coords (246.0, 139.0), timeStamp: 2017-02-23 17:44:17.699
LEye coords (247.0, 150.0), REye coords (261.0, 160.0), timeStamp: 2017-02-23 17:44:17.732
LEye coords (247.0, 151.0), REye coords (261.0, 160.0), timeStamp: 2017-02-23 17:44:17.777
LEye coords (248.0, 152.0), REye coords (260.0, 161.0), timeStamp: 2017-02-23 17:44:17.811
LEye coords (248.0, 151.0), REye coords (261.0, 159.0), timeStamp: 2017-02-23 17:44:17.845
LEye coords (248.0, 152.0), REye coords (263.0, 154.0), timeStamp: 2017-02-23 17:44:17.878
LEye coords (248.0, 154.0), REye coords (264.0, 155.0), timeStamp: 2017-02-23 17:44:17.922
LEye coords (248.0, 157.0), REye coords (263.0, 159.0), timeStamp: 2017-02-23 17:44:17.954
LEye coords (251.0, 183.0), REye coords (258.0, 183.0), timeStamp: 2017-02-23 17:44:17.998
LEye coords (252.0, 196.0), REye coords (256.0, 196.0), timeStamp: 2017-02-23 17:44:18.032
LEye coords (254.0, 238.0), REye coords (255.0, 204.0), timeStamp: 2017-02-23 17:44:18.065
LEye coords (254.0, 238.0), REye coords (251.0, 234.0), timeStamp: 2017-02-23 17:44:18.108
LEye coords (254.0, 239.0), REye coords (251.0, 235.0), timeStamp: 2017-02-23 17:44:18.141
LEye coords (254.0, 239.0), REye coords (251.0, 237.0), timeStamp: 2017-02-23 17:44:18.174
LEye coords (254.0, 239.0), REye coords (251.0, 237.0), timeStamp: 2017-02-23 17:44:18.218
LEye coords (254.0, 239.0), REye coords (252.0, 237.0), timeStamp: 2017-02-23 17:44:18.252
LEye coords (254.0, 239.0), REye coords (252.0, 236.0), timeStamp: 2017-02-23 17:44:18.287
LEye coords (254.0, 238.0), REye coords (252.0, 236.0), timeStamp: 2017-02-23 17:44:18.331
LEye coords (255.0, 238.0), REye coords (252.0, 236.0), timeStamp: 2017-02-23 17:44:18.364
LEye coords (255.0, 238.0), REye coords (252.0, 236.0), timeStamp: 2017-02-23 17:44:18.399
LEye coords (255.0, 238.0), REye coords (253.0, 236.0), timeStamp: 2017-02-23 17:44:18.433
LEye coords (255.0, 237.0), REye coords (253.0, 235.0), timeStamp: 2017-02-23 17:44:18.477
LEye coords (256.0, 234.0), REye coords (253.0, 233.0), timeStamp: 2017-02-23 17:44:18.511
LEye coords (256.0, 231.0), REye coords (254.0, 230.0), timeStamp: 2017-02-23 17:44:18.545
LEye coords (249.0, 176.0), REye coords (258.0, 178.0), timeStamp: 2017-02-23 17:44:18.589
LEye coords (246.0, 173.0), REye coords (260.0, 178.0), timeStamp: 2017-02-23 17:44:18.624
LEye coords (249.0, 173.0), REye coords (259.0, 177.0), timeStamp: 2017-02-23 17:44:18.658
LEye coords (249.0, 174.0), REye coords (258.0, 180.0), timeStamp: 2017-02-23 17:44:18.692
LEye coords (249.0, 174.0), REye coords (258.0, 180.0), timeStamp: 2017-02-23 17:44:18.736
LEye coords (250.0, 174.0), REye coords (258.0, 181.0), timeStamp: 2017-02-23 17:44:18.770
LEye coords (250.0, 174.0), REye coords (258.0, 182.0), timeStamp: 2017-02-23 17:44:18.805
LEye coords (251.0, 175.0), REye coords (258.0, 182.0), timeStamp: 2017-02-23 17:44:18.849
LEye coords (251.0, 175.0), REye coords (258.0, 182.0), timeStamp: 2017-02-23 17:44:18.882
