LEye coords (257.0, 146.0), REye coords (241.0, 140.0), timeStamp: 2017-02-23 17:46:24.390
LEye coords (257.0, 143.0), REye coords (242.0, 139.0), timeStamp: 2017-02-23 17:46:24.425
LEye coords (257.0, 142.0), REye coords (243.0, 136.0), timeStamp: 2017-02-23 17:46:24.458
LEye coords (257.0, 142.0), REye coords (244.0, 136.0), timeStamp: 2017-02-23 17:46:24.493
LEye coords (261.0, 146.0), REye coords (243.0, 139.0), timeStamp: 2017-02-23 17:46:24.537
LEye coords (256.0, 145.0), REye coords (247.0, 135.0), timeStamp: 2017-02-23 17:46:24.570
LEye coords (256.0, 145.0), REye coords (247.0, 136.0), timeStamp: 2017-02-23 17:46:24.604
LEye coords (257.0, 146.0), REye coords (246.0, 137.0), timeStamp: 2017-02-23 17:46:24.649
LEye coords (257.0, 146.0), REye coords (246.0, 137.0), timeStamp: 2017-02-23 17:46:24.681
LEye coords (257.0, 147.0), REye coords (245.0, 136.0), timeStamp: 2017-02-23 17:46:24.715
LEye coords (257.0, 147.0), REye coords (246.0, 138.0), timeStamp: 2017-02-23 17:46:24.759
LEye coords (188.0, 161.0), REye coords (176.0, 140.0), timeStamp: 2017-02-23 17:46:24.792
LEye coords (156.0, 167.0), REye coords (152.0, 153.0), timeStamp: 2017-02-23 17:46:24.826
LEye coords (155.0, 167.0), REye coords (153.0, 154.0), timeStamp: 2017-02-23 17:46:24.869
LEye coords (154.0, 166.0), REye coords (152.0, 151.0), timeStamp: 2017-02-23 17:46:24.903
LEye coords (154.0, 166.0), REye coords (152.0, 151.0), timeStamp: 2017-02-23 17:46:24.937
LEye coords (153.0, 161.0), REye coords (152.0, 136.0), timeStamp: 2017-02-23 17:46:24.982
LEye coords (155.0, 166.0), REye coords (153.0, 153.0), timeStamp: 2017-02-23 17:46:25.015
LEye coords (154.0, 165.0), REye coords (152.0, 153.0), timeStamp: 2017-02-23 17:46:25.048
LEye coords (154.0, 165.0), REye coords (152.0, 154.0), timeStamp: 2017-02-23 17:46:25.093
LEye coords (153.0, 165.0), REye coords (152.0, 155.0), timeStamp: 2017-02-23 17:46:25.126
LEye coords (152.0, 164.0), REye coords (152.0, 155.0), timeStamp: 2017-02-23 17:46:25.160
LEye coords (152.0, 164.0), REye coords (153.0, 155.0), timeStamp: 2017-02-23 17:46:25.205
LEye coords (152.0, 164.0), REye coords (153.0, 154.0), timeStamp: 2017-02-23 17:46:25.238
LEye coords (151.0, 164.0), REye coords (153.0, 154.0), timeStamp: 2017-02-23 17:46:25.272
LEye coords (151.0, 164.0), REye coords (152.0, 155.0), timeStamp: 2017-02-23 17:46:25.306
LEye coords (151.0, 165.0), REye coords (152.0, 155.0), timeStamp: 2017-02-23 17:46:25.351
LEye coords (151.0, 165.0), REye coords (152.0, 155.0), timeStamp: 2017-02-23 17:46:25.385
LEye coords (151.0, 166.0), REye coords (152.0, 155.0), timeStamp: 2017-02-23 17:46:25.418
LEye coords (150.0, 166.0), REye coords (152.0, 156.0), timeStamp: 2017-02-23 17:46:25.462
LEye coords (150.0, 167.0), REye coords (152.0, 156.0), timeStamp: 2017-02-23 17:46:25.497
LEye coords (151.0, 167.0), REye coords (152.0, 156.0), timeStamp: 2017-02-23 17:46:25.531
LEye coords (151.0, 168.0), REye coords (152.0, 157.0), timeStamp: 2017-02-23 17:46:25.565
LEye coords (151.0, 169.0), REye coords (152.0, 157.0), timeStamp: 2017-02-23 17:46:25.609
LEye coords (151.0, 169.0), REye coords (152.0, 158.0), timeStamp: 2017-02-23 17:46:25.643
LEye coords (151.0, 170.0), REye coords (152.0, 159.0), timeStamp: 2017-02-23 17:46:25.677
LEye coords (151.0, 171.0), REye coords (152.0, 160.0), timeStamp: 2017-02-23 17:46:25.720
LEye coords (152.0, 172.0), REye coords (152.0, 161.0), timeStamp: 2017-02-23 17:46:25.754
LEye coords (152.0, 173.0), REye coords (152.0, 162.0), timeStamp: 2017-02-23 17:46:25.787
LEye coords (152.0, 174.0), REye coords (152.0, 163.0), timeStamp: 2017-02-23 17:46:25.833
