LEye coords (335.0, 124.0), REye coords (312.0, 119.0), timeStamp: 2017-02-23 17:46:30.267
LEye coords (332.0, 131.0), REye coords (313.0, 128.0), timeStamp: 2017-02-23 17:46:30.312
LEye coords (332.0, 130.0), REye coords (315.0, 128.0), timeStamp: 2017-02-23 17:46:30.346
LEye coords (331.0, 131.0), REye coords (316.0, 127.0), timeStamp: 2017-02-23 17:46:30.381
LEye coords (332.0, 132.0), REye coords (315.0, 130.0), timeStamp: 2017-02-23 17:46:30.423
LEye coords (331.0, 132.0), REye coords (315.0, 131.0), timeStamp: 2017-02-23 17:46:30.458
LEye coords (331.0, 132.0), REye coords (315.0, 131.0), timeStamp: 2017-02-23 17:46:30.492
LEye coords (331.0, 132.0), REye coords (315.0, 131.0), timeStamp: 2017-02-23 17:46:30.526
LEye coords (327.0, 134.0), REye coords (311.0, 134.0), timeStamp: 2017-02-23 17:46:30.571
LEye coords (323.0, 137.0), REye coords (308.0, 136.0), timeStamp: 2017-02-23 17:46:30.605
LEye coords (320.0, 138.0), REye coords (305.0, 138.0), timeStamp: 2017-02-23 17:46:30.639
LEye coords (317.0, 140.0), REye coords (301.0, 140.0), timeStamp: 2017-02-23 17:46:30.682
LEye coords (238.0, 190.0), REye coords (229.0, 176.0), timeStamp: 2017-02-23 17:46:30.715
LEye coords (240.0, 195.0), REye coords (226.0, 183.0), timeStamp: 2017-02-23 17:46:30.749
LEye coords (239.0, 194.0), REye coords (227.0, 184.0), timeStamp: 2017-02-23 17:46:30.795
LEye coords (239.0, 194.0), REye coords (227.0, 182.0), timeStamp: 2017-02-23 17:46:30.830
LEye coords (231.0, 198.0), REye coords (218.0, 186.0), timeStamp: 2017-02-23 17:46:30.863
LEye coords (205.0, 212.0), REye coords (193.0, 201.0), timeStamp: 2017-02-23 17:46:30.898
LEye coords (203.0, 213.0), REye coords (196.0, 201.0), timeStamp: 2017-02-23 17:46:30.941
LEye coords (204.0, 213.0), REye coords (196.0, 202.0), timeStamp: 2017-02-23 17:46:30.974
LEye coords (204.0, 214.0), REye coords (196.0, 201.0), timeStamp: 2017-02-23 17:46:31.008
LEye coords (204.0, 215.0), REye coords (196.0, 201.0), timeStamp: 2017-02-23 17:46:31.053
LEye coords (204.0, 215.0), REye coords (197.0, 202.0), timeStamp: 2017-02-23 17:46:31.086
LEye coords (204.0, 215.0), REye coords (197.0, 202.0), timeStamp: 2017-02-23 17:46:31.119
LEye coords (204.0, 215.0), REye coords (197.0, 202.0), timeStamp: 2017-02-23 17:46:31.164
LEye coords (204.0, 215.0), REye coords (197.0, 203.0), timeStamp: 2017-02-23 17:46:31.196
LEye coords (203.0, 215.0), REye coords (196.0, 203.0), timeStamp: 2017-02-23 17:46:31.230
LEye coords (203.0, 215.0), REye coords (196.0, 203.0), timeStamp: 2017-02-23 17:46:31.274
LEye coords (203.0, 215.0), REye coords (197.0, 203.0), timeStamp: 2017-02-23 17:46:31.308
LEye coords (203.0, 215.0), REye coords (197.0, 204.0), timeStamp: 2017-02-23 17:46:31.342
LEye coords (203.0, 215.0), REye coords (197.0, 204.0), timeStamp: 2017-02-23 17:46:31.376
LEye coords (203.0, 215.0), REye coords (197.0, 204.0), timeStamp: 2017-02-23 17:46:31.421
LEye coords (203.0, 215.0), REye coords (197.0, 204.0), timeStamp: 2017-02-23 17:46:31.454
LEye coords (203.0, 215.0), REye coords (197.0, 204.0), timeStamp: 2017-02-23 17:46:31.487
LEye coords (203.0, 215.0), REye coords (197.0, 204.0), timeStamp: 2017-02-23 17:46:31.530
LEye coords (203.0, 215.0), REye coords (197.0, 205.0), timeStamp: 2017-02-23 17:46:31.563
LEye coords (203.0, 215.0), REye coords (197.0, 205.0), timeStamp: 2017-02-23 17:46:31.608
LEye coords (203.0, 215.0), REye coords (197.0, 205.0), timeStamp: 2017-02-23 17:46:31.641
LEye coords (203.0, 215.0), REye coords (197.0, 206.0), timeStamp: 2017-02-23 17:46:31.675
