LEye coords (204.0, 215.0), REye coords (199.0, 207.0), timeStamp: 2017-02-23 17:46:31.752
LEye coords (204.0, 215.0), REye coords (200.0, 207.0), timeStamp: 2017-02-23 17:46:31.786
LEye coords (205.0, 216.0), REye coords (201.0, 208.0), timeStamp: 2017-02-23 17:46:31.829
LEye coords (205.0, 216.0), REye coords (202.0, 209.0), timeStamp: 2017-02-23 17:46:31.862
LEye coords (206.0, 216.0), REye coords (203.0, 209.0), timeStamp: 2017-02-23 17:46:31.896
LEye coords (206.0, 216.0), REye coords (204.0, 209.0), timeStamp: 2017-02-23 17:46:31.940
LEye coords (206.0, 216.0), REye coords (205.0, 209.0), timeStamp: 2017-02-23 17:46:31.974
LEye coords (207.0, 216.0), REye coords (206.0, 211.0), timeStamp: 2017-02-23 17:46:32.009
LEye coords (207.0, 216.0), REye coords (207.0, 211.0), timeStamp: 2017-02-23 17:46:32.042
LEye coords (208.0, 217.0), REye coords (208.0, 211.0), timeStamp: 2017-02-23 17:46:32.088
LEye coords (278.0, 191.0), REye coords (271.0, 193.0), timeStamp: 2017-02-23 17:46:32.120
LEye coords (283.0, 186.0), REye coords (278.0, 185.0), timeStamp: 2017-02-23 17:46:32.153
LEye coords (283.0, 185.0), REye coords (279.0, 185.0), timeStamp: 2017-02-23 17:46:32.197
LEye coords (283.0, 184.0), REye coords (278.0, 185.0), timeStamp: 2017-02-23 17:46:32.229
LEye coords (282.0, 183.0), REye coords (278.0, 182.0), timeStamp: 2017-02-23 17:46:32.273
LEye coords (247.0, 186.0), REye coords (245.0, 184.0), timeStamp: 2017-02-23 17:46:32.307
LEye coords (247.0, 184.0), REye coords (243.0, 175.0), timeStamp: 2017-02-23 17:46:32.340
LEye coords (247.0, 185.0), REye coords (243.0, 179.0), timeStamp: 2017-02-23 17:46:32.385
LEye coords (247.0, 185.0), REye coords (243.0, 176.0), timeStamp: 2017-02-23 17:46:32.418
LEye coords (247.0, 187.0), REye coords (243.0, 176.0), timeStamp: 2017-02-23 17:46:32.452
LEye coords (246.0, 187.0), REye coords (243.0, 176.0), timeStamp: 2017-02-23 17:46:32.495
LEye coords (246.0, 187.0), REye coords (243.0, 176.0), timeStamp: 2017-02-23 17:46:32.528
LEye coords (246.0, 188.0), REye coords (243.0, 174.0), timeStamp: 2017-02-23 17:46:32.562
LEye coords (245.0, 188.0), REye coords (243.0, 173.0), timeStamp: 2017-02-23 17:46:32.607
LEye coords (245.0, 188.0), REye coords (243.0, 173.0), timeStamp: 2017-02-23 17:46:32.640
LEye coords (245.0, 188.0), REye coords (243.0, 172.0), timeStamp: 2017-02-23 17:46:32.675
LEye coords (245.0, 188.0), REye coords (243.0, 172.0), timeStamp: 2017-02-23 17:46:32.709
LEye coords (245.0, 189.0), REye coords (243.0, 172.0), timeStamp: 2017-02-23 17:46:32.753
LEye coords (244.0, 189.0), REye coords (243.0, 172.0), timeStamp: 2017-02-23 17:46:32.787
LEye coords (244.0, 190.0), REye coords (243.0, 173.0), timeStamp: 2017-02-23 17:46:32.820
LEye coords (244.0, 190.0), REye coords (242.0, 173.0), timeStamp: 2017-02-23 17:46:32.866
LEye coords (244.0, 190.0), REye coords (242.0, 173.0), timeStamp: 2017-02-23 17:46:32.900
LEye coords (243.0, 191.0), REye coords (242.0, 174.0), timeStamp: 2017-02-23 17:46:32.977
