LEye coords (243.0, 191.0), REye coords (242.0, 174.0), timeStamp: 2017-02-23 17:46:33.012
LEye coords (0.0, 0.0), REye coords (242.0, 175.0), timeStamp: 2017-02-23 17:46:33.046
LEye coords (0.0, 0.0), REye coords (242.0, 176.0), timeStamp: 2017-02-23 17:46:33.080
LEye coords (0.0, 0.0), REye coords (242.0, 176.0), timeStamp: 2017-02-23 17:46:33.124
LEye coords (0.0, 0.0), REye coords (242.0, 177.0), timeStamp: 2017-02-23 17:46:33.157
LEye coords (0.0, 0.0), REye coords (243.0, 178.0), timeStamp: 2017-02-23 17:46:33.191
LEye coords (0.0, 0.0), REye coords (242.0, 178.0), timeStamp: 2017-02-23 17:46:33.235
LEye coords (0.0, 0.0), REye coords (242.0, 179.0), timeStamp: 2017-02-23 17:46:33.269
LEye coords (242.0, 191.0), REye coords (241.0, 179.0), timeStamp: 2017-02-23 17:46:33.303
LEye coords (186.0, 158.0), REye coords (175.0, 143.0), timeStamp: 2017-02-23 17:46:33.337
LEye coords (183.0, 157.0), REye coords (182.0, 135.0), timeStamp: 2017-02-23 17:46:33.382
LEye coords (185.0, 157.0), REye coords (183.0, 136.0), timeStamp: 2017-02-23 17:46:33.415
LEye coords (185.0, 159.0), REye coords (183.0, 138.0), timeStamp: 2017-02-23 17:46:33.449
LEye coords (185.0, 159.0), REye coords (183.0, 138.0), timeStamp: 2017-02-23 17:46:33.494
LEye coords (185.0, 159.0), REye coords (183.0, 143.0), timeStamp: 2017-02-23 17:46:33.529
LEye coords (187.0, 157.0), REye coords (185.0, 137.0), timeStamp: 2017-02-23 17:46:33.563
LEye coords (186.0, 158.0), REye coords (184.0, 138.0), timeStamp: 2017-02-23 17:46:33.597
LEye coords (186.0, 156.0), REye coords (183.0, 139.0), timeStamp: 2017-02-23 17:46:33.641
LEye coords (184.0, 155.0), REye coords (183.0, 138.0), timeStamp: 2017-02-23 17:46:33.676
LEye coords (184.0, 155.0), REye coords (183.0, 138.0), timeStamp: 2017-02-23 17:46:33.711
LEye coords (183.0, 154.0), REye coords (182.0, 137.0), timeStamp: 2017-02-23 17:46:33.754
LEye coords (183.0, 154.0), REye coords (181.0, 137.0), timeStamp: 2017-02-23 17:46:33.788
LEye coords (183.0, 152.0), REye coords (182.0, 135.0), timeStamp: 2017-02-23 17:46:33.821
LEye coords (183.0, 151.0), REye coords (0.0, 0.0), timeStamp: 2017-02-23 17:46:33.865
LEye coords (184.0, 150.0), REye coords (0.0, 0.0), timeStamp: 2017-02-23 17:46:33.898
LEye coords (184.0, 149.0), REye coords (0.0, 0.0), timeStamp: 2017-02-23 17:46:33.932
LEye coords (184.0, 148.0), REye coords (0.0, 0.0), timeStamp: 2017-02-23 17:46:33.976
LEye coords (184.0, 147.0), REye coords (0.0, 0.0), timeStamp: 2017-02-23 17:46:34.010
LEye coords (184.0, 146.0), REye coords (0.0, 0.0), timeStamp: 2017-02-23 17:46:34.044
LEye coords (183.0, 145.0), REye coords (0.0, 0.0), timeStamp: 2017-02-23 17:46:34.079
LEye coords (183.0, 145.0), REye coords (0.0, 0.0), timeStamp: 2017-02-23 17:46:34.122
LEye coords (183.0, 144.0), REye coords (0.0, 0.0), timeStamp: 2017-02-23 17:46:34.157
LEye coords (183.0, 143.0), REye coords (0.0, 0.0), timeStamp: 2017-02-23 17:46:34.190
LEye coords (183.0, 143.0), REye coords (0.0, 0.0), timeStamp: 2017-02-23 17:46:34.234
LEye coords (183.0, 142.0), REye coords (0.0, 0.0), timeStamp: 2017-02-23 17:46:34.268
LEye coords (183.0, 142.0), REye coords (0.0, 0.0), timeStamp: 2017-02-23 17:46:34.301
LEye coords (183.0, 142.0), REye coords (0.0, 0.0), timeStamp: 2017-02-23 17:46:34.344
LEye coords (183.0, 141.0), REye coords (183.0, 141.0), timeStamp: 2017-02-23 17:46:34.412
