LEye coords (302.0, 173.0), REye coords (301.0, 167.0), timeStamp: 2017-02-23 17:46:39.482
LEye coords (303.0, 172.0), REye coords (300.0, 168.0), timeStamp: 2017-02-23 17:46:39.527
LEye coords (303.0, 172.0), REye coords (300.0, 168.0), timeStamp: 2017-02-23 17:46:39.561
LEye coords (304.0, 172.0), REye coords (299.0, 169.0), timeStamp: 2017-02-23 17:46:39.595
LEye coords (258.0, 197.0), REye coords (251.0, 190.0), timeStamp: 2017-02-23 17:46:39.639
LEye coords (261.0, 202.0), REye coords (252.0, 201.0), timeStamp: 2017-02-23 17:46:39.672
LEye coords (261.0, 201.0), REye coords (253.0, 196.0), timeStamp: 2017-02-23 17:46:39.706
LEye coords (261.0, 202.0), REye coords (253.0, 197.0), timeStamp: 2017-02-23 17:46:39.749
LEye coords (261.0, 202.0), REye coords (254.0, 197.0), timeStamp: 2017-02-23 17:46:39.783
LEye coords (262.0, 206.0), REye coords (256.0, 195.0), timeStamp: 2017-02-23 17:46:39.816
LEye coords (231.0, 211.0), REye coords (223.0, 194.0), timeStamp: 2017-02-23 17:46:39.859
LEye coords (206.0, 217.0), REye coords (200.0, 201.0), timeStamp: 2017-02-23 17:46:39.893
LEye coords (197.0, 219.0), REye coords (192.0, 203.0), timeStamp: 2017-02-23 17:46:39.927
LEye coords (193.0, 220.0), REye coords (187.0, 203.0), timeStamp: 2017-02-23 17:46:39.971
LEye coords (180.0, 221.0), REye coords (173.0, 209.0), timeStamp: 2017-02-23 17:46:40.004
LEye coords (179.0, 223.0), REye coords (175.0, 201.0), timeStamp: 2017-02-23 17:46:40.037
LEye coords (181.0, 221.0), REye coords (176.0, 202.0), timeStamp: 2017-02-23 17:46:40.081
LEye coords (180.0, 221.0), REye coords (176.0, 202.0), timeStamp: 2017-02-23 17:46:40.116
LEye coords (179.0, 220.0), REye coords (175.0, 202.0), timeStamp: 2017-02-23 17:46:40.149
LEye coords (179.0, 219.0), REye coords (174.0, 202.0), timeStamp: 2017-02-23 17:46:40.192
LEye coords (179.0, 219.0), REye coords (174.0, 201.0), timeStamp: 2017-02-23 17:46:40.226
LEye coords (179.0, 219.0), REye coords (175.0, 200.0), timeStamp: 2017-02-23 17:46:40.259
LEye coords (180.0, 219.0), REye coords (175.0, 200.0), timeStamp: 2017-02-23 17:46:40.302
LEye coords (180.0, 218.0), REye coords (175.0, 201.0), timeStamp: 2017-02-23 17:46:40.336
LEye coords (180.0, 218.0), REye coords (175.0, 201.0), timeStamp: 2017-02-23 17:46:40.370
LEye coords (181.0, 218.0), REye coords (175.0, 200.0), timeStamp: 2017-02-23 17:46:40.413
LEye coords (181.0, 218.0), REye coords (175.0, 200.0), timeStamp: 2017-02-23 17:46:40.447
LEye coords (181.0, 217.0), REye coords (175.0, 200.0), timeStamp: 2017-02-23 17:46:40.481
LEye coords (182.0, 217.0), REye coords (175.0, 200.0), timeStamp: 2017-02-23 17:46:40.525
LEye coords (182.0, 217.0), REye coords (176.0, 200.0), timeStamp: 2017-02-23 17:46:40.558
LEye coords (182.0, 217.0), REye coords (176.0, 201.0), timeStamp: 2017-02-23 17:46:40.592
LEye coords (183.0, 217.0), REye coords (176.0, 202.0), timeStamp: 2017-02-23 17:46:40.636
LEye coords (183.0, 217.0), REye coords (176.0, 202.0), timeStamp: 2017-02-23 17:46:40.670
LEye coords (183.0, 217.0), REye coords (176.0, 202.0), timeStamp: 2017-02-23 17:46:40.703
LEye coords (184.0, 217.0), REye coords (177.0, 202.0), timeStamp: 2017-02-23 17:46:40.747
LEye coords (184.0, 217.0), REye coords (177.0, 203.0), timeStamp: 2017-02-23 17:46:40.782
