LEye coords (215.0, 180.0), REye coords (209.0, 179.0), timeStamp: 2017-02-23 17:49:02.205
LEye coords (216.0, 180.0), REye coords (209.0, 179.0), timeStamp: 2017-02-23 17:49:02.239
LEye coords (216.0, 180.0), REye coords (209.0, 179.0), timeStamp: 2017-02-23 17:49:02.273
LEye coords (216.0, 180.0), REye coords (209.0, 180.0), timeStamp: 2017-02-23 17:49:02.316
LEye coords (216.0, 180.0), REye coords (210.0, 180.0), timeStamp: 2017-02-23 17:49:02.351
LEye coords (216.0, 181.0), REye coords (210.0, 180.0), timeStamp: 2017-02-23 17:49:02.384
LEye coords (217.0, 181.0), REye coords (210.0, 181.0), timeStamp: 2017-02-23 17:49:02.418
LEye coords (217.0, 181.0), REye coords (210.0, 181.0), timeStamp: 2017-02-23 17:49:02.462
LEye coords (217.0, 182.0), REye coords (209.0, 181.0), timeStamp: 2017-02-23 17:49:02.496
LEye coords (219.0, 182.0), REye coords (211.0, 182.0), timeStamp: 2017-02-23 17:49:02.529
LEye coords (305.0, 165.0), REye coords (297.0, 169.0), timeStamp: 2017-02-23 17:49:02.572
LEye coords (301.0, 169.0), REye coords (296.0, 170.0), timeStamp: 2017-02-23 17:49:02.606
LEye coords (304.0, 168.0), REye coords (288.0, 173.0), timeStamp: 2017-02-23 17:49:02.641
LEye coords (304.0, 168.0), REye coords (290.0, 172.0), timeStamp: 2017-02-23 17:49:02.684
LEye coords (304.0, 168.0), REye coords (292.0, 171.0), timeStamp: 2017-02-23 17:49:02.717
LEye coords (304.0, 164.0), REye coords (295.0, 170.0), timeStamp: 2017-02-23 17:49:02.761
LEye coords (290.0, 136.0), REye coords (293.0, 123.0), timeStamp: 2017-02-23 17:49:02.794
LEye coords (290.0, 138.0), REye coords (294.0, 125.0), timeStamp: 2017-02-23 17:49:02.827
LEye coords (291.0, 136.0), REye coords (294.0, 125.0), timeStamp: 2017-02-23 17:49:02.871
LEye coords (291.0, 135.0), REye coords (294.0, 125.0), timeStamp: 2017-02-23 17:49:02.905
LEye coords (294.0, 134.0), REye coords (293.0, 126.0), timeStamp: 2017-02-23 17:49:02.940
LEye coords (296.0, 133.0), REye coords (292.0, 126.0), timeStamp: 2017-02-23 17:49:02.973
LEye coords (297.0, 133.0), REye coords (292.0, 125.0), timeStamp: 2017-02-23 17:49:03.017
LEye coords (298.0, 132.0), REye coords (292.0, 125.0), timeStamp: 2017-02-23 17:49:03.051
LEye coords (298.0, 132.0), REye coords (291.0, 125.0), timeStamp: 2017-02-23 17:49:03.085
