LEye coords (171.0, 99.0), REye coords (169.0, 94.0), timeStamp: 2017-02-23 17:46:42.111
LEye coords (171.0, 98.0), REye coords (170.0, 93.0), timeStamp: 2017-02-23 17:46:42.155
LEye coords (171.0, 97.0), REye coords (170.0, 93.0), timeStamp: 2017-02-23 17:46:42.189
LEye coords (171.0, 97.0), REye coords (170.0, 92.0), timeStamp: 2017-02-23 17:46:42.223
LEye coords (213.0, 144.0), REye coords (204.0, 128.0), timeStamp: 2017-02-23 17:46:42.266
LEye coords (244.0, 207.0), REye coords (229.0, 200.0), timeStamp: 2017-02-23 17:46:42.300
LEye coords (245.0, 202.0), REye coords (231.0, 201.0), timeStamp: 2017-02-23 17:46:42.335
LEye coords (246.0, 202.0), REye coords (230.0, 199.0), timeStamp: 2017-02-23 17:46:42.378
LEye coords (0.0, 0.0), REye coords (229.0, 200.0), timeStamp: 2017-02-23 17:46:42.411
LEye coords (0.0, 0.0), REye coords (226.0, 204.0), timeStamp: 2017-02-23 17:46:42.445
LEye coords (0.0, 0.0), REye coords (229.0, 207.0), timeStamp: 2017-02-23 17:46:42.489
LEye coords (0.0, 0.0), REye coords (229.0, 207.0), timeStamp: 2017-02-23 17:46:42.522
LEye coords (0.0, 0.0), REye coords (234.0, 209.0), timeStamp: 2017-02-23 17:46:42.556
LEye coords (254.0, 209.0), REye coords (242.0, 214.0), timeStamp: 2017-02-23 17:46:42.601
LEye coords (272.0, 224.0), REye coords (248.0, 217.0), timeStamp: 2017-02-23 17:46:42.634
LEye coords (277.0, 228.0), REye coords (253.0, 218.0), timeStamp: 2017-02-23 17:46:42.667
LEye coords (276.0, 228.0), REye coords (0.0, 0.0), timeStamp: 2017-02-23 17:46:42.711
LEye coords (276.0, 227.0), REye coords (0.0, 0.0), timeStamp: 2017-02-23 17:46:42.746
LEye coords (275.0, 228.0), REye coords (258.0, 218.0), timeStamp: 2017-02-23 17:46:42.780
LEye coords (275.0, 228.0), REye coords (261.0, 218.0), timeStamp: 2017-02-23 17:46:42.814
LEye coords (278.0, 231.0), REye coords (263.0, 220.0), timeStamp: 2017-02-23 17:46:42.859
LEye coords (279.0, 234.0), REye coords (265.0, 224.0), timeStamp: 2017-02-23 17:46:42.891
LEye coords (281.0, 236.0), REye coords (280.0, 250.0), timeStamp: 2017-02-23 17:46:42.924
LEye coords (281.0, 238.0), REye coords (282.0, 251.0), timeStamp: 2017-02-23 17:46:42.968
LEye coords (282.0, 240.0), REye coords (281.0, 249.0), timeStamp: 2017-02-23 17:46:43.001
LEye coords (282.0, 241.0), REye coords (280.0, 246.0), timeStamp: 2017-02-23 17:46:43.035
LEye coords (283.0, 242.0), REye coords (279.0, 245.0), timeStamp: 2017-02-23 17:46:43.078
LEye coords (283.0, 243.0), REye coords (279.0, 244.0), timeStamp: 2017-02-23 17:46:43.113
LEye coords (283.0, 244.0), REye coords (279.0, 243.0), timeStamp: 2017-02-23 17:46:43.146
LEye coords (283.0, 244.0), REye coords (278.0, 243.0), timeStamp: 2017-02-23 17:46:43.191
LEye coords (283.0, 244.0), REye coords (279.0, 244.0), timeStamp: 2017-02-23 17:46:43.225
LEye coords (284.0, 245.0), REye coords (279.0, 243.0), timeStamp: 2017-02-23 17:46:43.260
LEye coords (284.0, 245.0), REye coords (279.0, 244.0), timeStamp: 2017-02-23 17:46:43.303
