LEye coords (431.0, 196.0), REye coords (427.0, 200.0), timeStamp: 2017-02-23 17:49:05.721
LEye coords (431.0, 196.0), REye coords (427.0, 200.0), timeStamp: 2017-02-23 17:49:05.755
LEye coords (325.0, 213.0), REye coords (330.0, 213.0), timeStamp: 2017-02-23 17:49:05.789
LEye coords (283.0, 230.0), REye coords (280.0, 233.0), timeStamp: 2017-02-23 17:49:05.832
LEye coords (284.0, 231.0), REye coords (282.0, 232.0), timeStamp: 2017-02-23 17:49:05.866
LEye coords (285.0, 233.0), REye coords (282.0, 231.0), timeStamp: 2017-02-23 17:49:05.899
LEye coords (285.0, 233.0), REye coords (281.0, 231.0), timeStamp: 2017-02-23 17:49:05.943
LEye coords (287.0, 231.0), REye coords (279.0, 238.0), timeStamp: 2017-02-23 17:49:05.977
LEye coords (290.0, 227.0), REye coords (281.0, 231.0), timeStamp: 2017-02-23 17:49:06.012
LEye coords (317.0, 188.0), REye coords (309.0, 187.0), timeStamp: 2017-02-23 17:49:06.046
LEye coords (325.0, 175.0), REye coords (317.0, 174.0), timeStamp: 2017-02-23 17:49:06.091
LEye coords (330.0, 168.0), REye coords (321.0, 169.0), timeStamp: 2017-02-23 17:49:06.124
LEye coords (342.0, 154.0), REye coords (334.0, 148.0), timeStamp: 2017-02-23 17:49:06.158
LEye coords (342.0, 157.0), REye coords (334.0, 144.0), timeStamp: 2017-02-23 17:49:06.201
LEye coords (344.0, 152.0), REye coords (337.0, 145.0), timeStamp: 2017-02-23 17:49:06.235
LEye coords (354.0, 151.0), REye coords (346.0, 145.0), timeStamp: 2017-02-23 17:49:06.268
LEye coords (358.0, 150.0), REye coords (348.0, 147.0), timeStamp: 2017-02-23 17:49:06.313
LEye coords (361.0, 150.0), REye coords (350.0, 147.0), timeStamp: 2017-02-23 17:49:06.346
LEye coords (363.0, 150.0), REye coords (352.0, 147.0), timeStamp: 2017-02-23 17:49:06.380
LEye coords (364.0, 150.0), REye coords (353.0, 147.0), timeStamp: 2017-02-23 17:49:06.425
LEye coords (365.0, 150.0), REye coords (354.0, 146.0), timeStamp: 2017-02-23 17:49:06.458
LEye coords (365.0, 149.0), REye coords (355.0, 146.0), timeStamp: 2017-02-23 17:49:06.494
LEye coords (366.0, 149.0), REye coords (356.0, 145.0), timeStamp: 2017-02-23 17:49:06.527
LEye coords (366.0, 149.0), REye coords (356.0, 144.0), timeStamp: 2017-02-23 17:49:06.572
LEye coords (367.0, 149.0), REye coords (357.0, 144.0), timeStamp: 2017-02-23 17:49:06.606
LEye coords (367.0, 149.0), REye coords (357.0, 143.0), timeStamp: 2017-02-23 17:49:06.640
LEye coords (368.0, 149.0), REye coords (358.0, 143.0), timeStamp: 2017-02-23 17:49:06.684
LEye coords (368.0, 149.0), REye coords (358.0, 143.0), timeStamp: 2017-02-23 17:49:06.717
LEye coords (368.0, 149.0), REye coords (358.0, 143.0), timeStamp: 2017-02-23 17:49:06.749
LEye coords (368.0, 149.0), REye coords (358.0, 143.0), timeStamp: 2017-02-23 17:49:06.793
LEye coords (368.0, 149.0), REye coords (358.0, 144.0), timeStamp: 2017-02-23 17:49:06.826
LEye coords (368.0, 149.0), REye coords (358.0, 144.0), timeStamp: 2017-02-23 17:49:06.859
