LEye coords (368.0, 133.0), REye coords (358.0, 129.0), timeStamp: 2017-02-23 17:49:06.971
LEye coords (368.0, 133.0), REye coords (358.0, 129.0), timeStamp: 2017-02-23 17:49:07.015
LEye coords (369.0, 133.0), REye coords (359.0, 129.0), timeStamp: 2017-02-23 17:49:07.048
LEye coords (368.0, 133.0), REye coords (358.0, 129.0), timeStamp: 2017-02-23 17:49:07.082
LEye coords (368.0, 134.0), REye coords (359.0, 129.0), timeStamp: 2017-02-23 17:49:07.126
LEye coords (291.0, 196.0), REye coords (283.0, 191.0), timeStamp: 2017-02-23 17:49:07.160
LEye coords (289.0, 195.0), REye coords (283.0, 194.0), timeStamp: 2017-02-23 17:49:07.193
LEye coords (288.0, 194.0), REye coords (284.0, 192.0), timeStamp: 2017-02-23 17:49:07.237
LEye coords (289.0, 195.0), REye coords (283.0, 192.0), timeStamp: 2017-02-23 17:49:07.271
LEye coords (290.0, 194.0), REye coords (284.0, 191.0), timeStamp: 2017-02-23 17:49:07.305
LEye coords (319.0, 167.0), REye coords (309.0, 165.0), timeStamp: 2017-02-23 17:49:07.349
LEye coords (319.0, 166.0), REye coords (309.0, 163.0), timeStamp: 2017-02-23 17:49:07.382
LEye coords (320.0, 164.0), REye coords (312.0, 162.0), timeStamp: 2017-02-23 17:49:07.416
LEye coords (329.0, 163.0), REye coords (0.0, 0.0), timeStamp: 2017-02-23 17:49:07.461
LEye coords (334.0, 159.0), REye coords (0.0, 0.0), timeStamp: 2017-02-23 17:49:07.494
LEye coords (348.0, 156.0), REye coords (0.0, 0.0), timeStamp: 2017-02-23 17:49:07.528
LEye coords (349.0, 155.0), REye coords (0.0, 0.0), timeStamp: 2017-02-23 17:49:07.571
LEye coords (350.0, 155.0), REye coords (0.0, 0.0), timeStamp: 2017-02-23 17:49:07.605
LEye coords (350.0, 155.0), REye coords (0.0, 0.0), timeStamp: 2017-02-23 17:49:07.640
LEye coords (349.0, 155.0), REye coords (0.0, 0.0), timeStamp: 2017-02-23 17:49:07.673
LEye coords (349.0, 154.0), REye coords (323.0, 155.0), timeStamp: 2017-02-23 17:49:07.718
LEye coords (349.0, 153.0), REye coords (328.0, 152.0), timeStamp: 2017-02-23 17:49:07.751
LEye coords (349.0, 153.0), REye coords (345.0, 141.0), timeStamp: 2017-02-23 17:49:07.785
LEye coords (350.0, 153.0), REye coords (347.0, 138.0), timeStamp: 2017-02-23 17:49:07.828
LEye coords (350.0, 153.0), REye coords (346.0, 139.0), timeStamp: 2017-02-23 17:49:07.862
LEye coords (350.0, 153.0), REye coords (346.0, 138.0), timeStamp: 2017-02-23 17:49:07.896
LEye coords (350.0, 153.0), REye coords (346.0, 138.0), timeStamp: 2017-02-23 17:49:07.941
LEye coords (350.0, 153.0), REye coords (345.0, 139.0), timeStamp: 2017-02-23 17:49:07.975
