LEye coords (350.0, 153.0), REye coords (344.0, 141.0), timeStamp: 2017-02-23 17:49:08.053
LEye coords (350.0, 153.0), REye coords (343.0, 143.0), timeStamp: 2017-02-23 17:49:08.087
LEye coords (350.0, 153.0), REye coords (342.0, 145.0), timeStamp: 2017-02-23 17:49:08.120
LEye coords (351.0, 154.0), REye coords (342.0, 146.0), timeStamp: 2017-02-23 17:49:08.164
LEye coords (351.0, 154.0), REye coords (342.0, 146.0), timeStamp: 2017-02-23 17:49:08.198
LEye coords (351.0, 154.0), REye coords (342.0, 147.0), timeStamp: 2017-02-23 17:49:08.231
LEye coords (351.0, 155.0), REye coords (342.0, 148.0), timeStamp: 2017-02-23 17:49:08.275
LEye coords (351.0, 156.0), REye coords (342.0, 148.0), timeStamp: 2017-02-23 17:49:08.309
LEye coords (268.0, 175.0), REye coords (256.0, 175.0), timeStamp: 2017-02-23 17:49:08.343
LEye coords (248.0, 173.0), REye coords (240.0, 169.0), timeStamp: 2017-02-23 17:49:08.387
LEye coords (249.0, 174.0), REye coords (240.0, 170.0), timeStamp: 2017-02-23 17:49:08.420
LEye coords (248.0, 174.0), REye coords (240.0, 169.0), timeStamp: 2017-02-23 17:49:08.455
LEye coords (235.0, 172.0), REye coords (228.0, 166.0), timeStamp: 2017-02-23 17:49:08.489
LEye coords (181.0, 159.0), REye coords (174.0, 146.0), timeStamp: 2017-02-23 17:49:08.534
LEye coords (180.0, 157.0), REye coords (174.0, 141.0), timeStamp: 2017-02-23 17:49:08.568
LEye coords (180.0, 157.0), REye coords (175.0, 142.0), timeStamp: 2017-02-23 17:49:08.601
LEye coords (181.0, 156.0), REye coords (175.0, 143.0), timeStamp: 2017-02-23 17:49:08.645
LEye coords (181.0, 156.0), REye coords (175.0, 143.0), timeStamp: 2017-02-23 17:49:08.677
LEye coords (180.0, 155.0), REye coords (175.0, 143.0), timeStamp: 2017-02-23 17:49:08.712
LEye coords (180.0, 155.0), REye coords (175.0, 143.0), timeStamp: 2017-02-23 17:49:08.756
LEye coords (180.0, 154.0), REye coords (175.0, 143.0), timeStamp: 2017-02-23 17:49:08.790
LEye coords (180.0, 153.0), REye coords (175.0, 144.0), timeStamp: 2017-02-23 17:49:08.823
LEye coords (180.0, 152.0), REye coords (174.0, 144.0), timeStamp: 2017-02-23 17:49:08.867
LEye coords (180.0, 152.0), REye coords (174.0, 145.0), timeStamp: 2017-02-23 17:49:08.901
LEye coords (179.0, 152.0), REye coords (174.0, 145.0), timeStamp: 2017-02-23 17:49:08.934
LEye coords (179.0, 152.0), REye coords (173.0, 145.0), timeStamp: 2017-02-23 17:49:08.978
LEye coords (178.0, 152.0), REye coords (172.0, 145.0), timeStamp: 2017-02-23 17:49:09.012
LEye coords (177.0, 152.0), REye coords (171.0, 146.0), timeStamp: 2017-02-23 17:49:09.045
LEye coords (176.0, 152.0), REye coords (169.0, 146.0), timeStamp: 2017-02-23 17:49:09.079
LEye coords (175.0, 152.0), REye coords (169.0, 146.0), timeStamp: 2017-02-23 17:49:09.123
LEye coords (174.0, 152.0), REye coords (168.0, 146.0), timeStamp: 2017-02-23 17:49:09.156
LEye coords (173.0, 152.0), REye coords (167.0, 146.0), timeStamp: 2017-02-23 17:49:09.200
LEye coords (173.0, 152.0), REye coords (166.0, 146.0), timeStamp: 2017-02-23 17:49:09.234
LEye coords (172.0, 152.0), REye coords (166.0, 147.0), timeStamp: 2017-02-23 17:49:09.267
LEye coords (172.0, 153.0), REye coords (165.0, 147.0), timeStamp: 2017-02-23 17:49:09.301
