LEye coords (208.0, 133.0), REye coords (207.0, 133.0), timeStamp: 2017-02-23 17:50:37.314
LEye coords (205.0, 132.0), REye coords (208.0, 129.0), timeStamp: 2017-02-23 17:50:37.358
LEye coords (206.0, 130.0), REye coords (208.0, 126.0), timeStamp: 2017-02-23 17:50:37.392
LEye coords (205.0, 125.0), REye coords (208.0, 119.0), timeStamp: 2017-02-23 17:50:37.425
LEye coords (205.0, 124.0), REye coords (207.0, 116.0), timeStamp: 2017-02-23 17:50:37.470
LEye coords (205.0, 123.0), REye coords (207.0, 114.0), timeStamp: 2017-02-23 17:50:37.504
LEye coords (205.0, 122.0), REye coords (207.0, 114.0), timeStamp: 2017-02-23 17:50:37.537
LEye coords (205.0, 120.0), REye coords (207.0, 113.0), timeStamp: 2017-02-23 17:50:37.582
LEye coords (205.0, 120.0), REye coords (207.0, 112.0), timeStamp: 2017-02-23 17:50:37.616
LEye coords (204.0, 120.0), REye coords (206.0, 112.0), timeStamp: 2017-02-23 17:50:37.650
LEye coords (204.0, 120.0), REye coords (205.0, 113.0), timeStamp: 2017-02-23 17:50:37.684
LEye coords (204.0, 120.0), REye coords (205.0, 113.0), timeStamp: 2017-02-23 17:50:37.726
LEye coords (204.0, 120.0), REye coords (205.0, 113.0), timeStamp: 2017-02-23 17:50:37.762
LEye coords (204.0, 120.0), REye coords (205.0, 114.0), timeStamp: 2017-02-23 17:50:37.795
LEye coords (204.0, 120.0), REye coords (205.0, 114.0), timeStamp: 2017-02-23 17:50:37.839
LEye coords (204.0, 120.0), REye coords (204.0, 115.0), timeStamp: 2017-02-23 17:50:37.872
LEye coords (204.0, 120.0), REye coords (204.0, 115.0), timeStamp: 2017-02-23 17:50:37.916
LEye coords (204.0, 120.0), REye coords (204.0, 115.0), timeStamp: 2017-02-23 17:50:37.949
LEye coords (204.0, 120.0), REye coords (204.0, 115.0), timeStamp: 2017-02-23 17:50:37.983
LEye coords (204.0, 120.0), REye coords (204.0, 114.0), timeStamp: 2017-02-23 17:50:38.017
LEye coords (205.0, 119.0), REye coords (204.0, 114.0), timeStamp: 2017-02-23 17:50:38.061
LEye coords (205.0, 119.0), REye coords (204.0, 114.0), timeStamp: 2017-02-23 17:50:38.095
LEye coords (205.0, 119.0), REye coords (204.0, 114.0), timeStamp: 2017-02-23 17:50:38.138
LEye coords (205.0, 118.0), REye coords (204.0, 114.0), timeStamp: 2017-02-23 17:50:38.172
LEye coords (205.0, 118.0), REye coords (204.0, 114.0), timeStamp: 2017-02-23 17:50:38.206
LEye coords (205.0, 118.0), REye coords (204.0, 114.0), timeStamp: 2017-02-23 17:50:38.239
LEye coords (206.0, 118.0), REye coords (204.0, 114.0), timeStamp: 2017-02-23 17:50:38.283
LEye coords (206.0, 117.0), REye coords (204.0, 114.0), timeStamp: 2017-02-23 17:50:38.316
LEye coords (206.0, 117.0), REye coords (204.0, 114.0), timeStamp: 2017-02-23 17:50:38.351
LEye coords (206.0, 118.0), REye coords (204.0, 114.0), timeStamp: 2017-02-23 17:50:38.397
LEye coords (206.0, 118.0), REye coords (204.0, 114.0), timeStamp: 2017-02-23 17:50:38.430
LEye coords (206.0, 118.0), REye coords (204.0, 114.0), timeStamp: 2017-02-23 17:50:38.464
LEye coords (206.0, 118.0), REye coords (205.0, 114.0), timeStamp: 2017-02-23 17:50:38.498
LEye coords (207.0, 118.0), REye coords (205.0, 114.0), timeStamp: 2017-02-23 17:50:38.542
LEye coords (207.0, 118.0), REye coords (205.0, 114.0), timeStamp: 2017-02-23 17:50:38.576
LEye coords (207.0, 118.0), REye coords (205.0, 114.0), timeStamp: 2017-02-23 17:50:38.610
LEye coords (207.0, 118.0), REye coords (205.0, 114.0), timeStamp: 2017-02-23 17:50:38.654
LEye coords (207.0, 118.0), REye coords (205.0, 114.0), timeStamp: 2017-02-23 17:50:38.688
