LEye coords (142.0, 240.0), REye coords (136.0, 237.0), timeStamp: 2017-02-23 17:50:51.749
LEye coords (143.0, 240.0), REye coords (136.0, 237.0), timeStamp: 2017-02-23 17:50:51.794
LEye coords (195.0, 200.0), REye coords (195.0, 199.0), timeStamp: 2017-02-23 17:50:51.827
LEye coords (201.0, 199.0), REye coords (197.0, 198.0), timeStamp: 2017-02-23 17:50:51.861
LEye coords (200.0, 199.0), REye coords (198.0, 196.0), timeStamp: 2017-02-23 17:50:51.906
LEye coords (201.0, 199.0), REye coords (199.0, 195.0), timeStamp: 2017-02-23 17:50:51.939
LEye coords (202.0, 199.0), REye coords (200.0, 196.0), timeStamp: 2017-02-23 17:50:51.972
LEye coords (203.0, 200.0), REye coords (200.0, 197.0), timeStamp: 2017-02-23 17:50:52.016
LEye coords (202.0, 199.0), REye coords (201.0, 197.0), timeStamp: 2017-02-23 17:50:52.049
LEye coords (229.0, 194.0), REye coords (228.0, 193.0), timeStamp: 2017-02-23 17:50:52.082
LEye coords (251.0, 191.0), REye coords (248.0, 190.0), timeStamp: 2017-02-23 17:50:52.126
LEye coords (262.0, 190.0), REye coords (258.0, 190.0), timeStamp: 2017-02-23 17:50:52.160
LEye coords (291.0, 185.0), REye coords (290.0, 186.0), timeStamp: 2017-02-23 17:50:52.193
LEye coords (294.0, 185.0), REye coords (289.0, 186.0), timeStamp: 2017-02-23 17:50:52.237
LEye coords (293.0, 184.0), REye coords (291.0, 185.0), timeStamp: 2017-02-23 17:50:52.271
LEye coords (293.0, 184.0), REye coords (291.0, 186.0), timeStamp: 2017-02-23 17:50:52.305
LEye coords (304.0, 184.0), REye coords (302.0, 186.0), timeStamp: 2017-02-23 17:50:52.348
LEye coords (311.0, 184.0), REye coords (309.0, 186.0), timeStamp: 2017-02-23 17:50:52.382
LEye coords (315.0, 185.0), REye coords (313.0, 186.0), timeStamp: 2017-02-23 17:50:52.415
LEye coords (318.0, 185.0), REye coords (316.0, 186.0), timeStamp: 2017-02-23 17:50:52.460
LEye coords (321.0, 185.0), REye coords (318.0, 186.0), timeStamp: 2017-02-23 17:50:52.492
LEye coords (323.0, 186.0), REye coords (320.0, 186.0), timeStamp: 2017-02-23 17:50:52.526
LEye coords (325.0, 186.0), REye coords (321.0, 186.0), timeStamp: 2017-02-23 17:50:52.570
LEye coords (326.0, 186.0), REye coords (323.0, 187.0), timeStamp: 2017-02-23 17:50:52.604
LEye coords (327.0, 186.0), REye coords (323.0, 187.0), timeStamp: 2017-02-23 17:50:52.637
LEye coords (329.0, 187.0), REye coords (324.0, 187.0), timeStamp: 2017-02-23 17:50:52.682
LEye coords (330.0, 187.0), REye coords (325.0, 187.0), timeStamp: 2017-02-23 17:50:52.716
LEye coords (330.0, 187.0), REye coords (326.0, 187.0), timeStamp: 2017-02-23 17:50:52.750
LEye coords (331.0, 187.0), REye coords (326.0, 187.0), timeStamp: 2017-02-23 17:50:52.785
LEye coords (331.0, 187.0), REye coords (327.0, 187.0), timeStamp: 2017-02-23 17:50:52.830
