LEye coords (116.0, 126.0), REye coords (121.0, 107.0), timeStamp: 2017-02-23 17:51:34.760
LEye coords (115.0, 126.0), REye coords (121.0, 107.0), timeStamp: 2017-02-23 17:51:34.794
LEye coords (115.0, 126.0), REye coords (120.0, 107.0), timeStamp: 2017-02-23 17:51:34.837
LEye coords (115.0, 127.0), REye coords (120.0, 108.0), timeStamp: 2017-02-23 17:51:34.871
LEye coords (115.0, 127.0), REye coords (120.0, 108.0), timeStamp: 2017-02-23 17:51:34.905
LEye coords (115.0, 127.0), REye coords (120.0, 108.0), timeStamp: 2017-02-23 17:51:34.949
LEye coords (209.0, 166.0), REye coords (225.0, 164.0), timeStamp: 2017-02-23 17:51:34.982
LEye coords (222.0, 180.0), REye coords (0.0, 0.0), timeStamp: 2017-02-23 17:51:35.016
LEye coords (223.0, 181.0), REye coords (0.0, 0.0), timeStamp: 2017-02-23 17:51:35.059
LEye coords (224.0, 180.0), REye coords (0.0, 0.0), timeStamp: 2017-02-23 17:51:35.093
LEye coords (224.0, 181.0), REye coords (0.0, 0.0), timeStamp: 2017-02-23 17:51:35.126
LEye coords (223.0, 182.0), REye coords (0.0, 0.0), timeStamp: 2017-02-23 17:51:35.169
LEye coords (224.0, 180.0), REye coords (0.0, 0.0), timeStamp: 2017-02-23 17:51:35.204
LEye coords (225.0, 180.0), REye coords (0.0, 0.0), timeStamp: 2017-02-23 17:51:35.236
LEye coords (226.0, 194.0), REye coords (247.0, 220.0), timeStamp: 2017-02-23 17:51:35.280
LEye coords (225.0, 202.0), REye coords (247.0, 221.0), timeStamp: 2017-02-23 17:51:35.314
LEye coords (225.0, 206.0), REye coords (244.0, 222.0), timeStamp: 2017-02-23 17:51:35.348
LEye coords (225.0, 209.0), REye coords (244.0, 223.0), timeStamp: 2017-02-23 17:51:35.392
LEye coords (225.0, 212.0), REye coords (240.0, 226.0), timeStamp: 2017-02-23 17:51:35.425
LEye coords (224.0, 215.0), REye coords (246.0, 223.0), timeStamp: 2017-02-23 17:51:35.460
LEye coords (224.0, 216.0), REye coords (245.0, 224.0), timeStamp: 2017-02-23 17:51:35.502
LEye coords (224.0, 217.0), REye coords (244.0, 224.0), timeStamp: 2017-02-23 17:51:35.536
LEye coords (224.0, 218.0), REye coords (244.0, 225.0), timeStamp: 2017-02-23 17:51:35.569
LEye coords (224.0, 219.0), REye coords (244.0, 224.0), timeStamp: 2017-02-23 17:51:35.613
LEye coords (224.0, 220.0), REye coords (244.0, 224.0), timeStamp: 2017-02-23 17:51:35.647
LEye coords (224.0, 220.0), REye coords (243.0, 225.0), timeStamp: 2017-02-23 17:51:35.680
LEye coords (224.0, 220.0), REye coords (242.0, 224.0), timeStamp: 2017-02-23 17:51:35.725
LEye coords (224.0, 221.0), REye coords (242.0, 224.0), timeStamp: 2017-02-23 17:51:35.757
LEye coords (223.0, 221.0), REye coords (242.0, 224.0), timeStamp: 2017-02-23 17:51:35.791
LEye coords (223.0, 221.0), REye coords (241.0, 224.0), timeStamp: 2017-02-23 17:51:35.836
LEye coords (223.0, 221.0), REye coords (241.0, 224.0), timeStamp: 2017-02-23 17:51:35.869
LEye coords (223.0, 221.0), REye coords (241.0, 224.0), timeStamp: 2017-02-23 17:51:35.903
LEye coords (222.0, 221.0), REye coords (241.0, 223.0), timeStamp: 2017-02-23 17:51:35.948
