LEye coords (173.0, 227.0), REye coords (195.0, 228.0), timeStamp: 2017-02-23 17:51:41.308
LEye coords (173.0, 227.0), REye coords (195.0, 228.0), timeStamp: 2017-02-23 17:51:41.352
LEye coords (173.0, 227.0), REye coords (196.0, 228.0), timeStamp: 2017-02-23 17:51:41.385
LEye coords (173.0, 227.0), REye coords (195.0, 229.0), timeStamp: 2017-02-23 17:51:41.419
LEye coords (174.0, 228.0), REye coords (196.0, 229.0), timeStamp: 2017-02-23 17:51:41.453
LEye coords (174.0, 228.0), REye coords (196.0, 229.0), timeStamp: 2017-02-23 17:51:41.499
LEye coords (207.0, 179.0), REye coords (228.0, 190.0), timeStamp: 2017-02-23 17:51:41.532
LEye coords (212.0, 167.0), REye coords (233.0, 176.0), timeStamp: 2017-02-23 17:51:41.566
LEye coords (211.0, 171.0), REye coords (233.0, 175.0), timeStamp: 2017-02-23 17:51:41.611
LEye coords (211.0, 171.0), REye coords (232.0, 175.0), timeStamp: 2017-02-23 17:51:41.645
LEye coords (211.0, 171.0), REye coords (232.0, 175.0), timeStamp: 2017-02-23 17:51:41.678
LEye coords (214.0, 175.0), REye coords (237.0, 181.0), timeStamp: 2017-02-23 17:51:41.722
LEye coords (240.0, 181.0), REye coords (255.0, 187.0), timeStamp: 2017-02-23 17:51:41.755
LEye coords (240.0, 183.0), REye coords (254.0, 188.0), timeStamp: 2017-02-23 17:51:41.790
LEye coords (240.0, 181.0), REye coords (253.0, 189.0), timeStamp: 2017-02-23 17:51:41.834
LEye coords (240.0, 181.0), REye coords (254.0, 187.0), timeStamp: 2017-02-23 17:51:41.867
LEye coords (241.0, 181.0), REye coords (255.0, 188.0), timeStamp: 2017-02-23 17:51:41.901
LEye coords (244.0, 182.0), REye coords (258.0, 189.0), timeStamp: 2017-02-23 17:51:41.944
LEye coords (247.0, 183.0), REye coords (260.0, 190.0), timeStamp: 2017-02-23 17:51:41.977
LEye coords (249.0, 185.0), REye coords (262.0, 191.0), timeStamp: 2017-02-23 17:51:42.010
LEye coords (250.0, 186.0), REye coords (264.0, 192.0), timeStamp: 2017-02-23 17:51:42.055
LEye coords (251.0, 187.0), REye coords (265.0, 193.0), timeStamp: 2017-02-23 17:51:42.088
LEye coords (252.0, 188.0), REye coords (266.0, 194.0), timeStamp: 2017-02-23 17:51:42.121
LEye coords (253.0, 189.0), REye coords (267.0, 195.0), timeStamp: 2017-02-23 17:51:42.165
LEye coords (259.0, 202.0), REye coords (268.0, 195.0), timeStamp: 2017-02-23 17:51:42.199
LEye coords (262.0, 194.0), REye coords (269.0, 196.0), timeStamp: 2017-02-23 17:51:42.232
LEye coords (261.0, 194.0), REye coords (270.0, 197.0), timeStamp: 2017-02-23 17:51:42.276
LEye coords (261.0, 196.0), REye coords (270.0, 197.0), timeStamp: 2017-02-23 17:51:42.309
LEye coords (261.0, 196.0), REye coords (271.0, 198.0), timeStamp: 2017-02-23 17:51:42.343
LEye coords (261.0, 196.0), REye coords (271.0, 198.0), timeStamp: 2017-02-23 17:51:42.387
LEye coords (261.0, 197.0), REye coords (272.0, 198.0), timeStamp: 2017-02-23 17:51:42.419
LEye coords (262.0, 197.0), REye coords (283.0, 200.0), timeStamp: 2017-02-23 17:51:42.464
LEye coords (264.0, 196.0), REye coords (288.0, 200.0), timeStamp: 2017-02-23 17:51:42.497
