LEye coords (198.0, 178.0), REye coords (214.0, 180.0), timeStamp: 2017-02-23 17:51:47.012
LEye coords (197.0, 178.0), REye coords (212.0, 180.0), timeStamp: 2017-02-23 17:51:47.046
LEye coords (195.0, 179.0), REye coords (207.0, 183.0), timeStamp: 2017-02-23 17:51:47.079
LEye coords (278.0, 152.0), REye coords (293.0, 149.0), timeStamp: 2017-02-23 17:51:47.123
LEye coords (277.0, 150.0), REye coords (292.0, 151.0), timeStamp: 2017-02-23 17:51:47.157
LEye coords (278.0, 149.0), REye coords (287.0, 153.0), timeStamp: 2017-02-23 17:51:47.200
LEye coords (277.0, 150.0), REye coords (288.0, 153.0), timeStamp: 2017-02-23 17:51:47.235
LEye coords (277.0, 151.0), REye coords (291.0, 149.0), timeStamp: 2017-02-23 17:51:47.269
LEye coords (276.0, 152.0), REye coords (290.0, 155.0), timeStamp: 2017-02-23 17:51:47.302
LEye coords (145.0, 163.0), REye coords (0.0, 0.0), timeStamp: 2017-02-23 17:51:47.346
LEye coords (145.0, 163.0), REye coords (223.0, 156.0), timeStamp: 2017-02-23 17:51:47.380
LEye coords (144.0, 163.0), REye coords (201.0, 156.0), timeStamp: 2017-02-23 17:51:47.413
LEye coords (143.0, 162.0), REye coords (189.0, 156.0), timeStamp: 2017-02-23 17:51:47.456
LEye coords (142.0, 157.0), REye coords (154.0, 151.0), timeStamp: 2017-02-23 17:51:47.490
LEye coords (169.0, 152.0), REye coords (155.0, 153.0), timeStamp: 2017-02-23 17:51:47.524
LEye coords (153.0, 152.0), REye coords (158.0, 151.0), timeStamp: 2017-02-23 17:51:47.568
LEye coords (148.0, 154.0), REye coords (159.0, 149.0), timeStamp: 2017-02-23 17:51:47.601
LEye coords (146.0, 152.0), REye coords (157.0, 145.0), timeStamp: 2017-02-23 17:51:47.635
LEye coords (145.0, 149.0), REye coords (155.0, 142.0), timeStamp: 2017-02-23 17:51:47.679
LEye coords (144.0, 147.0), REye coords (154.0, 141.0), timeStamp: 2017-02-23 17:51:47.713
LEye coords (144.0, 146.0), REye coords (154.0, 140.0), timeStamp: 2017-02-23 17:51:47.747
LEye coords (143.0, 145.0), REye coords (153.0, 139.0), timeStamp: 2017-02-23 17:51:47.791
LEye coords (143.0, 144.0), REye coords (153.0, 138.0), timeStamp: 2017-02-23 17:51:47.826
LEye coords (143.0, 144.0), REye coords (152.0, 137.0), timeStamp: 2017-02-23 17:51:47.859
LEye coords (143.0, 144.0), REye coords (152.0, 137.0), timeStamp: 2017-02-23 17:51:47.893
LEye coords (143.0, 143.0), REye coords (152.0, 137.0), timeStamp: 2017-02-23 17:51:47.938
LEye coords (142.0, 143.0), REye coords (152.0, 136.0), timeStamp: 2017-02-23 17:51:47.972
LEye coords (142.0, 143.0), REye coords (152.0, 136.0), timeStamp: 2017-02-23 17:51:48.004
LEye coords (142.0, 142.0), REye coords (152.0, 136.0), timeStamp: 2017-02-23 17:51:48.048
LEye coords (142.0, 142.0), REye coords (152.0, 136.0), timeStamp: 2017-02-23 17:51:48.083
LEye coords (143.0, 142.0), REye coords (153.0, 137.0), timeStamp: 2017-02-23 17:51:48.116
