LEye coords (340.0, 147.0), REye coords (343.0, 143.0), timeStamp: 2017-02-23 17:52:24.537
LEye coords (340.0, 148.0), REye coords (343.0, 143.0), timeStamp: 2017-02-23 17:52:24.580
LEye coords (340.0, 149.0), REye coords (343.0, 144.0), timeStamp: 2017-02-23 17:52:24.615
LEye coords (340.0, 149.0), REye coords (342.0, 144.0), timeStamp: 2017-02-23 17:52:24.649
LEye coords (340.0, 149.0), REye coords (342.0, 144.0), timeStamp: 2017-02-23 17:52:24.683
LEye coords (339.0, 150.0), REye coords (342.0, 144.0), timeStamp: 2017-02-23 17:52:24.727
LEye coords (281.0, 155.0), REye coords (278.0, 151.0), timeStamp: 2017-02-23 17:52:24.761
LEye coords (268.0, 157.0), REye coords (275.0, 136.0), timeStamp: 2017-02-23 17:52:24.794
LEye coords (268.0, 158.0), REye coords (273.0, 140.0), timeStamp: 2017-02-23 17:52:24.839
LEye coords (267.0, 159.0), REye coords (272.0, 142.0), timeStamp: 2017-02-23 17:52:24.873
LEye coords (267.0, 157.0), REye coords (271.0, 143.0), timeStamp: 2017-02-23 17:52:24.907
LEye coords (283.0, 133.0), REye coords (288.0, 127.0), timeStamp: 2017-02-23 17:52:24.951
LEye coords (301.0, 100.0), REye coords (298.0, 96.0), timeStamp: 2017-02-23 17:52:24.984
LEye coords (302.0, 102.0), REye coords (298.0, 101.0), timeStamp: 2017-02-23 17:52:25.018
LEye coords (302.0, 103.0), REye coords (298.0, 100.0), timeStamp: 2017-02-23 17:52:25.052
LEye coords (302.0, 104.0), REye coords (298.0, 100.0), timeStamp: 2017-02-23 17:52:25.097
LEye coords (303.0, 102.0), REye coords (300.0, 94.0), timeStamp: 2017-02-23 17:52:25.131
LEye coords (316.0, 80.0), REye coords (323.0, 78.0), timeStamp: 2017-02-23 17:52:25.165
LEye coords (315.0, 82.0), REye coords (323.0, 79.0), timeStamp: 2017-02-23 17:52:25.209
LEye coords (315.0, 83.0), REye coords (322.0, 78.0), timeStamp: 2017-02-23 17:52:25.242
LEye coords (315.0, 83.0), REye coords (321.0, 79.0), timeStamp: 2017-02-23 17:52:25.275
LEye coords (314.0, 83.0), REye coords (320.0, 79.0), timeStamp: 2017-02-23 17:52:25.319
LEye coords (313.0, 84.0), REye coords (318.0, 80.0), timeStamp: 2017-02-23 17:52:25.353
LEye coords (312.0, 84.0), REye coords (317.0, 80.0), timeStamp: 2017-02-23 17:52:25.387
LEye coords (312.0, 84.0), REye coords (316.0, 80.0), timeStamp: 2017-02-23 17:52:25.432
LEye coords (312.0, 85.0), REye coords (315.0, 80.0), timeStamp: 2017-02-23 17:52:25.466
LEye coords (311.0, 84.0), REye coords (314.0, 80.0), timeStamp: 2017-02-23 17:52:25.500
LEye coords (311.0, 85.0), REye coords (314.0, 81.0), timeStamp: 2017-02-23 17:52:25.543
LEye coords (311.0, 85.0), REye coords (313.0, 81.0), timeStamp: 2017-02-23 17:52:25.576
