LEye coords (203.0, 169.0), REye coords (203.0, 151.0), timeStamp: 2017-02-23 17:52:29.864
LEye coords (203.0, 169.0), REye coords (203.0, 151.0), timeStamp: 2017-02-23 17:52:29.909
LEye coords (203.0, 169.0), REye coords (204.0, 152.0), timeStamp: 2017-02-23 17:52:29.942
LEye coords (203.0, 169.0), REye coords (204.0, 152.0), timeStamp: 2017-02-23 17:52:29.976
LEye coords (203.0, 170.0), REye coords (204.0, 152.0), timeStamp: 2017-02-23 17:52:30.020
LEye coords (203.0, 170.0), REye coords (204.0, 152.0), timeStamp: 2017-02-23 17:52:30.053
LEye coords (203.0, 170.0), REye coords (205.0, 153.0), timeStamp: 2017-02-23 17:52:30.085
LEye coords (203.0, 171.0), REye coords (205.0, 153.0), timeStamp: 2017-02-23 17:52:30.129
LEye coords (205.0, 170.0), REye coords (245.0, 160.0), timeStamp: 2017-02-23 17:52:30.162
LEye coords (277.0, 162.0), REye coords (284.0, 162.0), timeStamp: 2017-02-23 17:52:30.207
LEye coords (200.0, 143.0), REye coords (241.0, 143.0), timeStamp: 2017-02-23 17:52:30.239
LEye coords (195.0, 146.0), REye coords (226.0, 140.0), timeStamp: 2017-02-23 17:52:30.274
LEye coords (191.0, 147.0), REye coords (216.0, 139.0), timeStamp: 2017-02-23 17:52:30.317
LEye coords (180.0, 148.0), REye coords (150.0, 135.0), timeStamp: 2017-02-23 17:52:30.352
LEye coords (174.0, 148.0), REye coords (147.0, 130.0), timeStamp: 2017-02-23 17:52:30.385
LEye coords (170.0, 149.0), REye coords (148.0, 131.0), timeStamp: 2017-02-23 17:52:30.419
LEye coords (170.0, 150.0), REye coords (156.0, 130.0), timeStamp: 2017-02-23 17:52:30.464
LEye coords (171.0, 150.0), REye coords (160.0, 127.0), timeStamp: 2017-02-23 17:52:30.498
LEye coords (171.0, 151.0), REye coords (163.0, 125.0), timeStamp: 2017-02-23 17:52:30.532
LEye coords (171.0, 151.0), REye coords (164.0, 124.0), timeStamp: 2017-02-23 17:52:30.576
LEye coords (172.0, 151.0), REye coords (166.0, 125.0), timeStamp: 2017-02-23 17:52:30.609
LEye coords (172.0, 151.0), REye coords (167.0, 126.0), timeStamp: 2017-02-23 17:52:30.643
LEye coords (172.0, 152.0), REye coords (168.0, 127.0), timeStamp: 2017-02-23 17:52:30.688
LEye coords (172.0, 152.0), REye coords (168.0, 128.0), timeStamp: 2017-02-23 17:52:30.723
LEye coords (172.0, 152.0), REye coords (169.0, 128.0), timeStamp: 2017-02-23 17:52:30.757
LEye coords (172.0, 152.0), REye coords (169.0, 129.0), timeStamp: 2017-02-23 17:52:30.791
LEye coords (172.0, 152.0), REye coords (170.0, 129.0), timeStamp: 2017-02-23 17:52:30.835
LEye coords (172.0, 152.0), REye coords (170.0, 129.0), timeStamp: 2017-02-23 17:52:30.870
LEye coords (172.0, 152.0), REye coords (171.0, 130.0), timeStamp: 2017-02-23 17:52:30.904
LEye coords (173.0, 152.0), REye coords (172.0, 130.0), timeStamp: 2017-02-23 17:52:30.937
LEye coords (173.0, 153.0), REye coords (173.0, 131.0), timeStamp: 2017-02-23 17:52:30.981
