LEye coords (190.0, 292.0), REye coords (190.0, 285.0), timeStamp: 2017-02-23 17:52:33.166
LEye coords (191.0, 292.0), REye coords (191.0, 285.0), timeStamp: 2017-02-23 17:52:33.200
LEye coords (191.0, 293.0), REye coords (192.0, 284.0), timeStamp: 2017-02-23 17:52:33.233
LEye coords (192.0, 293.0), REye coords (193.0, 284.0), timeStamp: 2017-02-23 17:52:33.277
LEye coords (192.0, 294.0), REye coords (194.0, 284.0), timeStamp: 2017-02-23 17:52:33.310
LEye coords (193.0, 294.0), REye coords (195.0, 283.0), timeStamp: 2017-02-23 17:52:33.345
LEye coords (193.0, 295.0), REye coords (196.0, 284.0), timeStamp: 2017-02-23 17:52:33.390
LEye coords (193.0, 295.0), REye coords (197.0, 285.0), timeStamp: 2017-02-23 17:52:33.423
LEye coords (194.0, 296.0), REye coords (198.0, 286.0), timeStamp: 2017-02-23 17:52:33.456
LEye coords (195.0, 297.0), REye coords (198.0, 287.0), timeStamp: 2017-02-23 17:52:33.501
LEye coords (194.0, 294.0), REye coords (198.0, 284.0), timeStamp: 2017-02-23 17:52:33.534
LEye coords (176.0, 233.0), REye coords (196.0, 280.0), timeStamp: 2017-02-23 17:52:33.568
LEye coords (178.0, 231.0), REye coords (195.0, 277.0), timeStamp: 2017-02-23 17:52:33.603
LEye coords (177.0, 233.0), REye coords (194.0, 273.0), timeStamp: 2017-02-23 17:52:33.647
LEye coords (178.0, 233.0), REye coords (193.0, 270.0), timeStamp: 2017-02-23 17:52:33.680
LEye coords (187.0, 231.0), REye coords (194.0, 266.0), timeStamp: 2017-02-23 17:52:33.714
LEye coords (192.0, 231.0), REye coords (216.0, 227.0), timeStamp: 2017-02-23 17:52:33.757
LEye coords (195.0, 230.0), REye coords (215.0, 225.0), timeStamp: 2017-02-23 17:52:33.791
LEye coords (198.0, 230.0), REye coords (216.0, 228.0), timeStamp: 2017-02-23 17:52:33.826
LEye coords (201.0, 229.0), REye coords (216.0, 226.0), timeStamp: 2017-02-23 17:52:33.870
LEye coords (203.0, 229.0), REye coords (216.0, 228.0), timeStamp: 2017-02-23 17:52:33.904
LEye coords (204.0, 228.0), REye coords (216.0, 228.0), timeStamp: 2017-02-23 17:52:33.939
LEye coords (206.0, 228.0), REye coords (216.0, 227.0), timeStamp: 2017-02-23 17:52:33.972
LEye coords (216.0, 229.0), REye coords (216.0, 227.0), timeStamp: 2017-02-23 17:52:34.016
LEye coords (218.0, 230.0), REye coords (217.0, 226.0), timeStamp: 2017-02-23 17:52:34.049
LEye coords (218.0, 229.0), REye coords (217.0, 225.0), timeStamp: 2017-02-23 17:52:34.093
LEye coords (218.0, 228.0), REye coords (217.0, 225.0), timeStamp: 2017-02-23 17:52:34.127
