LEye coords (350.0, 206.0), REye coords (353.0, 207.0), timeStamp: 2017-02-23 17:53:21.273
LEye coords (350.0, 206.0), REye coords (352.0, 207.0), timeStamp: 2017-02-23 17:53:21.318
LEye coords (350.0, 206.0), REye coords (352.0, 208.0), timeStamp: 2017-02-23 17:53:21.351
LEye coords (350.0, 207.0), REye coords (352.0, 208.0), timeStamp: 2017-02-23 17:53:21.384
LEye coords (350.0, 207.0), REye coords (352.0, 208.0), timeStamp: 2017-02-23 17:53:21.428
LEye coords (350.0, 207.0), REye coords (352.0, 209.0), timeStamp: 2017-02-23 17:53:21.461
LEye coords (350.0, 207.0), REye coords (352.0, 209.0), timeStamp: 2017-02-23 17:53:21.497
LEye coords (311.0, 138.0), REye coords (311.0, 142.0), timeStamp: 2017-02-23 17:53:21.540
LEye coords (310.0, 142.0), REye coords (310.0, 134.0), timeStamp: 2017-02-23 17:53:21.574
LEye coords (309.0, 139.0), REye coords (311.0, 133.0), timeStamp: 2017-02-23 17:53:21.607
LEye coords (309.0, 138.0), REye coords (310.0, 134.0), timeStamp: 2017-02-23 17:53:21.650
LEye coords (295.0, 127.0), REye coords (297.0, 121.0), timeStamp: 2017-02-23 17:53:21.683
LEye coords (250.0, 99.0), REye coords (254.0, 87.0), timeStamp: 2017-02-23 17:53:21.716
LEye coords (242.0, 101.0), REye coords (244.0, 82.0), timeStamp: 2017-02-23 17:53:21.760
LEye coords (218.0, 104.0), REye coords (217.0, 84.0), timeStamp: 2017-02-23 17:53:21.794
LEye coords (209.0, 104.0), REye coords (208.0, 84.0), timeStamp: 2017-02-23 17:53:21.828
LEye coords (204.0, 105.0), REye coords (203.0, 84.0), timeStamp: 2017-02-23 17:53:21.872
LEye coords (194.0, 107.0), REye coords (195.0, 84.0), timeStamp: 2017-02-23 17:53:21.905
LEye coords (194.0, 110.0), REye coords (190.0, 86.0), timeStamp: 2017-02-23 17:53:21.939
LEye coords (193.0, 108.0), REye coords (192.0, 85.0), timeStamp: 2017-02-23 17:53:21.983
LEye coords (193.0, 109.0), REye coords (191.0, 85.0), timeStamp: 2017-02-23 17:53:22.017
LEye coords (192.0, 109.0), REye coords (191.0, 85.0), timeStamp: 2017-02-23 17:53:22.051
LEye coords (192.0, 109.0), REye coords (191.0, 86.0), timeStamp: 2017-02-23 17:53:22.095
LEye coords (192.0, 108.0), REye coords (191.0, 86.0), timeStamp: 2017-02-23 17:53:22.129
LEye coords (192.0, 108.0), REye coords (191.0, 87.0), timeStamp: 2017-02-23 17:53:22.163
LEye coords (192.0, 108.0), REye coords (190.0, 87.0), timeStamp: 2017-02-23 17:53:22.197
LEye coords (192.0, 109.0), REye coords (190.0, 87.0), timeStamp: 2017-02-23 17:53:22.240
LEye coords (192.0, 109.0), REye coords (190.0, 88.0), timeStamp: 2017-02-23 17:53:22.274
LEye coords (191.0, 110.0), REye coords (190.0, 89.0), timeStamp: 2017-02-23 17:53:22.318
LEye coords (190.0, 113.0), REye coords (190.0, 92.0), timeStamp: 2017-02-23 17:53:22.384
