LEye coords (356.0, 272.0), REye coords (0.0, 0.0), timeStamp: 2017-02-23 17:55:04.164
LEye coords (356.0, 272.0), REye coords (358.0, 273.0), timeStamp: 2017-02-23 17:55:04.208
LEye coords (273.0, 230.0), REye coords (0.0, 0.0), timeStamp: 2017-02-23 17:55:04.243
LEye coords (262.0, 227.0), REye coords (279.0, 220.0), timeStamp: 2017-02-23 17:55:04.278
LEye coords (264.0, 226.0), REye coords (269.0, 227.0), timeStamp: 2017-02-23 17:55:04.311
LEye coords (265.0, 227.0), REye coords (269.0, 227.0), timeStamp: 2017-02-23 17:55:04.356
LEye coords (266.0, 227.0), REye coords (270.0, 225.0), timeStamp: 2017-02-23 17:55:04.389
LEye coords (258.0, 233.0), REye coords (270.0, 226.0), timeStamp: 2017-02-23 17:55:04.423
LEye coords (227.0, 250.0), REye coords (232.0, 247.0), timeStamp: 2017-02-23 17:55:04.467
LEye coords (229.0, 251.0), REye coords (228.0, 247.0), timeStamp: 2017-02-23 17:55:04.500
LEye coords (229.0, 250.0), REye coords (229.0, 247.0), timeStamp: 2017-02-23 17:55:04.534
LEye coords (229.0, 251.0), REye coords (230.0, 246.0), timeStamp: 2017-02-23 17:55:04.579
LEye coords (229.0, 250.0), REye coords (230.0, 246.0), timeStamp: 2017-02-23 17:55:04.613
LEye coords (229.0, 250.0), REye coords (231.0, 247.0), timeStamp: 2017-02-23 17:55:04.646
LEye coords (229.0, 251.0), REye coords (231.0, 246.0), timeStamp: 2017-02-23 17:55:04.689
LEye coords (229.0, 251.0), REye coords (231.0, 246.0), timeStamp: 2017-02-23 17:55:04.723
LEye coords (228.0, 251.0), REye coords (230.0, 246.0), timeStamp: 2017-02-23 17:55:04.756
LEye coords (216.0, 258.0), REye coords (228.0, 247.0), timeStamp: 2017-02-23 17:55:04.800
LEye coords (216.0, 260.0), REye coords (228.0, 247.0), timeStamp: 2017-02-23 17:55:04.833
LEye coords (216.0, 260.0), REye coords (227.0, 248.0), timeStamp: 2017-02-23 17:55:04.867
LEye coords (217.0, 259.0), REye coords (222.0, 258.0), timeStamp: 2017-02-23 17:55:04.911
LEye coords (217.0, 259.0), REye coords (221.0, 258.0), timeStamp: 2017-02-23 17:55:04.945
LEye coords (217.0, 259.0), REye coords (214.0, 266.0), timeStamp: 2017-02-23 17:55:04.979
LEye coords (217.0, 260.0), REye coords (214.0, 269.0), timeStamp: 2017-02-23 17:55:05.013
LEye coords (217.0, 260.0), REye coords (216.0, 267.0), timeStamp: 2017-02-23 17:55:05.058
LEye coords (217.0, 260.0), REye coords (216.0, 264.0), timeStamp: 2017-02-23 17:55:05.092
LEye coords (218.0, 260.0), REye coords (218.0, 263.0), timeStamp: 2017-02-23 17:55:05.126
LEye coords (217.0, 260.0), REye coords (218.0, 262.0), timeStamp: 2017-02-23 17:55:05.169
LEye coords (218.0, 260.0), REye coords (219.0, 261.0), timeStamp: 2017-02-23 17:55:05.203
