LEye coords (175.0, 201.0), REye coords (178.0, 183.0), timeStamp: 2017-02-23 17:55:10.091
LEye coords (175.0, 201.0), REye coords (178.0, 183.0), timeStamp: 2017-02-23 17:55:10.125
LEye coords (174.0, 200.0), REye coords (178.0, 183.0), timeStamp: 2017-02-23 17:55:10.159
LEye coords (174.0, 200.0), REye coords (178.0, 183.0), timeStamp: 2017-02-23 17:55:10.204
LEye coords (175.0, 200.0), REye coords (178.0, 183.0), timeStamp: 2017-02-23 17:55:10.238
LEye coords (175.0, 200.0), REye coords (178.0, 183.0), timeStamp: 2017-02-23 17:55:10.271
LEye coords (175.0, 200.0), REye coords (178.0, 184.0), timeStamp: 2017-02-23 17:55:10.316
LEye coords (175.0, 200.0), REye coords (179.0, 184.0), timeStamp: 2017-02-23 17:55:10.349
LEye coords (189.0, 151.0), REye coords (180.0, 181.0), timeStamp: 2017-02-23 17:55:10.382
LEye coords (189.0, 149.0), REye coords (181.0, 178.0), timeStamp: 2017-02-23 17:55:10.426
LEye coords (185.0, 148.0), REye coords (181.0, 175.0), timeStamp: 2017-02-23 17:55:10.459
LEye coords (163.0, 150.0), REye coords (111.0, 125.0), timeStamp: 2017-02-23 17:55:10.493
LEye coords (151.0, 150.0), REye coords (114.0, 131.0), timeStamp: 2017-02-23 17:55:10.538
LEye coords (116.0, 151.0), REye coords (114.0, 129.0), timeStamp: 2017-02-23 17:55:10.571
LEye coords (114.0, 154.0), REye coords (113.0, 129.0), timeStamp: 2017-02-23 17:55:10.604
LEye coords (114.0, 151.0), REye coords (113.0, 129.0), timeStamp: 2017-02-23 17:55:10.648
LEye coords (114.0, 151.0), REye coords (112.0, 125.0), timeStamp: 2017-02-23 17:55:10.681
LEye coords (113.0, 152.0), REye coords (112.0, 128.0), timeStamp: 2017-02-23 17:55:10.714
LEye coords (113.0, 151.0), REye coords (112.0, 127.0), timeStamp: 2017-02-23 17:55:10.759
LEye coords (113.0, 152.0), REye coords (111.0, 128.0), timeStamp: 2017-02-23 17:55:10.793
LEye coords (113.0, 152.0), REye coords (111.0, 129.0), timeStamp: 2017-02-23 17:55:10.828
LEye coords (113.0, 152.0), REye coords (110.0, 129.0), timeStamp: 2017-02-23 17:55:10.862
LEye coords (113.0, 152.0), REye coords (110.0, 129.0), timeStamp: 2017-02-23 17:55:10.906
LEye coords (113.0, 152.0), REye coords (110.0, 129.0), timeStamp: 2017-02-23 17:55:10.939
LEye coords (113.0, 152.0), REye coords (109.0, 129.0), timeStamp: 2017-02-23 17:55:10.973
LEye coords (113.0, 152.0), REye coords (109.0, 129.0), timeStamp: 2017-02-23 17:55:11.017
LEye coords (113.0, 152.0), REye coords (109.0, 129.0), timeStamp: 2017-02-23 17:55:11.052
LEye coords (113.0, 152.0), REye coords (109.0, 130.0), timeStamp: 2017-02-23 17:55:11.085
LEye coords (113.0, 152.0), REye coords (109.0, 130.0), timeStamp: 2017-02-23 17:55:11.130
