LEye coords (0.0, 0.0), REye coords (250.0, 199.0), timeStamp: 2017-02-23 17:55:14.012
LEye coords (0.0, 0.0), REye coords (250.0, 199.0), timeStamp: 2017-02-23 17:55:14.047
LEye coords (0.0, 0.0), REye coords (250.0, 199.0), timeStamp: 2017-02-23 17:55:14.081
LEye coords (0.0, 0.0), REye coords (250.0, 199.0), timeStamp: 2017-02-23 17:55:14.125
LEye coords (0.0, 0.0), REye coords (251.0, 199.0), timeStamp: 2017-02-23 17:55:14.159
LEye coords (0.0, 0.0), REye coords (251.0, 199.0), timeStamp: 2017-02-23 17:55:14.194
LEye coords (0.0, 0.0), REye coords (251.0, 200.0), timeStamp: 2017-02-23 17:55:14.238
LEye coords (228.0, 206.0), REye coords (249.0, 201.0), timeStamp: 2017-02-23 17:55:14.273
LEye coords (104.0, 239.0), REye coords (97.0, 237.0), timeStamp: 2017-02-23 17:55:14.306
LEye coords (103.0, 238.0), REye coords (100.0, 239.0), timeStamp: 2017-02-23 17:55:14.349
LEye coords (103.0, 239.0), REye coords (100.0, 238.0), timeStamp: 2017-02-23 17:55:14.384
LEye coords (104.0, 239.0), REye coords (101.0, 238.0), timeStamp: 2017-02-23 17:55:14.417
LEye coords (97.0, 239.0), REye coords (95.0, 237.0), timeStamp: 2017-02-23 17:55:14.461
LEye coords (51.0, 225.0), REye coords (53.0, 220.0), timeStamp: 2017-02-23 17:55:14.494
LEye coords (55.0, 226.0), REye coords (48.0, 216.0), timeStamp: 2017-02-23 17:55:14.528
LEye coords (52.0, 225.0), REye coords (50.0, 218.0), timeStamp: 2017-02-23 17:55:14.572
LEye coords (53.0, 227.0), REye coords (51.0, 218.0), timeStamp: 2017-02-23 17:55:14.605
LEye coords (48.0, 226.0), REye coords (46.0, 217.0), timeStamp: 2017-02-23 17:55:14.638
LEye coords (42.0, 225.0), REye coords (40.0, 216.0), timeStamp: 2017-02-23 17:55:14.682
LEye coords (39.0, 224.0), REye coords (36.0, 216.0), timeStamp: 2017-02-23 17:55:14.716
LEye coords (36.0, 224.0), REye coords (34.0, 216.0), timeStamp: 2017-02-23 17:55:14.749
LEye coords (34.0, 224.0), REye coords (18.0, 218.0), timeStamp: 2017-02-23 17:55:14.793
LEye coords (22.0, 222.0), REye coords (24.0, 218.0), timeStamp: 2017-02-23 17:55:14.826
LEye coords (25.0, 224.0), REye coords (24.0, 220.0), timeStamp: 2017-02-23 17:55:14.859
LEye coords (26.0, 224.0), REye coords (24.0, 220.0), timeStamp: 2017-02-23 17:55:14.903
LEye coords (26.0, 225.0), REye coords (24.0, 221.0), timeStamp: 2017-02-23 17:55:14.938
LEye coords (25.0, 225.0), REye coords (25.0, 222.0), timeStamp: 2017-02-23 17:55:14.972
LEye coords (26.0, 226.0), REye coords (25.0, 223.0), timeStamp: 2017-02-23 17:55:15.016
LEye coords (27.0, 226.0), REye coords (26.0, 224.0), timeStamp: 2017-02-23 17:55:15.051
LEye coords (28.0, 226.0), REye coords (26.0, 225.0), timeStamp: 2017-02-23 17:55:15.085
LEye coords (28.0, 227.0), REye coords (27.0, 226.0), timeStamp: 2017-02-23 17:55:15.119
LEye coords (29.0, 228.0), REye coords (0.0, 0.0), timeStamp: 2017-02-23 17:55:15.163
LEye coords (30.0, 229.0), REye coords (0.0, 0.0), timeStamp: 2017-02-23 17:55:15.196
LEye coords (31.0, 230.0), REye coords (0.0, 0.0), timeStamp: 2017-02-23 17:55:15.230
LEye coords (32.0, 231.0), REye coords (0.0, 0.0), timeStamp: 2017-02-23 17:55:15.274
