LEye coords (368.0, 183.0), REye coords (380.0, 169.0), timeStamp: 2017-02-23 17:57:55.343
LEye coords (368.0, 182.0), REye coords (380.0, 169.0), timeStamp: 2017-02-23 17:57:55.377
LEye coords (369.0, 183.0), REye coords (380.0, 170.0), timeStamp: 2017-02-23 17:57:55.411
LEye coords (369.0, 183.0), REye coords (381.0, 170.0), timeStamp: 2017-02-23 17:57:55.455
LEye coords (370.0, 183.0), REye coords (381.0, 170.0), timeStamp: 2017-02-23 17:57:55.489
LEye coords (370.0, 183.0), REye coords (381.0, 171.0), timeStamp: 2017-02-23 17:57:55.534
LEye coords (370.0, 183.0), REye coords (381.0, 171.0), timeStamp: 2017-02-23 17:57:55.567
LEye coords (0.0, 0.0), REye coords (262.0, 144.0), timeStamp: 2017-02-23 17:57:55.600
LEye coords (0.0, 0.0), REye coords (273.0, 143.0), timeStamp: 2017-02-23 17:57:55.634
LEye coords (0.0, 0.0), REye coords (274.0, 143.0), timeStamp: 2017-02-23 17:57:55.678
LEye coords (0.0, 0.0), REye coords (274.0, 144.0), timeStamp: 2017-02-23 17:57:55.711
LEye coords (0.0, 0.0), REye coords (277.0, 156.0), timeStamp: 2017-02-23 17:57:55.754
LEye coords (315.0, 237.0), REye coords (320.0, 223.0), timeStamp: 2017-02-23 17:57:55.788
LEye coords (312.0, 236.0), REye coords (318.0, 225.0), timeStamp: 2017-02-23 17:57:55.822
LEye coords (313.0, 236.0), REye coords (318.0, 227.0), timeStamp: 2017-02-23 17:57:55.856
LEye coords (313.0, 235.0), REye coords (317.0, 226.0), timeStamp: 2017-02-23 17:57:55.900
LEye coords (314.0, 235.0), REye coords (318.0, 227.0), timeStamp: 2017-02-23 17:57:55.935
LEye coords (317.0, 238.0), REye coords (319.0, 227.0), timeStamp: 2017-02-23 17:57:55.968
LEye coords (335.0, 251.0), REye coords (344.0, 246.0), timeStamp: 2017-02-23 17:57:56.012
LEye coords (336.0, 252.0), REye coords (344.0, 249.0), timeStamp: 2017-02-23 17:57:56.046
LEye coords (337.0, 252.0), REye coords (343.0, 248.0), timeStamp: 2017-02-23 17:57:56.080
LEye coords (337.0, 253.0), REye coords (342.0, 250.0), timeStamp: 2017-02-23 17:57:56.123
LEye coords (336.0, 254.0), REye coords (340.0, 250.0), timeStamp: 2017-02-23 17:57:56.157
LEye coords (335.0, 255.0), REye coords (340.0, 250.0), timeStamp: 2017-02-23 17:57:56.191
LEye coords (335.0, 255.0), REye coords (339.0, 250.0), timeStamp: 2017-02-23 17:57:56.234
LEye coords (335.0, 256.0), REye coords (338.0, 251.0), timeStamp: 2017-02-23 17:57:56.267
LEye coords (335.0, 256.0), REye coords (338.0, 252.0), timeStamp: 2017-02-23 17:57:56.301
LEye coords (335.0, 257.0), REye coords (338.0, 252.0), timeStamp: 2017-02-23 17:57:56.344
LEye coords (335.0, 257.0), REye coords (338.0, 252.0), timeStamp: 2017-02-23 17:57:56.377
LEye coords (335.0, 257.0), REye coords (337.0, 252.0), timeStamp: 2017-02-23 17:57:56.420
LEye coords (334.0, 257.0), REye coords (337.0, 251.0), timeStamp: 2017-02-23 17:57:56.454
LEye coords (334.0, 257.0), REye coords (336.0, 251.0), timeStamp: 2017-02-23 17:57:56.488
LEye coords (333.0, 256.0), REye coords (336.0, 251.0), timeStamp: 2017-02-23 17:57:56.532
