000177
000222
000229
000235
000249
000308
000349
000381
000394
000428
000448
000459
000492
000550
000564
000591
000613
000753
000830
000847
000865
000915
000929
000950
000996
001018
001079
001106
001164
001174
001263
001393
001430
001439
001441
001465
001563
001577
001633
001677
001683
001777
001834
001887
001901
001963
002025
002061
002063
002108
002156
002385
002404
002442
002456
002529
002542
002627
002636
002658
002662
002798
002801
002866
002943
003042
003056
003219
003300
003350
003422
003452
003516
003577
003603
003638
003644
003791
003859
003865
003923
003947
004149
004253
004279
004296
004405
004421
004484
004493
004655
004742
004773
004785
004857
004868
004926
004976
004991
005055
005085
005160
005191
005195
005345
005451
005467
005521
005531
005591
005629
005647
005662
005672
005686
005704
005710
005719
005794
005803
005919
005920
006030
006140
006161
006220
006241
006259
006286
006381
006398
006409
006447
006503
006519
006627
006628
006658
006689
006696
006731
006819
006912
006972
007006
007021
007042
007064
007177
007191
007350
007373
007435
007458
007498
007511
007544
007572
007664
007673
007735
007777
007826
007872
007909
007956
008072
008076
008122
008127
008159
008171
008216
008229
008385
008470
008529
008608
008655
008717
008733
008783
008814
008932
008983
008997
009123
009157
009247
009273
009299
009413
009420
009437
009526
009577
009638
009706
009726
009758
